reset
#!/usr/bin/gnuplot -persist

  # Input file contains tab-separated fields
#     set datafile separator "\t"



     # Input file contains tab-separated values fields
     set datafile separator ","


fileout = "dmvstime.ps"	#does not use datapath

# // columns arranged like:
# Potential,potstdev,Photocurrent (nA),pcstdev,Phase (°),phstdev,DC Current (µA),dcCurrstdev
# 0.5 uA/V for 805 & 865
# 0.05 uA/V for 680
datapath = "data_no_gaps/negative-to-positive/"
datapathd = "data_no_gaps/positive-to-negative/"

datanoRCs = "szaaoa04_03_100uMMCHnoRCs.csv_1th_scan_negative-to-positive_680.csv"

data016 = "szaanl02_07_6uM_DMs_10min_100uM_MCH_1hr_hyst.csv_0th_scan_negative-to-positive_680.csv"
data6 = "szaank02_04_6uM_DMs_6_hr_100uM_MCH_1hr.csv_0th_scan_negative-to-positive_680.csv"
data12 = "szaanj02_04_6uM_DMs_12hr_DMs_100uM_MCH_1hr.csv_0th_scan_negative-to-positive_680.csv"
data24 = "szaani02_04_6uM_DMs_24hr_100uM_MCH_1.1hr.csv_0th_scan_negative-to-positive_680.csv"

ddata016 = "szaanl02_07_6uM_DMs_10min_100uM_MCH_1hr_hyst.csv_0th_scan_positive-to-negative_680.csv"
ddata6 = "szaank02_04_6uM_DMs_6_hr_100uM_MCH_1hr.csv_0th_scan_positive-to-negative_680.csv"
#for some reason, when this measurement was made, it never went all the way back to the starting point...
ddata12 = "szaanj02_04_6uM_DMs_12hr_DMs_100uM_MCH_1hr.csv_0th_scan_positive-to-negative_680.csv"
ddata24 = "szaani02_04_6uM_DMs_24hr_100uM_MCH_1.1hr.csv_0th_scan_positive-to-negative_680.csv"
#dataNoLight="nolight_controls.csv_negative-to-positive" #this only exists and has no wavelength for obvious reasons. 
#data5_0uM24_noMCH = "5um24hrnoMCH.csv_negative-to-positive"
#wv680 = "_680.csv"
#wv805 = "_805.csv"
#wv865 = "_865.csv"


#805cf = 2.636 #correction factor for the power of 805nm LED
#76.89 = 1 #ditto for 680nm LED



ttitle = "t (sec)"
xtitle = "E (V)"
xtitleAgAgCl = "E (V vs Ag/AgCl)"
xtitleSCE = "E vs SCE / V"
xtitleNHE = "E vs NHE / V"
ytitleCap = "C_{avg} ({/Symbol m}F cm^{-2})"
ytitleCurnA = "i_{ph} (nA)"
ytitleCuruA = "i ({/Symbol m}A)"
ytitlePhase = "Phase (deg)"
ytitleCurmA = "i (mA)"
ytitleCurPMT = "I_{PMT} ({/Symbol m}A)"
ytitleCurPMTRMS = "I_{PMT}^{RMS} / {/Symbol m}A"
ytitleCurPMTRMSnorm = "I_{PMT}^{RMS} / Fl Int^{RMS}"
ytitlelnCur = "ln(i ({/Symbol m}A))"
ytitlelnCurPMT = "ln(I_{PMT} ({/Symbol m}A))"
ytitle_C = "C_{avg} ({/Symbol m}F)"
ytitleFlIntnorm = "Fl Int^{RMS} / {/Symbol m}A"

set macro
legend_style = "center font \"Times-Roman, bold, 10\" textcolor rgb \"black\" "

plot_size = "0.8, 0.4"

ymax_pc=400 
ymax_fc=150
ymin_fc = -40
########################################
#These settings can probably stay the same
########################################
##Area = 0.26
set style line 9 lt 1 lw 2 pt 3 lc rgb "black"
set style line 1 lt 1 lw 2 pt 5  lc rgb "red"
set style line 2 lt 1 lw 2 pt 7  lc rgb "blue"
set style line 3 lt 1 lw 2 pt 9  lc rgb "green"
set style line 4 lt 4 lw 2 pt 11  lc rgb "black"
set style line 5 lt 5 lw 2 pt 13  lc rgb "magenta"
set style line 6 lt 1 lw 2 pt 15  lc rgb "dark-red"
set style line 7 lt 1 lw 2 pt 17  lc rgb "dark-blue"
set style line 8 lt 1 lw 2 pt 19  lc rgb "dark-green"
set style line 11 lt 1 lw 2 pt 5 dt "-" lc rgb "red"
set style line 12 lt 1 lw 2 pt 7 dt "-" lc rgb "blue"
set style line 13 lt 1 lw 2 pt 9 dt "-" lc rgb "green"
set style line 14 lt 4 lw 2 pt 11 dt "-"  lc rgb "black"
set style line 21 lt 1 lw 2 pt 5 dt ".-" lc rgb "red"
set style line 22 lt 1 lw 2 pt 7 dt ".-" lc rgb "blue"
set style line 23 lt 1 lw 2 pt 9 dt ".-" lc rgb "green"
set style line 24 lt 4 lw 2 pt 11 dt ".-" lc rgb "black"
set style line 19 lt 1 lw 3 pt 3 dt "-" lc rgb "black"

##########size for journal 90mm 140mm 190mm
set terminal postscript portrait size 19cm, 15cm color enhanced lw 1 font "Times-Roman,20"

#set terminal postscript color enhanced 11
set output fileout

#set size 0.5,1

set lmargin 0.25
set rmargin 0.05
#set size 0.8, 0.45


#set title ""
unset title

#########################  805 nm  #####################

#set multiplot layout 2,1	#2 high, one wide
set multiplot

set bmargin 0
#set xrange [-0.4:0.4]
#set xtics 0.1

set xlabel ""
set format x ""
# set xlabel xtitleAgAgCl
# set format x "%0.1f"
set format y "%0.0f"
set ylabel ytitleCuruA
set size @plot_size

set origin 0.15, .55
set ytics ymax_fc/5
unset y2tics
set ytics mirror
set yrange [ymin_fc:ymax_fc]
#unset key
set key left top font "Helvetica,12" box title "6uM RC time varies, and 100uM MCH, 1 hr" font "Helvetica,14"
set xzeroaxis

set label 1 "Faradaic currents (a) and Photocurrent at 805nm (b) \nof DMs deposited for varying times" at -.15,ymax_fc+40 font ", 16"

set label "a)" at -0.225,ymax_fc font ",24"

plot \
datapath.data016 u 1:($7*1e6) axis x1y1 w l smooth bezier title "10 min RCs" ls 1, \
datapathd.ddata016 u 1:($7*1e6) axis x1y1 w l smooth bezier title "" dt 2 lc rgb "red", \
datapath.data24 u 1:($7*1e6) axis x1y1 w l smooth bezier title "24 hr RCs" ls 4, \
datapathd.ddata24 u 1:($7*1e6) axis x1y1 w l smooth bezier title "" dt 2 lc rgb "black", \
#datapath.data6 u 1:($7*1e6) axis x1y1 w l smooth bezier title "6 hr RCs" ls 2, \
#datapath.data12 u 1:($7*1e6) axis x1y1 w l smooth bezier title "12 hr RCs" ls 3, \
#datapathd.ddata6 u 1:($7*1e6) axis x1y1 w l smooth bezier title "" dt 2 lc rgb "blue", \
#datapathd.ddata12 u 1:($7*1e6) axis x1y1 w l smooth bezier title "" dt 2 lc rgb "green", \

#datapath.datanoRCs u 1:($7*1e6) axis x1y1 w l smooth bezier title "no RCs" ls 5, \

unset label

set bmargin 0.05

set ylabel ytitleCurnA
set xlabel xtitleAgAgCl offset 0,0.6
set format x "%0.2f"
set format y "%0.0f"
set size @plot_size
set origin 0.15, 0.125
set ytics ymax_pc/4
unset y2tics
set ytics mirror
set yrange [-25:ymax_pc]
#set key at 0.13,3.8
unset key
#set key at 0.13,ymax_pc font ",16"

set label 1 "b)" at -0.225,ymax_pc font ",24"


plot \
datapath.data016 u 1:($3*1e9*1) axis x1y1 w l smooth bezier title "10 min" ls 1, \
datapathd.ddata016 u 1:($3*1e9*1) axis x1y1 w l smooth bezier title "" dt 2 lc rgb "red", \
datapath.data24 u 1:($3*1e9*1) axis x1y1 w l smooth bezier title "24 hr" ls 4, \
datapathd.ddata24 u 1:($3*1e9*1) axis x1y1 w l smooth bezier title "12 hr" dt 2 lc rgb "black", \
#datapath.data6 u 1:($3*1e9*1) axis x1y1 w l smooth bezier title "6 hr" ls 2, \
#datapath.data12 u 1:($3*1e9*1) axis x1y1 w l smooth bezier title "12 hr" ls 3, \
#datapath.datanoRCs u 1:($3*1e9*1) axis x1y1 w l smooth bezier title "no RCs" ls 5, \
#datapathd.ddata6 u 1:($3*1e9*1) axis x1y1 w l smooth bezier title "6 hr" dt 2 lc rgb "blue", \
#datapathd.ddata12 u 1:($3*1e9*1) axis x1y1 w l smooth bezier title "12 hr" dt 2 lc rgb "green", \


#*1e10 because the script process.py assumed they were 680 when they were actually 805. 

unset label 1
unset key
#cleanup

unset multiplot

quit

