reset
#!/usr/bin/gnuplot -persist

  # Input file contains tab-separated fields
#     set datafile separator "\t"



     # Input file contains tab-separated values fields
     set datafile separator "	"

datapathu = "data_no_gaps/negative-to-positive/"
datapathd = "data_no_gaps/positive-to-negative/"

fileout = "dms-hysteresis.ps"	#does not use datapath

# // columns arranged like:
# Potential,potstdev,Photocurrent (nA),pcstdev,Phase (°),phstdev,DC Current (µA),dcCurrstdev
# 0.5 uA/V for 805 & 865
# 0.05 uA/V for 680
###ups
data0_0uM = "no-rcs.csv_negative-to-positive"
data0_5uM = "0.5uM.csv_negative-to-positive" #_805.csv"
data1_0uM =  "1uM.csv_negative-to-positive" #_805.csv"
data2_5uM = "2.5uM.csv_negative-to-positive" #_805.csv"
data5_0uM =  "5uM.csv_negative-to-positive" #_805.csv"
data5_0uM2 =  "5uM_2.csv_negative-to-positive" #_805.csv"
data5_0uM24 =  "5uM_24hr_1hrMCH.csv_negative-to-positive" #_805.csv"
dataDMPno = "DM P-.csv_negative-to-positive"  #done
dataFCcontrol = "ferrocyanide-control.csv_negative-to-positive" #done
dataNoRCs="no-rcs.csv_negative-to-positive" #done
dataNoLight="nolight_controls.csv_negative-to-positive" #this only exists and has no wavelength for obvious reasons. 
dataMultilayer = "5uM_24hr_1hrMCH.csv_negative-to-positive_805.csv"
data5_0uM24_noMCH = "5um24hrnoMCH.csv_negative-to-positive"
###downs
ddata0_0uM = "no-rcs.csv_positive-to-negative"
ddata0_5uM = "0.5uM.csv_positive-to-negative" #_805.csv"
ddata1_0uM =  "1uM.csv_positive-to-negative" #_805.csv"
ddata2_5uM = "2.5uM.csv_positive-to-negative" #_805.csv"
ddata5_0uM =  "5uM.csv_positive-to-negative" #_805.csv"
ddata5_0uM2 =  "5uM_2.csv_positive-to-negative" #_805.csv"
ddata5_0uM24 =  "5uM_24hr_1hrMCH.csv_positive-to-negative" #_805.csv"
ddataDMPno = "DM P-.csv_positive-to-negative"  #done
ddataFCcontrol = "ferrocyanide-control.csv_positive-to-negative" #done
ddataNoRCs="no-rcs.csv_positive-to-negative" #done
ddataNoLight="nolight_controls.csv_positive-to-negative" #this only exists and has no wavelength for obvious reasons. 
ddata5_0uM24_noMCH = "5um24hrnoMCH.csv_positive-to-negative"
ddataMultilayer ="5uM_24hr_1hrMCH.csv_positive-to-negative_805.csv"


###

wv680 = "_680.csv"
wv805 = "_805.csv"
wv865 = "_865.csv"


#805cf = 2.636 #correction factor for the power of 805nm LED
#76.89 = 1 #ditto for 680nm LED



datapathu = "negative-to-positive/"
datapathd = "positive-to-negative/"
ttitle = "t (sec)"
xtitle = "E (V)"
xtitleAgAgCl = "E (V vs Ag/AgCl)"
xtitleSCE = "E vs SCE / V"
xtitleNHE = "E vs NHE / V"
ytitleCap = "C_{avg} ({/Symbol m}F cm^{-2})"
ytitleCurnA = "i_{ph} (nA)"
ytitleCuruA = "i ({/Symbol m}A)"
ytitlePhase = "Phase (deg)"
ytitleCurmA = "i (mA)"
ytitleCurPMT = "I_{PMT} ({/Symbol m}A)"
ytitleCurPMTRMS = "I_{PMT}^{RMS} / {/Symbol m}A"
ytitleCurPMTRMSnorm = "I_{PMT}^{RMS} / Fl Int^{RMS}"
ytitlelnCur = "ln(i ({/Symbol m}A))"
ytitlelnCurPMT = "ln(I_{PMT} ({/Symbol m}A))"
ytitle_C = "C_{avg} ({/Symbol m}F)"
ytitleFlIntnorm = "Fl Int^{RMS} / {/Symbol m}A"

set macro
legend_style = "center font \"Times-Roman, bold, 10\" textcolor rgb \"black\" "

plot_size = "0.38, 0.3"

########################################
#These settings can probably stay the same
########################################
##Area = 0.26
set style line 9 lt 1 lw 2 pt 3 lc rgb "black"
set style line 1 lt 1 lw 2 pt 5  lc rgb "red"
set style line 2 lt 1 lw 2 pt 7  lc rgb "blue"
set style line 3 lt 1 lw 2 pt 9  lc rgb "green"
set style line 4 lt 4 lw 2 pt 11  lc rgb "black"
set style line 5 lt 5 lw 2 pt 13  lc rgb "magenta"
set style line 6 lt 1 lw 2 pt 15  lc rgb "dark-red"
set style line 7 lt 1 lw 2 pt 17  lc rgb "dark-blue"
set style line 8 lt 1 lw 2 pt 19  lc rgb "dark-green"
set style line 11 lt 1 lw 2 pt 5 dt "-" lc rgb "red"
set style line 12 lt 1 lw 2 pt 7 dt "-" lc rgb "blue"
set style line 13 lt 1 lw 2 pt 9 dt "-" lc rgb "green"
set style line 14 lt 4 lw 2 pt 11 dt "-"  lc rgb "black"
set style line 21 lt 1 lw 2 pt 5 dt ".-" lc rgb "red"
set style line 22 lt 1 lw 2 pt 7 dt ".-" lc rgb "blue"
set style line 23 lt 1 lw 2 pt 9 dt ".-" lc rgb "green"
set style line 24 lt 4 lw 2 pt 11 dt ".-" lc rgb "black"
set style line 19 lt 1 lw 3 pt 3 dt "-" lc rgb "black"
set key font ",15"
##########size for journal 90mm 140mm 190mm
set terminal postscript portrait size 19cm, 15cm color enhanced lw 1 font "Times-Roman,20"

#set terminal postscript color enhanced 11
set output fileout

#set size 0.5,1

set lmargin 0.25
set rmargin 0.05
#set size 0.8, 0.45


#set title ""
unset title

#########################  805 nm  #####################

#set multiplot layout 2,1	#2 high, one wide
set multiplot 

set bmargin 0
set xrange [-0.08:0.27]
set xtics 0.1
set format x "%0.2f"
# set xlabel xtitleAgAgCl
# set format x "%0.1f"
set format y "%0.0f"
set ylabel ytitleCuruA
set size @plot_size

set origin 0.15, .55
set ytics 10
unset y2tics
set ytics mirror
set yrange [-20:50]
set key at 0.13,50 font ",16"
set xzeroaxis

set label 1 "805 nm" at -.1,60 font ", 30"

set label "a)" at -0.225,50 font ",24"
#
#set style line 1 lt 1 lw 2 pt 5  lc rgb "red"
#set style line 2 lt 1 lw 2 pt 7  lc rgb "blue"
#set style line 3 lt 1 lw 2 pt 9  lc rgb "green"
#set style line 4 lt 4 lw 2 pt 11  lc rgb "black"
#set style line 5 lt 5 lw 2 pt 13  lc rgb "magenta"
#set style line 6 lt 1 lw 2 pt 15  lc rgb "dark-red"
#set style line 7 lt 1 lw 2 pt 17  lc rgb "dark-blue"
#set style line 8 lt 1 lw 2 pt 19  lc rgb "dark-green"

#


plot \
datapathu.data2_5uM.wv805 u 1:($7*1e6) axis x1y1 w l smooth csplines title "2.5uM" ls 3, \
datapathd.ddata2_5uM.wv805 u 1:($7*1e6) axis x1y1 w l smooth csplines lc rgb "green" dt 2 title "", \
#datapathu.data0_5uM.wv805 u 1:($7*1e6) axis x1y1 w l smooth csplines title "0.5uM" ls 1, \
#datapathu.data1_0uM.wv805 u 1:($7*1e6) axis x1y1 w l smooth csplines title "1.0uM" ls 2, \
#datapathu.data5_0uM.wv805 u 1:($7*1e6) axis x1y1 w l smooth csplines title "5.0uM" ls 4, \
#datapathd.ddata0_5uM.wv805 u 1:($7*1e6) axis x1y1 w l smooth csplines lc rgb "red" dt 2 title "", \
#datapathd.ddata1_0uM.wv805 u 1:($7*1e6) axis x1y1 w l smooth csplines lc rgb  "blue" dt 2 title "", \
#datapathd.ddata5_0uM.wv805 u 1:($7*1e6) axis x1y1 w l smooth csplines lc rgb "black" dt 2 title "", \


##################################################################################################################3
unset label

set bmargin 0.03

set ylabel ytitleCurnA
set xlabel xtitleAgAgCl
set format x "%0.2f"
set format y "%0.0f"
set size @plot_size
set origin 0.15, 0.125
set ytics 100
unset y2tics
set ytics mirror
set yrange [-25:400]
#set key at 0.13,3.8
unset key
set key at 0.13,400 font ",16"

set label 1 "b)" at -0.225,400 font ",24"
############################################################

plot \
datapathu.data2_5uM.wv805 u 1:($3*1e9*1) axis x1y1 w l smooth csplines title "2.5uM" ls 3, \
datapathd.ddata2_5uM.wv805 u 1:($3*1e9) axis x1y1 w l smooth csplines lc rgb "green" dt 2 title "", \
#datapathd.ddata0_5uM.wv805 u 1:($3*1e9) axis x1y1 w l smooth csplines lc rgb "red" dt 2 title "", \
#datapathd.ddata1_0uM.wv805 u 1:($3*1e9) axis x1y1 w l smooth csplines lc rgb "blue" dt 2 title "", \
#datapathd.ddata5_0uM.wv805 u 1:($3*1e9) axis x1y1 w l smooth csplines lc rgb "black" dt 2 title "", \
#datapathd.ddataNoRCs.wv805 u 1:($3*1e9*1) axis x1y1 w l smooth csplines lc rgb "magenta" dt 2 title "", \
#datapathu.data0_5uM.wv805 u 1:($3*1e9*1) axis x1y1 w l smooth csplines title "0.5uM" ls 1, \
#datapathu.data1_0uM.wv805 u 1:($3*1e9*1) axis x1y1 w l smooth csplines title "1.0uM" ls 2, \
#datapathu.data5_0uM.wv805 u 1:($3*1e9*1) axis x1y1 w l smooth csplines title "5.0uM" ls 4, \
#datapathu.dataNoRCs.wv805 u 1:($3*1e9*1) axis x1y1 w l smooth csplines title "No RCs" ls 5, \

unset label 1
unset key
#cleanu
####################################################################
#faradaic current multilayer
unset label

set bmargin 0.03

unset ylabel
#set ylabel ytitleCurnA
#set xlabel xtitleAgAgCl
unset xlabel
set format x "%0.2f"
set format y "%0.0f"
set size @plot_size
set origin 0.60, 0.55
set ytics 30
unset y2tics
#unset ytics
#set ytics mirror
set yrange [-60:150]
set xrange [-0.08:0.27]
#set key at 0.13,3.8
unset key
set key at 0.29,140 font ",14"

set label 1 "c)" at -0.1,175 font ",24"
############################################################

plot \
datapathu.dataMultilayer u 1:($7*1e6*1) axis x1y1 w l smooth csplines title "5uM 24hours and \n 100uM MCH for 1 hour" ls 1, \
datapathd.ddataMultilayer u 1:($7*1e6) axis x1y1 w l smooth csplines lc rgb "red" dt 2 title "", \
#datapathd.ddata0_5uM.wv805 u 1:($3*1e9) axis x1y1 w l smooth csplines lc rgb "red" dt 2 title "", \
#datapathd.ddata1_0uM.wv805 u 1:($3*1e9) axis x1y1 w l smooth csplines lc rgb "blue" dt 2 title "", \
#datapathd.ddata5_0uM.wv805 u 1:($3*1e9) axis x1y1 w l smooth csplines lc rgb "black" dt 2 title "", \
#datapathd.ddataNoRCs.wv805 u 1:($3*1e9*1) axis x1y1 w l smooth csplines lc rgb "magenta" dt 2 title "", \
#datapathu.data0_5uM.wv805 u 1:($3*1e9*1) axis x1y1 w l smooth csplines title "0.5uM" ls 1, \
#datapathu.data1_0uM.wv805 u 1:($3*1e9*1) axis x1y1 w l smooth csplines title "1.0uM" ls 2, \
#datapathu.data5_0uM.wv805 u 1:($3*1e9*1) axis x1y1 w l smooth csplines title "5.0uM" ls 4, \
#datapathu.dataNoRCs.wv805 u 1:($3*1e9*1) axis x1y1 w l smooth csplines title "No RCs" ls 5, \

unset label 1
unset key

####################################################################
unset label

set bmargin 0.03

#set ylabel ytitleCurnA
set xlabel xtitleAgAgCl
set format x "%0.2f"
set format y "%0.0f"
set size @plot_size
set origin 0.6, 0.125
#set ytics 100
unset y2tics
#unset ytics
set ytics 150
#set ytics mirror
set yrange [-20:800]
#set key at 0.13,3.8
unset key
set key at 0.29,750 font ",14"

set label 1 "d)" at -0.1,890 font ",24"
############################################################

plot \
datapathu.dataMultilayer u 1:($3*1e9*1) axis x1y1 w l smooth csplines title "5uM 24hours and \n 100uM MCH for 1 hour" ls 1, \
datapathd.ddataMultilayer u 1:($3*1e9) axis x1y1 w l smooth csplines lc rgb "red" dt 2 title "", \
#datapathd.ddata0_5uM.wv805 u 1:($3*1e9) axis x1y1 w l smooth csplines lc rgb "red" dt 2 title "", \
#datapathd.ddata1_0uM.wv805 u 1:($3*1e9) axis x1y1 w l smooth csplines lc rgb "blue" dt 2 title "", \
#datapathd.ddata5_0uM.wv805 u 1:($3*1e9) axis x1y1 w l smooth csplines lc rgb "black" dt 2 title "", \
#datapathd.ddataNoRCs.wv805 u 1:($3*1e9*1) axis x1y1 w l smooth csplines lc rgb "magenta" dt 2 title "", \
#datapathu.data0_5uM.wv805 u 1:($3*1e9*1) axis x1y1 w l smooth csplines title "0.5uM" ls 1, \
#datapathu.data1_0uM.wv805 u 1:($3*1e9*1) axis x1y1 w l smooth csplines title "1.0uM" ls 2, \
#datapathu.data5_0uM.wv805 u 1:($3*1e9*1) axis x1y1 w l smooth csplines title "5.0uM" ls 4, \
#datapathu.dataNoRCs.wv805 u 1:($3*1e9*1) axis x1y1 w l smooth csplines title "No RCs" ls 5, \

unset label 1
unset key
#cleanu

#cleanu


unset multiplot

quit

