reset
#!/usr/bin/gnuplot -persist

  # Input file contains tab-separated fields
#     set datafile separator "\t"



     # Input file contains tab-separated values fields
     set datafile separator ","


fileout = "mchvstime-compare10um.ps"	#does not use datapath

# // columns arranged like:
# Potential,potstdev,Photocurrent (nA),pcstdev,Phase (°),phstdev,DC Current (µA),dcCurrstdev
# 0.5 uA/V for 805 & 865
# 0.05 uA/V for 680
datanoRCs = "no-rcs.csv_negative-to-positive_805.csv"
data_066 = "0.66hr.csv_negative-to-positive_680.csv"
data1 = "1hr.csv_negative-to-positive_680.csv"
data2 = "2hr.csv_negative-to-positive_680.csv"
data24 = "24hr.csv_negative-to-positive_680.csv"
datanoMCH = "10uMDMsnoMCH.csv_negative-to-positive_805.csv"

ddata_066 = "0.66hr.csv_positive-to-negative_680.csv"
ddata1 = "1hr.csv_positive-to-negative_680.csv"
ddata2 = "2hr.csv_positive-to-negative_680.csv"
ddata24 = "24hr.csv_positive-to-negative_680.csv"
ddatanoMCH = "10uMDMsnoMCH.csv_positive-to-negative_805.csv"
#dataNoLight="nolight_controls.csv_negative-to-positive" #this only exists and has no wavelength for obvious reasons. 
#data5_0uM24_noMCH = "5um24hrnoMCH.csv_negative-to-positive"
#wv680 = "_680.csv"
#wv805 = "_805.csv"
#wv865 = "_865.csv"


#805cf = 2.636 #correction factor for the power of 805nm LED
#76.89 = 1 #ditto for 680nm LED



datapath = "mchtimevspc/negative-to-positive/"
datapathd = "mchtimevspc/positive-to-negative/"
ttitle = "t (sec)"
xtitle = "E (V)"
xtitleAgAgCl = "E (V vs Ag/AgCl)"
xtitleSCE = "E vs SCE / V"
xtitleNHE = "E vs NHE / V"
ytitleCap = "C_{avg} ({/Symbol m}F cm^{-2})"
ytitleCurnA = "i_{ph} (nA)"
ytitleCuruA = "i ({/Symbol m}A)"
ytitlePhase = "Phase (deg)"
ytitleCurmA = "i (mA)"
ytitleCurPMT = "I_{PMT} ({/Symbol m}A)"
ytitleCurPMTRMS = "I_{PMT}^{RMS} / {/Symbol m}A"
ytitleCurPMTRMSnorm = "I_{PMT}^{RMS} / Fl Int^{RMS}"
ytitlelnCur = "ln(i ({/Symbol m}A))"
ytitlelnCurPMT = "ln(I_{PMT} ({/Symbol m}A))"
ytitle_C = "C_{avg} ({/Symbol m}F)"
ytitleFlIntnorm = "Fl Int^{RMS} / {/Symbol m}A"

set macro
legend_style = "center font \"Times-Roman, bold, 10\" textcolor rgb \"black\" "

plot_size = "0.8, 0.4"
###################YMAX
ymax_pc=800
ymax_far=150
ymin_far=-20
########################

########################################
#These settings can probably stay the same
########################################
##Area = 0.26
set style line 9 lt 1 lw 2 pt 3 lc rgb "black"
set style line 1 lt 1 lw 2 pt 5  lc rgb "red"
set style line 2 lt 1 lw 2 pt 7  lc rgb "blue"
set style line 3 lt 1 lw 2 pt 9  lc rgb "green"
set style line 4 lt 4 lw 2 pt 11  lc rgb "black"
set style line 5 lt 5 lw 2 pt 13  lc rgb "magenta"
set style line 6 lt 1 lw 2 pt 15  lc rgb "dark-red"
set style line 7 lt 1 lw 2 pt 17  lc rgb "dark-blue"
set style line 8 lt 1 lw 2 pt 19  lc rgb "dark-green"
set style line 11 lt 1 lw 2 pt 5 dt "-" lc rgb "red"
set style line 12 lt 1 lw 2 pt 7 dt "-" lc rgb "blue"
set style line 13 lt 1 lw 2 pt 9 dt "-" lc rgb "green"
set style line 14 lt 4 lw 2 pt 11 dt "-"  lc rgb "black"
set style line 21 lt 1 lw 2 pt 5 dt ".-" lc rgb "red"
set style line 22 lt 1 lw 2 pt 7 dt ".-" lc rgb "blue"
set style line 23 lt 1 lw 2 pt 9 dt ".-" lc rgb "green"
set style line 24 lt 4 lw 2 pt 11 dt ".-" lc rgb "black"
set style line 19 lt 1 lw 3 pt 3 dt "-" lc rgb "black"

##########size for journal 90mm 140mm 190mm
set terminal postscript portrait size 19cm, 15cm color enhanced lw 1 font "Times-Roman,20"

#set terminal postscript color enhanced 11
set output fileout

#set size 0.5,1

set lmargin 0.25
set rmargin 0.05
#set size 0.8, 0.45


#set title ""
unset title

#########################  805 nm  #####################

#set multiplot layout 2,1	#2 high, one wide
set multiplot

set bmargin 0
set xrange [-0.08:0.27]
#set xtics 0.1

set xlabel ""
set format x ""
# set xlabel xtitleAgAgCl
# set format x "%0.1f"
set format y "%0.0f"
set ylabel ytitleCuruA
set size @plot_size

set origin 0.15, .55
set ytics ymax_far/5
unset y2tics
set ytics mirror
set yrange [ymin_far:ymax_far]
set key left top font "Helvetica,12" box title "10 min 10uM RC" font "Helvetica,14"
set xzeroaxis

#set label 1 "Photocurrent (805 nm) and Faradaic current vs MCH deposition time " at -.12,ymax_far+ymax_far/8 font ", 15"

set label "a)" at -0.15,ymax_far font ",24"

plot \
datapath.datanoRCs u 1:($7*1e6*1) axis x1y1 w l smooth csplines title "1 hr 100uM MCH, no RCs" ls 5, \
datapath.data_066 u 1:($7*1e6*1) axis x1y1 w l smooth csplines title "40 min of 100uM MCH" ls 1, \
datapath.data1 u 1:($7*1e6*1) axis x1y1 w l smooth csplines title "1 hr of 100uM MCH" ls 2, \
datapath.data2 u 1:($7*1e6) axis x1y1 w l smooth csplines title "2 hr of 100uM MCH" ls 3, \
datapath.data24 u 1:($7*1e6*1) axis x1y1 w l smooth csplines title "24 hr of 100uM MCH" ls 4, \
datapath.datanoMCH u 1:($7*1e6*1) axis x1y1 w l smooth csplines title "No MCH (24 hours RC)" ls 6, \
#datapathd.ddata1 u 1:($7*1e6) axis x1y1 w l smooth csplines lc rgb "blue" dt 2 title "", \
#datapathd.ddata24 u 1:($7*1e6) axis x1y1 w l smooth csplines lc rgb "black" dt 2 title "", \
#datapathd.ddata_066 u 1:($7*1e6*1) axis x1y1 w l smooth csplines lc rgb "red" dt 2 title "", \
#datapathd.ddatanoMCH u 1:($7*1e6*1) axis x1y1 w l smooth csplines lc rgb "brown" dt 2 title "", \


unset label

set bmargin 0.05

set ylabel ytitleCurnA
set xlabel xtitleAgAgCl offset 0,0.5
set format x "%0.2f"
set format y "%0.0f"
set size @plot_size
set origin 0.15, 0.125
set ytics ymax_pc/4
unset y2tics
set ytics mirror
set yrange [-25:ymax_pc]
#set key at 0.13,3.8
#unset key
s#et key left top font "Helvetica,12" box title "10 min 5uM RC" font "Helvetica,14"

set label 1 "b)" at -0.15,ymax_pc font ",24"


plot \
datapath.datanoRCs u 1:($3*1e10*1) axis x1y1 w l smooth csplines title " " ls 5, \
datapath.data_066 u 1:($3*1e10*1) axis x1y1 w l smooth csplines title "" ls 1, \
datapath.data1 u 1:($3*1e10*1) axis x1y1 w l smooth csplines title "" ls 2, \
datapath.data2 u 1:($3*1e10*1) axis x1y1 w l smooth csplines title "" ls 3, \
datapath.data24 u 1:($3*1e10*1) axis x1y1 w l smooth csplines title "" ls 4, \
datapath.datanoMCH u 1:($3*1e8*1) axis x1y1 w l smooth csplines title "" ls 6, \
datapath.datanoMCH u 1:($3*1e9*1) axis x1y1 w l smooth csplines lc rgb "brown" dt 2 title "No MCH (24 hours RC) (10x)", \
#datapathd.ddata1 u 1:($3*1e10) axis x1y1 w l smooth csplines lc rgb "blue" dt 2 title "", \
#datapathd.ddata24 u 1:($3*1e10) axis x1y1 w l smooth csplines lc rgb "black" dt 2 title "", \
#datapathd.ddata_066 u 1:($3*1e10*1) axis x1y1 w l smooth csplines lc rgb "red" dt 2 title "", \
#datapathd.ddatanoMCH u 1:($3*1e9*1) axis x1y1 w l smooth csplines lc rgb "brown" dt 2 title "", \
#*1e10 because the script process.py assumed they were 680 when they were actually 805. 
unset label 1
unset key
#cleanup

unset multiplot

quit

