reset
#!/usr/bin/gnuplot -persist

  # Input file contains tab-separated fields
#     set datafile separator "\t"



     # Input file contains tab-separated values fields
     set datafile separator "	"


fileout = "shape-of-pc-multilayer-monolayer.ps"	#does not use datapath
datapathu = "negative-to-positive/"
datapathd = "positive-to-negative/"

# // columns arranged like:
# Potential,potstdev,Photocurrent (nA),pcstdev,Phase (°),phstdev,DC Current (µA),dcCurrstdev
# 0.5 uA/V for 805 & 865
# 0.05 uA/V for 680
###ups
datanoRCs = "no-rcs.csv_negative-to-positive"
data5_0uM =  "5uM.csv_negative-to-positive" #_805.csv"
data5_0uM24 =  "5uM_24hr_1hrMCH.csv_negative-to-positive" #_805.csv"
data5_0uM24_noMCH = "5um24hrnoMCH.csv_negative-to-positive"
###downs
ddatanoRCs = "no-rcs.csv_positive-to-negative"
ddata5_0uM =  "5uM.csv_positive-to-negative" #_805.csv"
ddata5_0uM24 =  "5uM_24hr_1hrMCH.csv_positive-to-negative" #_805.csv"
ddata5_0uM24_noMCH = "5um24hrnoMCH.csv_positive-to-negative"
###

wv680 = "_680.csv"
wv805 = "_805.csv"
wv865 = "_865.csv"


#805cf = 2.636 #correction factor for the power of 805nm LED
#76.89 = 1 #ditto for 680nm LE
ttitle = "t (sec)"
xtitle = "E (V)"
xtitleAgAgCl = "E (V vs Ag/AgCl)"
xtitleSCE = "E vs SCE / V"
xtitleNHE = "E vs NHE / V"
ytitleCap = "C_{avg} ({/Symbol m}F cm^{-2})"
ytitleCurnA = "i_{ph} (nA)"
ytitleCuruA = "i ({/Symbol m}A)"
ytitlePhase = "Phase (deg)"
ytitleCurmA = "i (mA)"
ytitleCurPMT = "I_{PMT} ({/Symbol m}A)"
ytitleCurPMTRMS = "I_{PMT}^{RMS} / {/Symbol m}A"
ytitleCurPMTRMSnorm = "I_{PMT}^{RMS} / Fl Int^{RMS}"
ytitlelnCur = "ln(i ({/Symbol m}A))"
ytitlelnCurPMT = "ln(I_{PMT} ({/Symbol m}A))"
ytitle_C = "C_{avg} ({/Symbol m}F)"
ytitleFlIntnorm = "Fl Int^{RMS} / {/Symbol m}A"

set macro
legend_style = "center font \"Times-Roman, bold, 10\" textcolor rgb \"black\" "

plot_size = "0.8, 0.4"

ymax_pc=800
ymax_far=150
########################################
#These settings can probably stay the same
########################################
##Area = 0.26
set style line 9 lt 1 lw 2 pt 3 lc rgb "black"
set style line 1 lt 1 lw 2 pt 5  lc rgb "red"
set style line 2 lt 1 lw 2 pt 7  lc rgb "blue"
set style line 3 lt 1 lw 2 pt 9  lc rgb "green"
set style line 4 lt 4 lw 2 pt 11  lc rgb "black"
set style line 5 lt 5 lw 2 pt 13  lc rgb "magenta"
set style line 6 lt 1 lw 2 pt 15  lc rgb "dark-red"
set style line 7 lt 1 lw 2 pt 17  lc rgb "dark-blue"
set style line 8 lt 1 lw 2 pt 19  lc rgb "dark-green"
set style line 11 lt 1 lw 2 pt 5 dt "-" lc rgb "red"
set style line 12 lt 1 lw 2 pt 7 dt "-" lc rgb "blue"
set style line 13 lt 1 lw 2 pt 9 dt "-" lc rgb "green"
set style line 14 lt 4 lw 2 pt 11 dt "-"  lc rgb "black"
set style line 21 lt 1 lw 2 pt 5 dt ".-" lc rgb "red"
set style line 22 lt 1 lw 2 pt 7 dt ".-" lc rgb "blue"
set style line 23 lt 1 lw 2 pt 9 dt ".-" lc rgb "green"
set style line 24 lt 4 lw 2 pt 11 dt ".-" lc rgb "black"
set style line 19 lt 1 lw 3 pt 3 dt "-" lc rgb "black"

##########size for journal 90mm 140mm 190mm
set terminal postscript portrait size 19cm, 15cm color enhanced lw 1 font "Times-Roman,20"

#set terminal postscript color enhanced 11
set output fileout

#set size 0.5,1

set lmargin 0.25
set rmargin 0.05
#set size 0.8, 0.45


#set title ""
unset title

#########################  805 nm  #####################

set multiplot layout 2,1	#2 high, one wide
#set multiplot 2,2

set bmargin 0
#set xrange [-0.4:0.4]
#set xtics 0.1
set xrange [-0.08:0.27]
set xlabel ""
set format x ""
# set xlabel xtitleAgAgCl
# set format x "%0.1f"
set format y "%0.0f"
set ylabel ytitleCuruA
set size @plot_size

set origin 0.15, .55
set ytics ymax_far/5
unset y2tics
set ytics mirror
set yrange [-20:ymax_far]
set key left top font "Helvetica,10" box title "5uM RCs, 100uM MCH, deposited varying time" font "Helvetica,12"
set xzeroaxis

set label 1 "Faradaic currents (a) and photocurrents at 805nm (b)" at -.1,ymax_far+20 font ", 20"

set label "a)" at -0.14,ymax_far font ",24"
#
#set style line 1 lt 1 lw 2 pt 5  lc rgb "red"
#set style line 2 lt 1 lw 2 pt 7  lc rgb "blue"
#set style line 3 lt 1 lw 2 pt 9  lc rgb "green"
#set style line 4 lt 4 lw 2 pt 11  lc rgb "black"
#set style line 5 lt 5 lw 2 pt 13  lc rgb "magenta"
#set style line 6 lt 1 lw 2 pt 15  lc rgb "dark-red"
#set style line 7 lt 1 lw 2 pt 17  lc rgb "dark-blue"
#set style line 8 lt 1 lw 2 pt 19  lc rgb "dark-green"

#
plot \
datapathu.data5_0uM24.wv805 u 1:($7*1e6) axis x1y1 w l smooth csplines title "RCs for 24 hours, No MCH" ls 1, \
datapathu.data5_0uM24_noMCH.wv805 u 1:($7*1e6) axis x1y1 w l smooth csplines title "RCs for 24 hours, MCH for 1 hour" ls 2, \
datapathu.data5_0uM.wv805 u 1:($7*1e6) axis x1y1 w l smooth csplines title "RCs for 10 minutes, MCH for 24 hours" ls 5, \
#datapathd.ddata5_0uM.wv805 u 1:($7*1e6) axis x1y1 w l smooth csplines lc rgb "black" dt 2 title "", \

unset label

set bmargin 0.05

set ylabel ytitleCurnA
set xlabel xtitleAgAgCl offset 0,0.6
set format x "%0.2f"
set format y "%0.0f"
set size @plot_size
set origin 0.15, 0.125
set ytics 100
unset y2tics
set ytics mirror
set yrange [-25:ymax_pc]
#set key at 0.13,3.8
#unset key
#set key at 0.13,400 font ",16"

set label 1 "b)" at -0.225,ymax_pc font ",24"
############################################################
#
#set style line 1 lt 1 lw 2 pt 5  lc rgb "red"
#set style line 2 lt 1 lw 2 pt 7  lc rgb "blue"
#set style line 3 lt 1 lw 2 pt 9  lc rgb "green"
#set style line 4 lt 4 lw 2 pt 11  lc rgb "black"
#set style line 5 lt 5 lw 2 pt 13  lc rgb "magenta"
#set style line 6 lt 1 lw 2 pt 15  lc rgb "dark-red"
#set style line 7 lt 1 lw 2 pt 17  lc rgb "dark-blue"
#set style line 8 lt 1 lw 2 pt 19  lc rgb "dark-green"

plot \
datapathu.data5_0uM24.wv805 u 1:($3*1e9) axis x1y1 w l smooth csplines title "RCs for 24 hours, No MCH" ls 2, \
datapathu.data5_0uM24_noMCH.wv805 u 1:($3*1e9) axis x1y1 w l smooth csplines title "RCs for 24 hours, MCH for 1 hour" ls 3, \
datapathu.data5_0uM.wv805 u 1:($3*1e9*1) axis x1y1 w l smooth csplines title "RCs for 10 minutes, MCH for 24 hours" ls 4, \

unset label 1
unset key
#cleanu
unset multiplot

quit

