%!PS-Adobe-2.0
%%Title: tms.ps
%%Creator: gnuplot 5.2 patchlevel 2
%%CreationDate: Fri Apr 10 17:57:08 2020
%%DocumentFonts: (atend)
%%BoundingBox: 50 50 588 475
%%Orientation: Portrait
%%Pages: (atend)
%%EndComments
%%BeginProlog
/gnudict 256 dict def
gnudict begin
%
% The following true/false flags may be edited by hand if desired.
% The unit line width and grayscale image gamma correction may also be changed.
%
/Color true def
/Blacktext false def
/Solid false def
/Dashlength 1 def
/Landscape false def
/Level1 false def
/Level3 false def
/Rounded false def
/ClipToBoundingBox false def
/SuppressPDFMark false def
/TransparentPatterns false def
/gnulinewidth 5.000 def
/userlinewidth gnulinewidth def
/Gamma 1.0 def
/BackgroundColor {-1.000 -1.000 -1.000} def
%
/vshift -66 def
/dl1 {
  10.0 Dashlength userlinewidth gnulinewidth div mul mul mul
  Rounded { currentlinewidth 0.75 mul sub dup 0 le { pop 0.01 } if } if
} def
/dl2 {
  10.0 Dashlength userlinewidth gnulinewidth div mul mul mul
  Rounded { currentlinewidth 0.75 mul add } if
} def
/hpt_ 31.5 def
/vpt_ 31.5 def
/hpt hpt_ def
/vpt vpt_ def
/doclip {
  ClipToBoundingBox {
    newpath 50 50 moveto 588 50 lineto 588 475 lineto 50 475 lineto closepath
    clip
  } if
} def
%
% Gnuplot Prolog Version 5.1 (Oct 2015)
%
%/SuppressPDFMark true def
%
/M {moveto} bind def
/L {lineto} bind def
/R {rmoveto} bind def
/V {rlineto} bind def
/N {newpath moveto} bind def
/Z {closepath} bind def
/C {setrgbcolor} bind def
/f {rlineto fill} bind def
/g {setgray} bind def
/Gshow {show} def   % May be redefined later in the file to support UTF-8
/vpt2 vpt 2 mul def
/hpt2 hpt 2 mul def
/Lshow {currentpoint stroke M 0 vshift R 
	Blacktext {gsave 0 setgray textshow grestore} {textshow} ifelse} def
/Rshow {currentpoint stroke M dup stringwidth pop neg vshift R
	Blacktext {gsave 0 setgray textshow grestore} {textshow} ifelse} def
/Cshow {currentpoint stroke M dup stringwidth pop -2 div vshift R 
	Blacktext {gsave 0 setgray textshow grestore} {textshow} ifelse} def
/UP {dup vpt_ mul /vpt exch def hpt_ mul /hpt exch def
  /hpt2 hpt 2 mul def /vpt2 vpt 2 mul def} def
/DL {Color {setrgbcolor Solid {pop []} if 0 setdash}
 {pop pop pop 0 setgray Solid {pop []} if 0 setdash} ifelse} def
/BL {stroke userlinewidth 2 mul setlinewidth
	Rounded {1 setlinejoin 1 setlinecap} if} def
/AL {stroke userlinewidth 2 div setlinewidth
	Rounded {1 setlinejoin 1 setlinecap} if} def
/UL {dup gnulinewidth mul /userlinewidth exch def
	dup 1 lt {pop 1} if 10 mul /udl exch def} def
/PL {stroke userlinewidth setlinewidth
	Rounded {1 setlinejoin 1 setlinecap} if} def
3.8 setmiterlimit
% Classic Line colors (version 5.0)
/LCw {1 1 1} def
/LCb {0 0 0} def
/LCa {0 0 0} def
/LC0 {1 0 0} def
/LC1 {0 1 0} def
/LC2 {0 0 1} def
/LC3 {1 0 1} def
/LC4 {0 1 1} def
/LC5 {1 1 0} def
/LC6 {0 0 0} def
/LC7 {1 0.3 0} def
/LC8 {0.5 0.5 0.5} def
% Default dash patterns (version 5.0)
/LTB {BL [] LCb DL} def
/LTw {PL [] 1 setgray} def
/LTb {PL [] LCb DL} def
/LTa {AL [1 udl mul 2 udl mul] 0 setdash LCa setrgbcolor} def
/LT0 {PL [] LC0 DL} def
/LT1 {PL [2 dl1 3 dl2] LC1 DL} def
/LT2 {PL [1 dl1 1.5 dl2] LC2 DL} def
/LT3 {PL [6 dl1 2 dl2 1 dl1 2 dl2] LC3 DL} def
/LT4 {PL [1 dl1 2 dl2 6 dl1 2 dl2 1 dl1 2 dl2] LC4 DL} def
/LT5 {PL [4 dl1 2 dl2] LC5 DL} def
/LT6 {PL [1.5 dl1 1.5 dl2 1.5 dl1 1.5 dl2 1.5 dl1 6 dl2] LC6 DL} def
/LT7 {PL [3 dl1 3 dl2 1 dl1 3 dl2] LC7 DL} def
/LT8 {PL [2 dl1 2 dl2 2 dl1 6 dl2] LC8 DL} def
/SL {[] 0 setdash} def
/Pnt {stroke [] 0 setdash gsave 1 setlinecap M 0 0 V stroke grestore} def
/Dia {stroke [] 0 setdash 2 copy vpt add M
  hpt neg vpt neg V hpt vpt neg V
  hpt vpt V hpt neg vpt V closepath stroke
  Pnt} def
/Pls {stroke [] 0 setdash vpt sub M 0 vpt2 V
  currentpoint stroke M
  hpt neg vpt neg R hpt2 0 V stroke
 } def
/Box {stroke [] 0 setdash 2 copy exch hpt sub exch vpt add M
  0 vpt2 neg V hpt2 0 V 0 vpt2 V
  hpt2 neg 0 V closepath stroke
  Pnt} def
/Crs {stroke [] 0 setdash exch hpt sub exch vpt add M
  hpt2 vpt2 neg V currentpoint stroke M
  hpt2 neg 0 R hpt2 vpt2 V stroke} def
/TriU {stroke [] 0 setdash 2 copy vpt 1.12 mul add M
  hpt neg vpt -1.62 mul V
  hpt 2 mul 0 V
  hpt neg vpt 1.62 mul V closepath stroke
  Pnt} def
/Star {2 copy Pls Crs} def
/BoxF {stroke [] 0 setdash exch hpt sub exch vpt add M
  0 vpt2 neg V hpt2 0 V 0 vpt2 V
  hpt2 neg 0 V closepath fill} def
/TriUF {stroke [] 0 setdash vpt 1.12 mul add M
  hpt neg vpt -1.62 mul V
  hpt 2 mul 0 V
  hpt neg vpt 1.62 mul V closepath fill} def
/TriD {stroke [] 0 setdash 2 copy vpt 1.12 mul sub M
  hpt neg vpt 1.62 mul V
  hpt 2 mul 0 V
  hpt neg vpt -1.62 mul V closepath stroke
  Pnt} def
/TriDF {stroke [] 0 setdash vpt 1.12 mul sub M
  hpt neg vpt 1.62 mul V
  hpt 2 mul 0 V
  hpt neg vpt -1.62 mul V closepath fill} def
/DiaF {stroke [] 0 setdash vpt add M
  hpt neg vpt neg V hpt vpt neg V
  hpt vpt V hpt neg vpt V closepath fill} def
/Pent {stroke [] 0 setdash 2 copy gsave
  translate 0 hpt M 4 {72 rotate 0 hpt L} repeat
  closepath stroke grestore Pnt} def
/PentF {stroke [] 0 setdash gsave
  translate 0 hpt M 4 {72 rotate 0 hpt L} repeat
  closepath fill grestore} def
/Circle {stroke [] 0 setdash 2 copy
  hpt 0 360 arc stroke Pnt} def
/CircleF {stroke [] 0 setdash hpt 0 360 arc fill} def
/C0 {BL [] 0 setdash 2 copy moveto vpt 90 450 arc} bind def
/C1 {BL [] 0 setdash 2 copy moveto
	2 copy vpt 0 90 arc closepath fill
	vpt 0 360 arc closepath} bind def
/C2 {BL [] 0 setdash 2 copy moveto
	2 copy vpt 90 180 arc closepath fill
	vpt 0 360 arc closepath} bind def
/C3 {BL [] 0 setdash 2 copy moveto
	2 copy vpt 0 180 arc closepath fill
	vpt 0 360 arc closepath} bind def
/C4 {BL [] 0 setdash 2 copy moveto
	2 copy vpt 180 270 arc closepath fill
	vpt 0 360 arc closepath} bind def
/C5 {BL [] 0 setdash 2 copy moveto
	2 copy vpt 0 90 arc
	2 copy moveto
	2 copy vpt 180 270 arc closepath fill
	vpt 0 360 arc} bind def
/C6 {BL [] 0 setdash 2 copy moveto
	2 copy vpt 90 270 arc closepath fill
	vpt 0 360 arc closepath} bind def
/C7 {BL [] 0 setdash 2 copy moveto
	2 copy vpt 0 270 arc closepath fill
	vpt 0 360 arc closepath} bind def
/C8 {BL [] 0 setdash 2 copy moveto
	2 copy vpt 270 360 arc closepath fill
	vpt 0 360 arc closepath} bind def
/C9 {BL [] 0 setdash 2 copy moveto
	2 copy vpt 270 450 arc closepath fill
	vpt 0 360 arc closepath} bind def
/C10 {BL [] 0 setdash 2 copy 2 copy moveto vpt 270 360 arc closepath fill
	2 copy moveto
	2 copy vpt 90 180 arc closepath fill
	vpt 0 360 arc closepath} bind def
/C11 {BL [] 0 setdash 2 copy moveto
	2 copy vpt 0 180 arc closepath fill
	2 copy moveto
	2 copy vpt 270 360 arc closepath fill
	vpt 0 360 arc closepath} bind def
/C12 {BL [] 0 setdash 2 copy moveto
	2 copy vpt 180 360 arc closepath fill
	vpt 0 360 arc closepath} bind def
/C13 {BL [] 0 setdash 2 copy moveto
	2 copy vpt 0 90 arc closepath fill
	2 copy moveto
	2 copy vpt 180 360 arc closepath fill
	vpt 0 360 arc closepath} bind def
/C14 {BL [] 0 setdash 2 copy moveto
	2 copy vpt 90 360 arc closepath fill
	vpt 0 360 arc} bind def
/C15 {BL [] 0 setdash 2 copy vpt 0 360 arc closepath fill
	vpt 0 360 arc closepath} bind def
/Rec {newpath 4 2 roll moveto 1 index 0 rlineto 0 exch rlineto
	neg 0 rlineto closepath} bind def
/Square {dup Rec} bind def
/Bsquare {vpt sub exch vpt sub exch vpt2 Square} bind def
/S0 {BL [] 0 setdash 2 copy moveto 0 vpt rlineto BL Bsquare} bind def
/S1 {BL [] 0 setdash 2 copy vpt Square fill Bsquare} bind def
/S2 {BL [] 0 setdash 2 copy exch vpt sub exch vpt Square fill Bsquare} bind def
/S3 {BL [] 0 setdash 2 copy exch vpt sub exch vpt2 vpt Rec fill Bsquare} bind def
/S4 {BL [] 0 setdash 2 copy exch vpt sub exch vpt sub vpt Square fill Bsquare} bind def
/S5 {BL [] 0 setdash 2 copy 2 copy vpt Square fill
	exch vpt sub exch vpt sub vpt Square fill Bsquare} bind def
/S6 {BL [] 0 setdash 2 copy exch vpt sub exch vpt sub vpt vpt2 Rec fill Bsquare} bind def
/S7 {BL [] 0 setdash 2 copy exch vpt sub exch vpt sub vpt vpt2 Rec fill
	2 copy vpt Square fill Bsquare} bind def
/S8 {BL [] 0 setdash 2 copy vpt sub vpt Square fill Bsquare} bind def
/S9 {BL [] 0 setdash 2 copy vpt sub vpt vpt2 Rec fill Bsquare} bind def
/S10 {BL [] 0 setdash 2 copy vpt sub vpt Square fill 2 copy exch vpt sub exch vpt Square fill
	Bsquare} bind def
/S11 {BL [] 0 setdash 2 copy vpt sub vpt Square fill 2 copy exch vpt sub exch vpt2 vpt Rec fill
	Bsquare} bind def
/S12 {BL [] 0 setdash 2 copy exch vpt sub exch vpt sub vpt2 vpt Rec fill Bsquare} bind def
/S13 {BL [] 0 setdash 2 copy exch vpt sub exch vpt sub vpt2 vpt Rec fill
	2 copy vpt Square fill Bsquare} bind def
/S14 {BL [] 0 setdash 2 copy exch vpt sub exch vpt sub vpt2 vpt Rec fill
	2 copy exch vpt sub exch vpt Square fill Bsquare} bind def
/S15 {BL [] 0 setdash 2 copy Bsquare fill Bsquare} bind def
/D0 {gsave translate 45 rotate 0 0 S0 stroke grestore} bind def
/D1 {gsave translate 45 rotate 0 0 S1 stroke grestore} bind def
/D2 {gsave translate 45 rotate 0 0 S2 stroke grestore} bind def
/D3 {gsave translate 45 rotate 0 0 S3 stroke grestore} bind def
/D4 {gsave translate 45 rotate 0 0 S4 stroke grestore} bind def
/D5 {gsave translate 45 rotate 0 0 S5 stroke grestore} bind def
/D6 {gsave translate 45 rotate 0 0 S6 stroke grestore} bind def
/D7 {gsave translate 45 rotate 0 0 S7 stroke grestore} bind def
/D8 {gsave translate 45 rotate 0 0 S8 stroke grestore} bind def
/D9 {gsave translate 45 rotate 0 0 S9 stroke grestore} bind def
/D10 {gsave translate 45 rotate 0 0 S10 stroke grestore} bind def
/D11 {gsave translate 45 rotate 0 0 S11 stroke grestore} bind def
/D12 {gsave translate 45 rotate 0 0 S12 stroke grestore} bind def
/D13 {gsave translate 45 rotate 0 0 S13 stroke grestore} bind def
/D14 {gsave translate 45 rotate 0 0 S14 stroke grestore} bind def
/D15 {gsave translate 45 rotate 0 0 S15 stroke grestore} bind def
/DiaE {stroke [] 0 setdash vpt add M
  hpt neg vpt neg V hpt vpt neg V
  hpt vpt V hpt neg vpt V closepath stroke} def
/BoxE {stroke [] 0 setdash exch hpt sub exch vpt add M
  0 vpt2 neg V hpt2 0 V 0 vpt2 V
  hpt2 neg 0 V closepath stroke} def
/TriUE {stroke [] 0 setdash vpt 1.12 mul add M
  hpt neg vpt -1.62 mul V
  hpt 2 mul 0 V
  hpt neg vpt 1.62 mul V closepath stroke} def
/TriDE {stroke [] 0 setdash vpt 1.12 mul sub M
  hpt neg vpt 1.62 mul V
  hpt 2 mul 0 V
  hpt neg vpt -1.62 mul V closepath stroke} def
/PentE {stroke [] 0 setdash gsave
  translate 0 hpt M 4 {72 rotate 0 hpt L} repeat
  closepath stroke grestore} def
/CircE {stroke [] 0 setdash 
  hpt 0 360 arc stroke} def
/Opaque {gsave closepath 1 setgray fill grestore 0 setgray closepath} def
/DiaW {stroke [] 0 setdash vpt add M
  hpt neg vpt neg V hpt vpt neg V
  hpt vpt V hpt neg vpt V Opaque stroke} def
/BoxW {stroke [] 0 setdash exch hpt sub exch vpt add M
  0 vpt2 neg V hpt2 0 V 0 vpt2 V
  hpt2 neg 0 V Opaque stroke} def
/TriUW {stroke [] 0 setdash vpt 1.12 mul add M
  hpt neg vpt -1.62 mul V
  hpt 2 mul 0 V
  hpt neg vpt 1.62 mul V Opaque stroke} def
/TriDW {stroke [] 0 setdash vpt 1.12 mul sub M
  hpt neg vpt 1.62 mul V
  hpt 2 mul 0 V
  hpt neg vpt -1.62 mul V Opaque stroke} def
/PentW {stroke [] 0 setdash gsave
  translate 0 hpt M 4 {72 rotate 0 hpt L} repeat
  Opaque stroke grestore} def
/CircW {stroke [] 0 setdash 
  hpt 0 360 arc Opaque stroke} def
/BoxFill {gsave Rec 1 setgray fill grestore} def
/Density {
  /Fillden exch def
  currentrgbcolor
  /ColB exch def /ColG exch def /ColR exch def
  /ColR ColR Fillden mul Fillden sub 1 add def
  /ColG ColG Fillden mul Fillden sub 1 add def
  /ColB ColB Fillden mul Fillden sub 1 add def
  ColR ColG ColB setrgbcolor} def
/BoxColFill {gsave Rec PolyFill} def
/PolyFill {gsave Density fill grestore grestore} def
/h {rlineto rlineto rlineto gsave closepath fill grestore} bind def
%
% PostScript Level 1 Pattern Fill routine for rectangles
% Usage: x y w h s a XX PatternFill
%	x,y = lower left corner of box to be filled
%	w,h = width and height of box
%	  a = angle in degrees between lines and x-axis
%	 XX = 0/1 for no/yes cross-hatch
%
/PatternFill {gsave /PFa [ 9 2 roll ] def
  PFa 0 get PFa 2 get 2 div add PFa 1 get PFa 3 get 2 div add translate
  PFa 2 get -2 div PFa 3 get -2 div PFa 2 get PFa 3 get Rec
  TransparentPatterns {} {gsave 1 setgray fill grestore} ifelse
  clip
  currentlinewidth 0.5 mul setlinewidth
  /PFs PFa 2 get dup mul PFa 3 get dup mul add sqrt def
  0 0 M PFa 5 get rotate PFs -2 div dup translate
  0 1 PFs PFa 4 get div 1 add floor cvi
	{PFa 4 get mul 0 M 0 PFs V} for
  0 PFa 6 get ne {
	0 1 PFs PFa 4 get div 1 add floor cvi
	{PFa 4 get mul 0 2 1 roll M PFs 0 V} for
 } if
  stroke grestore} def
%
/languagelevel where
 {pop languagelevel} {1} ifelse
dup 2 lt
	{/InterpretLevel1 true def
	 /InterpretLevel3 false def}
	{/InterpretLevel1 Level1 def
	 2 gt
	    {/InterpretLevel3 Level3 def}
	    {/InterpretLevel3 false def}
	 ifelse }
 ifelse
%
% PostScript level 2 pattern fill definitions
%
/Level2PatternFill {
/Tile8x8 {/PaintType 2 /PatternType 1 /TilingType 1 /BBox [0 0 8 8] /XStep 8 /YStep 8}
	bind def
/KeepColor {currentrgbcolor [/Pattern /DeviceRGB] setcolorspace} bind def
<< Tile8x8
 /PaintProc {0.5 setlinewidth pop 0 0 M 8 8 L 0 8 M 8 0 L stroke} 
>> matrix makepattern
/Pat1 exch def
<< Tile8x8
 /PaintProc {0.5 setlinewidth pop 0 0 M 8 8 L 0 8 M 8 0 L stroke
	0 4 M 4 8 L 8 4 L 4 0 L 0 4 L stroke}
>> matrix makepattern
/Pat2 exch def
<< Tile8x8
 /PaintProc {0.5 setlinewidth pop 0 0 M 0 8 L
	8 8 L 8 0 L 0 0 L fill}
>> matrix makepattern
/Pat3 exch def
<< Tile8x8
 /PaintProc {0.5 setlinewidth pop -4 8 M 8 -4 L
	0 12 M 12 0 L stroke}
>> matrix makepattern
/Pat4 exch def
<< Tile8x8
 /PaintProc {0.5 setlinewidth pop -4 0 M 8 12 L
	0 -4 M 12 8 L stroke}
>> matrix makepattern
/Pat5 exch def
<< Tile8x8
 /PaintProc {0.5 setlinewidth pop -2 8 M 4 -4 L
	0 12 M 8 -4 L 4 12 M 10 0 L stroke}
>> matrix makepattern
/Pat6 exch def
<< Tile8x8
 /PaintProc {0.5 setlinewidth pop -2 0 M 4 12 L
	0 -4 M 8 12 L 4 -4 M 10 8 L stroke}
>> matrix makepattern
/Pat7 exch def
<< Tile8x8
 /PaintProc {0.5 setlinewidth pop 8 -2 M -4 4 L
	12 0 M -4 8 L 12 4 M 0 10 L stroke}
>> matrix makepattern
/Pat8 exch def
<< Tile8x8
 /PaintProc {0.5 setlinewidth pop 0 -2 M 12 4 L
	-4 0 M 12 8 L -4 4 M 8 10 L stroke}
>> matrix makepattern
/Pat9 exch def
/Pattern1 {PatternBgnd KeepColor Pat1 setpattern} bind def
/Pattern2 {PatternBgnd KeepColor Pat2 setpattern} bind def
/Pattern3 {PatternBgnd KeepColor Pat3 setpattern} bind def
/Pattern4 {PatternBgnd KeepColor Landscape {Pat5} {Pat4} ifelse setpattern} bind def
/Pattern5 {PatternBgnd KeepColor Landscape {Pat4} {Pat5} ifelse setpattern} bind def
/Pattern6 {PatternBgnd KeepColor Landscape {Pat9} {Pat6} ifelse setpattern} bind def
/Pattern7 {PatternBgnd KeepColor Landscape {Pat8} {Pat7} ifelse setpattern} bind def
} def
%
%
%End of PostScript Level 2 code
%
/PatternBgnd {
  TransparentPatterns {} {gsave 1 setgray fill grestore} ifelse
} def
%
% Substitute for Level 2 pattern fill codes with
% grayscale if Level 2 support is not selected.
%
/Level1PatternFill {
/Pattern1 {0.250 Density} bind def
/Pattern2 {0.500 Density} bind def
/Pattern3 {0.750 Density} bind def
/Pattern4 {0.125 Density} bind def
/Pattern5 {0.375 Density} bind def
/Pattern6 {0.625 Density} bind def
/Pattern7 {0.875 Density} bind def
} def
%
% Now test for support of Level 2 code
%
Level1 {Level1PatternFill} {Level2PatternFill} ifelse
%
/Symbol-Oblique /Symbol findfont [1 0 .167 1 0 0] makefont
dup length dict begin {1 index /FID eq {pop pop} {def} ifelse} forall
currentdict end definefont pop
%
/Metrics {ExtendTextBox Gswidth} def
/Lwidth {currentpoint stroke M 0 vshift R Metrics} def
/Rwidth {currentpoint stroke M dup stringwidth pop neg vshift R Metrics} def
/Cwidth {currentpoint stroke M dup stringwidth pop -2 div vshift R Metrics} def
/GLwidth {currentpoint stroke M 0 vshift R {ExtendTextBox} forall} def
/GRwidth {currentpoint stroke M dup Gwidth vshift R {ExtendTextBox} forall} def
/GCwidth {currentpoint stroke M dup Gwidth 2 div vshift R {ExtendTextBox} forall} def
/GLwidth2 {0 Gwidth AddGlyphWidth} def
/GRwidth2 {Gwidth -1 mul 0 AddGlyphWidth} def
/GCwidth2 {Gwidth 2 div dup -1 mul AddGlyphWidth} def
/AddGlyphWidth { dup TBx2 gt {userdict /TBx2 3 -1 roll put} {pop} ifelse
                 dup TBx1 lt {userdict /TBx1 3 -1 roll put} {pop} ifelse } def
/MFshow {
   { dup 5 get 3 ge
     { 5 get 3 eq {gsave} {grestore} ifelse }
     {dup dup 0 get findfont exch 1 get scalefont setfont
     [ currentpoint ] exch dup 2 get 0 exch R dup 5 get 2 ne {dup dup 6
     get exch 4 get {textshow} {Metrics pop 0 R} ifelse }if dup 5 get 0 eq
     {dup 3 get {2 get neg 0 exch R pop} {pop aload pop M} ifelse} {dup 5
     get 1 eq {dup 2 get exch dup 3 get exch 6 get Gswidth pop -2 div
     dup 0 R} {dup 6 get Gswidth pop -2 div 0 R 6 get
     textshow 2 index {aload pop M neg 3 -1 roll neg R pop pop} {pop pop pop
     pop aload pop M} ifelse }ifelse }ifelse }
     ifelse }
   forall} def
/Gswidth {dup type /stringtype eq {stringwidth} {pop (n) stringwidth} ifelse} def
/MFwidth {0 exch { dup 5 get 3 ge { 5 get 3 eq { 0 } { pop } ifelse }
 {dup 3 get{dup dup 0 get findfont exch 1 get scalefont setfont
     6 get Gswidth pop add} {pop} ifelse} ifelse} forall} def
/MLshow { currentpoint stroke M
  0 exch R
  Blacktext {gsave 0 setgray MFshow grestore} {MFshow} ifelse } bind def
/MRshow { currentpoint stroke M
  exch dup MFwidth neg 3 -1 roll R
  Blacktext {gsave 0 setgray MFshow grestore} {MFshow} ifelse } bind def
/MCshow { currentpoint stroke M
  exch dup MFwidth -2 div 3 -1 roll R
  Blacktext {gsave 0 setgray MFshow grestore} {MFshow} ifelse } bind def
/XYsave    { [( ) 1 2 true false 3 ()] } bind def
/XYrestore { [( ) 1 2 true false 4 ()] } bind def
Level1 SuppressPDFMark or 
{} {
/SDict 10 dict def
systemdict /pdfmark known not {
  userdict /pdfmark systemdict /cleartomark get put
} if
SDict begin [
  /Title (tms.ps)
  /Subject (gnuplot plot)
  /Creator (gnuplot 5.2 patchlevel 2)
%  /Producer (gnuplot)
%  /Keywords ()
  /CreationDate (Fri Apr 10 17:57:08 2020)
  /DOCINFO pdfmark
end
} ifelse
%
% Support for boxed text - Ethan A Merritt Sep 2016
%
/InitTextBox { userdict /TBy2 3 -1 roll put userdict /TBx2 3 -1 roll put
           userdict /TBy1 3 -1 roll put userdict /TBx1 3 -1 roll put
	   /Boxing true def } def
/ExtendTextBox { dup type /stringtype eq
    { Boxing { gsave dup false charpath pathbbox
      dup TBy2 gt {userdict /TBy2 3 -1 roll put} {pop} ifelse
      dup TBx2 gt {userdict /TBx2 3 -1 roll put} {pop} ifelse
      dup TBy1 lt {userdict /TBy1 3 -1 roll put} {pop} ifelse
      dup TBx1 lt {userdict /TBx1 3 -1 roll put} {pop} ifelse
      grestore } if }
    {} ifelse} def
/PopTextBox { newpath TBx1 TBxmargin sub TBy1 TBymargin sub M
               TBx1 TBxmargin sub TBy2 TBymargin add L
	       TBx2 TBxmargin add TBy2 TBymargin add L
	       TBx2 TBxmargin add TBy1 TBymargin sub L closepath } def
/DrawTextBox { PopTextBox stroke /Boxing false def} def
/FillTextBox { gsave PopTextBox fill grestore /Boxing false def} def
0 0 0 0 InitTextBox
/TBxmargin 20 def
/TBymargin 20 def
/Boxing false def
/textshow { ExtendTextBox Gshow } def
%
end
%%EndProlog
%%Page: 1 1
gnudict begin
gsave
doclip
50 50 translate
0.100 0.100 scale
0 setgray
newpath
(Times-Roman) findfont 200 scalefont setfont
BackgroundColor 0 lt 3 1 roll 0 lt exch 0 lt or or not {gsave BackgroundColor C clippath fill grestore} if
1.000 UL
LTb
LCb setrgbcolor
837 2638 M
63 0 V
4208 0 R
-63 0 V
stroke
717 2638 M
[ [(Times-Roman) 200.0 0.0 true true 0 (0)]
] -66.7 MRshow
1.000 UL
LTb
LCb setrgbcolor
837 3238 M
63 0 V
4208 0 R
-63 0 V
stroke
717 3238 M
[ [(Times-Roman) 200.0 0.0 true true 0 (40)]
] -66.7 MRshow
1.000 UL
LTb
LCb setrgbcolor
837 3838 M
63 0 V
4208 0 R
-63 0 V
stroke
717 3838 M
[ [(Times-Roman) 200.0 0.0 true true 0 (80)]
] -66.7 MRshow
1.000 UL
LTb
LCb setrgbcolor
837 2338 M
0 63 V
0 1437 R
0 -63 V
stroke
837 2138 M
[ [(Times-Roman) 200.0 0.0 true true 0 (-0.1)]
] -66.7 MCshow
1.000 UL
LTb
LCb setrgbcolor
1905 2338 M
0 63 V
0 1437 R
0 -63 V
stroke
1905 2138 M
[ [(Times-Roman) 200.0 0.0 true true 0 (0.0)]
] -66.7 MCshow
1.000 UL
LTb
LCb setrgbcolor
2973 2338 M
0 63 V
0 1437 R
0 -63 V
stroke
2973 2138 M
[ [(Times-Roman) 200.0 0.0 true true 0 (0.1)]
] -66.7 MCshow
1.000 UL
LTb
LCb setrgbcolor
4040 2338 M
0 63 V
0 1437 R
0 -63 V
stroke
4040 2138 M
[ [(Times-Roman) 200.0 0.0 true true 0 (0.2)]
] -66.7 MCshow
1.000 UL
LTb
LCb setrgbcolor
5108 2338 M
0 63 V
0 1437 R
0 -63 V
stroke
5108 2138 M
[ [(Times-Roman) 200.0 0.0 true true 0 (0.3)]
] -66.7 MCshow
1.000 UL
LTb
LCb setrgbcolor
1.000 UL
LTa
LCb setrgbcolor
837 2638 M
4271 0 V
stroke
LTB
LCb setrgbcolor
837 3838 N
0 -1500 V
4271 0 V
0 1500 V
-4271 0 V
Z stroke
1.000 UP
1.000 UL
LTb
LCb setrgbcolor
LCb setrgbcolor
277 3088 M
currentpoint gsave translate -270 rotate 0 0 moveto
[ [(Times-Roman) 200.0 0.0 true true 0 (i)]
[(Times-Roman) 160.0 -60.0 true true 0 (ph)]
[(Times-Roman) 200.0 0.0 true true 0 ( \(nA\))]
] -46.7 MCshow
grestore
LTb
LCb setrgbcolor
2972 1838 M
[ [(Times-Roman) 200.0 0.0 true true 0 (E \(V vs Ag/AgCl\))]
] -66.7 MCshow
LTb
% Begin plot #1
2.000 UL
LTb
1.00 0.00 0.00 C LCb setrgbcolor
2654 3458 M
[ [(Times-Roman) 160.0 0.0 true true 0 (cys+)]
] -53.3 MRshow
2.000 UL
LTb
1.00 0.00 0.00 C 2750 3458 M
447 0 V
884 -804 R
4 0 V
3 0 V
5 0 V
4 1 V
5 0 V
4 -2 V
4 -2 V
4 -3 V
4 -1 V
4 -1 V
5 0 V
4 1 V
4 0 V
4 1 V
4 0 V
5 1 V
3 1 V
5 0 V
4 -1 V
4 -1 V
4 -1 V
4 -1 V
4 0 V
4 0 V
5 -1 V
4 0 V
4 0 V
4 0 V
5 0 V
4 1 V
3 1 V
5 2 V
4 0 V
5 0 V
4 -1 V
4 -1 V
5 -1 V
3 0 V
5 0 V
4 0 V
5 0 V
3 -1 V
4 -2 V
6 -1 V
3 0 V
4 1 V
4 -1 V
5 0 V
3 0 V
4 0 V
5 1 V
4 1 V
4 1 V
4 1 V
5 1 V
4 0 V
4 -1 V
5 -2 V
3 -2 V
5 -1 V
4 0 V
4 1 V
4 1 V
5 0 V
4 0 V
4 1 V
4 0 V
4 0 V
4 -1 V
5 -1 V
4 0 V
4 0 V
4 0 V
5 0 V
4 -1 V
4 -1 V
4 0 V
4 1 V
4 0 V
4 1 V
5 -1 V
4 0 V
4 -2 V
5 1 V
4 2 V
3 1 V
5 0 V
5 0 V
3 0 V
4 0 V
5 0 V
3 0 V
5 0 V
5 0 V
3 0 V
4 0 V
5 -1 V
4 1 V
4 0 V
4 1 V
5 1 V
3 1 V
5 0 V
4 0 V
4 1 V
4 0 V
4 0 V
4 0 V
5 1 V
4 0 V
4 -1 V
4 -1 V
5 0 V
4 -1 V
4 -1 V
4 1 V
4 1 V
4 1 V
4 1 V
4 2 V
5 0 V
3 0 V
5 0 V
3 -1 V
5 -1 V
4 -1 V
4 -1 V
5 0 V
3 1 V
5 0 V
4 -1 V
4 0 V
4 0 V
5 0 V
4 0 V
4 0 V
4 1 V
4 1 V
4 2 V
5 1 V
4 1 V
4 0 V
4 -1 V
4 -1 V
4 0 V
4 1 V
5 0 V
4 1 V
4 -1 V
4 0 V
5 0 V
4 -1 V
4 -1 V
4 0 V
4 0 V
5 1 V
4 2 V
4 1 V
4 1 V
4 0 V
4 -1 V
4 0 V
4 -1 V
5 -1 V
4 -1 V
4 -1 V
4 -1 V
5 0 V
4 0 V
3 1 V
5 2 V
5 1 V
3 1 V
5 2 V
4 1 V
4 0 V
4 1 V
5 0 V
4 0 V
4 0 V
4 0 V
4 1 V
4 0 V
4 -1 V
5 -1 V
4 0 V
4 0 V
5 0 V
3 0 V
5 -1 V
3 -1 V
5 0 V
4 -1 V
5 -1 V
4 -1 V
4 -2 V
5 -1 V
3 -1 V
4 0 V
5 0 V
3 0 V
5 1 V
5 1 V
4 1 V
4 2 V
4 2 V
4 2 V
4 0 V
4 -1 V
5 0 V
3 -1 V
5 -1 V
4 0 V
4 1 V
5 0 V
3 0 V
5 -1 V
4 0 V
4 -1 V
4 0 V
4 0 V
5 0 V
4 0 V
3 0 V
5 1 V
3 1 V
6 0 V
3 0 V
4 -1 V
5 0 V
4 -1 V
4 0 V
4 -1 V
5 0 V
4 1 V
4 1 V
4 2 V
4 0 V
5 1 V
3 -1 V
5 -1 V
4 0 V
4 0 V
5 0 V
3 0 V
4 0 V
0 -2 R
-3 0 V
stroke 5105 2652 M
-4 0 V
-4 0 V
-4 1 V
-5 0 V
-4 -1 V
-4 -1 V
-4 1 V
-5 1 V
-4 0 V
-4 -1 V
-5 -2 V
-4 -1 V
-4 -1 V
-4 1 V
-5 2 V
-4 2 V
-4 1 V
-4 1 V
-5 -1 V
-4 0 V
-4 0 V
-5 1 V
-4 0 V
-4 0 V
-4 -1 V
-5 0 V
-4 -1 V
-3 0 V
-5 0 V
-4 1 V
-5 -1 V
-4 0 V
-5 0 V
-3 0 V
-4 1 V
-5 0 V
-4 -1 V
-4 -1 V
-5 0 V
-4 0 V
-4 0 V
-4 0 V
-6 0 V
-3 -1 V
-4 -1 V
-4 -1 V
-5 -2 V
-4 -1 V
-4 0 V
-5 1 V
-4 1 V
-4 1 V
-4 0 V
-5 1 V
-5 -1 V
-3 -1 V
-5 -2 V
-4 -1 V
-5 0 V
-4 0 V
-4 1 V
-4 1 V
-5 2 V
-3 1 V
-5 0 V
-4 0 V
-4 0 V
-4 1 V
-5 0 V
-5 -1 V
-3 0 V
-4 0 V
-4 1 V
-5 1 V
-4 0 V
-4 0 V
-5 0 V
-4 0 V
-3 -1 V
-5 -2 V
-5 -1 V
-4 0 V
-4 -1 V
-5 -2 V
-3 -1 V
-4 0 V
-5 0 V
-4 2 V
-4 1 V
-4 0 V
-4 -1 V
-5 -2 V
-4 -1 V
-5 -2 V
-3 0 V
-5 2 V
-5 2 V
-4 1 V
-3 1 V
-5 0 V
-4 0 V
-4 0 V
-5 -1 V
-4 -2 V
-4 -1 V
-4 -1 V
-4 -1 V
-5 0 V
-4 1 V
-4 0 V
-5 0 V
-4 0 V
-4 0 V
-5 0 V
-4 0 V
-4 1 V
-5 0 V
-4 0 V
-4 0 V
-5 0 V
-4 0 V
-4 0 V
-5 1 V
-4 0 V
-4 1 V
-4 1 V
-4 0 V
-5 0 V
-4 -2 V
-4 -2 V
-5 -3 V
-4 -1 V
-4 2 V
-5 2 V
-4 1 V
-4 1 V
-4 -1 V
-5 -1 V
-4 -1 V
-4 0 V
-4 0 V
-4 0 V
-4 0 V
-5 0 V
-4 1 V
-5 0 V
-4 0 V
-4 -2 V
-5 0 V
-4 0 V
-4 1 V
-5 2 V
-3 1 V
-5 1 V
-4 0 V
-4 -2 V
-5 -2 V
-4 0 V
-4 0 V
-4 1 V
-5 2 V
-4 0 V
-4 1 V
-4 0 V
-5 -1 V
-4 0 V
-4 -1 V
-5 1 V
-4 1 V
-4 1 V
-4 0 V
-4 -1 V
-4 -2 V
-5 -1 V
-4 0 V
-5 1 V
-4 1 V
-4 2 V
-5 1 V
-3 2 V
-5 1 V
-4 -1 V
-4 -1 V
-4 -2 V
-5 -1 V
-4 -1 V
-3 1 V
-5 1 V
-4 2 V
-5 1 V
-4 1 V
-5 -1 V
-3 0 V
-5 1 V
-4 2 V
-5 1 V
-3 2 V
-4 0 V
-5 -2 V
-4 -2 V
-5 -2 V
-4 -2 V
-4 -1 V
-5 1 V
-3 1 V
-5 1 V
-4 0 V
-4 0 V
-5 0 V
-4 1 V
-4 2 V
-5 1 V
-4 1 V
-4 0 V
-4 0 V
-5 -1 V
-4 0 V
-4 1 V
-5 0 V
-4 0 V
-3 0 V
-5 0 V
-4 0 V
-4 1 V
-5 0 V
-4 0 V
-4 2 V
-4 2 V
-5 2 V
-4 -1 V
-4 0 V
-5 -2 V
-4 0 V
-4 0 V
-4 1 V
-4 1 V
-5 0 V
-4 0 V
-4 0 V
-4 -1 V
-5 0 V
-4 -1 V
-4 0 V
-4 -1 V
-4 0 V
-5 0 V
-4 2 V
-5 1 V
-3 2 V
stroke 4046 2662 M
-5 0 V
-4 0 V
-4 0 V
-4 0 V
-5 -1 V
-4 0 V
-5 0 V
-4 0 V
-4 0 V
-4 -1 V
-5 -1 V
-4 -1 V
-3 -1 V
-5 -1 V
-5 1 V
-4 1 V
-4 2 V
-4 1 V
-5 1 V
-4 2 V
-4 1 V
-5 1 V
-4 1 V
-4 0 V
-4 0 V
-3 0 V
-6 1 V
-4 0 V
-4 1 V
-4 1 V
-5 0 V
-4 1 V
-4 -1 V
-5 -1 V
-3 -2 V
-5 -1 V
-4 -1 V
-4 0 V
-5 0 V
-4 1 V
-4 1 V
-5 1 V
-4 2 V
-4 1 V
-4 1 V
-4 0 V
-4 1 V
-5 0 V
-5 1 V
-3 0 V
-5 -1 V
-4 0 V
-4 0 V
-4 0 V
-5 0 V
-4 -1 V
-4 -1 V
-5 0 V
-4 1 V
-4 1 V
-4 1 V
-5 1 V
-3 0 V
-5 0 V
-4 -1 V
-5 0 V
-4 -1 V
-4 0 V
-4 0 V
-5 -1 V
-3 0 V
-5 0 V
-5 0 V
-3 0 V
-4 0 V
-5 0 V
-4 0 V
-5 0 V
-4 1 V
-4 1 V
-4 2 V
-5 2 V
-4 0 V
-4 0 V
-4 -1 V
-6 -1 V
-3 1 V
-4 0 V
-4 1 V
-5 1 V
-4 1 V
-4 1 V
-5 1 V
-3 1 V
-5 1 V
-4 0 V
-5 -2 V
-3 -1 V
-5 -2 V
-4 -1 V
-5 -1 V
-3 1 V
-5 1 V
-5 1 V
-3 0 V
-4 0 V
-5 2 V
-5 1 V
-4 0 V
-4 0 V
-4 0 V
-4 -1 V
-5 0 V
-3 1 V
-5 1 V
-4 1 V
-5 0 V
-4 -1 V
-4 -1 V
-4 -2 V
-4 -1 V
-4 1 V
-4 1 V
-5 2 V
-4 1 V
-5 0 V
-4 -1 V
-4 0 V
-4 -1 V
-5 0 V
-5 -1 V
-3 -1 V
-4 0 V
-5 2 V
-4 2 V
-4 1 V
-4 2 V
-5 0 V
-4 -1 V
-4 -2 V
-5 -2 V
-4 -1 V
-5 0 V
-3 0 V
-4 1 V
-5 0 V
-4 1 V
-4 0 V
-5 -1 V
-5 2 V
-3 1 V
-4 2 V
-4 2 V
-5 1 V
-4 0 V
-4 1 V
-5 1 V
-3 0 V
-5 1 V
-5 -1 V
-4 -1 V
-4 -1 V
-4 -2 V
-4 -2 V
-5 0 V
-4 0 V
-4 0 V
-5 0 V
-4 1 V
-4 0 V
-4 0 V
-5 1 V
-4 1 V
-4 2 V
-4 1 V
-5 2 V
-3 2 V
-5 1 V
-4 1 V
-4 -1 V
-5 0 V
-4 -1 V
-4 -2 V
-4 -2 V
-5 0 V
-5 1 V
-2 0 V
-5 -1 V
-5 0 V
-4 -1 V
-5 0 V
-3 -1 V
-5 0 V
-5 -1 V
-3 0 V
-5 0 V
-3 1 V
-5 1 V
-5 1 V
-4 0 V
-5 0 V
-4 -1 V
-3 0 V
-4 0 V
-5 1 V
-4 0 V
-4 0 V
-5 1 V
-4 0 V
-4 1 V
-4 0 V
-5 0 V
-3 1 V
-5 2 V
-4 1 V
-5 1 V
-4 -1 V
-4 -1 V
-4 0 V
-5 1 V
-4 1 V
-4 1 V
-4 1 V
-5 1 V
-4 0 V
-5 -1 V
-3 -1 V
-5 0 V
-3 0 V
-5 0 V
-4 -1 V
-4 0 V
-5 0 V
-4 0 V
-4 -1 V
-5 -2 V
-5 0 V
-3 0 V
-4 1 V
-5 1 V
-4 0 V
-4 -2 V
-4 -1 V
-5 -1 V
-4 -1 V
-4 1 V
-5 0 V
-4 1 V
-3 0 V
stroke 2987 2696 M
-5 0 V
-5 0 V
-3 0 V
-4 0 V
-6 0 V
-3 1 V
-4 2 V
-4 1 V
-5 1 V
-4 1 V
-4 1 V
-6 1 V
-3 0 V
-4 -1 V
-4 -2 V
-5 -3 V
-4 -1 V
-4 0 V
-4 0 V
-5 1 V
-4 0 V
-4 1 V
-5 1 V
-4 2 V
-4 1 V
-5 1 V
-4 1 V
-4 -1 V
-4 -1 V
-4 0 V
-4 0 V
-6 1 V
-4 0 V
-4 -1 V
-4 0 V
-4 0 V
-5 1 V
-4 1 V
-4 0 V
-4 -1 V
-5 -1 V
-4 0 V
-4 0 V
-4 0 V
-5 0 V
-4 0 V
-4 -1 V
-4 0 V
-5 1 V
-4 0 V
-4 0 V
-4 -1 V
-4 -1 V
-5 0 V
-4 0 V
-4 1 V
-5 1 V
-4 0 V
-4 0 V
-5 -1 V
-3 -1 V
-5 1 V
-5 1 V
-3 2 V
-5 1 V
-5 1 V
-4 1 V
-3 0 V
-5 1 V
-5 0 V
-3 0 V
-4 0 V
-5 -1 V
-5 0 V
-3 -1 V
-5 -2 V
-4 -1 V
-4 -2 V
-5 0 V
-4 -1 V
-4 -1 V
-4 1 V
-4 1 V
-5 1 V
-4 1 V
-4 1 V
-5 2 V
-4 1 V
-5 1 V
-4 1 V
-3 0 V
-6 -1 V
-3 0 V
-5 -2 V
-4 -3 V
-4 -1 V
-4 -1 V
-4 0 V
-5 0 V
-4 1 V
-4 0 V
-4 1 V
-4 0 V
-5 1 V
-4 0 V
-4 0 V
-5 0 V
-4 -1 V
-4 0 V
-5 0 V
-4 0 V
-4 1 V
-4 0 V
-5 1 V
-4 2 V
-4 1 V
-4 0 V
-5 1 V
-3 0 V
-5 -1 V
-4 -1 V
-4 0 V
-5 0 V
-4 0 V
-4 -1 V
-4 -1 V
-5 -2 V
-4 0 V
-4 1 V
-5 1 V
-4 2 V
-4 1 V
-5 2 V
-4 1 V
-4 1 V
-5 0 V
-4 -1 V
-4 -1 V
-4 -1 V
-4 -1 V
-5 0 V
-4 -1 V
-4 0 V
-4 1 V
-5 2 V
-4 2 V
-4 1 V
-4 1 V
-5 1 V
-4 1 V
-4 0 V
-4 -1 V
-5 -2 V
-4 -3 V
-4 -3 V
-5 -3 V
-4 -2 V
-4 -1 V
-4 -1 V
-4 2 V
-5 3 V
-4 3 V
-4 2 V
-4 3 V
-5 1 V
-4 0 V
-5 -1 V
-3 -2 V
-5 -1 V
-4 -1 V
-4 0 V
-4 -2 V
-5 1 V
-4 2 V
-4 0 V
-4 -1 V
-5 0 V
-4 0 V
-4 1 V
-4 0 V
-5 -1 V
-4 -3 V
-4 -3 V
-4 -3 V
-5 -1 V
-4 1 V
-4 3 V
-4 2 V
-5 1 V
-4 0 V
-4 -1 V
-4 0 V
-5 0 V
-4 1 V
-4 1 V
-4 2 V
-5 1 V
-3 0 V
-5 0 V
-4 0 V
-4 0 V
-4 -1 V
-5 -1 V
-4 -1 V
-4 0 V
-4 -1 V
-5 0 V
-4 1 V
-4 0 V
-4 -1 V
-4 0 V
-5 1 V
-4 0 V
-4 1 V
-5 0 V
-3 0 V
-5 1 V
-4 0 V
-4 1 V
-4 0 V
-5 1 V
-4 0 V
-4 -1 V
-5 -2 V
-4 -2 V
-4 -2 V
-4 -1 V
-4 0 V
-4 1 V
-5 2 V
-4 1 V
-4 1 V
-5 1 V
-4 -2 V
-4 -1 V
-4 -2 V
-5 -1 V
-4 0 V
-4 1 V
-4 0 V
-5 0 V
-4 0 V
-4 1 V
-4 0 V
-5 0 V
-4 -1 V
-4 -2 V
-4 0 V
-5 1 V
stroke 1927 2704 M
-4 1 V
-4 1 V
-4 0 V
-5 0 V
-4 2 V
-4 2 V
-4 2 V
-4 1 V
-5 0 V
-4 0 V
-4 0 V
-4 -1 V
-5 -2 V
-4 -1 V
-4 -1 V
-4 -2 V
-5 0 V
-4 -1 V
-4 0 V
-4 0 V
-5 0 V
-4 1 V
-4 1 V
-5 0 V
-4 1 V
-4 0 V
-4 1 V
-4 1 V
-5 1 V
-4 1 V
-4 1 V
-4 1 V
-4 1 V
-5 1 V
-4 0 V
-4 -1 V
-5 0 V
-4 -1 V
-4 -1 V
-4 -2 V
-4 -1 V
-5 0 V
-4 0 V
-5 0 V
-4 0 V
-4 -1 V
-4 -1 V
-4 1 V
-4 2 V
-5 3 V
-4 3 V
-4 2 V
-4 2 V
-5 1 V
-4 1 V
-4 -1 V
-4 -2 V
-5 -3 V
-4 -1 V
-4 0 V
-4 1 V
-5 1 V
-4 2 V
-4 1 V
-5 1 V
-4 0 V
-4 1 V
-4 3 V
-4 3 V
-5 2 V
-4 1 V
-4 -1 V
-4 0 V
-5 -1 V
-4 -1 V
-4 0 V
-4 1 V
-5 2 V
-4 2 V
-4 2 V
-4 1 V
-5 1 V
-4 0 V
-4 0 V
-4 1 V
-5 1 V
-4 1 V
-4 1 V
-4 1 V
-4 1 V
-5 1 V
-4 0 V
-4 1 V
-4 1 V
-5 0 V
-4 1 V
-4 0 V
-4 2 V
-5 1 V
-4 2 V
-4 2 V
-4 2 V
-5 1 V
-4 -1 V
-4 0 V
-4 0 V
-5 1 V
-4 1 V
-4 2 V
-5 3 V
-4 2 V
-4 3 V
-4 4 V
-4 3 V
-5 2 V
-4 3 V
-4 1 V
-4 2 V
-4 2 V
-5 0 V
-4 0 V
-4 1 V
-5 2 V
-4 1 V
-4 1 V
-4 1 V
-4 2 V
-5 3 V
-4 3 V
-4 2 V
-5 1 V
-4 1 V
-4 2 V
-4 2 V
-4 1 V
-5 1 V
-4 1 V
-5 0 V
-3 2 V
-5 2 V
-4 2 V
-4 3 V
-5 2 V
-4 2 V
-4 1 V
-5 2 V
-3 3 V
-5 4 V
-5 4 V
-3 3 V
-4 2 V
-5 1 V
-4 -1 V
-3 0 V
-6 0 V
-4 1 V
-5 3 V
-3 4 V
-5 3 V
-4 2 V
-5 2 V
-4 2 V
-4 2 V
-3 2 V
-5 3 V
-4 1 V
-4 0 V
-5 2 V
-5 2 V
-3 2 V
-5 2 V
-4 2 V
-4 0 V
-4 0 V
-4 3 V
-4 4 V
-5 5 V
-4 5 V
-4 3 V
-5 2 V
-4 1 V
-4 0 V
-4 0 V
-4 1 V
-4 1 V
-5 1 V
-4 1 V
-5 2 V
-4 3 V
-3 4 V
-5 4 V
-3 4 V
-6 3 V
-3 4 V
-5 4 V
-4 3 V
-4 5 V
-4 5 V
-5 3 V
-3 1 V
-6 -2 V
-3 -4 V
-5 -3 V
-4 0 V
-4 2 V
-4 3 V
-4 5 V
-5 4 V
-4 2 V
-4 2 V
-4 1 V
-4 2 V
-5 3 V
-4 5 V
-4 6 V
-4 5 V
-4 3 V
-5 4 V
-4 5 V
-4 6 V
-4 4 V
-4 0 V
-5 -2 V
-4 -1 V
-4 1 V
-4 3 V
-5 2 V
-4 0 V
-4 -2 V
-4 -2 V
-5 -1 V
-4 3 V
-5 3 V
-4 2 V
-4 2 V
-4 3 V
-5 3 V
-4 1 V
-4 -1 V
-5 -1 V
-5 0 V
-3 1 V
-5 1 V
-3 1 V
-5 -1 V
-4 0 V
-5 2 V
-4 3 V
-4 4 V
stroke 871 3027 M
-4 1 V
-4 1 V
-5 0 V
-3 2 V
-5 4 V
-4 4 V
-5 2 V
-3 1 V
-1 0 V
0 6 R
1 0 V
4 2 V
4 3 V
4 0 V
5 -2 V
4 -2 V
4 -1 V
4 -2 V
4 -3 V
5 -2 V
4 -1 V
4 0 V
4 3 V
5 5 V
4 4 V
3 3 V
5 1 V
4 -2 V
4 -3 V
4 -3 V
5 -3 V
3 -2 V
5 -2 V
4 -2 V
4 -1 V
5 1 V
4 3 V
4 1 V
4 0 V
4 -1 V
4 -2 V
4 -1 V
5 0 V
4 -1 V
4 -2 V
5 -2 V
3 -3 V
5 -2 V
4 -2 V
5 -1 V
3 -1 V
4 0 V
5 0 V
3 2 V
5 2 V
4 1 V
5 1 V
3 1 V
5 1 V
4 -1 V
4 -2 V
4 -2 V
5 -2 V
3 -3 V
5 -3 V
4 -3 V
4 -2 V
3 -3 V
6 -3 V
4 -2 V
4 -3 V
4 -3 V
4 -3 V
4 -1 V
4 0 V
5 1 V
4 0 V
4 1 V
4 0 V
5 0 V
4 -1 V
3 -1 V
5 0 V
4 -1 V
5 -1 V
4 -1 V
3 -1 V
5 -1 V
4 -1 V
4 -3 V
5 -3 V
4 -2 V
4 -1 V
4 -1 V
5 -1 V
3 0 V
5 -1 V
4 -2 V
4 -3 V
4 -3 V
5 -2 V
4 -1 V
4 0 V
4 0 V
5 -1 V
3 -2 V
4 -1 V
4 -1 V
5 0 V
4 -1 V
4 -2 V
5 -2 V
3 -1 V
4 -1 V
5 -2 V
4 -2 V
5 -2 V
3 -2 V
5 -1 V
4 -2 V
4 -3 V
4 -3 V
5 -3 V
3 -1 V
4 0 V
5 0 V
4 0 V
4 -1 V
4 -2 V
4 -1 V
4 -2 V
5 -1 V
4 -2 V
4 -1 V
5 -2 V
4 -2 V
4 -1 V
4 -2 V
3 -2 V
5 -3 V
5 -3 V
4 -2 V
4 0 V
4 1 V
5 0 V
4 -2 V
4 -2 V
4 -2 V
4 -1 V
5 -2 V
4 -2 V
4 -2 V
4 -2 V
5 -1 V
3 -1 V
5 0 V
4 -1 V
4 0 V
4 -2 V
5 -2 V
4 -4 V
4 -3 V
4 -2 V
4 -1 V
5 -1 V
4 0 V
4 -2 V
5 -1 V
4 -2 V
4 -2 V
4 -2 V
5 -3 V
4 -1 V
4 0 V
4 0 V
4 -1 V
4 0 V
5 -2 V
4 -1 V
4 -1 V
4 0 V
4 -1 V
4 -1 V
4 0 V
4 0 V
4 0 V
4 -1 V
5 -1 V
4 -2 V
4 -2 V
4 -4 V
4 -2 V
4 -1 V
5 0 V
4 0 V
4 -1 V
4 -1 V
4 -2 V
4 -3 V
4 -2 V
5 -1 V
4 -1 V
4 0 V
4 0 V
4 0 V
5 0 V
4 0 V
4 -1 V
4 -1 V
4 -2 V
4 -2 V
5 -2 V
4 -1 V
4 -2 V
4 -1 V
4 -3 V
5 -2 V
4 -2 V
4 -1 V
4 -1 V
5 0 V
4 -1 V
4 0 V
4 -2 V
4 -2 V
5 -3 V
3 -2 V
5 -3 V
4 -2 V
4 0 V
4 0 V
4 1 V
4 1 V
5 0 V
4 -1 V
4 -1 V
4 0 V
4 -1 V
4 0 V
4 0 V
4 -2 V
4 -1 V
5 -1 V
4 -1 V
4 -1 V
4 -1 V
5 0 V
4 0 V
4 0 V
stroke 1833 2788 M
4 0 V
5 0 V
4 -1 V
4 0 V
4 1 V
5 -1 V
4 0 V
4 -2 V
4 -2 V
5 -1 V
4 -1 V
4 -1 V
4 0 V
4 0 V
5 -1 V
4 -1 V
4 -3 V
4 -2 V
4 -1 V
5 0 V
4 0 V
4 -1 V
4 0 V
4 0 V
4 0 V
4 0 V
5 0 V
4 -1 V
4 -1 V
4 0 V
4 -1 V
5 -1 V
4 0 V
4 0 V
4 -1 V
4 -1 V
5 -2 V
4 -1 V
4 -2 V
4 0 V
4 -1 V
5 -1 V
4 0 V
4 -1 V
4 -1 V
4 -1 V
4 0 V
4 -1 V
5 0 V
4 -1 V
4 -1 V
4 0 V
4 0 V
5 1 V
4 1 V
4 1 V
4 1 V
4 0 V
4 0 V
5 -1 V
4 0 V
4 -2 V
4 -1 V
5 -2 V
4 -2 V
4 -1 V
4 -1 V
4 -1 V
5 0 V
4 0 V
4 0 V
4 1 V
4 0 V
5 2 V
4 1 V
4 1 V
4 -1 V
5 -1 V
4 -3 V
4 -2 V
4 -1 V
5 -1 V
4 -1 V
4 -1 V
4 0 V
4 0 V
5 0 V
4 0 V
4 1 V
4 0 V
4 1 V
5 1 V
3 0 V
5 -1 V
4 0 V
4 -1 V
4 0 V
4 -2 V
4 -1 V
4 -2 V
4 -1 V
5 -2 V
4 -1 V
4 0 V
4 1 V
4 0 V
4 0 V
4 0 V
5 0 V
4 0 V
4 1 V
4 1 V
4 0 V
4 -2 V
5 -1 V
4 -1 V
4 -1 V
4 0 V
4 -1 V
5 0 V
4 -2 V
4 -1 V
4 0 V
4 1 V
4 2 V
5 1 V
4 1 V
4 0 V
4 -2 V
4 -2 V
5 -2 V
4 -1 V
4 0 V
4 0 V
4 0 V
4 -1 V
5 -1 V
4 0 V
4 1 V
4 -1 V
4 0 V
5 -1 V
4 0 V
4 0 V
4 1 V
5 1 V
4 1 V
4 0 V
4 0 V
4 0 V
5 0 V
4 -1 V
4 0 V
4 -1 V
4 -1 V
4 0 V
5 0 V
5 0 V
3 0 V
5 0 V
4 0 V
4 0 V
4 -2 V
4 -2 V
5 -2 V
4 -1 V
4 -1 V
5 0 V
3 1 V
5 1 V
4 2 V
4 1 V
4 1 V
4 0 V
4 -1 V
4 0 V
4 -1 V
4 -1 V
5 0 V
4 0 V
4 1 V
4 1 V
4 0 V
5 -1 V
3 0 V
5 0 V
4 1 V
5 -1 V
4 -1 V
4 -1 V
4 -1 V
4 -2 V
4 0 V
4 -1 V
3 0 V
6 2 V
3 0 V
5 0 V
4 0 V
4 0 V
4 -2 V
5 -2 V
3 -1 V
5 -1 V
4 1 V
4 1 V
4 1 V
5 1 V
4 0 V
4 1 V
4 0 V
4 1 V
3 1 V
6 0 V
4 -1 V
4 0 V
5 0 V
4 0 V
4 0 V
3 -1 V
5 -1 V
4 -1 V
4 -1 V
5 -1 V
3 -1 V
5 -1 V
4 -1 V
4 -1 V
5 -2 V
4 -1 V
4 0 V
4 1 V
4 1 V
5 0 V
4 0 V
4 -1 V
4 0 V
5 0 V
3 1 V
5 1 V
5 0 V
3 0 V
5 -1 V
3 0 V
5 1 V
4 0 V
4 1 V
5 1 V
4 1 V
stroke 2876 2706 M
4 1 V
5 1 V
3 0 V
5 0 V
3 -1 V
5 -1 V
4 -1 V
5 -1 V
4 0 V
4 0 V
3 -1 V
5 -2 V
4 -1 V
5 -2 V
3 -2 V
5 0 V
4 1 V
5 0 V
4 -1 V
4 0 V
4 -1 V
4 0 V
4 1 V
4 1 V
5 1 V
4 1 V
4 -1 V
4 -1 V
4 0 V
5 -1 V
3 0 V
5 -1 V
5 1 V
3 0 V
5 -1 V
4 0 V
4 -1 V
3 0 V
5 -2 V
5 -1 V
4 0 V
3 1 V
5 2 V
4 1 V
3 1 V
5 1 V
5 0 V
4 0 V
3 0 V
5 0 V
5 -1 V
4 -2 V
4 -2 V
4 0 V
4 0 V
4 0 V
4 0 V
4 0 V
5 -1 V
4 -1 V
3 -1 V
5 -1 V
4 -1 V
5 0 V
4 0 V
4 1 V
4 1 V
4 0 V
4 0 V
4 0 V
5 0 V
5 1 V
4 1 V
4 1 V
4 0 V
4 1 V
4 0 V
5 -1 V
4 -1 V
4 0 V
4 -1 V
5 0 V
3 0 V
5 -1 V
3 -1 V
5 -1 V
4 -1 V
4 0 V
5 1 V
4 1 V
5 1 V
3 1 V
5 0 V
3 0 V
5 0 V
4 -1 V
3 0 V
5 0 V
5 0 V
3 0 V
5 1 V
4 0 V
4 -1 V
4 -1 V
4 0 V
5 -1 V
4 -1 V
4 0 V
4 0 V
4 0 V
4 1 V
4 0 V
5 1 V
4 2 V
4 1 V
4 0 V
5 -1 V
3 -1 V
5 -1 V
4 -2 V
4 -1 V
4 0 V
4 0 V
4 0 V
5 0 V
4 0 V
4 0 V
4 0 V
4 0 V
5 0 V
4 1 V
4 0 V
4 0 V
4 -1 V
5 -1 V
4 -2 V
4 -2 V
5 -1 V
3 -1 V
5 0 V
4 0 V
4 0 V
4 1 V
4 1 V
5 0 V
4 1 V
4 0 V
5 -1 V
4 -1 V
4 -1 V
4 0 V
4 1 V
4 1 V
5 0 V
4 -1 V
4 -1 V
4 -1 V
5 -1 V
4 -1 V
4 0 V
5 -1 V
3 -1 V
5 0 V
4 1 V
4 1 V
4 1 V
4 0 V
5 0 V
3 -1 V
5 -2 V
4 -1 V
5 0 V
4 1 V
4 1 V
4 1 V
4 0 V
4 1 V
4 0 V
5 0 V
4 0 V
4 0 V
4 1 V
4 -1 V
4 -1 V
5 -2 V
4 -3 V
4 -1 V
4 -2 V
5 -1 V
3 0 V
3 0 V
6 1 V
3 3 V
5 2 V
4 1 V
4 1 V
4 0 V
4 -1 V
4 0 V
5 -1 V
3 -1 V
5 -1 V
4 -1 V
5 0 V
4 0 V
4 0 V
4 -1 V
4 1 V
4 1 V
5 1 V
4 1 V
4 1 V
4 0 V
4 0 V
4 -1 V
5 -1 V
3 -2 V
4 -2 V
4 -2 V
5 -1 V
5 2 V
3 2 V
5 1 V
4 1 V
4 0 V
4 1 V
4 -1 V
5 0 V
4 -1 V
3 -1 V
5 0 V
4 0 V
5 0 V
4 0 V
4 -1 V
4 0 V
4 0 V
4 0 V
4 -1 V
4 0 V
5 0 V
5 -1 V
3 -1 V
4 -1 V
5 0 V
4 1 V
4 0 V
4 -1 V
4 0 V
stroke 3917 2663 M
4 -1 V
5 -1 V
3 0 V
4 0 V
5 -1 V
5 0 V
3 0 V
4 0 V
5 1 V
5 0 V
4 0 V
4 0 V
4 0 V
4 0 V
4 0 V
5 -1 V
4 -1 V
4 0 V
4 -1 V
3 1 V
5 0 V
5 1 V
3 0 V
5 0 V
4 1 V
4 0 V
4 -1 V
5 -2 V
3 -2 V
5 -2 V
4 -1 V
4 0 V
5 1 V
3 2 V
5 2 V
3 0 V
5 -1 V
4 -1 V
5 -1 V
4 0 V
4 2 V
4 2 V
4 1 V
4 0 V
5 -2 V
4 -2 V
4 -1 V
5 -2 V
3 -2 V
5 -2 V
4 -1 V
4 0 V
4 2 V
4 1 V
5 0 V
4 0 V
4 0 V
5 0 V
3 0 V
4 1 V
5 1 V
3 2 V
6 1 V
3 0 V
4 -1 V
5 -2 V
4 -2 V
4 -2 V
5 -1 V
4 -1 V
3 0 V
5 0 V
4 0 V
4 -1 V
5 0 V
4 -1 V
3 0 V
4 0 V
5 0 V
4 0 V
5 -1 V
4 0 V
4 0 V
3 1 V
5 1 V
5 0 V
4 1 V
4 0 V
4 1 V
4 1 V
4 0 V
4 -1 V
5 -2 V
4 -1 V
4 0 V
4 0 V
5 -1 V
4 -1 V
3 -1 V
5 0 V
4 -1 V
4 0 V
4 0 V
5 1 V
4 2 V
4 0 V
4 1 V
4 0 V
4 -1 V
5 -2 V
4 -1 V
3 -1 V
5 -1 V
4 0 V
5 2 V
3 1 V
5 1 V
4 1 V
4 0 V
5 -1 V
3 0 V
4 0 V
5 -1 V
4 0 V
5 -1 V
4 -2 V
3 -1 V
4 0 V
5 0 V
4 0 V
5 1 V
4 0 V
4 0 V
4 0 V
5 -1 V
3 1 V
5 1 V
3 1 V
5 1 V
4 1 V
4 0 V
4 0 V
5 0 V
4 -1 V
4 -1 V
4 -2 V
4 -1 V
5 2 V
4 0 V
3 0 V
5 -1 V
4 2 V
4 2 V
4 2 V
5 2 V
4 0 V
4 -2 V
4 -1 V
4 -2 V
5 -1 V
4 0 V
4 0 V
4 1 V
5 0 V
4 1 V
4 1 V
4 -1 V
5 -1 V
3 -1 V
5 0 V
3 1 V
5 0 V
4 1 V
4 1 V
4 2 V
5 0 V
3 0 V
4 0 V
5 0 V
5 1 V
3 1 V
4 0 V
5 1 V
4 0 V
3 0 V
5 -1 V
5 -1 V
3 -1 V
4 0 V
5 1 V
4 1 V
5 2 V
3 1 V
5 1 V
4 0 V
4 -1 V
4 -1 V
5 -2 V
3 -1 V
5 0 V
3 1 V
5 1 V
4 1 V
5 0 V
4 0 V
3 1 V
5 1 V
5 0 V
3 0 V
4 -1 V
5 0 V
4 0 V
3 0 V
5 0 V
4 0 V
5 0 V
4 -1 V
4 0 V
5 0 V
4 0 V
3 0 V
5 0 V
4 0 V
5 0 V
3 0 V
5 0 V
4 0 V
3 0 V
5 0 V
4 -1 V
4 -1 V
5 -1 V
4 -1 V
4 0 V
4 0 V
4 1 V
5 2 V
4 0 V
4 -1 V
4 1 V
4 2 V
4 1 V
5 0 V
4 1 V
3 2 V
4 1 V
5 1 V
5 0 V
3 -1 V
stroke 4958 2656 M
5 0 V
4 -1 V
4 0 V
5 0 V
4 1 V
4 1 V
4 1 V
4 1 V
3 1 V
5 0 V
5 0 V
3 -2 V
5 -3 V
4 -2 V
5 -1 V
4 1 V
4 1 V
4 1 V
4 0 V
4 0 V
4 0 V
5 1 V
3 1 V
5 1 V
4 -1 V
4 -1 V
4 -2 V
4 -1 V
4 0 V
5 0 V
4 0 V
4 -1 V
4 -2 V
4 -1 V
4 0 V
4 0 V
0 1 R
-2 0 V
-5 0 V
-4 0 V
-5 0 V
-4 0 V
-4 1 V
-4 0 V
-5 1 V
-4 0 V
-4 0 V
-4 0 V
-5 -1 V
-4 0 V
-4 -1 V
-4 0 V
-4 0 V
-5 0 V
-4 0 V
-4 -1 V
-5 -2 V
-3 -2 V
-5 -3 V
-4 -1 V
-4 0 V
-5 1 V
-4 2 V
-5 2 V
-3 2 V
-5 2 V
-4 1 V
-4 1 V
-5 0 V
-4 -1 V
-5 -1 V
-4 -2 V
-4 -2 V
-5 -2 V
-4 -1 V
-3 0 V
-5 0 V
-4 1 V
-5 1 V
-4 0 V
-4 0 V
-4 1 V
-5 1 V
-4 0 V
-4 -1 V
-3 -2 V
-5 -1 V
-5 0 V
-3 0 V
-5 1 V
-5 1 V
-3 0 V
-4 -2 V
-5 -1 V
-4 1 V
-4 2 V
-5 1 V
-4 0 V
-4 0 V
-4 1 V
-4 1 V
-5 0 V
-4 0 V
-4 0 V
-4 -1 V
-5 0 V
-3 -1 V
-4 -2 V
-5 -1 V
-4 0 V
-5 1 V
-4 0 V
-5 0 V
-4 -1 V
-4 0 V
-4 0 V
-4 -1 V
-5 0 V
-4 0 V
-4 -1 V
-4 0 V
-5 -1 V
-4 0 V
-3 0 V
-6 1 V
-4 1 V
-4 1 V
-4 1 V
-5 -1 V
-4 0 V
-5 -1 V
-4 -1 V
-4 -1 V
-4 -1 V
-4 0 V
-4 0 V
-5 2 V
-5 1 V
-4 1 V
-4 1 V
-5 1 V
-3 1 V
-4 0 V
-5 -1 V
-4 -1 V
-5 1 V
-4 2 V
-4 0 V
-4 1 V
-4 -1 V
-5 0 V
-4 -1 V
-4 -1 V
-5 -1 V
-4 1 V
-5 0 V
-3 1 V
-4 0 V
-5 0 V
-5 0 V
-3 -1 V
-5 -3 V
-3 -2 V
-5 -2 V
-4 1 V
-4 0 V
-5 1 V
-4 0 V
-4 2 V
-5 1 V
-4 1 V
-5 1 V
-4 0 V
-4 1 V
-5 1 V
-4 1 V
-3 0 V
-5 -1 V
-4 0 V
-4 0 V
-5 0 V
-4 0 V
-4 0 V
-4 -1 V
-5 -1 V
-4 0 V
-4 0 V
-4 0 V
-4 1 V
-5 0 V
-4 1 V
-5 -1 V
-4 -1 V
-4 -1 V
-5 -1 V
-4 -1 V
-4 1 V
-4 1 V
-4 0 V
-5 0 V
-4 -1 V
-4 -1 V
-4 0 V
-5 -1 V
-4 0 V
-4 0 V
-5 2 V
-4 3 V
-4 2 V
-4 1 V
-4 2 V
-5 0 V
-4 -2 V
-4 -2 V
-5 -1 V
-4 1 V
-4 1 V
-4 1 V
-5 0 V
-4 -1 V
-4 -2 V
-4 -1 V
-4 0 V
-4 1 V
-5 1 V
-4 2 V
-5 0 V
-4 0 V
-4 0 V
-4 1 V
-5 1 V
-4 1 V
-4 0 V
-5 0 V
-3 0 V
-5 0 V
-4 2 V
-4 1 V
-4 0 V
-4 0 V
-5 0 V
-4 -1 V
-4 -1 V
-5 -1 V
-4 0 V
-4 0 V
-5 1 V
-4 1 V
-4 2 V
stroke 4207 2656 M
-4 0 V
-4 -1 V
-5 -2 V
-4 -1 V
-4 0 V
-5 0 V
-3 1 V
-5 1 V
-5 1 V
-4 0 V
-4 1 V
-4 1 V
-4 1 V
-4 1 V
-5 -1 V
-4 -1 V
-4 0 V
-4 1 V
-5 1 V
-4 1 V
-4 2 V
-5 1 V
-4 1 V
-4 -1 V
-4 -1 V
-4 -2 V
-5 -1 V
-4 -1 V
-5 1 V
-4 0 V
-4 1 V
-3 1 V
-6 1 V
-3 0 V
-4 0 V
-5 -1 V
-4 0 V
-5 0 V
-4 2 V
-4 0 V
-4 1 V
-4 0 V
-5 1 V
-4 0 V
-4 0 V
-4 0 V
-5 0 V
-4 0 V
-5 0 V
-4 -1 V
-4 0 V
-4 0 V
-5 -1 V
-4 0 V
-4 -1 V
-4 -1 V
-5 -1 V
-4 -1 V
-4 1 V
-4 2 V
-5 3 V
-3 1 V
-5 0 V
-5 -1 V
-3 -1 V
-5 -1 V
-4 0 V
-4 1 V
-5 1 V
-4 2 V
-3 1 V
-5 1 V
-4 -1 V
-4 -1 V
-5 -1 V
-4 0 V
-4 1 V
-4 1 V
-5 1 V
-4 0 V
-4 1 V
-4 1 V
-5 1 V
-4 -1 V
-4 0 V
-4 0 V
-4 0 V
-4 1 V
-5 1 V
-5 1 V
-3 2 V
-5 0 V
-3 0 V
-5 -1 V
-4 -1 V
-4 0 V
-5 1 V
-4 1 V
-4 0 V
-4 -1 V
-4 0 V
-5 0 V
-4 1 V
-4 3 V
-5 1 V
-4 0 V
-4 -1 V
-5 -1 V
-3 -1 V
-6 -1 V
-3 0 V
-4 0 V
-5 1 V
-4 1 V
-5 -1 V
-3 0 V
-4 -1 V
-5 0 V
-4 0 V
-5 1 V
-4 1 V
-4 1 V
-4 1 V
-5 0 V
-4 1 V
-4 1 V
-4 2 V
-5 1 V
-4 2 V
-4 2 V
-5 1 V
-4 -2 V
-4 -3 V
-4 -2 V
-5 -2 V
-4 -2 V
-4 -1 V
-5 0 V
-4 -1 V
-4 -1 V
-5 0 V
-4 1 V
-4 1 V
-4 1 V
-5 1 V
-4 1 V
-4 0 V
-4 0 V
-4 -1 V
-5 0 V
-4 0 V
-5 0 V
-4 0 V
-4 2 V
-5 1 V
-4 2 V
-4 1 V
-4 2 V
-4 1 V
-5 -1 V
-3 -1 V
-5 0 V
-5 -1 V
-3 0 V
-5 0 V
-5 1 V
-3 1 V
-4 2 V
-5 2 V
-4 2 V
-5 1 V
-4 0 V
-4 0 V
-5 -1 V
-3 -1 V
-5 -1 V
-4 -1 V
-4 0 V
-4 -1 V
-5 -1 V
-4 0 V
-4 0 V
-5 0 V
-4 0 V
-4 0 V
-4 1 V
-5 -1 V
-4 0 V
-4 1 V
-4 0 V
-4 0 V
-4 1 V
-5 0 V
-4 1 V
-5 -1 V
-4 -1 V
-4 -1 V
-5 0 V
-4 0 V
-4 0 V
-4 0 V
-5 -1 V
-4 -1 V
-4 0 V
-4 2 V
-5 2 V
-3 1 V
-5 0 V
-4 0 V
-4 -1 V
-5 0 V
-4 1 V
-4 1 V
-5 1 V
-3 2 V
-4 2 V
-6 1 V
-3 1 V
-4 0 V
-5 0 V
-4 -1 V
-4 -1 V
-5 -1 V
-4 -1 V
-4 -1 V
-4 -1 V
-5 0 V
-4 -1 V
-4 0 V
-4 0 V
-5 0 V
-4 1 V
-4 0 V
-3 0 V
-5 -1 V
-4 -2 V
-5 0 V
-4 1 V
-4 3 V
-4 1 V
-5 1 V
-3 0 V
-6 -1 V
-3 0 V
-5 0 V
-5 0 V
-4 0 V
-4 -1 V
-4 0 V
stroke 3148 2695 M
-4 1 V
-4 2 V
-4 2 V
-5 0 V
-4 0 V
-4 -1 V
-4 -1 V
-5 -1 V
-4 -1 V
-4 -1 V
-5 0 V
-4 1 V
-4 1 V
-4 1 V
-5 1 V
-4 1 V
-4 0 V
-4 -1 V
-5 -2 V
-4 -1 V
-5 0 V
-4 0 V
-4 2 V
-4 1 V
-4 1 V
-5 -1 V
-4 0 V
-4 -1 V
-4 0 V
-5 1 V
-4 1 V
-4 -1 V
-5 -1 V
-4 -1 V
-3 0 V
-5 0 V
-5 0 V
-3 0 V
-5 0 V
-4 1 V
-4 1 V
-5 2 V
-4 1 V
-4 0 V
-4 0 V
-4 1 V
-5 1 V
-4 1 V
-4 0 V
-5 -1 V
-4 -2 V
-4 -2 V
-4 -1 V
-4 0 V
-5 1 V
-4 0 V
-4 0 V
-4 1 V
-5 0 V
-4 -1 V
-5 0 V
-4 -1 V
-4 1 V
-4 1 V
-4 1 V
-5 2 V
-4 0 V
-5 -1 V
-3 -1 V
-4 -1 V
-5 -1 V
-4 1 V
-5 0 V
-4 1 V
-5 1 V
-3 1 V
-5 0 V
-4 0 V
-4 -2 V
-5 -1 V
-3 -1 V
-5 0 V
-4 -1 V
-5 0 V
-4 0 V
-4 1 V
-5 2 V
-4 2 V
-4 2 V
-4 1 V
-4 1 V
-5 0 V
-4 0 V
-4 -1 V
-5 -3 V
-4 -2 V
-4 -1 V
-4 1 V
-4 1 V
-5 0 V
-4 1 V
-4 -1 V
-4 0 V
-4 0 V
-5 0 V
-3 1 V
-6 1 V
-3 2 V
-5 1 V
-4 -1 V
-3 -1 V
-6 -2 V
-4 -1 V
-4 0 V
-4 0 V
-4 0 V
-5 1 V
-3 1 V
-5 0 V
-4 -1 V
-5 -2 V
-4 -1 V
-4 -2 V
-4 -2 V
-5 0 V
-4 0 V
-3 0 V
-5 1 V
-4 1 V
-5 2 V
-4 2 V
-5 1 V
-3 2 V
-5 1 V
-4 0 V
-5 1 V
-4 0 V
-3 0 V
-5 0 V
-5 0 V
-4 0 V
-4 1 V
-4 -1 V
-3 0 V
-5 -1 V
-5 -1 V
-4 -1 V
-4 -1 V
-5 0 V
-3 1 V
-5 0 V
-5 1 V
-4 1 V
-4 1 V
-4 0 V
-4 1 V
-4 0 V
-6 -1 V
-3 -1 V
-4 -1 V
-5 0 V
-4 1 V
-4 0 V
-4 1 V
-5 0 V
-4 0 V
-4 -1 V
-5 -1 V
-4 -2 V
-4 -2 V
-5 0 V
-4 3 V
-4 2 V
-4 1 V
-5 -1 V
-4 -1 V
-4 -1 V
-4 -2 V
-5 -1 V
-4 0 V
-4 0 V
-4 0 V
-5 0 V
-4 1 V
-4 0 V
-4 1 V
-5 1 V
-4 2 V
-4 1 V
-4 0 V
-5 -1 V
-4 -1 V
-4 -1 V
-4 0 V
-5 2 V
-4 1 V
-4 0 V
-5 -1 V
-4 -1 V
-4 0 V
-4 1 V
-5 0 V
-4 0 V
-4 -3 V
-4 -2 V
-5 -2 V
-4 -1 V
-5 -1 V
-4 -1 V
-4 2 V
-4 3 V
-5 3 V
-4 2 V
-4 2 V
-5 1 V
-4 0 V
-4 1 V
-4 -1 V
-5 -1 V
-4 -1 V
-4 -3 V
-4 -2 V
-5 0 V
-4 2 V
-4 2 V
-5 1 V
-4 1 V
-4 1 V
-4 -1 V
-4 0 V
-5 -1 V
-4 -1 V
-4 0 V
-4 0 V
-5 0 V
-4 0 V
-4 0 V
-5 0 V
-3 1 V
-5 1 V
-4 1 V
-4 1 V
-5 0 V
-4 0 V
-4 0 V
-4 -1 V
-5 -2 V
-4 -1 V
-4 -1 V
stroke 2088 2706 M
-4 -1 V
-4 0 V
-5 -1 V
-4 0 V
-4 0 V
-4 1 V
-5 1 V
-4 0 V
-4 0 V
-4 -1 V
-4 1 V
-4 0 V
-5 1 V
-4 0 V
-4 1 V
-5 0 V
-4 1 V
-4 1 V
-4 0 V
-5 0 V
-4 -1 V
-4 -1 V
-4 -1 V
-4 0 V
-5 -1 V
-4 0 V
-4 -1 V
-4 0 V
-4 1 V
-5 0 V
-4 0 V
-4 0 V
-4 -1 V
-5 0 V
-4 -1 V
-4 0 V
-5 0 V
-4 1 V
-4 1 V
-4 -1 V
-4 0 V
-5 0 V
-4 0 V
-4 1 V
-4 0 V
-5 0 V
-4 1 V
-4 0 V
-4 0 V
-5 0 V
-4 0 V
-4 0 V
-4 1 V
-4 0 V
-5 -2 V
-4 -1 V
-4 -1 V
-4 0 V
-5 0 V
-4 1 V
-4 2 V
-4 2 V
-5 2 V
-4 0 V
-4 0 V
-5 -2 V
-4 -1 V
-4 -1 V
-4 -1 V
-5 -1 V
-4 -1 V
-4 -1 V
-4 1 V
-5 2 V
-4 3 V
-4 2 V
-4 2 V
-5 1 V
-3 0 V
-5 1 V
-4 0 V
-4 1 V
-4 1 V
-5 0 V
-4 0 V
-4 0 V
-4 0 V
-5 1 V
-4 0 V
-4 -1 V
-4 -1 V
-5 -1 V
-4 0 V
-4 1 V
-4 0 V
-5 1 V
-4 0 V
-4 1 V
-5 1 V
-4 1 V
-4 0 V
-4 0 V
-5 0 V
-4 0 V
-4 1 V
-5 1 V
-3 2 V
-5 2 V
-4 1 V
-4 0 V
-4 1 V
-5 2 V
-4 1 V
-4 2 V
-5 2 V
-4 2 V
-4 2 V
-4 1 V
-5 2 V
-4 1 V
-4 0 V
-4 0 V
-5 1 V
-4 1 V
-4 0 V
-4 0 V
-4 -1 V
-5 0 V
-4 0 V
-4 1 V
-5 1 V
-4 1 V
-4 2 V
-4 1 V
-5 1 V
-4 2 V
-4 2 V
-4 3 V
-4 2 V
-5 1 V
-4 1 V
-4 1 V
-4 3 V
-5 2 V
-4 1 V
-4 2 V
-4 2 V
-5 1 V
-4 2 V
-4 3 V
-4 2 V
-5 2 V
-4 0 V
-4 0 V
-4 0 V
-5 0 V
-4 2 V
-4 1 V
-4 2 V
-5 2 V
-4 2 V
-4 2 V
-4 2 V
-4 3 V
-5 2 V
-4 2 V
-4 1 V
-5 0 V
-4 1 V
-5 1 V
-4 3 V
-3 2 V
-5 1 V
-5 2 V
-4 1 V
-5 2 V
-4 2 V
-4 2 V
-4 2 V
-5 2 V
-3 2 V
-5 2 V
-4 3 V
-5 2 V
-3 1 V
-4 1 V
-5 2 V
-3 2 V
-4 2 V
-6 2 V
-4 3 V
-4 2 V
-5 2 V
-4 2 V
-3 3 V
-5 1 V
-4 1 V
-4 2 V
-5 3 V
-4 5 V
-4 5 V
-5 4 V
-4 3 V
-4 0 V
-4 1 V
-4 2 V
-4 2 V
-4 4 V
-5 3 V
-4 3 V
-4 2 V
-5 1 V
-4 1 V
-4 1 V
-5 2 V
-4 2 V
-4 2 V
-4 1 V
-5 1 V
-4 1 V
-3 3 V
-5 2 V
-4 3 V
-5 3 V
-4 1 V
-4 0 V
-4 1 V
-4 1 V
-5 4 V
-4 3 V
-4 4 V
-4 3 V
-4 4 V
-5 3 V
-4 2 V
-4 2 V
-4 1 V
-5 2 V
-4 1 V
-4 1 V
-4 1 V
-5 3 V
-4 5 V
-4 5 V
-4 4 V
-4 1 V
-4 -2 V
-5 0 V
-5 1 V
stroke 1031 2971 M
-3 3 V
-5 2 V
-4 2 V
-3 2 V
-5 2 V
-5 3 V
-4 3 V
-4 4 V
-5 3 V
-4 2 V
-3 1 V
-5 0 V
-4 0 V
-4 0 V
-4 2 V
-5 2 V
-5 2 V
-3 2 V
-4 2 V
-4 2 V
-5 2 V
-3 2 V
-6 4 V
-3 4 V
-5 3 V
-4 1 V
-4 -1 V
-4 -2 V
-5 2 V
-4 5 V
-4 8 V
-4 8 V
-5 3 V
-4 0 V
-3 -2 V
-5 1 V
-4 2 V
-5 2 V
-4 2 V
-4 1 V
-4 -2 V
-4 -2 V
-5 -1 V
-5 1 V
-3 2 V
-4 1 V
-1 0 V
0 -1 R
1 -1 V
4 1 V
4 0 V
4 0 V
4 -1 V
4 -2 V
5 -2 V
4 -1 V
4 -2 V
4 -1 V
5 -1 V
4 -1 V
4 -1 V
4 1 V
4 1 V
4 2 V
4 1 V
4 -1 V
5 -3 V
3 -1 V
4 1 V
5 1 V
3 1 V
5 1 V
5 1 V
4 1 V
4 -1 V
4 2 V
4 3 V
5 2 V
3 0 V
4 -1 V
6 0 V
3 0 V
5 -1 V
3 0 V
4 -1 V
5 -4 V
4 -5 V
4 -3 V
4 -1 V
5 0 V
3 0 V
5 -3 V
3 -5 V
5 -6 V
3 -5 V
5 -3 V
4 -1 V
4 1 V
5 1 V
4 0 V
4 0 V
5 -1 V
4 1 V
3 1 V
6 0 V
3 0 V
4 1 V
5 1 V
4 0 V
4 0 V
4 -1 V
4 -1 V
4 0 V
4 0 V
5 0 V
4 -1 V
4 -3 V
4 -3 V
4 -2 V
5 -2 V
4 -2 V
4 -2 V
4 0 V
4 -1 V
4 -2 V
4 -1 V
5 -1 V
3 0 V
5 -1 V
4 -1 V
5 0 V
4 0 V
5 -1 V
3 -1 V
4 -2 V
6 -1 V
3 -1 V
4 0 V
4 -1 V
5 -1 V
4 -3 V
4 -3 V
4 -3 V
3 -2 V
5 -2 V
5 -2 V
4 -2 V
4 -1 V
4 -2 V
4 0 V
4 0 V
4 0 V
5 1 V
4 0 V
4 0 V
5 -2 V
3 -3 V
4 -3 V
4 -6 V
5 -5 V
5 -4 V
3 -3 V
4 -1 V
5 -2 V
4 -1 V
5 -1 V
4 -2 V
4 -2 V
4 -2 V
4 -1 V
4 0 V
4 1 V
5 1 V
3 0 V
5 -1 V
3 -1 V
5 -2 V
5 -2 V
4 -3 V
4 -2 V
4 -2 V
4 -3 V
5 -4 V
4 -2 V
4 -1 V
5 -1 V
4 -1 V
4 -2 V
4 -1 V
4 -2 V
5 -1 V
3 -1 V
4 -1 V
4 -1 V
5 -2 V
4 -2 V
4 -2 V
5 -3 V
3 -1 V
5 1 V
4 0 V
4 1 V
4 0 V
4 0 V
4 -1 V
4 -1 V
5 0 V
4 -2 V
4 -2 V
5 -2 V
4 -2 V
4 -2 V
4 -3 V
4 -4 V
4 -3 V
5 -1 V
4 -1 V
4 -1 V
4 0 V
4 -1 V
5 -2 V
4 -2 V
4 -2 V
4 -2 V
4 -1 V
5 -2 V
4 -1 V
4 -1 V
4 -2 V
4 -3 V
5 -2 V
4 -1 V
4 -1 V
4 -1 V
4 -1 V
5 -1 V
4 -1 V
4 -1 V
4 -2 V
4 0 V
4 0 V
5 1 V
4 1 V
4 0 V
4 -1 V
4 -2 V
5 -2 V
4 -2 V
4 -1 V
stroke 1674 2829 M
4 -1 V
4 -2 V
5 -1 V
4 -2 V
4 -2 V
4 -2 V
4 -1 V
5 -2 V
4 -2 V
4 -1 V
4 -1 V
4 -1 V
4 -1 V
5 -1 V
4 -1 V
4 0 V
4 -1 V
4 -1 V
4 -2 V
5 -1 V
4 -1 V
4 0 V
4 1 V
4 0 V
5 0 V
4 0 V
4 -1 V
4 -1 V
4 -1 V
5 0 V
4 -1 V
4 -1 V
4 -1 V
4 -1 V
4 0 V
5 -2 V
4 -2 V
4 -2 V
4 -3 V
5 -2 V
3 -1 V
5 -1 V
4 -1 V
4 0 V
4 -1 V
4 -1 V
5 1 V
4 0 V
4 0 V
4 -1 V
5 -1 V
4 0 V
4 0 V
4 -1 V
4 -1 V
4 -1 V
5 0 V
4 0 V
4 0 V
4 0 V
5 -1 V
3 0 V
5 0 V
4 0 V
4 -1 V
4 -1 V
5 -1 V
4 -1 V
4 -1 V
4 -1 V
4 -1 V
4 -2 V
5 -2 V
4 -2 V
4 -2 V
4 -2 V
4 -1 V
5 0 V
4 1 V
4 0 V
4 -1 V
4 0 V
5 -1 V
4 1 V
4 0 V
4 1 V
4 0 V
4 -1 V
5 0 V
4 0 V
4 -1 V
4 0 V
4 -1 V
5 0 V
4 0 V
4 0 V
4 -1 V
4 -2 V
4 -1 V
5 -2 V
4 0 V
4 -1 V
4 0 V
4 0 V
4 -1 V
5 -1 V
4 0 V
4 -1 V
4 0 V
4 0 V
5 1 V
4 1 V
4 0 V
4 0 V
4 -1 V
5 -1 V
4 -2 V
4 -1 V
4 1 V
4 0 V
4 0 V
4 1 V
5 0 V
4 0 V
4 -1 V
4 -1 V
4 -1 V
4 -1 V
5 1 V
4 1 V
4 0 V
4 0 V
4 0 V
4 0 V
5 -2 V
4 -2 V
4 -1 V
4 -2 V
4 -1 V
4 -1 V
5 -1 V
4 0 V
4 0 V
4 1 V
4 0 V
4 0 V
5 1 V
4 0 V
4 -1 V
4 0 V
4 -1 V
5 -1 V
4 -1 V
4 -1 V
4 -1 V
4 -1 V
4 -1 V
5 0 V
4 0 V
4 1 V
4 2 V
4 0 V
4 1 V
5 0 V
4 0 V
4 -1 V
4 -1 V
4 -1 V
4 -1 V
5 -1 V
4 0 V
4 -1 V
4 0 V
4 -1 V
4 0 V
5 0 V
4 1 V
4 0 V
4 -1 V
4 0 V
4 0 V
5 -1 V
5 0 V
4 -1 V
4 -1 V
4 0 V
5 0 V
3 1 V
4 1 V
4 1 V
5 1 V
4 1 V
4 0 V
4 -1 V
4 -1 V
5 -1 V
4 -2 V
4 -2 V
4 -2 V
4 -1 V
5 0 V
4 0 V
4 0 V
4 0 V
5 0 V
3 -1 V
5 -1 V
4 -2 V
4 -1 V
4 -1 V
5 0 V
4 -1 V
4 0 V
4 0 V
4 0 V
5 0 V
3 1 V
4 1 V
5 0 V
4 0 V
4 0 V
4 0 V
4 1 V
5 1 V
3 0 V
5 0 V
5 0 V
4 0 V
4 0 V
3 0 V
5 0 V
5 -1 V
4 0 V
4 0 V
4 0 V
4 0 V
4 0 V
5 -1 V
3 0 V
5 0 V
4 1 V
4 0 V
5 0 V
3 -1 V
5 0 V
4 1 V
4 0 V
5 1 V
3 0 V
stroke 2715 2712 M
6 -1 V
4 -2 V
4 -2 V
3 -1 V
5 -1 V
3 1 V
5 0 V
5 1 V
4 1 V
4 1 V
4 1 V
4 0 V
4 -1 V
4 0 V
5 0 V
4 -1 V
4 1 V
5 0 V
3 2 V
5 0 V
4 0 V
5 -1 V
5 -1 V
3 -1 V
5 -1 V
3 0 V
5 1 V
3 1 V
5 0 V
4 -1 V
4 -2 V
5 -2 V
4 -2 V
4 -1 V
4 0 V
4 0 V
5 0 V
4 0 V
4 0 V
4 -1 V
4 0 V
4 -1 V
5 0 V
3 -1 V
5 -1 V
4 -1 V
4 0 V
4 0 V
3 0 V
6 1 V
3 -1 V
5 -1 V
4 -1 V
4 -1 V
3 0 V
4 0 V
6 1 V
3 0 V
4 0 V
5 0 V
4 1 V
4 0 V
5 0 V
4 0 V
4 1 V
3 0 V
5 1 V
4 1 V
4 1 V
4 0 V
5 0 V
4 0 V
4 0 V
4 -1 V
4 -1 V
5 -1 V
3 -1 V
5 0 V
4 -1 V
4 0 V
5 0 V
4 0 V
4 0 V
5 0 V
3 -1 V
5 1 V
4 0 V
4 0 V
4 -1 V
4 -1 V
5 0 V
4 0 V
4 1 V
4 1 V
4 2 V
4 1 V
4 1 V
5 0 V
4 1 V
5 1 V
3 0 V
4 0 V
5 -1 V
4 -1 V
4 -1 V
4 -2 V
5 -2 V
3 -2 V
4 -2 V
5 -1 V
4 0 V
5 0 V
4 0 V
4 0 V
4 0 V
4 0 V
5 1 V
3 -1 V
6 -2 V
3 -1 V
4 0 V
5 1 V
3 2 V
5 0 V
4 -1 V
4 -2 V
4 -2 V
4 -2 V
4 -2 V
5 -1 V
4 0 V
4 0 V
5 1 V
4 1 V
4 2 V
4 2 V
4 1 V
4 2 V
5 0 V
3 -1 V
4 -1 V
5 -2 V
5 -1 V
4 0 V
4 0 V
4 0 V
4 1 V
4 2 V
4 1 V
5 0 V
4 -2 V
4 -1 V
4 -2 V
4 -1 V
5 -1 V
4 0 V
4 0 V
4 1 V
5 0 V
3 1 V
4 -1 V
4 0 V
5 0 V
4 0 V
5 1 V
4 2 V
4 1 V
3 0 V
5 0 V
4 0 V
4 0 V
4 -1 V
4 -1 V
5 0 V
3 -1 V
6 -1 V
4 -2 V
4 -2 V
3 -1 V
5 0 V
4 1 V
4 0 V
4 1 V
5 1 V
4 1 V
4 1 V
4 0 V
4 0 V
4 0 V
5 1 V
3 -1 V
5 -2 V
4 -2 V
4 -1 V
4 -1 V
4 0 V
5 0 V
3 1 V
5 0 V
4 0 V
4 0 V
3 1 V
6 1 V
4 0 V
4 -1 V
4 -2 V
5 0 V
3 -1 V
4 1 V
5 0 V
4 1 V
4 0 V
4 0 V
4 0 V
4 1 V
4 0 V
4 1 V
5 0 V
4 0 V
4 0 V
4 -1 V
4 1 V
5 0 V
4 1 V
4 -1 V
4 -1 V
4 0 V
4 -1 V
5 -1 V
4 -2 V
5 -1 V
4 -1 V
4 -1 V
4 -1 V
4 -1 V
4 1 V
5 1 V
4 1 V
4 1 V
4 1 V
4 0 V
5 0 V
5 -1 V
3 -1 V
5 -1 V
4 0 V
4 0 V
4 0 V
4 -1 V
stroke 3757 2668 M
5 0 V
3 0 V
5 1 V
4 1 V
4 1 V
5 1 V
4 -1 V
4 -1 V
4 -2 V
4 -2 V
4 -1 V
5 -1 V
4 0 V
4 0 V
5 1 V
3 1 V
5 -1 V
4 -2 V
4 -1 V
4 -1 V
5 -1 V
3 0 V
5 0 V
4 1 V
4 2 V
4 1 V
4 1 V
4 0 V
5 1 V
4 1 V
5 0 V
4 1 V
4 0 V
4 0 V
4 0 V
4 0 V
4 0 V
4 0 V
4 -1 V
5 -2 V
4 -2 V
4 -1 V
4 0 V
4 -1 V
4 0 V
4 -1 V
4 -2 V
5 -1 V
4 -1 V
5 -1 V
4 0 V
4 0 V
4 1 V
4 1 V
4 0 V
5 -1 V
4 0 V
5 0 V
3 0 V
5 -1 V
4 0 V
4 0 V
5 1 V
3 2 V
4 2 V
5 2 V
3 0 V
5 0 V
5 0 V
3 0 V
4 0 V
5 -2 V
5 -2 V
3 -1 V
6 -1 V
2 -1 V
5 0 V
4 1 V
4 1 V
5 0 V
4 0 V
4 -1 V
4 -1 V
5 -2 V
4 -1 V
4 -1 V
4 -1 V
4 -2 V
5 0 V
4 1 V
4 1 V
4 2 V
4 0 V
4 1 V
5 0 V
4 0 V
4 0 V
4 1 V
5 0 V
4 0 V
4 1 V
4 -1 V
3 -1 V
5 -1 V
5 -2 V
4 -2 V
4 -2 V
4 0 V
5 0 V
3 -1 V
5 -1 V
4 0 V
4 0 V
4 0 V
4 1 V
5 0 V
4 -1 V
4 -1 V
4 0 V
4 0 V
5 0 V
4 1 V
4 2 V
4 1 V
4 1 V
4 -1 V
5 -2 V
3 -2 V
5 -2 V
4 -2 V
4 0 V
4 0 V
3 1 V
6 0 V
4 -1 V
3 0 V
5 2 V
4 2 V
4 3 V
4 4 V
4 1 V
5 0 V
3 -1 V
4 0 V
5 -2 V
5 -2 V
4 -3 V
3 -2 V
5 -2 V
4 -1 V
4 0 V
5 1 V
3 0 V
5 0 V
4 1 V
5 0 V
3 1 V
4 -1 V
5 0 V
4 0 V
4 0 V
4 1 V
5 0 V
4 0 V
3 0 V
6 -1 V
3 -1 V
4 1 V
5 0 V
4 0 V
3 0 V
5 1 V
4 0 V
4 0 V
5 0 V
4 1 V
4 2 V
3 1 V
6 2 V
3 1 V
4 1 V
4 1 V
5 1 V
4 0 V
3 -1 V
5 -2 V
4 -2 V
4 -2 V
4 -2 V
5 -1 V
4 -1 V
4 0 V
4 1 V
4 0 V
5 0 V
4 0 V
4 0 V
4 0 V
5 1 V
3 1 V
5 1 V
3 0 V
5 0 V
4 1 V
4 1 V
4 1 V
5 1 V
4 1 V
4 1 V
4 1 V
5 0 V
4 0 V
4 -1 V
4 0 V
4 -1 V
4 -1 V
4 -2 V
4 0 V
5 0 V
3 0 V
5 -1 V
4 -2 V
4 0 V
4 1 V
5 1 V
5 1 V
3 1 V
5 1 V
3 1 V
4 1 V
5 1 V
5 1 V
4 1 V
3 1 V
5 1 V
4 1 V
4 1 V
4 1 V
5 0 V
4 0 V
3 -2 V
5 0 V
5 -1 V
4 -1 V
3 -1 V
5 -1 V
4 0 V
5 1 V
3 0 V
stroke 4798 2653 M
4 0 V
5 -1 V
4 0 V
4 -1 V
4 -1 V
4 -1 V
4 -2 V
5 -1 V
3 0 V
4 0 V
5 0 V
4 2 V
5 1 V
4 0 V
4 0 V
4 0 V
4 -1 V
5 0 V
4 -1 V
4 0 V
4 1 V
4 2 V
4 3 V
5 2 V
4 0 V
4 -1 V
4 -2 V
4 -1 V
5 1 V
3 0 V
4 1 V
6 1 V
3 2 V
4 1 V
5 0 V
4 -1 V
4 -2 V
4 -1 V
4 -2 V
4 -1 V
5 0 V
4 1 V
5 0 V
4 0 V
3 -1 V
5 0 V
4 0 V
4 0 V
3 -1 V
6 -1 V
4 0 V
3 2 V
4 1 V
4 1 V
5 1 V
4 0 V
5 1 V
3 2 V
5 2 V
4 1 V
4 1 V
5 -1 V
3 -1 V
4 -1 V
5 0 V
5 0 V
3 0 V
4 -1 V
4 0 V
4 1 V
4 -1 V
4 0 V
5 -1 V
4 0 V
1 0 V
0 -2 R
-1 0 V
-4 -1 V
-4 -1 V
-4 -1 V
-4 0 V
-4 -1 V
-5 0 V
-3 0 V
-5 -1 V
-5 -2 V
-3 -1 V
-5 0 V
-4 0 V
-4 0 V
-4 0 V
-5 0 V
-4 2 V
-5 2 V
-4 2 V
-4 0 V
-5 -1 V
-4 -1 V
-4 -2 V
-4 -2 V
-4 -2 V
-5 -1 V
-4 0 V
-4 0 V
-4 2 V
-4 2 V
-5 1 V
-3 1 V
-5 0 V
-5 -1 V
-3 0 V
-5 0 V
-4 2 V
-5 2 V
-4 1 V
-4 0 V
-4 1 V
-5 0 V
-3 -1 V
-5 0 V
-4 0 V
-4 0 V
-5 -1 V
-4 -2 V
-4 -1 V
-4 0 V
-4 1 V
-5 1 V
-5 1 V
-4 0 V
-4 -1 V
-4 -2 V
-4 -1 V
-6 -1 V
-2 0 V
-5 0 V
-5 0 V
-4 0 V
-5 1 V
-3 -1 V
-5 0 V
-4 2 V
-5 1 V
-3 1 V
-5 1 V
-3 -1 V
-5 -1 V
-4 0 V
-4 -1 V
-6 -1 V
-4 -1 V
-3 -1 V
-5 -2 V
-5 -2 V
-3 -1 V
-4 0 V
-5 0 V
-4 0 V
-4 1 V
-4 2 V
-5 1 V
-4 1 V
-5 0 V
-4 0 V
-4 0 V
-4 -1 V
-5 -1 V
-4 -1 V
-4 -2 V
-4 -1 V
-4 0 V
-4 -1 V
-5 1 V
-4 1 V
-5 1 V
-4 0 V
-5 0 V
-3 0 V
-4 0 V
-4 1 V
-5 1 V
-4 0 V
-5 -1 V
-3 -1 V
-5 0 V
-4 0 V
-5 0 V
-3 0 V
-5 0 V
-4 1 V
-5 1 V
-4 1 V
-4 0 V
-4 0 V
-4 1 V
-5 0 V
-4 0 V
-5 0 V
-4 0 V
-4 0 V
-4 0 V
-4 -1 V
-4 -1 V
-4 -1 V
-5 -1 V
-4 0 V
-5 1 V
-4 0 V
-4 0 V
-4 -1 V
-5 -1 V
-4 0 V
-4 2 V
-4 1 V
-5 1 V
-4 1 V
-4 0 V
-4 -1 V
-5 -2 V
-4 -1 V
-4 1 V
-4 1 V
-4 2 V
-4 1 V
-5 1 V
-4 1 V
-5 0 V
-4 -1 V
-4 0 V
-5 -1 V
-3 -1 V
-5 -1 V
-5 -1 V
-4 -1 V
-4 -1 V
-4 1 V
-4 2 V
-5 1 V
-4 1 V
-5 0 V
-4 1 V
-4 0 V
-4 0 V
-4 0 V
-4 0 V
-5 0 V
-4 0 V
-4 -1 V
-5 -1 V
stroke 4375 2645 M
-4 1 V
-4 1 V
-4 1 V
-5 1 V
-4 1 V
-4 -1 V
-5 1 V
-4 1 V
-4 0 V
-4 0 V
-5 0 V
-4 1 V
-4 0 V
-5 1 V
-4 1 V
-3 0 V
-6 0 V
-3 1 V
-4 -1 V
-5 -1 V
-5 0 V
-4 0 V
-4 -1 V
-4 -1 V
-5 -1 V
-4 -1 V
-4 0 V
-5 0 V
-4 1 V
-3 0 V
-5 0 V
-5 1 V
-3 0 V
-4 0 V
-6 0 V
-3 0 V
-5 -1 V
-5 1 V
-3 0 V
-4 0 V
-5 -1 V
-4 0 V
-5 1 V
-4 2 V
-4 1 V
-3 1 V
-5 1 V
-4 0 V
-4 1 V
-5 -1 V
-5 0 V
-3 -1 V
-5 -1 V
-4 0 V
-4 1 V
-4 1 V
-5 0 V
-4 0 V
-5 0 V
-4 -1 V
-4 -1 V
-4 -1 V
-4 -1 V
-5 0 V
-4 2 V
-4 2 V
-4 2 V
-5 3 V
-4 2 V
-4 1 V
-4 0 V
-4 0 V
-4 0 V
-5 0 V
-4 0 V
-4 0 V
-4 0 V
-6 -1 V
-3 -1 V
-4 -1 V
-5 0 V
-4 0 V
-4 0 V
-5 0 V
-3 1 V
-5 1 V
-4 0 V
-4 0 V
-4 0 V
-5 1 V
-4 0 V
-4 0 V
-4 0 V
-4 0 V
-5 0 V
-4 0 V
-4 0 V
-4 0 V
-5 0 V
-4 0 V
-4 1 V
-4 1 V
-5 0 V
-4 0 V
-4 1 V
-5 -1 V
-4 -1 V
-4 0 V
-4 0 V
-5 0 V
-4 -1 V
-4 0 V
-4 0 V
-5 0 V
-3 1 V
-4 0 V
-5 0 V
-4 1 V
-5 0 V
-4 1 V
-4 1 V
-4 1 V
-5 1 V
-4 0 V
-5 -1 V
-4 0 V
-4 -1 V
-4 0 V
-4 0 V
-4 1 V
-5 1 V
-4 1 V
-4 0 V
-5 0 V
-3 -1 V
-5 0 V
-4 1 V
-4 1 V
-5 2 V
-5 1 V
-4 0 V
-4 -1 V
-5 -2 V
-3 -2 V
-5 -1 V
-4 -1 V
-5 0 V
-4 0 V
-4 1 V
-4 2 V
-4 2 V
-4 2 V
-5 1 V
-4 0 V
-4 -1 V
-5 0 V
-4 0 V
-5 1 V
-3 1 V
-6 2 V
-3 1 V
-5 0 V
-4 1 V
-4 1 V
-4 1 V
-4 0 V
-5 -1 V
-4 0 V
-4 -1 V
-5 -2 V
-4 -1 V
-4 -1 V
-4 1 V
-5 1 V
-4 2 V
-3 1 V
-5 2 V
-5 2 V
-3 0 V
-4 -1 V
-5 -1 V
-5 0 V
-4 0 V
-4 0 V
-4 1 V
-5 0 V
-4 0 V
-4 1 V
-4 1 V
-4 0 V
-6 0 V
-4 0 V
-4 0 V
-5 0 V
-3 0 V
-4 0 V
-5 -1 V
-4 -1 V
-5 0 V
-4 0 V
-4 -1 V
-4 0 V
-4 1 V
-4 0 V
-5 0 V
-4 -1 V
-4 0 V
-4 -1 V
-5 0 V
-3 0 V
-5 -1 V
-4 0 V
-5 1 V
-4 1 V
-4 2 V
-5 1 V
-3 1 V
-4 -1 V
-5 0 V
-5 0 V
-4 0 V
-4 0 V
-4 -1 V
-4 1 V
-5 1 V
-4 0 V
-4 0 V
-4 0 V
-4 0 V
-6 1 V
-3 0 V
-5 0 V
-4 -1 V
-4 -2 V
-4 -1 V
-4 -1 V
-5 1 V
-4 2 V
-4 3 V
-4 2 V
-4 0 V
-5 0 V
-4 0 V
-4 0 V
-4 1 V
-5 1 V
-4 -1 V
-4 0 V
-5 0 V
stroke 3315 2693 M
-4 0 V
-4 0 V
-5 1 V
-4 0 V
-4 0 V
-5 1 V
-3 0 V
-5 0 V
-4 0 V
-5 0 V
-3 0 V
-4 0 V
-5 0 V
-4 0 V
-4 -1 V
-5 0 V
-4 0 V
-4 -1 V
-4 -1 V
-5 0 V
-4 1 V
-4 0 V
-4 1 V
-5 0 V
-5 0 V
-3 0 V
-5 0 V
-3 -1 V
-5 0 V
-4 -1 V
-4 0 V
-4 0 V
-5 1 V
-4 1 V
-5 0 V
-3 1 V
-5 1 V
-4 2 V
-5 -1 V
-3 -1 V
-5 -2 V
-4 -2 V
-5 -1 V
-4 1 V
-4 3 V
-4 1 V
-4 1 V
-5 0 V
-4 0 V
-4 0 V
-5 0 V
-4 0 V
-4 0 V
-4 1 V
-5 0 V
-4 0 V
-4 0 V
-4 0 V
-4 1 V
-4 0 V
-5 1 V
-5 0 V
-3 0 V
-5 0 V
-4 0 V
-4 1 V
-4 2 V
-5 1 V
-4 -1 V
-4 -1 V
-4 -1 V
-5 0 V
-4 0 V
-5 1 V
-4 0 V
-4 0 V
-3 -1 V
-5 -1 V
-4 -1 V
-4 -1 V
-4 0 V
-6 -1 V
-4 0 V
-4 0 V
-4 -1 V
-4 1 V
-4 2 V
-5 1 V
-4 2 V
-5 1 V
-3 2 V
-5 1 V
-4 0 V
-4 -1 V
-4 0 V
-5 -1 V
-4 0 V
-4 1 V
-4 -1 V
-5 -2 V
-4 -3 V
-4 -1 V
-5 -1 V
-4 0 V
-4 0 V
-4 0 V
-5 0 V
-4 -1 V
-4 -1 V
-5 0 V
-4 0 V
-4 2 V
-4 2 V
-4 2 V
-5 1 V
-4 1 V
-4 1 V
-4 1 V
-4 1 V
-5 0 V
-4 1 V
-4 0 V
-5 0 V
-3 0 V
-5 -1 V
-5 -1 V
-4 -1 V
-3 -1 V
-5 -1 V
-5 0 V
-3 0 V
-5 -1 V
-4 1 V
-5 1 V
-4 1 V
-4 1 V
-4 -1 V
-4 0 V
-5 0 V
-4 0 V
-4 1 V
-4 0 V
-5 0 V
-5 -1 V
-3 -2 V
-5 -1 V
-4 -1 V
-4 0 V
-5 0 V
-4 0 V
-5 0 V
-3 0 V
-4 0 V
-5 0 V
-4 1 V
-4 1 V
-5 2 V
-4 1 V
-4 0 V
-4 1 V
-5 1 V
-3 1 V
-5 -1 V
-4 -1 V
-5 -1 V
-3 0 V
-5 -1 V
-4 0 V
-4 -1 V
-4 -1 V
-5 -1 V
-4 -1 V
-4 0 V
-5 0 V
-4 0 V
-3 0 V
-6 1 V
-4 1 V
-4 1 V
-4 1 V
-4 1 V
-4 1 V
-5 0 V
-4 1 V
-5 0 V
-4 1 V
-4 0 V
-4 1 V
-5 0 V
-4 -1 V
-4 -1 V
-4 -2 V
-5 -1 V
-4 -1 V
-4 1 V
-5 0 V
-3 1 V
-5 0 V
-4 0 V
-4 0 V
-4 1 V
-4 1 V
-5 0 V
-4 0 V
-4 -1 V
-4 0 V
-5 0 V
-5 0 V
-4 -1 V
-4 -1 V
-4 -1 V
-4 0 V
-5 0 V
-4 0 V
-5 -1 V
-4 0 V
-4 1 V
-4 1 V
-4 1 V
-4 1 V
-5 -1 V
-4 -1 V
-4 -1 V
-5 -1 V
-4 1 V
-4 0 V
-4 2 V
-5 1 V
-4 -1 V
-4 -1 V
-4 -1 V
-5 1 V
-4 1 V
-4 0 V
-4 1 V
-5 1 V
-4 0 V
-4 1 V
-5 1 V
-4 1 V
-4 0 V
-4 1 V
-5 0 V
-4 1 V
-5 -1 V
-4 0 V
-4 1 V
-4 0 V
-5 0 V
stroke 2255 2712 M
-4 0 V
-4 -1 V
-4 0 V
-4 -3 V
-5 -3 V
-5 -2 V
-3 -1 V
-5 0 V
-4 2 V
-4 3 V
-5 1 V
-4 -2 V
-4 -3 V
-5 -2 V
-4 -2 V
-4 0 V
-4 1 V
-4 1 V
-4 3 V
-4 2 V
-5 2 V
-4 1 V
-4 1 V
-4 0 V
-4 -1 V
-5 -2 V
-4 -4 V
-4 -2 V
-4 -1 V
-5 0 V
-4 1 V
-4 0 V
-4 1 V
-4 0 V
-5 1 V
-4 0 V
-4 0 V
-4 -1 V
-5 1 V
-4 1 V
-4 1 V
-4 1 V
-5 1 V
-4 0 V
-4 1 V
-4 0 V
-5 0 V
-4 0 V
-4 0 V
-5 -1 V
-4 0 V
-4 0 V
-4 0 V
-4 0 V
-5 -1 V
-4 -1 V
-4 -1 V
-4 -1 V
-4 -2 V
-5 0 V
-4 -1 V
-4 0 V
-4 0 V
-5 0 V
-4 0 V
-4 2 V
-5 1 V
-4 1 V
-4 1 V
-5 0 V
-4 1 V
-4 0 V
-4 -1 V
-4 -2 V
-5 -1 V
-4 -1 V
-4 -1 V
-4 1 V
-5 2 V
-4 0 V
-4 1 V
-4 1 V
-5 0 V
-4 -1 V
-4 -1 V
-4 0 V
-4 1 V
-5 0 V
-4 0 V
-4 0 V
-4 0 V
-4 2 V
-5 1 V
-4 1 V
-4 -1 V
-4 -1 V
-4 -1 V
-4 -1 V
-4 0 V
-5 1 V
-4 1 V
-4 1 V
-4 1 V
-4 1 V
-5 1 V
-4 0 V
-4 0 V
-5 -1 V
-4 -1 V
-4 -1 V
-5 -2 V
-4 0 V
-4 0 V
-4 0 V
-5 1 V
-4 1 V
-4 2 V
-4 1 V
-5 2 V
-4 1 V
-4 0 V
-5 0 V
-4 0 V
-4 -1 V
-5 0 V
-4 0 V
-4 0 V
-4 2 V
-5 1 V
-4 2 V
-4 2 V
-5 0 V
-4 1 V
-4 0 V
-4 1 V
-5 1 V
-4 0 V
-4 0 V
-4 0 V
-4 -1 V
-5 0 V
-4 0 V
-4 1 V
-4 2 V
-5 1 V
-4 2 V
-4 1 V
-4 1 V
-4 0 V
-5 1 V
-4 1 V
-4 1 V
-4 1 V
-5 1 V
-4 0 V
-4 1 V
-4 0 V
-5 1 V
-4 2 V
-4 1 V
-4 1 V
-5 2 V
-4 2 V
-4 2 V
-4 1 V
-5 1 V
-4 1 V
-4 1 V
-4 1 V
-4 0 V
-5 0 V
-4 1 V
-4 -1 V
-4 1 V
-5 0 V
-4 1 V
-4 2 V
-4 1 V
-5 2 V
-4 2 V
-4 1 V
-4 2 V
-5 1 V
-4 2 V
-4 2 V
-5 3 V
-4 3 V
-4 2 V
-4 2 V
-4 1 V
-5 1 V
-4 1 V
-4 2 V
-5 4 V
-4 3 V
-4 3 V
-4 2 V
-5 2 V
-4 1 V
-5 1 V
-4 2 V
-4 2 V
-4 2 V
-5 2 V
-4 2 V
-4 2 V
-4 1 V
-5 2 V
-4 2 V
-4 2 V
-6 1 V
-3 0 V
-4 0 V
-5 1 V
-4 3 V
-4 3 V
-3 2 V
-6 0 V
-4 1 V
-4 1 V
-4 2 V
-4 3 V
-5 3 V
-4 1 V
-4 2 V
-4 2 V
-5 2 V
-3 4 V
-4 3 V
-5 2 V
-3 2 V
-5 2 V
-5 3 V
-4 5 V
-4 4 V
-4 5 V
-4 2 V
-4 1 V
-4 -1 V
-5 -2 V
-4 -1 V
-4 1 V
-4 2 V
-5 4 V
-4 2 V
-4 3 V
-4 2 V
-4 1 V
-5 3 V
stroke 1199 2892 M
-5 2 V
-3 3 V
-4 3 V
-5 2 V
-4 1 V
-4 0 V
-5 2 V
-4 2 V
-4 3 V
-4 3 V
-5 2 V
-4 2 V
-4 2 V
-5 2 V
-3 5 V
-5 5 V
-3 3 V
-6 3 V
-4 4 V
-3 4 V
-5 3 V
-5 1 V
-3 1 V
-4 -1 V
-5 -1 V
-4 -1 V
-4 1 V
-4 3 V
-6 4 V
-3 5 V
-4 5 V
-4 2 V
-4 1 V
-5 2 V
-5 3 V
-3 5 V
-4 5 V
-5 3 V
-4 2 V
-4 -1 V
-4 -2 V
-5 -1 V
-5 1 V
-3 2 V
-5 1 V
-5 1 V
-3 2 V
-4 2 V
-5 3 V
-4 5 V
-4 4 V
-4 2 V
-4 -1 V
-4 -1 V
-5 0 V
-3 2 V
-4 5 V
-5 8 V
-4 9 V
-4 5 V
-4 0 V
-4 0 V
-4 0 V
-4 2 V
-5 4 V
-4 4 V
-4 2 V
-5 1 V
-4 -2 V
-4 -2 V
-5 -2 V
-3 -1 V
-5 1 V
-5 2 V
-4 1 V
-4 1 V
-4 2 V
-4 2 V
-5 2 V
-3 2 V
-5 2 V
-4 1 V
-5 -1 V
-5 0 V
-3 0 V
-3 3 V
0 -7 R
3 1 V
4 1 V
4 1 V
4 -2 V
4 -2 V
4 -2 V
4 0 V
4 1 V
4 1 V
5 1 V
3 1 V
5 2 V
4 1 V
4 2 V
4 0 V
4 1 V
5 1 V
4 1 V
4 -1 V
4 -3 V
4 -4 V
5 -2 V
3 -2 V
4 0 V
5 0 V
4 -2 V
4 -2 V
5 -1 V
3 -1 V
5 -1 V
4 -2 V
5 -3 V
3 -2 V
5 -1 V
4 0 V
4 3 V
4 2 V
5 2 V
4 1 V
4 -1 V
4 0 V
4 2 V
5 1 V
5 0 V
3 1 V
4 0 V
4 0 V
5 -1 V
4 -2 V
5 -2 V
3 -1 V
5 0 V
3 -2 V
5 -2 V
4 -1 V
5 -2 V
4 -2 V
4 -2 V
4 -1 V
4 1 V
4 1 V
4 -1 V
5 -1 V
4 -1 V
4 -1 V
4 -2 V
5 -1 V
3 -2 V
5 -2 V
3 -1 V
5 -1 V
4 -1 V
4 -1 V
4 -3 V
5 -2 V
4 -2 V
4 -1 V
4 0 V
5 -1 V
3 -2 V
5 -3 V
4 -2 V
4 -1 V
5 0 V
3 -1 V
4 -1 V
5 -2 V
4 -2 V
4 -3 V
4 -2 V
5 -1 V
3 -2 V
4 -2 V
5 -1 V
5 -1 V
3 -2 V
4 -3 V
5 -3 V
4 -2 V
4 -1 V
4 -1 V
5 -1 V
4 -1 V
4 -1 V
4 -1 V
4 -1 V
5 -2 V
3 -2 V
5 -1 V
4 -2 V
4 -1 V
4 0 V
5 0 V
4 1 V
4 0 V
4 -1 V
4 -2 V
4 -4 V
5 -4 V
4 -2 V
3 -2 V
5 -1 V
4 -1 V
5 -2 V
4 -3 V
4 -3 V
% End plot #1
% Begin plot #2
stroke
LTb
0.00 0.00 1.00 C LCb setrgbcolor
2654 3298 M
[ [(Times-Roman) 160.0 0.0 true true 0 (cys- \(10x\))]
] -53.3 MRshow
2.000 UL
LTb
0.00 0.00 1.00 C 2750 3298 M
447 0 V
92 -306 R
5 -77 V
4 -68 V
2 0 V
6 3 V
3 0 V
5 -27 V
4 -60 V
5 -62 V
3 -8 V
4 3 V
5 -6 V
4 49 V
4 105 V
4 101 V
5 45 V
3 11 V
5 -10 V
5 -15 V
4 -16 V
4 9 V
4 54 V
4 48 V
5 -27 V
4 -86 V
4 -61 V
4 28 V
4 36 V
4 -38 V
4 -120 V
4 -123 V
4 30 V
6 78 V
3 98 V
4 52 V
4 -5 V
5 -53 V
3 -77 V
4 -84 V
5 56 V
4 142 V
4 102 V
4 55 V
5 6 V
4 -41 V
4 -60 V
4 -42 V
4 -26 V
4 -11 V
5 -2 V
4 -16 V
3 -10 V
5 13 V
4 1 V
4 -31 V
4 -30 V
4 14 V
5 11 V
3 -12 V
5 -19 V
4 -31 V
4 19 V
4 80 V
5 88 V
4 77 V
4 62 V
3 33 V
6 -38 V
4 -64 V
3 -38 V
5 -48 V
4 -36 V
4 15 V
4 67 V
5 77 V
4 9 V
4 -78 V
5 -109 V
3 -104 V
5 -77 V
4 -33 V
5 -37 V
3 18 V
5 64 V
4 61 V
4 12 V
5 -41 V
4 -84 V
4 12 V
5 175 V
3 185 V
4 120 V
5 30 V
3 -46 V
5 -44 V
5 -15 V
3 -19 V
5 -40 V
4 -43 V
3 -7 V
5 6 V
5 -6 V
4 -45 V
3 -86 V
5 -78 V
4 -31 V
4 -26 V
4 10 V
4 118 V
4 121 V
5 46 V
4 -25 V
3 -67 V
5 -101 V
4 -70 V
4 25 V
5 3 V
4 -10 V
4 -10 V
4 -18 V
4 27 V
5 110 V
4 67 V
4 12 V
4 3 V
4 71 V
5 72 V
4 -21 V
4 -65 V
4 -37 V
4 19 V
5 59 V
4 60 V
4 22 V
4 -29 V
4 -58 V
4 -74 V
4 7 V
4 102 V
5 73 V
5 -18 V
3 -92 V
4 -132 V
5 -48 V
4 -14 V
4 -75 V
4 -105 V
5 6 V
4 98 V
3 44 V
6 27 V
3 16 V
5 -44 V
4 -73 V
4 17 V
4 65 V
5 64 V
3 55 V
5 47 V
4 59 V
5 57 V
4 64 V
4 53 V
4 -12 V
4 -66 V
4 -8 V
4 129 V
5 70 V
4 -74 V
3 -131 V
5 -83 V
4 -49 V
4 -17 V
4 54 V
5 85 V
3 26 V
5 -82 V
4 -158 V
4 -129 V
4 -20 V
4 28 V
4 59 V
4 75 V
4 119 V
4 140 V
5 85 V
4 -2 V
4 -103 V
4 -164 V
4 -173 V
4 -85 V
5 17 V
3 -25 V
5 14 V
4 38 V
4 -5 V
5 -48 V
3 -73 V
6 62 V
3 126 V
4 62 V
5 -87 V
3 -171 V
5 167 V
4 117 V
4 8 V
5 -76 V
3 -94 V
5 17 V
4 19 V
4 -27 V
4 -34 V
5 27 V
4 23 V
3 40 V
5 56 V
4 11 V
4 -71 V
4 -184 V
4 138 V
5 136 V
4 15 V
3 -110 V
5 -107 V
5 41 V
4 42 V
4 112 V
5 164 V
3 113 V
5 -24 V
3 -138 V
5 -159 V
3 -115 V
5 1 V
5 162 V
3 125 V
4 59 V
6 31 V
2 37 V
5 56 V
4 95 V
5 79 V
4 -12 V
4 -70 V
5 -112 V
4 -152 V
4 -159 V
4 -16 V
stroke 4321 2893 M
4 122 V
4 82 V
4 -52 V
4 -143 V
4 -141 V
4 -107 V
5 49 V
4 96 V
3 68 V
5 60 V
5 14 V
3 -27 V
5 -62 V
4 -102 V
4 -16 V
4 204 V
4 116 V
5 -30 V
4 -126 V
4 -86 V
4 61 V
4 144 V
5 142 V
4 65 V
4 4 V
4 -30 V
4 -82 V
4 -133 V
4 -119 V
5 52 V
3 190 V
5 126 V
4 -46 V
4 -135 V
4 -83 V
4 55 V
4 119 V
5 37 V
4 -115 V
4 -166 V
4 -149 V
4 -103 V
5 2 V
3 104 V
5 152 V
4 139 V
4 79 V
4 -17 V
4 -118 V
5 -157 V
4 -90 V
4 61 V
4 45 V
4 56 V
5 81 V
3 27 V
5 -11 V
4 -52 V
4 -133 V
5 -79 V
3 -27 V
5 -13 V
3 150 V
5 168 V
4 162 V
5 87 V
4 -44 V
4 -175 V
4 65 V
4 229 V
4 160 V
5 82 V
4 -15 V
4 -107 V
4 -116 V
4 -65 V
4 -53 V
5 -63 V
4 -21 V
4 20 V
5 -4 V
3 -68 V
4 -115 V
4 -48 V
5 22 V
5 -34 V
4 -129 V
4 -19 V
3 155 V
4 182 V
6 111 V
2 -3 V
5 -76 V
5 -87 V
4 -68 V
5 -12 V
3 92 V
5 158 V
4 156 V
4 97 V
4 26 V
5 -84 V
4 -240 V
4 -330 V
4 -69 V
4 174 V
5 -47 V
4 -186 V
3 39 V
5 130 V
4 -9 V
5 -111 V
4 -121 V
4 77 V
4 7 V
4 -61 V
4 113 V
4 171 V
5 178 V
3 138 V
5 36 V
3 -67 V
5 -134 V
4 -114 V
4 -40 V
5 15 V
4 58 V
4 111 V
5 66 V
3 11 V
5 -19 V
3 -56 V
6 -130 V
3 -81 V
4 116 V
5 141 V
4 69 V
3 12 V
5 -38 V
5 -139 V
3 -194 V
5 -165 V
4 -31 V
4 53 V
4 68 V
5 53 V
3 66 V
5 109 V
4 118 V
4 149 V
4 189 V
4 165 V
5 39 V
4 -108 V
3 -121 V
5 -85 V
5 -49 V
3 58 V
4 82 V
4 -11 V
5 -166 V
4 -216 V
5 -52 V
3 151 V
4 161 V
5 -5 V
4 -152 V
4 -201 V
4 -141 V
5 42 V
4 173 V
4 155 V
5 65 V
4 -21 V
3 -79 V
4 -66 V
4 4 V
5 -90 V
3 -185 V
5 19 V
5 132 V
3 134 V
5 93 V
5 -4 V
4 -118 V
4 -144 V
3 -141 V
5 -104 V
2 57 V
0 85 R
-2 59 V
-5 122 V
-4 26 V
-3 -47 V
-5 -64 V
-5 -64 V
-4 -43 V
-4 21 V
-4 56 V
-4 91 V
-4 99 V
-4 28 V
-5 -80 V
-4 -160 V
-5 -166 V
-4 7 V
-4 65 V
-5 -18 V
-3 -82 V
-4 -42 V
-4 69 V
-6 62 V
-3 82 V
-5 86 V
-4 48 V
-4 13 V
-5 -22 V
-4 -35 V
-4 -12 V
-4 -11 V
-5 -60 V
-3 -84 V
-5 71 V
-5 126 V
-4 17 V
-5 -69 V
-3 59 V
-4 79 V
-5 -63 V
-3 -171 V
-5 -168 V
-4 26 V
-4 138 V
-5 135 V
-4 108 V
-4 35 V
-5 -19 V
-4 25 V
-4 29 V
-4 -33 V
-5 -69 V
-4 -32 V
-5 52 V
-4 61 V
-4 29 V
-4 36 V
-5 54 V
-4 1 V
-3 -78 V
stroke 4860 3175 M
-5 -73 V
-5 -5 V
-4 8 V
-5 -1 V
-4 -14 V
-3 -38 V
-5 -80 V
-4 -110 V
-5 -124 V
-4 -95 V
-5 103 V
-3 129 V
-4 130 V
-5 123 V
-4 75 V
-5 -2 V
-4 -83 V
-4 -125 V
-4 -109 V
-5 -8 V
-4 88 V
-5 71 V
-3 5 V
-4 -41 V
-5 -54 V
-4 -82 V
-5 -99 V
-4 -63 V
-4 -4 V
-4 47 V
-5 43 V
-4 9 V
-4 -36 V
-4 -24 V
-4 80 V
-6 46 V
-3 50 V
-3 74 V
-5 62 V
-5 21 V
-4 -50 V
-4 -138 V
-4 -195 V
-4 28 V
-5 65 V
-4 14 V
-5 -9 V
-3 -21 V
-5 6 V
-4 -23 V
-4 -60 V
-5 37 V
-4 79 V
-4 74 V
-4 70 V
-4 59 V
-5 22 V
-3 -35 V
-5 -83 V
-4 -94 V
-4 -87 V
-4 -17 V
-5 10 V
-4 21 V
-3 35 V
-5 51 V
-4 70 V
-5 67 V
-4 34 V
-4 -11 V
-5 -53 V
-5 -77 V
-3 -71 V
-4 -36 V
-4 -5 V
-6 28 V
-4 46 V
-3 47 V
-5 21 V
-5 -12 V
-3 -36 V
-5 -39 V
-4 -23 V
-4 -22 V
-5 -41 V
-4 -62 V
-4 17 V
-4 62 V
-5 28 V
-3 0 V
-5 -7 V
-4 -15 V
-4 13 V
-5 67 V
-3 67 V
-5 38 V
-5 11 V
-4 -14 V
-4 -52 V
-4 -93 V
-4 -114 V
-5 31 V
-4 66 V
-4 22 V
-5 -26 V
-3 17 V
-5 73 V
-4 28 V
-4 -28 V
-4 -53 V
-5 -53 V
-4 -38 V
-4 -16 V
-5 -11 V
-4 -19 V
-4 -28 V
-4 36 V
-5 49 V
-4 44 V
-4 52 V
-4 66 V
-5 39 V
-4 -16 V
-4 -64 V
-5 -74 V
-3 19 V
-6 92 V
-2 70 V
-5 24 V
-5 -19 V
-4 -56 V
-4 -83 V
-4 -92 V
-4 -62 V
-4 74 V
-4 50 V
-4 -11 V
-5 -45 V
-5 -16 V
-3 16 V
-4 -12 V
-5 -22 V
-4 40 V
-4 53 V
-5 39 V
-4 33 V
-4 11 V
-4 -7 V
-5 -6 V
-3 -5 V
-5 -10 V
-5 8 V
-4 -23 V
-4 -89 V
-5 -42 V
-4 31 V
-5 -17 V
-3 -54 V
-5 3 V
-4 32 V
-4 21 V
-5 -8 V
-4 -12 V
-5 41 V
-4 52 V
-4 17 V
-4 -20 V
-4 2 V
-5 27 V
-4 -18 V
-4 -25 V
-4 -8 V
-5 -35 V
-4 -69 V
-5 43 V
-4 76 V
-4 47 V
-3 32 V
-6 40 V
-3 38 V
-5 19 V
-5 1 V
-4 -13 V
-4 -15 V
-4 24 V
-4 28 V
-4 -13 V
-4 -45 V
-6 -42 V
-3 -35 V
-4 -63 V
-4 -58 V
-5 -23 V
-4 9 V
-5 22 V
-4 32 V
-4 48 V
-4 40 V
-4 13 V
-5 -7 V
-4 -26 V
-4 -20 V
-4 31 V
-4 27 V
-5 -9 V
-5 -16 V
-4 -7 V
-4 20 V
-4 38 V
-5 28 V
-3 4 V
-5 -20 V
-4 -35 V
-4 -31 V
-4 -21 V
-4 -12 V
-5 -13 V
-4 -34 V
-4 -54 V
-5 -23 V
-4 51 V
-4 58 V
-4 41 V
-4 16 V
-5 -3 V
-4 -15 V
-4 -29 V
-4 -23 V
-4 -8 V
-5 -4 V
-4 -12 V
-4 -15 V
-5 1 V
-4 19 V
-4 23 V
-4 12 V
-5 -10 V
-4 -23 V
-4 -21 V
-5 3 V
-3 32 V
-4 25 V
-5 17 V
-4 2 V
-5 -23 V
-3 -39 V
-5 -15 V
-5 14 V
-3 27 V
stroke 3801 2773 M
-5 27 V
-4 11 V
-4 -7 V
-4 -6 V
-5 -12 V
-4 -13 V
-5 -16 V
-4 -39 V
-4 -45 V
-4 -20 V
-4 8 V
-5 24 V
-5 29 V
-4 9 V
-4 -25 V
-4 -55 V
-4 45 V
-4 64 V
-5 32 V
-3 0 V
-5 -25 V
-5 -34 V
-3 -21 V
-4 3 V
-5 18 V
-4 12 V
-4 -17 V
-4 -37 V
-5 -28 V
-5 10 V
-3 37 V
-5 54 V
-5 46 V
-4 31 V
-3 1 V
-5 -29 V
-4 -40 V
-6 -33 V
-3 -17 V
-5 -4 V
-3 6 V
-4 1 V
-5 -12 V
-4 -21 V
-4 -18 V
-5 1 V
-4 30 V
-3 20 V
-5 1 V
-5 -4 V
-3 3 V
-5 8 V
-4 7 V
-4 -5 V
-5 -18 V
-4 -29 V
-4 -32 V
-4 -6 V
-5 10 V
-4 2 V
-5 14 V
-4 26 V
-5 16 V
-3 3 V
-5 -16 V
-4 -32 V
-5 -23 V
-4 -2 V
-4 26 V
-4 24 V
-4 10 V
-5 -15 V
-4 -28 V
-4 5 V
-4 4 V
-5 -5 V
-4 7 V
-3 14 V
-5 1 V
-5 -13 V
-4 2 V
-4 4 V
-4 -10 V
-5 -19 V
-4 -15 V
-4 8 V
-4 16 V
-5 8 V
-3 -1 V
-6 1 V
-4 4 V
-4 -5 V
-4 -6 V
-4 4 V
-4 1 V
-4 -1 V
-4 16 V
-3 23 V
-6 8 V
-4 -4 V
-4 -5 V
-4 6 V
-4 20 V
-5 25 V
-4 30 V
-3 22 V
-5 -2 V
-3 -21 V
-6 -28 V
-4 -39 V
-5 -29 V
-4 2 V
-3 26 V
-5 30 V
-5 27 V
-4 15 V
-3 4 V
-7 -5 V
-3 -10 V
-4 -23 V
-4 -37 V
-4 -36 V
-5 -24 V
-4 -21 V
-4 7 V
-4 26 V
-4 18 V
-5 4 V
-4 -6 V
-4 -10 V
-5 -13 V
-4 -15 V
-3 -7 V
-5 2 V
-5 1 V
-3 -4 V
-5 -7 V
-4 9 V
-4 7 V
-5 5 V
-4 2 V
-4 -5 V
-4 -7 V
-5 -1 V
-4 7 V
-4 9 V
-5 4 V
-5 1 V
-3 -1 V
-4 -5 V
-5 -10 V
-3 -12 V
-5 1 V
-4 7 V
-4 6 V
-4 5 V
-5 3 V
-3 -4 V
-5 -9 V
-5 0 V
-4 6 V
-5 1 V
-4 0 V
-4 2 V
-4 4 V
-4 3 V
-5 1 V
-4 3 V
-4 3 V
-4 0 V
-4 -7 V
-4 -5 V
-5 1 V
-4 1 V
-4 2 V
-5 2 V
-4 4 V
-4 4 V
-4 2 V
-5 -2 V
-4 -2 V
-4 -1 V
-5 4 V
-3 5 V
-5 8 V
-4 8 V
-5 2 V
-4 -6 V
-4 -10 V
-4 -8 V
-5 -3 V
-4 4 V
-4 6 V
-4 6 V
-4 3 V
-4 -2 V
-5 -6 V
-4 -9 V
-4 -3 V
-4 3 V
-5 4 V
-4 2 V
-4 -2 V
-4 -2 V
-6 -4 V
-3 -4 V
-5 -1 V
-3 -2 V
-5 0 V
-4 4 V
-4 6 V
-4 4 V
-5 -2 V
-4 -5 V
-3 -3 V
-6 1 V
-4 1 V
-4 1 V
-3 0 V
-5 3 V
-4 5 V
-4 3 V
-5 2 V
-4 1 V
-4 0 V
-4 -4 V
-5 -8 V
-4 -8 V
-4 -6 V
-4 -3 V
-4 3 V
-4 8 V
-5 11 V
-5 9 V
-4 6 V
-4 -1 V
-5 -4 V
-4 -5 V
-4 -4 V
-5 -4 V
-3 0 V
-5 4 V
-4 8 V
-5 9 V
-4 6 V
-3 -3 V
-5 -10 V
-5 -14 V
-4 -11 V
stroke 2742 2655 M
-4 -5 V
-4 1 V
-5 5 V
-4 7 V
-5 6 V
-3 2 V
-4 -3 V
-5 -4 V
-4 -1 V
-5 1 V
-4 2 V
-4 5 V
-5 5 V
-3 5 V
-5 1 V
-5 -1 V
-3 -3 V
-5 -5 V
-3 -4 V
-5 -4 V
-4 -1 V
-5 1 V
-4 3 V
-4 4 V
-4 7 V
-4 8 V
-5 5 V
-4 -1 V
-4 -6 V
-5 -7 V
-3 -4 V
-5 -2 V
-4 0 V
-4 1 V
-5 1 V
-4 4 V
-4 2 V
-4 -2 V
-4 -6 V
-5 -5 V
-4 -4 V
-4 1 V
-5 5 V
-4 4 V
-4 5 V
-4 8 V
-5 6 V
-4 2 V
-4 -6 V
-5 -12 V
-4 -8 V
-4 -4 V
-4 5 V
-5 9 V
-4 8 V
-5 8 V
-4 7 V
-4 3 V
-4 -1 V
-4 -6 V
-5 -8 V
-3 -7 V
-5 -3 V
-5 4 V
-3 6 V
-5 5 V
-4 4 V
-4 3 V
-5 -1 V
-4 -7 V
-5 -7 V
-4 -2 V
-5 4 V
-4 5 V
-4 5 V
-5 3 V
-4 1 V
-4 1 V
-4 -2 V
-4 -7 V
-4 -2 V
-5 2 V
-4 3 V
-4 3 V
-4 1 V
-4 6 V
-5 11 V
-4 8 V
-4 -1 V
-4 -5 V
-4 -5 V
-5 -4 V
-4 -3 V
-4 -1 V
-5 -1 V
-4 -1 V
-4 0 V
-4 0 V
-4 0 V
-4 -1 V
-5 -1 V
-4 1 V
-4 1 V
-4 1 V
-4 0 V
-5 -1 V
-4 0 V
-4 -1 V
-4 -8 V
-5 -19 V
-4 -15 V
-4 -5 V
-5 -1 V
-4 9 V
-4 11 V
-4 12 V
-5 10 V
-4 -4 V
-4 -12 V
-4 -12 V
-5 -13 V
-4 -10 V
-4 -1 V
-5 0 V
-4 0 V
-4 4 V
-4 14 V
-4 13 V
-4 10 V
-5 6 V
-4 5 V
-4 2 V
-4 2 V
-5 2 V
-4 4 V
-4 -1 V
-4 0 V
-5 -1 V
-4 -1 V
-4 -5 V
-4 0 V
-4 2 V
-5 2 V
-4 0 V
-4 0 V
-5 0 V
-4 0 V
-4 2 V
-4 4 V
-5 -1 V
-4 -2 V
-4 0 V
-4 -1 V
-5 0 V
-4 -1 V
-4 0 V
-4 3 V
-4 4 V
-5 -2 V
-4 -3 V
-4 -1 V
-5 -1 V
-4 0 V
-4 2 V
-4 7 V
-5 1 V
-4 -11 V
-4 -17 V
-5 -4 V
-4 5 V
-4 5 V
-4 4 V
-4 3 V
-5 1 V
-4 2 V
-4 -2 V
-4 -17 V
-5 -19 V
-4 -3 V
-4 19 V
-4 19 V
-5 20 V
-3 24 V
-5 5 V
-4 -11 V
-4 -11 V
-4 -9 V
-5 -6 V
-4 -2 V
-4 3 V
-5 6 V
-4 6 V
-4 5 V
-4 4 V
-5 -5 V
-4 -8 V
-4 -6 V
-5 -5 V
-3 0 V
-5 -1 V
-4 11 V
-4 6 V
-5 2 V
-4 15 V
-4 16 V
-4 -5 V
-5 -13 V
-4 -14 V
-4 -9 V
-4 -6 V
-4 -7 V
-5 -17 V
-4 -8 V
-4 10 V
-5 15 V
-4 12 V
-4 8 V
-4 6 V
-4 0 V
-5 -10 V
-4 -8 V
-4 -5 V
-5 4 V
-4 2 V
-4 -2 V
-4 0 V
-4 3 V
-5 1 V
-4 -4 V
-4 -5 V
-5 -2 V
-4 -16 V
-4 -20 V
-4 -10 V
-5 3 V
-4 12 V
-4 -6 V
-4 -12 V
-4 -11 V
-5 -2 V
-4 13 V
-4 15 V
-4 15 V
-5 15 V
-4 12 V
-4 -3 V
-5 -5 V
-4 -15 V
-4 -24 V
stroke 1684 2666 M
-4 -24 V
-4 11 V
-5 32 V
-4 32 V
-4 25 V
-4 14 V
-4 -6 V
-5 -21 V
-4 -26 V
-4 -21 V
-5 -4 V
-4 17 V
-4 26 V
-5 22 V
-4 7 V
-4 -3 V
-4 -7 V
-4 -17 V
-4 -21 V
-5 -22 V
-4 -14 V
-4 3 V
-4 9 V
-4 9 V
-5 7 V
-4 9 V
-4 5 V
-4 -4 V
-5 -8 V
-4 -12 V
-4 -20 V
-4 10 V
-5 41 V
-4 33 V
-4 21 V
-4 11 V
-5 5 V
-4 -8 V
-4 -27 V
-4 -37 V
-4 -22 V
-5 4 V
-4 15 V
-4 20 V
-4 19 V
-4 1 V
-4 -20 V
-5 -40 V
-4 -24 V
-4 24 V
-4 29 V
-4 18 V
-5 0 V
-4 -14 V
-4 -19 V
-4 -22 V
-4 -23 V
-5 -16 V
-4 6 V
-4 21 V
-5 15 V
-4 2 V
-4 0 V
-5 13 V
-4 12 V
-4 9 V
-4 2 V
-5 -12 V
-4 -11 V
-5 1 V
-4 16 V
-4 24 V
-4 25 V
-5 17 V
-4 -11 V
-4 -36 V
-5 -41 V
-4 -29 V
-4 0 V
-4 40 V
-4 63 V
-5 57 V
-4 27 V
-4 -11 V
-5 -52 V
-3 -68 V
-5 -49 V
-5 -9 V
-4 22 V
-4 36 V
-4 34 V
-4 24 V
-5 18 V
-4 22 V
-4 18 V
-5 -14 V
-3 -56 V
-5 -71 V
-5 -41 V
-3 50 V
-4 51 V
-5 32 V
-4 12 V
-5 -10 V
-4 -32 V
-4 -29 V
-4 -15 V
-4 10 V
-4 35 V
-4 40 V
-5 22 V
-4 -7 V
-4 -24 V
-4 -28 V
-4 -37 V
-5 -28 V
-4 0 V
-4 19 V
-5 19 V
-5 9 V
-3 12 V
-5 24 V
-4 11 V
-4 0 V
-4 -6 V
-4 -8 V
-5 3 V
-3 28 V
-6 46 V
-4 68 V
-3 91 V
-5 97 V
-5 54 V
-4 -9 V
-4 -57 V
-4 -61 V
-4 -46 V
-5 -31 V
-4 -12 V
-5 16 V
-4 49 V
-4 63 V
-5 31 V
-4 6 V
-4 -10 V
-5 -43 V
-4 -56 V
-3 -56 V
-6 -49 V
-3 -22 V
-4 14 V
-5 32 V
-3 29 V
-5 4 V
-5 -29 V
-4 -56 V
-4 -54 V
-4 -21 V
-4 35 V
-4 64 V
-4 49 V
-5 40 V
-4 36 V
-4 12 V
-4 -16 V
-5 -33 V
-4 -44 V
-5 -20 V
-4 65 V
-3 95 V
-4 42 V
-5 1 V
-4 -19 V
-4 -38 V
-5 -30 V
-4 3 V
-4 15 V
-4 14 V
-4 44 V
-4 83 V
-5 104 V
-4 98 V
-5 59 V
-3 25 V
-5 -15 V
-4 -49 V
-4 -43 V
-5 2 V
-4 32 V
-3 41 V
-5 35 V
-4 9 V
-5 -60 V
-4 -147 V
-4 -134 V
-5 -45 V
-4 69 V
-4 152 V
-5 187 V
-2 109 V
0 -549 R
3 -8 V
3 -20 V
5 -24 V
5 -30 V
4 -22 V
4 -9 V
4 2 V
5 8 V
3 7 V
5 2 V
3 -2 V
5 -5 V
4 -9 V
5 -6 V
4 -4 V
3 2 V
5 6 V
4 2 V
4 -4 V
4 -6 V
4 -7 V
5 -8 V
4 -10 V
3 -12 V
5 -15 V
3 -14 V
5 -11 V
4 -3 V
5 -1 V
4 -3 V
4 -4 V
4 -7 V
4 -8 V
5 -7 V
4 -9 V
4 -9 V
3 -4 V
5 -4 V
5 -2 V
3 -1 V
5 -1 V
3 1 V
6 -4 V
3 -5 V
5 -4 V
4 -4 V
4 -4 V
5 -4 V
stroke 1037 2791 M
4 -4 V
4 -5 V
4 -6 V
4 -4 V
4 -3 V
4 -2 V
5 0 V
4 1 V
4 4 V
4 3 V
4 2 V
5 -2 V
3 -5 V
5 -6 V
4 -7 V
5 -6 V
3 -6 V
5 -3 V
4 -4 V
4 -5 V
5 -3 V
4 0 V
4 -2 V
4 -3 V
4 -6 V
5 -5 V
3 -6 V
5 -5 V
4 -2 V
4 0 V
4 3 V
4 3 V
5 1 V
4 0 V
4 -2 V
4 -4 V
4 -7 V
5 -7 V
4 -5 V
4 -4 V
4 -1 V
5 0 V
3 0 V
5 3 V
4 4 V
4 -1 V
4 -5 V
5 -4 V
3 -4 V
5 -2 V
4 0 V
4 1 V
5 2 V
3 1 V
6 0 V
3 0 V
4 -3 V
4 -5 V
5 -6 V
4 -4 V
4 -2 V
4 -5 V
5 -8 V
3 -6 V
5 -4 V
4 -4 V
4 -1 V
4 8 V
4 12 V
5 10 V
4 7 V
4 7 V
4 7 V
4 3 V
4 -4 V
5 -8 V
4 -12 V
3 -11 V
5 -11 V
4 -7 V
4 3 V
5 3 V
4 0 V
4 -3 V
4 -2 V
4 -2 V
4 0 V
5 7 V
4 0 V
4 0 V
4 8 V
5 2 V
4 -3 V
4 -4 V
4 -4 V
4 -3 V
4 -4 V
4 0 V
4 2 V
4 10 V
5 11 V
4 6 V
4 -4 V
4 -7 V
4 -9 V
4 -9 V
5 -1 V
4 1 V
4 5 V
4 13 V
4 7 V
4 -2 V
4 -8 V
5 -7 V
4 -3 V
4 -5 V
4 17 V
4 12 V
5 6 V
4 5 V
4 0 V
4 -4 V
4 -7 V
4 -9 V
5 -8 V
4 -6 V
4 -2 V
4 0 V
4 2 V
4 1 V
5 3 V
3 3 V
5 7 V
4 12 V
4 13 V
4 16 V
5 12 V
4 6 V
3 -1 V
5 -12 V
4 -17 V
5 -17 V
4 -13 V
4 -7 V
4 2 V
4 9 V
4 15 V
5 17 V
3 11 V
5 2 V
4 -11 V
4 -17 V
4 -17 V
4 -4 V
5 8 V
4 4 V
4 1 V
4 6 V
5 11 V
4 9 V
4 3 V
4 -1 V
4 -3 V
5 -4 V
4 -1 V
4 -6 V
4 -10 V
4 -10 V
5 -6 V
4 2 V
4 8 V
4 13 V
4 13 V
5 12 V
4 6 V
4 -3 V
4 -15 V
5 -21 V
4 -13 V
4 -1 V
4 6 V
4 6 V
5 3 V
4 0 V
4 -2 V
4 0 V
4 -5 V
4 -8 V
5 -1 V
4 9 V
4 9 V
4 11 V
4 6 V
5 -1 V
4 -10 V
4 -15 V
4 -19 V
4 -8 V
4 16 V
5 22 V
4 18 V
4 4 V
4 -5 V
4 -10 V
4 -8 V
5 -10 V
4 -18 V
4 8 V
4 21 V
5 8 V
4 1 V
4 2 V
4 3 V
4 12 V
4 19 V
5 9 V
4 -14 V
4 -29 V
4 -24 V
4 -1 V
4 10 V
5 7 V
4 2 V
4 0 V
4 -4 V
4 -6 V
4 -9 V
4 -19 V
5 7 V
4 18 V
4 7 V
4 0 V
4 -5 V
4 -10 V
5 -3 V
4 4 V
4 10 V
4 20 V
5 5 V
4 -16 V
4 -21 V
4 -8 V
4 0 V
4 3 V
5 18 V
4 19 V
4 19 V
4 17 V
4 9 V
stroke 2077 2724 M
5 2 V
4 -6 V
4 -13 V
4 -17 V
5 -18 V
4 -8 V
4 8 V
4 5 V
4 11 V
5 18 V
4 12 V
4 1 V
4 -3 V
4 5 V
4 14 V
5 10 V
4 -6 V
4 -20 V
4 -31 V
5 -41 V
4 -7 V
4 31 V
5 6 V
4 -22 V
4 14 V
4 43 V
4 30 V
4 19 V
5 8 V
4 -2 V
4 -6 V
4 -11 V
4 -20 V
4 -21 V
4 -16 V
4 -13 V
5 -16 V
4 -10 V
4 -12 V
4 -9 V
4 20 V
4 23 V
5 22 V
4 18 V
4 9 V
4 -6 V
4 -2 V
5 -5 V
4 -14 V
3 -16 V
4 -12 V
5 -4 V
4 -4 V
4 6 V
4 12 V
4 4 V
4 3 V
5 7 V
4 -2 V
4 -18 V
4 -21 V
4 2 V
4 13 V
4 2 V
5 -12 V
4 -18 V
4 -6 V
4 11 V
4 7 V
5 -2 V
4 -11 V
4 -10 V
4 19 V
4 13 V
5 -1 V
4 -1 V
4 10 V
4 22 V
4 28 V
4 29 V
4 21 V
5 10 V
4 8 V
4 9 V
4 -1 V
6 -18 V
3 -30 V
5 -31 V
4 -19 V
3 -11 V
5 -7 V
4 1 V
5 10 V
3 18 V
5 22 V
4 20 V
4 9 V
5 -9 V
3 -16 V
4 -16 V
5 -17 V
4 -1 V
4 7 V
4 2 V
5 -5 V
3 -18 V
5 -34 V
4 -17 V
4 46 V
5 39 V
3 23 V
5 3 V
4 -11 V
4 -15 V
4 -19 V
5 -20 V
4 -20 V
4 -19 V
3 1 V
6 0 V
3 -18 V
4 24 V
5 35 V
4 34 V
4 24 V
4 12 V
5 5 V
4 -2 V
4 -7 V
3 -7 V
5 -1 V
4 0 V
4 -1 V
4 -9 V
5 -18 V
4 -20 V
4 -8 V
5 6 V
3 16 V
5 7 V
4 -8 V
5 -22 V
4 -23 V
3 -4 V
5 -7 V
3 -16 V
5 14 V
4 21 V
4 16 V
4 7 V
4 -1 V
5 -6 V
4 -17 V
5 -29 V
4 43 V
4 66 V
4 42 V
3 0 V
5 -32 V
4 -32 V
4 -12 V
5 -8 V
3 -2 V
5 -2 V
4 -11 V
4 -14 V
4 -21 V
5 -11 V
5 22 V
3 5 V
4 -18 V
4 -9 V
5 23 V
3 19 V
5 21 V
4 24 V
4 22 V
5 20 V
4 11 V
4 4 V
4 -13 V
4 -37 V
5 -53 V
3 -54 V
5 19 V
4 27 V
4 8 V
4 -12 V
4 -8 V
4 14 V
5 0 V
4 -31 V
4 11 V
4 42 V
5 11 V
3 -20 V
5 -33 V
4 -23 V
4 26 V
4 36 V
5 19 V
4 -9 V
4 -5 V
4 34 V
5 37 V
3 11 V
5 -15 V
4 -36 V
5 -48 V
3 -23 V
4 31 V
5 16 V
4 -7 V
4 -16 V
4 -18 V
5 -7 V
3 42 V
4 61 V
5 49 V
3 36 V
5 29 V
4 6 V
4 -15 V
5 -18 V
4 3 V
4 32 V
3 35 V
5 4 V
5 -53 V
4 -73 V
4 -53 V
4 14 V
4 51 V
4 53 V
5 47 V
4 25 V
4 -15 V
5 -53 V
4 -70 V
3 -82 V
5 -66 V
4 7 V
3 8 V
5 10 V
4 22 V
5 13 V
4 -6 V
4 -15 V
4 -22 V
stroke 3118 2670 M
4 -19 V
5 1 V
4 1 V
3 31 V
4 45 V
6 22 V
4 -3 V
3 -18 V
5 -22 V
3 -19 V
5 2 V
4 12 V
5 -3 V
4 -7 V
4 10 V
4 24 V
4 30 V
4 12 V
4 -20 V
5 -56 V
5 -57 V
3 57 V
5 36 V
3 3 V
5 -9 V
4 -5 V
4 -4 V
4 1 V
4 43 V
5 57 V
4 32 V
3 3 V
5 -25 V
5 -50 V
4 -68 V
4 -68 V
3 64 V
5 69 V
4 42 V
4 16 V
4 -1 V
5 -13 V
4 -33 V
5 -46 V
4 -29 V
3 14 V
4 28 V
5 15 V
4 0 V
5 -5 V
4 -21 V
4 -33 V
3 -33 V
5 -11 V
4 9 V
5 17 V
3 23 V
5 17 V
4 1 V
4 9 V
4 36 V
5 47 V
4 25 V
4 -7 V
3 -37 V
6 -56 V
3 -56 V
4 -52 V
4 16 V
5 36 V
4 17 V
4 -6 V
4 -12 V
5 -6 V
3 28 V
5 47 V
4 29 V
4 -10 V
4 -36 V
4 -38 V
5 -15 V
4 34 V
4 43 V
4 13 V
4 -32 V
5 -75 V
3 12 V
5 64 V
4 21 V
5 0 V
3 -5 V
5 -22 V
4 -28 V
5 -36 V
3 -33 V
4 -1 V
4 11 V
5 15 V
4 52 V
5 72 V
3 60 V
5 17 V
4 -23 V
4 -43 V
4 -40 V
4 -54 V
4 -44 V
5 44 V
4 33 V
4 -9 V
3 -55 V
6 -4 V
3 70 V
4 49 V
5 13 V
4 -14 V
4 -2 V
4 8 V
4 -1 V
5 -12 V
4 -7 V
4 13 V
5 25 V
3 26 V
4 -6 V
4 -49 V
5 -74 V
4 -42 V
4 52 V
4 60 V
5 39 V
3 13 V
5 -13 V
4 -30 V
4 -34 V
5 -33 V
4 -19 V
4 6 V
4 4 V
4 -11 V
4 1 V
4 22 V
5 13 V
3 -19 V
5 -42 V
5 -23 V
3 50 V
5 17 V
3 -22 V
4 -76 V
5 112 V
4 129 V
4 69 V
4 1 V
4 -49 V
6 -74 V
3 -92 V
4 -42 V
5 74 V
4 45 V
4 -4 V
3 -47 V
5 -53 V
4 -22 V
5 70 V
3 63 V
5 48 V
4 27 V
4 -26 V
5 -91 V
4 -81 V
4 -27 V
4 33 V
4 3 V
4 -3 V
5 94 V
3 97 V
5 53 V
4 17 V
5 -29 V
3 -71 V
4 -92 V
4 -40 V
4 53 V
5 34 V
4 6 V
4 -6 V
5 -28 V
3 -42 V
5 -16 V
5 29 V
3 37 V
5 19 V
5 13 V
3 26 V
4 14 V
4 8 V
5 -19 V
3 -73 V
5 -93 V
4 5 V
4 58 V
4 51 V
4 29 V
4 -16 V
4 -46 V
5 -26 V
4 25 V
4 40 V
4 35 V
5 -1 V
4 -59 V
4 -88 V
4 -20 V
4 60 V
4 22 V
5 -5 V
4 -3 V
4 -11 V
4 -28 V
4 -14 V
6 -12 V
3 -25 V
4 -21 V
4 9 V
4 6 V
5 11 V
4 28 V
4 43 V
4 46 V
4 18 V
4 -25 V
5 -59 V
3 -63 V
5 31 V
4 14 V
4 7 V
4 40 V
4 49 V
4 52 V
4 30 V
5 0 V
4 -13 V
4 -10 V
4 -2 V
4 24 V
5 42 V
4 31 V
4 19 V
stroke 4158 2959 M
4 0 V
4 -44 V
5 -79 V
4 -97 V
4 -81 V
4 6 V
5 13 V
4 0 V
4 -3 V
3 20 V
5 91 V
4 99 V
4 53 V
5 3 V
3 -33 V
5 -39 V
4 -37 V
4 -15 V
4 20 V
5 -2 V
4 -35 V
4 -87 V
4 -57 V
4 104 V
5 67 V
4 42 V
3 9 V
5 1 V
5 -13 V
4 -36 V
4 -37 V
4 27 V
4 118 V
4 140 V
4 135 V
4 51 V
5 -64 V
3 -122 V
5 -138 V
4 -54 V
4 13 V
5 -17 V
4 -39 V
4 -48 V
4 4 V
4 51 V
4 31 V
4 3 V
5 3 V
5 55 V
4 72 V
4 31 V
4 -4 V
4 -6 V
5 -5 V
4 -12 V
4 -27 V
3 -40 V
5 -48 V
4 -51 V
4 -46 V
4 6 V
5 39 V
4 -17 V
3 -75 V
5 -101 V
4 24 V
4 63 V
5 48 V
4 51 V
4 59 V
5 21 V
3 -32 V
5 -65 V
4 -80 V
4 -77 V
4 -14 V
4 68 V
5 66 V
4 38 V
4 -8 V
4 -38 V
4 -23 V
4 36 V
5 98 V
4 62 V
3 -13 V
4 -56 V
5 -48 V
4 -23 V
4 -28 V
5 -56 V
4 -76 V
4 84 V
4 137 V
5 140 V
4 116 V
3 65 V
5 -8 V
4 -79 V
3 -153 V
5 -201 V
5 -92 V
3 101 V
5 13 V
4 -54 V
5 -60 V
3 38 V
4 105 V
4 120 V
5 41 V
4 -66 V
4 -118 V
4 -92 V
5 48 V
4 64 V
4 34 V
4 5 V
5 -25 V
3 -30 V
4 10 V
4 12 V
4 -15 V
5 -38 V
4 -38 V
5 -35 V
3 -24 V
4 35 V
5 71 V
4 1 V
4 -78 V
4 -53 V
5 54 V
4 87 V
5 124 V
3 150 V
4 160 V
5 89 V
4 -12 V
4 -111 V
4 -160 V
4 -122 V
4 13 V
5 129 V
4 118 V
4 67 V
5 0 V
3 -66 V
5 -106 V
4 -143 V
4 -121 V
4 18 V
4 9 V
4 -33 V
4 -61 V
4 -17 V
5 44 V
5 65 V
3 109 V
4 129 V
5 73 V
4 14 V
4 -22 V
4 -55 V
5 -61 V
3 -7 V
5 56 V
5 59 V
2 41 V
6 31 V
4 -17 V
4 -85 V
4 -71 V
4 -49 V
4 -44 V
4 -6 V
5 32 V
4 38 V
4 18 V
5 -28 V
3 -78 V
4 -81 V
5 -70 V
4 -65 V
5 5 V
3 50 V
4 80 V
4 87 V
5 78 V
3 64 V
5 40 V
4 1 V
5 -59 V
4 -130 V
3 -40 V
5 76 V
3 61 V
5 45 V
4 44 V
4 43 V
4 13 V
5 -43 V
4 -78 V
3 -45 V
5 -24 V
4 -73 V
4 -123 V
4 -93 V
5 85 V
4 86 V
4 67 V
4 4 V
5 -54 V
4 -99 V
4 -90 V
4 44 V
4 95 V
4 59 V
5 6 V
3 -38 V
5 -15 V
4 51 V
5 0 V
4 -77 V
3 -99 V
6 34 V
4 129 V
1 44 V
0 235 R
-4 -10 V
-4 -31 V
-4 -90 V
-5 -106 V
-5 -65 V
-4 -22 V
-4 12 V
-4 19 V
-4 7 V
-4 -25 V
-4 -58 V
-4 20 V
-5 81 V
-4 69 V
-4 30 V
-5 13 V
-4 -2 V
-4 -4 V
-4 59 V
-4 35 V
stroke 5024 3049 M
-5 -38 V
-4 -85 V
-4 -119 V
-5 -131 V
-3 14 V
-5 59 V
-4 17 V
-3 -9 V
-4 15 V
-5 37 V
-5 24 V
-3 12 V
-5 6 V
-5 5 V
-3 -4 V
-5 -11 V
-4 -14 V
-4 -13 V
-5 -16 V
-4 -18 V
-4 -28 V
-4 -12 V
-5 31 V
-4 56 V
-4 61 V
-4 50 V
-5 3 V
-3 -33 V
-5 -44 V
-4 -48 V
-5 -57 V
-5 -14 V
-4 56 V
-5 31 V
-3 -7 V
-5 -43 V
-4 -80 V
-3 -20 V
-4 55 V
-5 20 V
-5 43 V
-4 79 V
-4 75 V
-5 56 V
-4 22 V
-4 -19 V
-5 -74 V
-4 -102 V
-4 -76 V
-4 -32 V
-4 4 V
-5 -14 V
-4 21 V
-5 110 V
-3 143 V
-5 116 V
-4 39 V
-5 -59 V
-3 -83 V
-5 -86 V
-4 -79 V
-4 -47 V
-4 -19 V
-5 -26 V
-3 -40 V
-5 4 V
-5 39 V
-4 63 V
-4 81 V
-5 41 V
-3 -15 V
-4 -20 V
-4 -25 V
-5 -51 V
-4 -17 V
-4 49 V
-4 13 V
-5 -48 V
-4 -94 V
-5 34 V
-3 97 V
-5 28 V
-4 -40 V
-4 -63 V
-4 -36 V
-4 -10 V
-5 -36 V
-3 -69 V
-6 73 V
-4 77 V
-3 49 V
-5 49 V
-4 49 V
-4 14 V
-5 -30 V
-4 -55 V
-4 -66 V
-5 -31 V
-4 42 V
-3 68 V
-5 33 V
-5 -21 V
-4 -69 V
-4 -90 V
-4 -71 V
-4 2 V
-4 32 V
-4 25 V
-4 8 V
-5 -9 V
-4 27 V
-5 42 V
-4 18 V
-5 -13 V
-4 -11 V
-4 13 V
-4 33 V
-4 15 V
-5 -31 V
-5 -44 V
-4 -5 V
-5 18 V
-3 24 V
-4 32 V
-5 19 V
-4 6 V
-4 7 V
-4 -11 V
-5 -39 V
-4 -48 V
-4 -48 V
-6 -17 V
-3 36 V
-5 33 V
-4 4 V
-4 -17 V
-4 -25 V
-4 -20 V
-4 -3 V
-6 6 V
-3 -2 V
-4 -19 V
-5 -4 V
-4 39 V
-4 32 V
-4 -3 V
-5 -26 V
-4 -28 V
-5 -21 V
-4 -15 V
-4 -5 V
-4 23 V
-4 70 V
-5 98 V
-3 103 V
-5 67 V
-5 15 V
-3 -32 V
-5 -72 V
-4 -92 V
-4 -104 V
-4 -93 V
-5 21 V
-5 40 V
-3 26 V
-4 18 V
-4 11 V
-5 6 V
-4 -15 V
-4 -47 V
-5 -72 V
-4 35 V
-4 40 V
-4 27 V
-4 -6 V
-5 -32 V
-4 -22 V
-4 9 V
-4 17 V
-5 13 V
-4 15 V
-4 21 V
-5 36 V
-4 17 V
-4 -13 V
-4 -30 V
-5 -30 V
-4 -33 V
-4 -45 V
-5 15 V
-3 73 V
-5 37 V
-4 0 V
-4 -17 V
-4 -46 V
-4 -78 V
-5 53 V
-5 62 V
-3 27 V
-5 -13 V
-4 -25 V
-4 -23 V
-4 -29 V
-5 -38 V
-5 -9 V
-4 54 V
-4 55 V
-4 34 V
-5 -5 V
-4 -26 V
-4 -33 V
-4 -29 V
-4 -18 V
-4 -7 V
-5 1 V
-3 15 V
-5 18 V
-5 6 V
-3 -14 V
-5 -29 V
-4 -28 V
-4 2 V
-5 20 V
-3 18 V
-6 13 V
-4 -4 V
-3 -15 V
-5 -1 V
-4 20 V
-5 12 V
-4 -11 V
-5 -21 V
-3 -6 V
-4 9 V
-5 2 V
-4 -9 V
-4 -2 V
-4 9 V
-5 11 V
-4 10 V
-5 5 V
-4 -11 V
-4 -29 V
-4 -14 V
-4 61 V
-5 72 V
-3 49 V
-5 11 V
-5 -18 V
stroke 3964 2818 M
-3 -25 V
-4 -16 V
-5 0 V
-4 9 V
-5 -6 V
-4 -27 V
-5 -40 V
-3 -47 V
-5 3 V
-4 40 V
-4 27 V
-5 15 V
-4 12 V
-4 1 V
-4 -4 V
-5 -13 V
-4 -19 V
-4 -11 V
-4 -12 V
-5 -19 V
-4 -8 V
-5 12 V
-4 -5 V
-4 -22 V
-3 -6 V
-5 25 V
-5 26 V
-4 10 V
-5 -11 V
-3 -22 V
-6 -15 V
-3 -1 V
-4 9 V
-4 13 V
-4 10 V
-4 14 V
-5 10 V
-5 -4 V
-3 -21 V
-5 -26 V
-4 -16 V
-4 24 V
-5 24 V
-4 2 V
-4 -22 V
-5 -36 V
-4 -19 V
-4 29 V
-4 14 V
-5 4 V
-3 0 V
-5 -6 V
-5 -11 V
-4 -6 V
-4 4 V
-4 11 V
-4 25 V
-4 28 V
-5 22 V
-3 17 V
-5 9 V
-4 3 V
-5 5 V
-3 13 V
-5 8 V
-4 -15 V
-5 -23 V
-3 -7 V
-5 17 V
-4 2 V
-4 -21 V
-4 -37 V
-4 -45 V
-5 -27 V
-5 28 V
-3 21 V
-4 -11 V
-4 -12 V
-5 23 V
-4 27 V
-5 7 V
-4 -2 V
-4 -5 V
-4 -5 V
-4 -1 V
-4 -5 V
-5 -12 V
-4 -14 V
-5 -10 V
-4 1 V
-4 5 V
-4 13 V
-4 11 V
-5 4 V
-4 -6 V
-4 -10 V
-4 -6 V
-5 1 V
-4 5 V
-4 5 V
-4 4 V
-4 7 V
-5 13 V
-4 8 V
-4 -1 V
-5 -11 V
-3 -22 V
-4 -37 V
-6 -34 V
-4 24 V
-3 22 V
-5 20 V
-5 16 V
-3 10 V
-5 6 V
-4 -3 V
-4 -5 V
-5 -6 V
-4 -19 V
-4 -21 V
-4 -8 V
-4 -2 V
-5 -10 V
-4 -18 V
-3 20 V
-6 25 V
-4 10 V
-4 1 V
-4 10 V
-4 6 V
-5 -8 V
-4 -18 V
-4 -26 V
-4 -5 V
-4 41 V
-5 27 V
-5 5 V
-3 -14 V
-4 -26 V
-5 -35 V
-5 -7 V
-4 19 V
-4 5 V
-4 1 V
-4 15 V
-5 18 V
-4 8 V
-4 -5 V
-5 -18 V
-4 -29 V
-3 -9 V
-5 33 V
-4 23 V
-4 9 V
-5 3 V
-4 -3 V
-5 -9 V
-3 -8 V
-5 3 V
-5 6 V
-4 6 V
-4 3 V
-4 -4 V
-4 -9 V
-4 -15 V
-4 -16 V
-5 -6 V
-4 2 V
-4 4 V
-5 6 V
-5 2 V
-3 -1 V
-5 -6 V
-3 -10 V
-5 -17 V
-4 0 V
-5 14 V
-3 9 V
-4 4 V
-5 -2 V
-4 -7 V
-4 -8 V
-5 -3 V
-4 2 V
-4 1 V
-4 2 V
-4 -2 V
-4 -5 V
-5 -8 V
-4 -9 V
-4 4 V
-5 12 V
-4 10 V
-5 5 V
-4 -4 V
-4 -8 V
-4 -8 V
-5 4 V
-3 10 V
-5 10 V
-4 12 V
-5 12 V
-3 14 V
-5 7 V
-4 -3 V
-4 -13 V
-4 -20 V
-5 -18 V
-4 -13 V
-3 -5 V
-5 -1 V
-5 2 V
-3 -1 V
-5 -6 V
-5 -2 V
-4 3 V
-3 -1 V
-6 3 V
-3 5 V
-5 6 V
-4 3 V
-4 -3 V
-5 -3 V
-4 5 V
-4 6 V
-4 0 V
-5 -5 V
-3 -6 V
-5 -3 V
-3 -1 V
-5 3 V
-5 5 V
-3 6 V
-5 4 V
-4 0 V
-5 -1 V
-4 -5 V
-4 -6 V
-3 -7 V
-5 -3 V
-4 6 V
-5 5 V
-4 2 V
-4 2 V
-5 0 V
-4 0 V
-4 5 V
-5 4 V
-4 0 V
stroke 2907 2653 M
-4 -6 V
-4 -5 V
-5 -1 V
-3 4 V
-5 3 V
-4 3 V
-4 2 V
-4 0 V
-4 -3 V
-5 -6 V
-5 -3 V
-3 0 V
-4 -1 V
-5 -7 V
-4 -6 V
-4 7 V
-5 7 V
-5 6 V
-3 4 V
-4 -2 V
-5 -7 V
-4 -8 V
-4 -5 V
-4 3 V
-5 3 V
-4 -2 V
-4 -3 V
-5 4 V
-3 2 V
-5 5 V
-5 4 V
-4 0 V
-4 -5 V
-4 -5 V
-5 -5 V
-3 -1 V
-5 3 V
-4 6 V
-4 7 V
-5 5 V
-4 3 V
-4 -2 V
-5 -7 V
-4 -12 V
-4 -7 V
-4 8 V
-5 6 V
-4 3 V
-4 2 V
-4 0 V
-4 -2 V
-6 0 V
-4 0 V
-3 -1 V
-4 0 V
-5 3 V
-4 2 V
-4 1 V
-5 -1 V
-4 -1 V
-4 -1 V
-5 0 V
-4 3 V
-4 2 V
-5 0 V
-4 1 V
-3 1 V
-5 1 V
-4 -1 V
-4 -1 V
-5 -3 V
-4 -3 V
-5 -3 V
-4 0 V
-4 1 V
-4 0 V
-4 0 V
-4 -1 V
-5 -1 V
-4 -2 V
-5 -2 V
-3 0 V
-5 0 V
-4 0 V
-4 -2 V
-4 -2 V
-4 0 V
-5 3 V
-4 5 V
-5 2 V
-4 0 V
-4 0 V
-4 -2 V
-4 -2 V
-5 -4 V
-4 -3 V
-4 -2 V
-5 1 V
-4 2 V
-4 3 V
-4 3 V
-5 2 V
-3 2 V
-6 2 V
-3 2 V
-5 1 V
-4 -1 V
-4 -3 V
-4 -5 V
-5 -3 V
-5 -2 V
-4 -1 V
-4 0 V
-4 1 V
-5 1 V
-4 2 V
-5 1 V
-3 -1 V
-5 -4 V
-4 -3 V
-4 -2 V
-5 -1 V
-4 2 V
-4 3 V
-4 3 V
-5 3 V
-4 2 V
-4 2 V
-4 1 V
-4 -1 V
-5 -2 V
-4 -2 V
-4 -3 V
-5 -3 V
-4 0 V
-4 3 V
-4 3 V
-5 3 V
-3 1 V
-5 -1 V
-4 0 V
-5 -1 V
-4 -3 V
-4 -2 V
-4 -3 V
-5 -3 V
-4 -2 V
-4 -2 V
-4 1 V
-4 2 V
-5 4 V
-4 2 V
-4 1 V
-5 -1 V
-4 -2 V
-4 -2 V
-4 -2 V
-5 1 V
-3 3 V
-4 5 V
-5 4 V
-4 2 V
-5 0 V
-4 -1 V
-4 -1 V
-4 -3 V
-5 -4 V
-4 -4 V
-4 -2 V
-4 0 V
-5 7 V
-4 8 V
-4 5 V
-4 1 V
-5 -2 V
-4 -5 V
-4 -6 V
-4 -3 V
-5 0 V
-4 0 V
-4 0 V
-4 0 V
-4 1 V
-5 1 V
-4 -1 V
-4 -3 V
-4 -3 V
-4 -1 V
-5 -1 V
-4 -1 V
-4 0 V
-5 3 V
-4 3 V
-4 4 V
-4 3 V
-5 3 V
-4 4 V
-4 3 V
-5 1 V
-3 -3 V
-5 -3 V
-4 -5 V
-4 -5 V
-5 -4 V
-3 -2 V
-5 -2 V
-4 -1 V
-4 -1 V
-5 0 V
-4 0 V
-4 0 V
-5 0 V
-4 0 V
-4 0 V
-4 0 V
-4 0 V
-5 0 V
-4 0 V
-4 3 V
-4 5 V
-5 5 V
-4 5 V
-4 3 V
-4 0 V
-5 -4 V
-4 1 V
-4 3 V
-5 -1 V
-4 -4 V
-4 0 V
-4 6 V
-4 9 V
-4 8 V
-5 3 V
-4 -5 V
-4 -9 V
-5 -9 V
-3 -7 V
-5 -5 V
-4 -2 V
-4 1 V
-5 3 V
-4 4 V
-4 5 V
-5 5 V
-4 4 V
-4 3 V
-4 -3 V
-4 -7 V
stroke 1849 2642 M
-4 -7 V
-5 -5 V
-4 -3 V
-5 -2 V
-4 -1 V
-4 -1 V
-4 4 V
-5 11 V
-4 11 V
-4 9 V
-5 6 V
-3 4 V
-5 3 V
-4 -2 V
-4 -8 V
-5 -7 V
-4 -5 V
-4 1 V
-4 -1 V
-4 -6 V
-5 -3 V
-5 8 V
-4 9 V
-4 6 V
-4 5 V
-4 2 V
-5 -1 V
-4 -10 V
-4 -8 V
-5 1 V
-4 6 V
-4 5 V
-4 5 V
-5 2 V
-4 -7 V
-4 -11 V
-4 -10 V
-4 -8 V
-4 -5 V
-5 -3 V
-5 -2 V
-4 3 V
-4 11 V
-4 12 V
-4 12 V
-4 11 V
-5 9 V
-4 6 V
-4 -2 V
-4 -16 V
-5 -20 V
-4 -11 V
-4 -7 V
-4 -4 V
-5 7 V
-4 12 V
-4 10 V
-4 11 V
-4 9 V
-5 7 V
-4 -3 V
-4 -14 V
-5 -14 V
-4 -11 V
-4 -8 V
-4 -5 V
-4 3 V
-5 11 V
-4 10 V
-4 8 V
-4 -2 V
-4 -9 V
-5 -4 V
-4 7 V
-4 10 V
-4 2 V
-4 2 V
-4 1 V
-5 2 V
-4 2 V
-4 -4 V
-4 -11 V
-5 -12 V
-4 -9 V
-5 -4 V
-4 9 V
-4 11 V
-4 5 V
-4 -6 V
-4 -5 V
-5 7 V
-4 12 V
-4 9 V
-4 3 V
-4 -5 V
-5 -10 V
-4 -10 V
-4 -10 V
-5 1 V
-3 9 V
-5 9 V
-4 7 V
-4 1 V
-4 -2 V
-5 1 V
-4 -1 V
-4 -9 V
-5 -15 V
-4 -17 V
-4 4 V
-4 6 V
-4 9 V
-5 12 V
-4 11 V
-5 5 V
-4 6 V
-4 7 V
-3 4 V
-5 0 V
-4 -4 V
-5 -5 V
-4 -2 V
-5 0 V
-3 1 V
-4 -4 V
-5 -6 V
-4 -8 V
-4 -11 V
-5 -15 V
-4 -8 V
-4 13 V
-5 9 V
-4 1 V
-4 -7 V
-5 0 V
-4 12 V
-4 14 V
-4 5 V
-4 0 V
-5 -3 V
-4 -4 V
-3 -11 V
-5 -15 V
-5 -2 V
-4 12 V
-4 9 V
-4 2 V
-4 -5 V
-4 -4 V
-4 -2 V
-5 8 V
-4 12 V
-5 2 V
-4 -4 V
-5 -9 V
-4 -7 V
-4 18 V
-4 33 V
-4 30 V
-5 20 V
-3 5 V
-5 -10 V
-4 -17 V
-5 -24 V
-4 -27 V
-3 -24 V
-5 -24 V
-4 -1 V
-5 22 V
-3 19 V
-5 11 V
-4 3 V
-5 5 V
-4 10 V
-4 11 V
-4 -1 V
-5 -10 V
-4 -15 V
-4 -12 V
-4 -5 V
-4 3 V
-5 18 V
-4 26 V
-5 22 V
-4 9 V
-4 -1 V
-3 -3 V
-6 1 V
-4 6 V
-4 8 V
-4 0 V
-4 -16 V
-4 -12 V
-6 -2 V
-3 7 V
-5 16 V
-4 21 V
-3 16 V
-5 3 V
-4 -6 V
-4 -11 V
-5 -14 V
-3 -16 V
-5 -2 V
-4 14 V
-5 23 V
-4 24 V
-5 13 V
-4 -4 V
-4 -15 V
-4 -12 V
-4 -15 V
-5 -21 V
-4 -19 V
-5 -7 V
-4 8 V
-4 12 V
-4 8 V
-5 10 V
-4 26 V
-4 39 V
-4 47 V
-5 40 V
-4 22 V
-3 -2 V
-5 -23 V
-4 -35 V
-4 -29 V
-6 -22 V
-3 -9 V
-4 15 V
-5 31 V
-4 32 V
-4 22 V
-5 14 V
-4 11 V
-4 4 V
-4 -1 V
-1 1 V
0 -45 R
4 -10 V
4 -2 V
4 6 V
4 6 V
5 7 V
3 9 V
5 4 V
4 2 V
4 2 V
stroke 874 2925 M
5 2 V
4 3 V
4 0 V
4 -5 V
4 -7 V
5 -5 V
3 -3 V
5 -3 V
4 -7 V
4 -12 V
5 -15 V
4 -12 V
3 -6 V
5 -2 V
4 0 V
4 5 V
5 11 V
3 11 V
4 4 V
5 -4 V
3 -9 V
5 -13 V
4 -15 V
5 -13 V
4 -8 V
4 -4 V
4 1 V
4 2 V
4 3 V
5 1 V
4 -2 V
4 -7 V
4 -8 V
4 -9 V
4 -8 V
5 -6 V
4 -4 V
4 -2 V
5 -2 V
4 0 V
4 -1 V
4 0 V
4 -1 V
4 -2 V
4 -5 V
5 -5 V
4 -5 V
4 -4 V
4 -3 V
4 -2 V
4 -3 V
4 -9 V
5 -9 V
4 -8 V
4 -4 V
4 -3 V
5 -3 V
4 -3 V
4 -3 V
4 -3 V
4 -2 V
4 -1 V
4 2 V
5 2 V
3 4 V
5 3 V
5 1 V
3 0 V
4 -5 V
5 -8 V
4 -8 V
4 -6 V
4 -3 V
5 -2 V
3 -1 V
4 -1 V
5 0 V
4 0 V
5 0 V
4 0 V
5 -3 V
3 -7 V
4 -9 V
5 -2 V
3 3 V
5 5 V
4 4 V
4 2 V
4 2 V
4 1 V
5 1 V
4 0 V
4 1 V
4 -6 V
4 -12 V
4 -10 V
4 1 V
5 8 V
4 7 V
4 9 V
4 8 V
4 4 V
5 -3 V
4 -5 V
4 -2 V
4 -5 V
4 -13 V
5 -11 V
4 -8 V
4 -6 V
4 -3 V
5 -1 V
3 10 V
5 13 V
4 9 V
5 4 V
4 3 V
4 5 V
4 6 V
4 1 V
4 -7 V
4 -12 V
5 -9 V
4 0 V
4 5 V
4 1 V
4 -8 V
5 -8 V
4 -12 V
4 7 V
4 17 V
4 13 V
5 6 V
3 -2 V
5 -10 V
4 -7 V
4 -2 V
4 2 V
5 2 V
4 3 V
4 5 V
4 5 V
4 0 V
4 -6 V
4 -12 V
5 -11 V
4 -8 V
4 6 V
4 11 V
5 11 V
3 10 V
5 5 V
4 0 V
4 -2 V
4 -3 V
5 -7 V
4 -10 V
4 -9 V
4 5 V
4 12 V
4 9 V
4 0 V
4 -9 V
4 -13 V
5 -10 V
4 -2 V
4 8 V
5 6 V
3 2 V
5 1 V
4 -2 V
4 1 V
4 1 V
4 -1 V
5 1 V
4 7 V
4 11 V
4 9 V
4 3 V
5 -3 V
4 -7 V
4 -8 V
4 -7 V
5 -6 V
3 -1 V
4 4 V
4 8 V
5 11 V
4 10 V
4 4 V
5 -7 V
4 -17 V
4 -27 V
4 10 V
4 30 V
4 22 V
4 1 V
5 -10 V
4 -14 V
4 -17 V
4 -15 V
4 -4 V
5 2 V
4 2 V
4 4 V
4 1 V
4 -5 V
4 -8 V
4 5 V
4 8 V
5 3 V
4 2 V
4 1 V
5 2 V
4 6 V
4 7 V
4 -3 V
4 -10 V
4 -8 V
5 0 V
4 1 V
4 -8 V
4 -12 V
4 13 V
4 21 V
5 23 V
4 13 V
4 -1 V
4 -3 V
5 -3 V
4 -12 V
4 -19 V
4 -21 V
4 -10 V
4 20 V
4 19 V
5 11 V
3 -4 V
5 -10 V
4 -11 V
4 5 V
5 11 V
4 1 V
4 -4 V
4 -4 V
4 -6 V
4 7 V
5 23 V
3 19 V
stroke 1914 2705 M
5 -4 V
4 -19 V
4 -23 V
4 -21 V
4 17 V
5 39 V
4 42 V
4 28 V
4 1 V
5 -21 V
4 -30 V
4 -31 V
4 -30 V
5 -20 V
4 20 V
4 12 V
4 4 V
4 2 V
4 13 V
4 19 V
5 10 V
4 1 V
4 8 V
4 15 V
4 22 V
5 24 V
3 14 V
5 -2 V
4 -18 V
4 -33 V
4 -40 V
5 -17 V
4 28 V
4 26 V
4 5 V
4 -9 V
4 -15 V
4 -15 V
5 -10 V
4 -10 V
4 -7 V
4 -6 V
4 -14 V
5 -25 V
4 5 V
4 29 V
4 14 V
4 -12 V
5 -13 V
4 17 V
4 26 V
4 29 V
4 25 V
4 17 V
4 -4 V
5 -21 V
4 -32 V
4 -34 V
4 -15 V
4 28 V
5 32 V
4 16 V
4 -1 V
4 -16 V
4 -23 V
4 -21 V
5 -23 V
4 -11 V
4 10 V
4 25 V
4 31 V
4 27 V
5 3 V
4 -28 V
4 -39 V
4 -23 V
5 -9 V
3 8 V
5 21 V
4 27 V
4 34 V
4 17 V
4 -13 V
5 -30 V
3 -28 V
5 -22 V
% End plot #2
stroke
LTb
LCb setrgbcolor
1.000 UL
LTB
LCb setrgbcolor
837 3838 N
0 -1500 V
4271 0 V
0 1500 V
-4271 0 V
Z stroke
1.000 UP
1.000 UL
LTb
LCb setrgbcolor
stroke
grestore
end
showpage
%%Trailer
%%DocumentFonts: Times-Roman
%%Pages: 1
