1uM DM 1hr 100uM MCH 24 hours,Title: Title,,Time (s),WE(1).Current (A),Corrected time (s),Index
,Label: E vs t (AUT71479),,26.3527,1.21E-07,0,1
,0.1380079 0.00823364257812501,,26.4527,9.06E-08,0.1,2
,0.4050232 0.00823059082031249,,26.5527,9.00E-08,0.2,3
,0.6900395 0.00823059082031249,,26.6527,9.00E-08,0.3,4
,0.9670553 0.0082275390625,,26.7527,8.91E-08,0.4,5
,1.2480714 0.0082275390625,,26.8527,8.88E-08,0.5,6
,1.5260873 0.0082275390625,,26.9527,8.85E-08,0.6,7
,1.8071033 0.0082275390625,,27.0527,8.79E-08,0.7,8
,2.0881194 0.0082275390625,,27.1527,8.79E-08,0.8,9
,2.3711356 0.0082275390625,,27.2527,8.79E-08,0.9,10
,2.6531517 0.0082275390625,,27.3527,8.76E-08,1,11
,2.9311676 0.00823059082031249,,27.4527,8.76E-08,1.1,12
,3.217184 0.00823059082031249,,27.5527,8.73E-08,1.2,13
,3.4931998 0.00823364257812501,,27.6527,8.70E-08,1.3,14
,3.776216 0.00823364257812501,,27.7527,8.70E-08,1.4,15
,4.056232 0.00823364257812501,,27.8527,8.70E-08,1.5,16
,4.3392482 0.0082366943359375,,27.9527,8.67E-08,1.6,17
,4.615264 0.00823974609375,,28.0527,8.64E-08,1.7,18
,4.9022804 0.0082427978515625,,28.1527,8.67E-08,1.8,19
,5.1772961 0.0082427978515625,,28.2527,8.58E-08,1.9,20
,5.4603123 0.0082427978515625,,28.3527,8.61E-08,2,21
,5.7433285 0.00824890136718751,,28.4527,8.61E-08,2.1,22
,6.0203443 0.008251953125,,28.5527,8.58E-08,2.2,23
,6.3003603 0.008251953125,,28.6527,8.58E-08,2.3,24
,6.5823765 0.0082550048828125,,28.7527,8.58E-08,2.4,25
,6.8643926 0.0082550048828125,,28.8527,8.51E-08,2.5,26
,7.1464087 0.0082550048828125,,28.9527,8.54E-08,2.6,27
,7.4264248 0.008258056640625,,29.0527,8.54E-08,2.7,28
,7.7044407 0.00826110839843749,,29.1527,8.58E-08,2.8,29
,7.9854567 0.00826110839843749,,29.2527,8.51E-08,2.9,30
,8.2684729 0.00826416015625001,,29.3527,8.51E-08,3,31
,8.550489 0.0082672119140625,,29.4527,8.48E-08,3.1,32
,8.8275049 0.0082672119140625,,29.5527,8.51E-08,3.2,33
,9.1145213 0.0082672119140625,,29.6527,8.45E-08,3.3,34
,9.389537 0.0082672119140625,,29.7527,8.45E-08,3.4,35
,9.6745533 0.008270263671875,,29.8527,8.48E-08,3.5,36
,9.9505691 0.0082733154296875,,29.9527,8.42E-08,3.6,37
,10.2315852 0.0082733154296875,,30.0527,8.42E-08,3.7,38
,10.5186016 0.00827636718749999,,30.1527,8.42E-08,3.8,39
,10.7926173 0.00827636718749999,,30.2527,8.42E-08,3.9,40
,11.0776336 0.00827941894531251,,30.3527,8.39E-08,4,41
,11.3546494 0.008282470703125,,30.4527,8.39E-08,4.1,42
,11.6416659 0.008282470703125,,30.5527,8.42E-08,4.2,43
,11.9536837 0.0082855224609375,,30.6527,8.39E-08,4.3,44
,12.2286994 0.0082855224609375,,30.7527,8.39E-08,4.4,45
,12.5137157 0.00828857421875,,30.8527,8.39E-08,4.5,46
,12.7897315 0.00828857421875,,30.9527,8.42E-08,4.6,47
,13.0547467 0.00829162597656249,,31.0527,8.39E-08,4.7,48
,13.340763 0.00829162597656249,,31.1527,8.36E-08,4.8,49
,13.6187789 0.00829162597656249,,31.2527,8.39E-08,4.9,50
,13.8977949 0.00829467773437501,,31.3527,8.39E-08,5,51
,14.1838113 0.00829467773437501,,31.4527,8.36E-08,5.1,52
,14.459827 0.0082977294921875,,31.5527,8.33E-08,5.2,53
,14.7448433 0.0082977294921875,,31.6527,8.36E-08,5.3,54
,15.0208591 0.0082977294921875,,31.7527,8.30E-08,5.4,55
,15.3068755 0.00830078125,,31.8527,8.33E-08,5.5,56
,15.5828913 0.00830078125,,31.9527,8.33E-08,5.6,57
,15.8669075 0.0083038330078125,,32.0527,8.33E-08,5.7,58
,16.1459235 0.0083038330078125,,32.1527,8.33E-08,5.8,59
,16.4289397 0.0083038330078125,,32.2527,8.33E-08,5.9,60
,16.7049555 0.00830688476562499,,32.3527,8.30E-08,6,61
,16.9919719 0.00830688476562499,,32.4527,8.30E-08,6.1,62
,17.2689877 0.00830688476562499,,32.5527,8.33E-08,6.2,63
,17.5520039 0.00830993652343751,,32.6527,8.33E-08,6.3,64
,17.8310199 0.00831298828125,,32.7527,8.30E-08,6.4,65
,18.1090358 0.00831298828125,,32.8527,8.30E-08,6.5,66
,18.3900518 0.0083160400390625,,32.9527,8.27E-08,6.6,67
,18.6760682 0.0083160400390625,,33.0527,8.27E-08,6.7,68
,18.9540841 0.0083160400390625,,33.1527,8.27E-08,6.8,69
,19.2361002 0.0083160400390625,,33.2527,8.27E-08,6.9,70
,19.5141161 0.0083160400390625,,33.3527,8.24E-08,7,71
,19.7991324 0.008319091796875,,33.4527,8.27E-08,7.1,72
,20.0761483 0.008319091796875,,33.5527,8.24E-08,7.2,73
,20.3581644 0.008319091796875,,33.6527,7.87E-08,7.3,74
,20.6371804 0.008319091796875,,33.7527,7.87E-08,7.4,75
,20.9221967 0.00832214355468749,,33.8527,7.93E-08,7.5,76
,21.1992125 0.00832214355468749,,33.9527,7.93E-08,7.6,77
,21.4792285 0.008319091796875,,34.0527,7.97E-08,7.7,78
,21.7652449 0.00832214355468749,,34.1527,7.97E-08,7.8,79
,22.0402606 0.00832214355468749,,34.2527,8.00E-08,7.9,80
,22.3252769 0.00832519531250001,,34.3527,8.00E-08,8,81
,22.6022928 0.00832519531250001,,34.4527,8.03E-08,8.1,82
,22.8873091 0.0083282470703125,,34.5527,7.97E-08,8.2,83
,23.1643249 0.0083282470703125,,34.6527,8.06E-08,8.3,84
,23.4493412 0.0083282470703125,,34.7527,8.03E-08,8.4,85
,23.725357 0.0083282470703125,,34.8527,8.03E-08,8.5,86
,,,34.9527,8.06E-08,8.6,87
,,,35.0527,8.06E-08,8.7,88
,,,35.1527,8.06E-08,8.8,89
,,,35.2527,8.03E-08,8.9,90
,,,35.3527,8.03E-08,9,91
,,,35.4527,8.03E-08,9.1,92
,,,35.5527,8.06E-08,9.2,93
,,,35.6527,8.09E-08,9.3,94
,,,35.7527,8.09E-08,9.4,95
,,,35.8527,8.09E-08,9.5,96
,,,35.9527,8.09E-08,9.6,97
,,,36.0527,8.06E-08,9.7,98
,,,36.1527,8.06E-08,9.8,99
,,,36.2527,8.09E-08,9.9,100
,,,36.3527,8.06E-08,10,101
,,,36.4527,8.06E-08,10.1,102
,,,36.5527,8.06E-08,10.2,103
,,,36.6527,8.06E-08,10.3,104
,,,36.7527,8.06E-08,10.4,105
,,,36.8527,8.06E-08,10.5,106
,,,36.9527,8.06E-08,10.6,107
,,,37.0527,8.03E-08,10.7,108
,,,37.1527,8.06E-08,10.8,109
,,,37.2527,8.06E-08,10.9,110
,,,37.3527,8.03E-08,11,111
,,,37.4527,8.00E-08,11.1,112
,,,37.5527,8.09E-08,11.2,113
,,,37.6527,8.06E-08,11.3,114
,,,37.7527,8.06E-08,11.4,115
,,,37.8527,8.06E-08,11.5,116
,,,37.9527,8.06E-08,11.6,117
,,,38.0527,8.03E-08,11.7,118
,,,38.1527,8.03E-08,11.8,119
,,,38.2527,8.06E-08,11.9,120
,,,38.3527,8.21E-08,12,121
,,,38.4527,8.24E-08,12.1,122
,,,38.5527,8.30E-08,12.2,123
,,,38.6527,8.30E-08,12.3,124
,,,38.7527,8.27E-08,12.4,125
,,,38.8527,8.30E-08,12.5,126
,,,38.9527,8.24E-08,12.6,127
,,,39.0527,8.33E-08,12.7,128
,,,39.1527,8.30E-08,12.8,129
,,,39.2527,8.21E-08,12.9,130
,,,39.3527,8.24E-08,13,131
,,,39.4527,8.24E-08,13.1,132
,,,39.5527,8.24E-08,13.2,133
,,,39.6527,8.27E-08,13.3,134
,,,39.7527,8.24E-08,13.4,135
,,,39.8527,8.21E-08,13.5,136
,,,39.9527,8.21E-08,13.6,137
,,,40.0527,8.15E-08,13.7,138
,,,40.1527,8.18E-08,13.8,139
,,,40.2527,8.21E-08,13.9,140
,,,40.3527,8.18E-08,14,141
,,,40.4527,8.18E-08,14.1,142
,,,40.5527,8.21E-08,14.2,143
,,,40.6527,8.12E-08,14.3,144
,,,40.7527,8.15E-08,14.4,145
,,,40.8527,8.15E-08,14.5,146
,,,40.9527,8.18E-08,14.6,147
,,,41.0527,8.15E-08,14.7,148
,,,41.1527,8.15E-08,14.8,149
,,,41.2527,8.15E-08,14.9,150
,,,41.3527,8.15E-08,15,151
,,,41.4527,8.12E-08,15.1,152
,,,41.5527,8.18E-08,15.2,153
,,,41.6527,8.09E-08,15.3,154
,,,41.7527,8.12E-08,15.4,155
,,,41.8527,8.09E-08,15.5,156
,,,41.9527,8.09E-08,15.6,157
,,,42.0527,8.06E-08,15.7,158
,,,42.1527,8.06E-08,15.8,159
,,,42.2527,8.09E-08,15.9,160
,,,42.3527,8.09E-08,16,161
,,,42.4527,8.06E-08,16.1,162
,,,42.5527,8.03E-08,16.2,163
,,,42.6527,8.09E-08,16.3,164
,,,42.7527,8.03E-08,16.4,165
,,,42.8527,8.03E-08,16.5,166
,,,42.9527,8.06E-08,16.6,167
,,,43.0527,8.06E-08,16.7,168
,,,43.1527,8.06E-08,16.8,169
,,,43.2527,8.06E-08,16.9,170
,,,43.3527,8.06E-08,17,171
,,,43.4527,8.03E-08,17.1,172
,,,43.5527,8.06E-08,17.2,173
,,,43.6527,8.03E-08,17.3,174
,,,43.7527,8.00E-08,17.4,175
,,,43.8527,8.00E-08,17.5,176
,,,43.9527,8.00E-08,17.6,177
,,,44.0527,8.06E-08,17.7,178
,,,44.1527,8.00E-08,17.8,179
,,,44.2527,8.00E-08,17.9,180
,,,44.3527,8.00E-08,18,181
,,,44.4527,8.00E-08,18.1,182
,,,44.5527,8.03E-08,18.2,183
,,,44.6527,7.97E-08,18.3,184
,,,44.7527,8.00E-08,18.4,185
,,,44.8527,8.00E-08,18.5,186
,,,44.9527,8.00E-08,18.6,187
,,,45.0527,7.97E-08,18.7,188
,,,45.1527,8.00E-08,18.8,189
,,,45.2527,8.00E-08,18.9,190
,,,45.3527,8.03E-08,19,191
,,,45.4527,8.00E-08,19.1,192
,,,45.5527,8.03E-08,19.2,193
,,,45.6527,7.97E-08,19.3,194
,,,45.7527,7.97E-08,19.4,195
,,,45.8527,7.93E-08,19.5,196
,,,45.9527,7.93E-08,19.6,197
,,,46.0527,7.97E-08,19.7,198
,,,46.1527,7.97E-08,19.8,199
,,,46.2527,7.93E-08,19.9,200
,,,46.3527,7.93E-08,20,201
,,,46.4527,7.97E-08,20.1,202
,,,46.5527,7.97E-08,20.2,203
,,,46.6527,7.93E-08,20.3,204
,,,46.7527,7.97E-08,20.4,205
,,,46.8527,7.97E-08,20.5,206
,,,46.9527,7.93E-08,20.6,207
,,,47.0527,7.93E-08,20.7,208
,,,47.1527,7.93E-08,20.8,209
,,,47.2527,7.90E-08,20.9,210
,,,47.3527,7.90E-08,21,211
,,,47.4527,7.93E-08,21.1,212
,,,47.5527,7.93E-08,21.2,213
,,,47.6527,7.63E-08,21.3,214
,,,47.7527,7.66E-08,21.4,215
,,,47.8527,7.66E-08,21.5,216
,,,47.9527,7.66E-08,21.6,217
,,,48.0527,7.66E-08,21.7,218
,,,48.1527,7.72E-08,21.8,219
,,,48.2527,7.72E-08,21.9,220
,,,48.3527,7.75E-08,22,221
,,,48.4527,7.75E-08,22.1,222
,,,48.5527,7.75E-08,22.2,223
,,,48.6527,7.75E-08,22.3,224
,,,48.7527,7.75E-08,22.4,225
,,,48.8527,7.78E-08,22.5,226
,,,48.9527,7.75E-08,22.6,227
,,,49.0527,7.75E-08,22.7,228
,,,49.1527,7.78E-08,22.8,229
,,,49.2527,7.78E-08,22.9,230
,,,49.3527,7.78E-08,23,231
,,,49.4527,7.75E-08,23.1,232
,,,49.5527,7.78E-08,23.2,233
,,,49.6527,7.81E-08,23.3,234
,,,49.7527,7.78E-08,23.4,235
,,,49.8527,7.78E-08,23.5,236
,,,49.9527,7.84E-08,23.6,237
,,,50.0527,7.81E-08,23.7,238
,,,50.1527,7.81E-08,23.8,239
,,,50.2527,7.81E-08,23.9,240
,,,50.3527,7.81E-08,24,241
,,,50.4527,7.81E-08,24.1,242
,,,50.5527,7.75E-08,24.2,243
,,,50.6527,7.78E-08,24.3,244
,,,50.7527,7.81E-08,24.4,245
,,,50.8527,7.84E-08,24.5,246
,,,50.9527,7.78E-08,24.6,247
,,,51.0527,7.78E-08,24.7,248
,,,51.1527,7.81E-08,24.8,249
,,,51.2527,7.81E-08,24.9,250
,,,51.3527,7.81E-08,25,251
,,,51.4527,7.84E-08,25.1,252
,,,51.5527,7.84E-08,25.2,253
,,,51.6527,7.81E-08,25.3,254
,,,51.7527,7.78E-08,25.4,255
,,,51.8527,7.81E-08,25.5,256
,,,51.9527,7.81E-08,25.6,257
,,,52.0527,7.81E-08,25.7,258
,,,52.1527,7.81E-08,25.8,259
,,,52.2527,7.78E-08,25.9,260
,,,52.3527,7.84E-08,26,261
,,,52.4527,7.81E-08,26.1,262
,,,52.5527,7.81E-08,26.2,263
,,,52.6527,7.81E-08,26.3,264
,,,52.7527,7.84E-08,26.4,265
,,,52.8527,7.81E-08,26.5,266
,,,52.9527,7.90E-08,26.6,267
,,,53.0527,7.97E-08,26.7,268
,,,53.1527,8.03E-08,26.8,269
,,,53.2527,8.06E-08,26.9,270
,,,53.3527,8.06E-08,27,271
,,,53.4527,8.09E-08,27.1,272
,,,53.5527,8.06E-08,27.2,273
,,,53.6527,8.03E-08,27.3,274
,,,53.7527,8.00E-08,27.4,275
,,,53.8527,8.03E-08,27.5,276
,,,53.9527,8.03E-08,27.6,277
,,,54.0527,8.00E-08,27.7,278
,,,54.1527,8.00E-08,27.8,279
,,,54.2527,8.00E-08,27.9,280
,,,54.3527,7.97E-08,28,281
,,,54.4527,7.97E-08,28.1,282
,,,54.5527,7.97E-08,28.2,283
,,,54.6527,7.97E-08,28.3,284
,,,54.7527,7.97E-08,28.4,285
,,,54.8527,7.97E-08,28.5,286
,,,54.9527,7.93E-08,28.6,287
,,,55.0527,7.90E-08,28.7,288
,,,55.1527,7.90E-08,28.8,289
,,,55.2527,7.93E-08,28.9,290
,,,55.3527,7.90E-08,29,291
,,,55.4527,7.90E-08,29.1,292
,,,55.5527,7.93E-08,29.2,293
,,,55.6527,7.97E-08,29.3,294
,,,55.7527,7.93E-08,29.4,295
,,,55.8527,7.93E-08,29.5,296
,,,55.9527,7.90E-08,29.6,297
,,,56.0527,7.93E-08,29.7,298
,,,56.1527,7.93E-08,29.8,299
,,,56.2527,7.90E-08,29.9,300
,,,56.3527,7.87E-08,30,301
,,,56.4527,7.87E-08,30.1,302
,,,56.5527,7.87E-08,30.2,303
,,,56.6527,7.87E-08,30.3,304
,,,56.7527,7.87E-08,30.4,305
,,,56.8527,7.87E-08,30.5,306
,,,56.9527,7.87E-08,30.6,307
,,,57.0527,7.90E-08,30.7,308
,,,57.1527,7.87E-08,30.8,309
,,,57.2527,7.87E-08,30.9,310
,,,57.3527,7.87E-08,31,311
,,,57.4527,7.84E-08,31.1,312
,,,57.5527,7.84E-08,31.2,313
,,,57.6527,7.87E-08,31.3,314
,,,57.7527,7.81E-08,31.4,315
,,,57.8527,7.84E-08,31.5,316
,,,57.9527,7.84E-08,31.6,317
,,,58.0527,7.90E-08,31.7,318
,,,58.1527,7.87E-08,31.8,319
,,,58.2527,7.87E-08,31.9,320
,,,58.3527,7.87E-08,32,321
,,,58.4527,7.87E-08,32.1,322
,,,58.5527,7.84E-08,32.2,323
,,,58.6527,7.81E-08,32.3,324
,,,58.7527,7.84E-08,32.4,325
,,,58.8527,7.81E-08,32.5,326
,,,58.9527,7.84E-08,32.6,327
,,,59.0527,7.84E-08,32.7,328
,,,59.1527,7.84E-08,32.8,329
,,,59.2527,7.81E-08,32.9,330
,,,59.3527,7.84E-08,33,331
,,,59.4527,7.81E-08,33.1,332
,,,59.5527,7.84E-08,33.2,333
,,,59.6527,7.87E-08,33.3,334
,,,59.7527,7.84E-08,33.4,335
,,,59.8527,7.81E-08,33.5,336
,,,59.9527,7.81E-08,33.6,337
,,,60.0527,7.81E-08,33.7,338
,,,60.1527,7.81E-08,33.8,339
,,,60.2527,7.81E-08,33.9,340
,,,60.3527,7.84E-08,34,341
,,,60.4527,7.81E-08,34.1,342
,,,60.5527,7.78E-08,34.2,343
,,,60.6527,7.78E-08,34.3,344
,,,60.7527,7.84E-08,34.4,345
,,,60.8527,7.81E-08,34.5,346
,,,60.9527,7.45E-08,34.6,347
,,,61.0527,7.51E-08,34.7,348
,,,61.1527,7.54E-08,34.8,349
,,,61.2527,7.57E-08,34.9,350
,,,61.3527,7.60E-08,35,351
,,,61.4527,7.63E-08,35.1,352
,,,61.5527,7.60E-08,35.2,353
,,,61.6527,7.63E-08,35.3,354
,,,61.7527,7.63E-08,35.4,355
,,,61.8527,7.63E-08,35.5,356
,,,61.9527,7.63E-08,35.6,357
,,,62.0527,7.66E-08,35.7,358
,,,62.1527,7.66E-08,35.8,359
,,,62.2527,7.66E-08,35.9,360
,,,62.3527,7.63E-08,36,361
,,,62.4527,7.63E-08,36.1,362
,,,62.5527,7.66E-08,36.2,363
,,,62.6527,7.63E-08,36.3,364
,,,62.7527,7.63E-08,36.4,365
,,,62.8527,7.66E-08,36.5,366
,,,62.9527,7.63E-08,36.6,367
,,,63.0527,7.69E-08,36.7,368
,,,63.1527,7.66E-08,36.8,369
,,,63.2527,7.69E-08,36.9,370
,,,63.3527,7.69E-08,37,371
,,,63.4527,7.69E-08,37.1,372
,,,63.5527,7.72E-08,37.2,373
,,,63.6527,7.63E-08,37.3,374
,,,63.7527,7.69E-08,37.4,375
,,,63.8527,7.66E-08,37.5,376
,,,63.9527,7.69E-08,37.6,377
,,,64.0527,7.69E-08,37.7,378
,,,64.1527,7.66E-08,37.8,379
,,,64.2527,7.69E-08,37.9,380
,,,64.3527,7.69E-08,38,381
,,,64.4527,7.66E-08,38.1,382
,,,64.5527,7.72E-08,38.2,383
,,,64.6527,7.66E-08,38.3,384
,,,64.7527,7.69E-08,38.4,385
,,,64.8527,7.69E-08,38.5,386
,,,64.9527,7.69E-08,38.6,387
,,,65.0527,7.66E-08,38.7,388
,,,65.1527,7.66E-08,38.8,389
,,,65.2527,7.69E-08,38.9,390
,,,65.3527,7.69E-08,39,391
,,,65.4527,7.69E-08,39.1,392
,,,65.5527,7.69E-08,39.2,393
,,,65.6527,7.72E-08,39.3,394
,,,65.7527,7.69E-08,39.4,395
,,,65.8527,7.69E-08,39.5,396
,,,65.9527,7.72E-08,39.6,397
,,,66.0527,7.72E-08,39.7,398
,,,66.1527,7.75E-08,39.8,399
,,,66.2527,7.72E-08,39.9,400
,,,66.3527,7.69E-08,40,401
,,,66.4527,7.72E-08,40.1,402
,,,66.5527,7.81E-08,40.2,403
,,,66.6527,7.87E-08,40.3,404
,,,66.7527,7.93E-08,40.4,405
,,,66.8527,7.90E-08,40.5,406
,,,66.9527,7.90E-08,40.6,407
,,,67.0527,7.87E-08,40.7,408
,,,67.1527,7.87E-08,40.8,409
,,,67.2527,7.87E-08,40.9,410
,,,67.3527,7.87E-08,41,411
,,,67.4527,7.84E-08,41.1,412
,,,67.5527,7.90E-08,41.2,413
,,,67.6527,7.84E-08,41.3,414
,,,67.7527,7.87E-08,41.4,415
,,,67.8527,7.87E-08,41.5,416
,,,67.9527,7.84E-08,41.6,417
,,,68.0527,7.81E-08,41.7,418
,,,68.1527,7.87E-08,41.8,419
,,,68.2527,7.84E-08,41.9,420
,,,68.3527,7.81E-08,42,421
,,,68.4527,7.81E-08,42.1,422
,,,68.5527,7.81E-08,42.2,423
,,,68.6527,7.81E-08,42.3,424
,,,68.7527,7.81E-08,42.4,425
,,,68.8527,7.84E-08,42.5,426
,,,68.9527,7.81E-08,42.6,427
,,,69.0527,7.81E-08,42.7,428
,,,69.1527,7.78E-08,42.8,429
,,,69.2527,7.81E-08,42.9,430
,,,69.3527,7.78E-08,43,431
,,,69.4527,7.78E-08,43.1,432
,,,69.5527,7.81E-08,43.2,433
,,,69.6527,7.81E-08,43.3,434
,,,69.7527,7.84E-08,43.4,435
,,,69.8527,7.81E-08,43.5,436
,,,69.9527,7.84E-08,43.6,437
,,,70.0527,7.81E-08,43.7,438
,,,70.1527,7.84E-08,43.8,439
,,,70.2527,7.78E-08,43.9,440
,,,70.3527,7.81E-08,44,441
,,,70.4527,7.81E-08,44.1,442
,,,70.5527,7.81E-08,44.2,443
,,,70.6527,7.87E-08,44.3,444
,,,70.7527,7.78E-08,44.4,445
,,,70.8527,7.78E-08,44.5,446
,,,70.9527,7.81E-08,44.6,447
,,,71.0527,7.81E-08,44.7,448
,,,71.1527,7.78E-08,44.8,449
,,,71.2527,7.81E-08,44.9,450
,,,71.3527,7.78E-08,45,451
,,,71.4527,7.78E-08,45.1,452
,,,71.5527,7.78E-08,45.2,453
,,,71.6527,7.78E-08,45.3,454
,,,71.7527,7.75E-08,45.4,455
,,,71.8527,7.78E-08,45.5,456
,,,71.9527,7.78E-08,45.6,457
,,,72.0527,7.75E-08,45.7,458
,,,72.1527,7.78E-08,45.8,459
,,,72.2527,7.78E-08,45.9,460
,,,72.3527,7.75E-08,46,461
,,,72.4527,7.78E-08,46.1,462
,,,72.5527,7.75E-08,46.2,463
,,,72.6527,7.78E-08,46.3,464
,,,72.7527,7.78E-08,46.4,465
,,,72.8527,7.75E-08,46.5,466
,,,72.9527,7.78E-08,46.6,467
,,,73.0527,7.75E-08,46.7,468
,,,73.1527,7.78E-08,46.8,469
,,,73.2527,7.75E-08,46.9,470
,,,73.3527,7.75E-08,47,471
,,,73.4527,7.75E-08,47.1,472
,,,73.5527,7.75E-08,47.2,473
,,,73.6527,7.75E-08,47.3,474
,,,73.7527,7.75E-08,47.4,475
,,,73.8527,7.69E-08,47.5,476
,,,73.9527,7.75E-08,47.6,477
,,,74.0527,7.75E-08,47.7,478
,,,74.1527,7.75E-08,47.8,479
,,,74.2527,7.72E-08,47.9,480
,,,74.3527,7.72E-08,48,481
,,,74.4527,7.72E-08,48.1,482
,,,74.5527,7.75E-08,48.2,483
,,,74.6527,7.45E-08,48.3,484
,,,74.7527,7.35E-08,48.4,485
,,,74.8527,7.45E-08,48.5,486
,,,74.9527,7.45E-08,48.6,487
,,,75.0527,7.51E-08,48.7,488
,,,75.1527,7.48E-08,48.8,489
,,,75.2527,7.48E-08,48.9,490
,,,75.3527,7.51E-08,49,491
,,,75.4527,7.54E-08,49.1,492
,,,75.5527,7.57E-08,49.2,493
,,,75.6527,7.57E-08,49.3,494
,,,75.7527,7.57E-08,49.4,495
,,,75.8527,7.57E-08,49.5,496
,,,75.9527,7.57E-08,49.6,497
,,,76.0527,7.54E-08,49.7,498
,,,76.1527,7.60E-08,49.8,499
,,,76.2527,7.60E-08,49.9,500
,,,76.3527,7.63E-08,50,501
,,,76.4527,7.63E-08,50.1,502
,,,76.5527,7.57E-08,50.2,503
,,,76.6527,7.60E-08,50.3,504
,,,76.7527,7.57E-08,50.4,505
,,,76.8527,7.60E-08,50.5,506
,,,76.9527,7.57E-08,50.6,507
,,,77.0527,7.60E-08,50.7,508
,,,77.1527,7.63E-08,50.8,509
,,,77.2527,7.60E-08,50.9,510
,,,77.3527,7.60E-08,51,511
,,,77.4527,7.57E-08,51.1,512
,,,77.5527,7.60E-08,51.2,513
,,,77.6527,7.63E-08,51.3,514
,,,77.7527,7.60E-08,51.4,515
,,,77.8527,7.63E-08,51.5,516
,,,77.9527,7.60E-08,51.6,517
,,,78.0527,7.60E-08,51.7,518
,,,78.1527,7.60E-08,51.8,519
,,,78.2527,7.63E-08,51.9,520
,,,78.3527,7.63E-08,52,521
,,,78.4527,7.60E-08,52.1,522
,,,78.5527,7.66E-08,52.2,523
,,,78.6527,7.63E-08,52.3,524
,,,78.7527,7.63E-08,52.4,525
,,,78.8527,7.66E-08,52.5,526
,,,78.9527,7.63E-08,52.6,527
,,,79.0527,7.63E-08,52.7,528
,,,79.1527,7.66E-08,52.8,529
,,,79.2527,7.63E-08,52.9,530
,,,79.3527,7.63E-08,53,531
,,,79.4527,7.63E-08,53.1,532
,,,79.5527,7.63E-08,53.2,533
,,,79.6527,7.60E-08,53.3,534
,,,79.7527,7.66E-08,53.4,535
,,,79.8527,7.60E-08,53.5,536
,,,79.9527,7.66E-08,53.6,537
,,,80.0527,7.66E-08,53.7,538
,,,80.1527,7.69E-08,53.8,539
,,,80.2527,7.66E-08,53.9,540
,,,80.3527,7.69E-08,54,541
,,,80.4527,7.69E-08,54.1,542
,,,80.5527,7.69E-08,54.2,543
,,,80.6527,7.69E-08,54.3,544
,,,80.7527,7.81E-08,54.4,545
,,,80.8527,7.84E-08,54.5,546
,,,80.9527,7.87E-08,54.6,547
,,,81.0527,7.90E-08,54.7,548
,,,81.1527,7.87E-08,54.8,549
,,,81.2527,7.90E-08,54.9,550
,,,81.3527,7.87E-08,55,551
,,,81.4527,7.84E-08,55.1,552
,,,81.5527,7.87E-08,55.2,553
,,,81.6527,7.87E-08,55.3,554
,,,81.7527,7.87E-08,55.4,555
,,,81.8527,7.84E-08,55.5,556
,,,81.9527,7.84E-08,55.6,557
,,,82.0527,7.84E-08,55.7,558
,,,82.1527,7.84E-08,55.8,559
,,,82.2527,7.78E-08,55.9,560
,,,82.3527,7.81E-08,56,561
,,,82.4527,7.84E-08,56.1,562
,,,82.5527,7.78E-08,56.2,563
,,,82.6527,7.78E-08,56.3,564
,,,82.7527,7.81E-08,56.4,565
,,,82.8527,7.75E-08,56.5,566
,,,82.9527,7.81E-08,56.6,567
,,,83.0527,7.78E-08,56.7,568
,,,83.1527,7.81E-08,56.8,569
,,,83.2527,7.75E-08,56.9,570
,,,83.3527,7.78E-08,57,571
,,,83.4527,7.78E-08,57.1,572
,,,83.5527,7.75E-08,57.2,573
,,,83.6527,7.69E-08,57.3,574
,,,83.7527,7.75E-08,57.4,575
,,,83.8527,7.75E-08,57.5,576
,,,83.9527,7.72E-08,57.6,577
,,,84.0527,7.69E-08,57.7,578
,,,84.1527,7.75E-08,57.8,579
,,,84.2527,7.75E-08,57.9,580
,,,84.3527,7.78E-08,58,581
,,,84.4527,7.75E-08,58.1,582
,,,84.5527,7.75E-08,58.2,583
,,,84.6527,7.75E-08,58.3,584
,,,84.7527,7.72E-08,58.4,585
,,,84.8527,7.72E-08,58.5,586
,,,84.9527,7.66E-08,58.6,587
,,,85.0527,7.75E-08,58.7,588
,,,85.1527,7.72E-08,58.8,589
,,,85.2527,7.72E-08,58.9,590
,,,85.3527,7.72E-08,59,591
,,,85.4527,7.69E-08,59.1,592
,,,85.5527,7.72E-08,59.2,593
,,,85.6527,7.66E-08,59.3,594
,,,85.7527,7.66E-08,59.4,595
,,,85.8527,7.66E-08,59.5,596
,,,85.9527,7.66E-08,59.6,597
,,,86.0527,7.69E-08,59.7,598
,,,86.1527,7.66E-08,59.8,599
,,,86.2527,7.66E-08,59.9,600
,,,86.3527,7.72E-08,60,601
,,,86.4527,7.66E-08,60.1,602
,,,86.5527,7.66E-08,60.2,603
,,,86.6527,7.69E-08,60.3,604
,,,86.7527,7.66E-08,60.4,605
,,,86.8527,7.66E-08,60.5,606
,,,86.9527,7.66E-08,60.6,607
,,,87.0527,7.69E-08,60.7,608
,,,87.1527,7.66E-08,60.8,609
,,,87.2527,7.63E-08,60.9,610
,,,87.3527,7.66E-08,61,611
,,,87.4527,7.66E-08,61.1,612
,,,87.5527,7.69E-08,61.2,613
,,,87.6527,7.69E-08,61.3,614
,,,87.7527,7.63E-08,61.4,615
,,,87.8527,7.66E-08,61.5,616
,,,87.9527,7.66E-08,61.6,617
,,,88.0527,7.60E-08,61.7,618
,,,88.1527,7.66E-08,61.8,619
,,,88.2527,7.66E-08,61.9,620
,,,88.3527,7.63E-08,62,621
,,,88.4527,7.66E-08,62.1,622
,,,88.5527,7.66E-08,62.2,623
,,,88.6527,7.66E-08,62.3,624
,,,88.7527,7.66E-08,62.4,625
,,,88.8527,7.63E-08,62.5,626
,,,88.9527,7.63E-08,62.6,627
,,,89.0527,7.63E-08,62.7,628
,,,89.1527,7.63E-08,62.8,629
,,,89.2527,7.66E-08,62.9,630
,,,89.3527,7.63E-08,63,631
,,,89.4527,7.63E-08,63.1,632
,,,89.5527,7.63E-08,63.2,633
,,,89.6527,7.63E-08,63.3,634
,,,89.7527,7.63E-08,63.4,635
,,,89.8527,7.63E-08,63.5,636
,,,89.9527,7.39E-08,63.6,637
,,,90.0527,7.29E-08,63.7,638
,,,90.1527,7.29E-08,63.8,639
,,,90.2527,7.32E-08,63.9,640
,,,90.3527,7.42E-08,64,641
,,,90.4527,7.42E-08,64.1,642
,,,90.5527,7.45E-08,64.2,643
,,,90.6527,7.42E-08,64.3,644
,,,90.7527,7.48E-08,64.4,645
,,,90.8527,7.48E-08,64.5,646
,,,90.9527,7.48E-08,64.6,647
,,,91.0527,7.48E-08,64.7,648
,,,91.1527,7.48E-08,64.8,649
,,,91.2527,7.45E-08,64.9,650
,,,91.3527,7.48E-08,65,651
,,,91.4527,7.48E-08,65.1,652
,,,91.5527,7.45E-08,65.2,653
,,,91.6527,7.48E-08,65.3,654
,,,91.7527,7.48E-08,65.4,655
,,,91.8527,7.54E-08,65.5,656
,,,91.9527,7.51E-08,65.6,657
,,,92.0527,7.51E-08,65.7,658
,,,92.1527,7.51E-08,65.8,659
,,,92.2527,7.51E-08,65.9,660
,,,92.3527,7.54E-08,66,661
,,,92.4527,7.57E-08,66.1,662
,,,92.5527,7.57E-08,66.2,663
,,,92.6527,7.54E-08,66.3,664
,,,92.7527,7.57E-08,66.4,665
,,,92.8527,7.57E-08,66.5,666
,,,92.9527,7.54E-08,66.6,667
,,,93.0527,7.54E-08,66.7,668
,,,93.1527,7.54E-08,66.8,669
,,,93.2527,7.54E-08,66.9,670
,,,93.3527,7.51E-08,67,671
,,,93.4527,7.54E-08,67.1,672
,,,93.5527,7.54E-08,67.2,673
,,,93.6527,7.57E-08,67.3,674
,,,93.7527,7.51E-08,67.4,675
,,,93.8527,7.51E-08,67.5,676
,,,93.9527,7.57E-08,67.6,677
,,,94.0527,7.57E-08,67.7,678
,,,94.1527,7.54E-08,67.8,679
,,,94.2527,7.57E-08,67.9,680
,,,94.3527,7.57E-08,68,681
,,,94.4527,7.57E-08,68.1,682
,,,94.5527,7.57E-08,68.2,683
,,,94.6527,7.57E-08,68.3,684
,,,94.7527,7.54E-08,68.4,685
,,,94.8527,7.57E-08,68.5,686
,,,94.9527,7.57E-08,68.6,687
,,,95.0527,7.57E-08,68.7,688
,,,95.1527,7.57E-08,68.8,689
,,,95.2527,7.57E-08,68.9,690
,,,95.3527,7.57E-08,69,691
,,,95.4527,7.57E-08,69.1,692
,,,95.5527,7.57E-08,69.2,693
,,,95.6527,7.57E-08,69.3,694
,,,95.7527,7.57E-08,69.4,695
,,,95.8527,7.57E-08,69.5,696
,,,95.9527,7.57E-08,69.6,697
,,,96.0527,7.57E-08,69.7,698
,,,96.1527,7.60E-08,69.8,699
,,,96.2527,7.60E-08,69.9,700
,,,96.3527,7.60E-08,70,701
,,,96.4527,7.60E-08,70.1,702
,,,96.5527,7.63E-08,70.2,703
,,,96.6527,7.63E-08,70.3,704
,,,96.7527,7.63E-08,70.4,705
,,,96.8527,7.63E-08,70.5,706
,,,96.9527,7.63E-08,70.6,707
,,,97.0527,7.63E-08,70.7,708
,,,97.1527,7.60E-08,70.8,709
,,,97.2527,7.60E-08,70.9,710
,,,97.3527,7.60E-08,71,711
,,,97.4527,7.63E-08,71.1,712
,,,97.5527,7.60E-08,71.2,713
,,,97.6527,7.63E-08,71.3,714
,,,97.7527,7.60E-08,71.4,715
,,,97.8527,7.63E-08,71.5,716
,,,97.9527,7.60E-08,71.6,717
,,,98.0527,7.60E-08,71.7,718
,,,98.1527,7.60E-08,71.8,719
,,,98.2527,7.63E-08,71.9,720
,,,98.3527,7.63E-08,72,721
,,,98.4527,7.57E-08,72.1,722
,,,98.5527,7.75E-08,72.2,723
,,,98.6527,7.75E-08,72.3,724
,,,98.7527,7.84E-08,72.4,725
,,,98.8527,7.84E-08,72.5,726
,,,98.9527,7.84E-08,72.6,727
,,,99.0527,7.78E-08,72.7,728
,,,99.1527,7.78E-08,72.8,729
,,,99.2527,7.84E-08,72.9,730
,,,99.3527,7.78E-08,73,731
,,,99.4527,7.81E-08,73.1,732
,,,99.5527,7.81E-08,73.2,733
,,,99.6527,7.78E-08,73.3,734
,,,99.7527,7.78E-08,73.4,735
,,,99.8527,7.78E-08,73.5,736
,,,99.9527,7.81E-08,73.6,737
,,,100.053,7.81E-08,73.7,738
,,,100.153,7.81E-08,73.8,739
,,,100.253,7.78E-08,73.9,740
,,,100.353,7.75E-08,74,741
,,,100.453,7.78E-08,74.1,742
,,,100.553,7.75E-08,74.2,743
,,,100.653,7.75E-08,74.3,744
,,,100.753,7.78E-08,74.4,745
,,,100.853,7.75E-08,74.5,746
,,,100.953,7.75E-08,74.6,747
,,,101.053,7.72E-08,74.7,748
,,,101.153,7.72E-08,74.8,749
,,,101.253,7.72E-08,74.9,750
,,,101.353,7.75E-08,75,751
,,,101.453,7.69E-08,75.1,752
,,,101.553,7.75E-08,75.2,753
,,,101.653,7.75E-08,75.3,754
,,,101.753,7.72E-08,75.4,755
,,,101.853,7.72E-08,75.5,756
,,,101.953,7.72E-08,75.6,757
,,,102.053,7.72E-08,75.7,758
,,,102.153,7.72E-08,75.8,759
,,,102.253,7.72E-08,75.9,760
,,,102.353,7.72E-08,76,761
,,,102.453,7.72E-08,76.1,762
,,,102.553,7.72E-08,76.2,763
,,,102.653,7.69E-08,76.3,764
,,,102.753,7.69E-08,76.4,765
,,,102.853,7.69E-08,76.5,766
,,,102.953,7.72E-08,76.6,767
,,,103.053,7.69E-08,76.7,768
,,,103.153,7.66E-08,76.8,769
,,,103.253,7.72E-08,76.9,770
,,,103.353,7.69E-08,77,771
,,,103.453,7.69E-08,77.1,772
,,,103.553,7.69E-08,77.2,773
,,,103.653,7.69E-08,77.3,774
,,,103.753,7.66E-08,77.4,775
,,,103.853,7.66E-08,77.5,776
,,,103.953,7.72E-08,77.6,777
,,,104.053,7.66E-08,77.7,778
,,,104.153,7.72E-08,77.8,779
,,,104.253,7.69E-08,77.9,780
,,,104.353,7.69E-08,78,781
,,,104.453,7.66E-08,78.1,782
,,,104.553,7.69E-08,78.2,783
,,,104.653,7.66E-08,78.3,784
,,,104.753,7.66E-08,78.4,785
,,,104.853,7.66E-08,78.5,786
,,,104.953,7.63E-08,78.6,787
,,,105.053,7.69E-08,78.7,788
,,,105.153,7.69E-08,78.8,789
,,,105.253,7.66E-08,78.9,790
,,,105.353,7.66E-08,79,791
,,,105.453,7.63E-08,79.1,792
,,,105.553,7.66E-08,79.2,793
,,,105.653,7.66E-08,79.3,794
,,,105.753,7.66E-08,79.4,795
,,,105.853,7.63E-08,79.5,796
,,,105.953,7.66E-08,79.6,797
,,,106.053,7.69E-08,79.7,798
,,,106.153,7.66E-08,79.8,799
,,,106.253,7.69E-08,79.9,800
,,,106.353,7.66E-08,80,801
,,,106.453,7.69E-08,80.1,802
,,,106.553,7.66E-08,80.2,803
,,,106.653,7.69E-08,80.3,804
,,,106.753,7.66E-08,80.4,805
,,,106.853,7.69E-08,80.5,806
,,,106.953,7.63E-08,80.6,807
,,,107.053,7.66E-08,80.7,808
,,,107.153,7.63E-08,80.8,809
,,,107.253,7.63E-08,80.9,810
,,,107.353,7.69E-08,81,811
,,,107.453,7.63E-08,81.1,812
,,,107.553,7.63E-08,81.2,813
,,,107.653,7.66E-08,81.3,814
,,,107.753,7.66E-08,81.4,815
,,,107.853,7.63E-08,81.5,816
,,,107.953,7.63E-08,81.6,817
,,,108.053,7.63E-08,81.7,818
,,,108.153,7.63E-08,81.8,819
,,,108.253,7.66E-08,81.9,820
,,,108.353,7.63E-08,82,821
,,,108.453,7.66E-08,82.1,822
,,,108.553,7.63E-08,82.2,823
,,,108.653,7.63E-08,82.3,824
,,,108.753,7.63E-08,82.4,825
,,,108.853,7.63E-08,82.5,826
,,,108.953,7.63E-08,82.6,827
,,,109.053,7.60E-08,82.7,828
,,,109.153,7.60E-08,82.8,829
,,,109.253,7.63E-08,82.9,830
,,,109.353,7.63E-08,83,831
,,,109.453,7.60E-08,83.1,832
,,,109.553,7.63E-08,83.2,833
,,,109.653,7.63E-08,83.3,834
,,,109.753,7.60E-08,83.4,835
,,,109.853,7.60E-08,83.5,836
,,,109.953,7.60E-08,83.6,837
,,,110.053,7.26E-08,83.7,838
,,,110.153,7.26E-08,83.8,839
,,,110.253,7.32E-08,83.9,840
,,,110.353,7.39E-08,84,841
,,,110.453,7.42E-08,84.1,842
,,,110.553,7.42E-08,84.2,843
,,,110.653,7.42E-08,84.3,844
,,,110.753,7.45E-08,84.4,845
,,,110.853,7.48E-08,84.5,846
,,,110.953,7.45E-08,84.6,847
,,,111.053,7.48E-08,84.7,848
,,,111.153,7.48E-08,84.8,849
,,,111.253,7.48E-08,84.9,850
,,,111.353,7.48E-08,85,851
,,,111.453,7.45E-08,85.1,852
,,,111.553,7.48E-08,85.2,853
,,,111.653,7.48E-08,85.3,854
,,,111.753,7.48E-08,85.4,855
,,,111.853,7.51E-08,85.5,856
,,,111.953,7.48E-08,85.6,857
,,,112.053,7.51E-08,85.7,858
,,,112.153,7.51E-08,85.8,859
,,,112.253,7.51E-08,85.9,860
,,,112.353,7.54E-08,86,861
,,,112.453,7.54E-08,86.1,862
,,,112.553,7.54E-08,86.2,863
,,,112.653,7.51E-08,86.3,864
,,,112.753,7.54E-08,86.4,865
,,,112.853,7.51E-08,86.5,866
,,,112.953,7.54E-08,86.6,867
,,,113.053,7.54E-08,86.7,868
,,,113.153,7.54E-08,86.8,869
,,,113.253,7.51E-08,86.9,870
,,,113.353,7.48E-08,87,871
,,,113.453,7.54E-08,87.1,872
,,,113.553,7.57E-08,87.2,873
,,,113.653,7.54E-08,87.3,874
,,,113.753,7.54E-08,87.4,875
,,,113.853,7.54E-08,87.5,876
,,,113.953,7.60E-08,87.6,877
,,,114.053,7.51E-08,87.7,878
,,,114.153,7.54E-08,87.8,879
,,,114.253,7.54E-08,87.9,880
,,,114.353,7.57E-08,88,881
,,,114.453,7.60E-08,88.1,882
,,,114.553,7.54E-08,88.2,883
,,,114.653,7.54E-08,88.3,884
,,,114.753,7.60E-08,88.4,885
,,,114.853,7.57E-08,88.5,886
,,,114.953,7.60E-08,88.6,887
,,,115.053,7.60E-08,88.7,888
,,,115.153,7.60E-08,88.8,889
,,,115.253,7.60E-08,88.9,890
,,,115.353,7.60E-08,89,891
,,,115.453,7.60E-08,89.1,892
,,,115.553,7.57E-08,89.2,893
,,,115.653,7.60E-08,89.3,894
,,,115.753,7.60E-08,89.4,895
,,,115.853,7.63E-08,89.5,896
,,,115.953,7.57E-08,89.6,897
,,,116.053,7.60E-08,89.7,898
,,,116.153,7.60E-08,89.8,899
,,,116.253,7.60E-08,89.9,900
,,,116.353,7.60E-08,90,901
,,,116.453,7.60E-08,90.1,902
,,,116.553,7.60E-08,90.2,903
,,,116.653,7.63E-08,90.3,904
,,,116.753,7.63E-08,90.4,905
,,,116.853,7.63E-08,90.5,906
,,,116.953,7.63E-08,90.6,907
,,,117.053,7.60E-08,90.7,908
,,,117.153,7.63E-08,90.8,909
,,,117.253,7.60E-08,90.9,910
,,,117.353,7.63E-08,91,911
,,,117.453,7.63E-08,91.1,912
,,,117.553,7.63E-08,91.2,913
,,,117.653,7.66E-08,91.3,914
,,,117.753,7.63E-08,91.4,915
,,,117.853,7.63E-08,91.5,916
,,,117.953,7.63E-08,91.6,917
,,,118.053,7.63E-08,91.7,918
,,,118.153,7.63E-08,91.8,919
,,,118.253,7.63E-08,91.9,920
,,,118.353,7.63E-08,92,921
,,,118.453,7.63E-08,92.1,922
,,,118.553,7.63E-08,92.2,923
,,,118.653,7.66E-08,92.3,924
,,,118.753,7.66E-08,92.4,925
,,,118.853,7.63E-08,92.5,926
,,,118.953,7.66E-08,92.6,927
,,,119.053,7.66E-08,92.7,928
,,,119.153,7.63E-08,92.8,929
,,,119.253,7.63E-08,92.9,930
,,,119.353,7.60E-08,93,931
,,,119.453,7.66E-08,93.1,932
,,,119.553,7.63E-08,93.2,933
,,,119.653,7.66E-08,93.3,934
,,,119.753,7.66E-08,93.4,935
,,,119.853,7.66E-08,93.5,936
,,,119.953,7.69E-08,93.6,937
,,,120.053,7.69E-08,93.7,938
,,,120.153,7.69E-08,93.8,939
,,,120.253,7.66E-08,93.9,940
,,,120.353,7.69E-08,94,941
,,,120.453,7.72E-08,94.1,942
,,,120.553,7.69E-08,94.2,943
,,,120.653,7.66E-08,94.3,944
,,,120.753,7.66E-08,94.4,945
,,,120.853,7.69E-08,94.5,946
,,,120.953,7.72E-08,94.6,947
,,,121.053,7.69E-08,94.7,948
,,,121.153,7.69E-08,94.8,949
,,,121.253,7.69E-08,94.9,950
,,,121.353,7.66E-08,95,951
,,,121.453,7.69E-08,95.1,952
,,,121.553,7.69E-08,95.2,953
,,,121.653,7.69E-08,95.3,954
,,,121.753,7.69E-08,95.4,955
,,,121.853,7.63E-08,95.5,956
,,,121.953,7.66E-08,95.6,957
,,,122.053,7.69E-08,95.7,958
,,,122.153,7.63E-08,95.8,959
,,,122.253,7.72E-08,95.9,960
,,,122.353,7.69E-08,96,961
,,,122.453,7.69E-08,96.1,962
,,,122.553,7.72E-08,96.2,963
,,,122.653,7.69E-08,96.3,964
,,,122.753,7.69E-08,96.4,965
,,,122.853,7.69E-08,96.5,966
,,,122.953,7.72E-08,96.6,967
,,,123.053,7.72E-08,96.7,968
,,,123.153,7.69E-08,96.8,969
,,,123.253,7.69E-08,96.9,970
,,,123.353,7.66E-08,97,971
,,,123.453,7.69E-08,97.1,972
,,,123.553,7.69E-08,97.2,973
,,,123.653,7.69E-08,97.3,974
,,,123.753,7.75E-08,97.4,975
,,,123.853,7.72E-08,97.5,976
,,,123.953,7.69E-08,97.6,977
,,,124.053,7.66E-08,97.7,978
,,,124.153,7.72E-08,97.8,979
,,,124.253,7.75E-08,97.9,980
,,,124.353,7.69E-08,98,981
,,,124.453,7.75E-08,98.1,982
,,,124.553,7.87E-08,98.2,983
,,,124.653,7.90E-08,98.3,984
,,,124.753,7.90E-08,98.4,985
,,,124.853,7.93E-08,98.5,986
,,,124.953,7.97E-08,98.6,987
,,,125.053,7.93E-08,98.7,988
,,,125.153,7.93E-08,98.8,989
,,,125.253,7.93E-08,98.9,990
,,,125.353,7.90E-08,99,991
,,,125.453,7.97E-08,99.1,992
,,,125.553,7.93E-08,99.2,993
,,,125.653,7.93E-08,99.3,994
,,,125.753,7.93E-08,99.4,995
,,,125.853,7.87E-08,99.5,996
,,,125.953,7.87E-08,99.6,997
,,,126.053,7.90E-08,99.7,998
,,,126.153,7.87E-08,99.8,999
,,,126.253,7.84E-08,99.9,1000
,,,126.353,7.90E-08,100,1001
,,,126.453,7.84E-08,100.1,1002
,,,126.553,7.90E-08,100.2,1003
,,,126.653,7.84E-08,100.3,1004
,,,126.753,7.87E-08,100.4,1005
,,,126.853,7.84E-08,100.5,1006
,,,126.953,7.87E-08,100.6,1007
,,,127.053,7.84E-08,100.7,1008
,,,127.153,7.84E-08,100.8,1009
,,,127.253,7.84E-08,100.9,1010
,,,127.353,7.87E-08,101,1011
,,,127.453,7.84E-08,101.1,1012
,,,127.553,7.81E-08,101.2,1013
,,,127.653,7.84E-08,101.3,1014
,,,127.753,7.87E-08,101.4,1015
,,,127.853,7.87E-08,101.5,1016
,,,127.953,7.84E-08,101.6,1017
,,,128.053,7.81E-08,101.7,1018
,,,128.153,7.87E-08,101.8,1019
,,,128.253,7.81E-08,101.9,1020
,,,128.353,7.81E-08,102,1021
,,,128.453,7.81E-08,102.1,1022
,,,128.553,7.84E-08,102.2,1023
,,,128.653,7.81E-08,102.3,1024
,,,128.753,7.81E-08,102.4,1025
,,,128.853,7.84E-08,102.5,1026
,,,128.953,7.78E-08,102.6,1027
,,,129.053,7.81E-08,102.7,1028
,,,129.153,7.78E-08,102.8,1029
,,,129.253,7.78E-08,102.9,1030
,,,129.353,7.81E-08,103,1031
,,,129.453,7.81E-08,103.1,1032
,,,129.553,7.75E-08,103.2,1033
,,,129.653,7.81E-08,103.3,1034
,,,129.753,7.81E-08,103.4,1035
,,,129.853,7.78E-08,103.5,1036
,,,129.953,7.78E-08,103.6,1037
,,,130.053,7.78E-08,103.7,1038
,,,130.153,7.81E-08,103.8,1039
,,,130.253,7.81E-08,103.9,1040
,,,130.353,7.81E-08,104,1041
,,,130.453,7.81E-08,104.1,1042
,,,130.553,7.78E-08,104.2,1043
,,,130.653,7.81E-08,104.3,1044
,,,130.753,7.81E-08,104.4,1045
,,,130.853,7.81E-08,104.5,1046
,,,130.953,7.81E-08,104.6,1047
,,,131.053,7.78E-08,104.7,1048
,,,131.153,7.78E-08,104.8,1049
,,,131.253,7.78E-08,104.9,1050
,,,131.353,7.78E-08,105,1051
,,,131.453,7.81E-08,105.1,1052
,,,131.553,7.78E-08,105.2,1053
,,,131.653,7.78E-08,105.3,1054
,,,131.753,7.81E-08,105.4,1055
,,,131.853,7.78E-08,105.5,1056
,,,131.953,7.78E-08,105.6,1057
,,,132.053,7.78E-08,105.7,1058
,,,132.153,7.81E-08,105.8,1059
,,,132.253,7.78E-08,105.9,1060
,,,132.353,7.75E-08,106,1061
,,,132.453,7.78E-08,106.1,1062
,,,132.553,7.75E-08,106.2,1063
,,,132.653,7.78E-08,106.3,1064
,,,132.753,7.75E-08,106.4,1065
,,,132.853,7.75E-08,106.5,1066
,,,132.953,7.81E-08,106.6,1067
,,,133.053,7.72E-08,106.7,1068
,,,133.153,7.78E-08,106.8,1069
,,,133.253,7.75E-08,106.9,1070
,,,133.353,7.78E-08,107,1071
,,,133.453,7.75E-08,107.1,1072
,,,133.553,7.78E-08,107.2,1073
,,,133.653,7.75E-08,107.3,1074
,,,133.753,7.78E-08,107.4,1075
,,,133.853,7.78E-08,107.5,1076
,,,133.953,7.78E-08,107.6,1077
,,,134.053,7.81E-08,107.7,1078
,,,134.153,7.75E-08,107.8,1079
,,,134.253,7.78E-08,107.9,1080
,,,134.353,7.78E-08,108,1081
,,,134.453,7.78E-08,108.1,1082
,,,134.553,7.78E-08,108.2,1083
,,,134.653,7.78E-08,108.3,1084
,,,134.753,7.75E-08,108.4,1085
,,,134.853,7.78E-08,108.5,1086
,,,134.953,7.75E-08,108.6,1087
,,,135.053,7.75E-08,108.7,1088
,,,135.153,7.81E-08,108.8,1089
,,,135.253,7.78E-08,108.9,1090
,,,135.353,7.78E-08,109,1091
,,,135.453,7.81E-08,109.1,1092
,,,135.553,7.75E-08,109.2,1093
,,,135.653,7.78E-08,109.3,1094
,,,135.753,7.78E-08,109.4,1095
,,,135.853,7.81E-08,109.5,1096
,,,135.953,7.78E-08,109.6,1097
,,,136.053,7.81E-08,109.7,1098
,,,136.153,7.75E-08,109.8,1099
,,,136.253,7.81E-08,109.9,1100
,,,136.353,7.75E-08,110,1101
,,,136.453,7.78E-08,110.1,1102
,,,136.553,7.78E-08,110.2,1103
,,,136.653,7.75E-08,110.3,1104
,,,136.753,7.78E-08,110.4,1105
,,,136.853,7.75E-08,110.5,1106
,,,136.953,7.78E-08,110.6,1107
,,,137.053,7.78E-08,110.7,1108
,,,137.153,7.78E-08,110.8,1109
,,,137.253,7.78E-08,110.9,1110
,,,137.353,7.78E-08,111,1111
,,,137.453,7.81E-08,111.1,1112
,,,137.553,7.81E-08,111.2,1113
,,,137.653,7.75E-08,111.3,1114
,,,137.753,7.75E-08,111.4,1115
,,,137.853,7.81E-08,111.5,1116
,,,137.953,7.78E-08,111.6,1117
,,,138.053,7.78E-08,111.7,1118
,,,138.153,7.81E-08,111.8,1119
,,,138.253,7.78E-08,111.9,1120
,,,138.353,7.81E-08,112,1121
,,,138.453,7.75E-08,112.1,1122
,,,138.553,7.75E-08,112.2,1123
,,,138.653,7.78E-08,112.3,1124
,,,138.753,7.81E-08,112.4,1125
,,,138.853,7.78E-08,112.5,1126
,,,138.953,7.78E-08,112.6,1127
,,,139.053,7.75E-08,112.7,1128
,,,139.153,7.78E-08,112.8,1129
,,,139.253,7.78E-08,112.9,1130
,,,139.353,7.78E-08,113,1131
,,,139.453,7.78E-08,113.1,1132
,,,139.553,7.75E-08,113.2,1133
,,,139.653,7.75E-08,113.3,1134
,,,139.753,7.78E-08,113.4,1135
,,,139.853,7.78E-08,113.5,1136
,,,139.953,7.75E-08,113.6,1137
,,,140.053,7.45E-08,113.7,1138
,,,140.153,7.42E-08,113.8,1139
,,,140.253,7.48E-08,113.9,1140
,,,140.353,7.54E-08,114,1141
,,,140.453,7.57E-08,114.1,1142
,,,140.553,7.63E-08,114.2,1143
,,,140.653,7.63E-08,114.3,1144
,,,140.753,7.63E-08,114.4,1145
,,,140.853,7.66E-08,114.5,1146
,,,140.953,7.63E-08,114.6,1147
,,,141.053,7.63E-08,114.7,1148
,,,141.153,7.66E-08,114.8,1149
,,,141.253,7.66E-08,114.9,1150
,,,141.353,7.66E-08,115,1151
,,,141.453,7.66E-08,115.1,1152
,,,141.553,7.63E-08,115.2,1153
,,,141.653,7.69E-08,115.3,1154
,,,141.753,7.69E-08,115.4,1155
,,,141.853,7.69E-08,115.5,1156
,,,141.953,7.72E-08,115.6,1157
,,,142.053,7.69E-08,115.7,1158
,,,142.153,7.72E-08,115.8,1159
,,,142.253,7.69E-08,115.9,1160
,,,142.353,7.66E-08,116,1161
,,,142.453,7.69E-08,116.1,1162
,,,142.553,7.72E-08,116.2,1163
,,,142.653,7.72E-08,116.3,1164
,,,142.753,7.69E-08,116.4,1165
,,,142.853,7.69E-08,116.5,1166
,,,142.953,7.72E-08,116.6,1167
,,,143.053,7.72E-08,116.7,1168
,,,143.153,7.75E-08,116.8,1169
,,,143.253,7.75E-08,116.9,1170
,,,143.353,7.72E-08,117,1171
,,,143.453,7.72E-08,117.1,1172
,,,143.553,7.72E-08,117.2,1173
,,,143.653,7.75E-08,117.3,1174
,,,143.753,7.72E-08,117.4,1175
,,,143.853,7.75E-08,117.5,1176
,,,143.953,7.75E-08,117.6,1177
,,,144.053,7.75E-08,117.7,1178
,,,144.153,7.78E-08,117.8,1179
,,,144.253,7.78E-08,117.9,1180
,,,144.353,7.78E-08,118,1181
,,,144.453,7.78E-08,118.1,1182
,,,144.553,7.75E-08,118.2,1183
,,,144.653,7.75E-08,118.3,1184
,,,144.753,7.81E-08,118.4,1185
,,,144.853,7.75E-08,118.5,1186
,,,144.953,7.78E-08,118.6,1187
,,,145.053,7.78E-08,118.7,1188
,,,145.153,7.78E-08,118.8,1189
,,,145.253,7.78E-08,118.9,1190
,,,145.353,7.78E-08,119,1191
,,,145.453,7.75E-08,119.1,1192
,,,145.553,7.78E-08,119.2,1193
,,,145.653,7.81E-08,119.3,1194
,,,145.753,7.78E-08,119.4,1195
,,,145.853,7.84E-08,119.5,1196
,,,145.953,7.75E-08,119.6,1197
,,,146.053,7.81E-08,119.7,1198
,,,146.153,7.81E-08,119.8,1199
,,,146.253,7.78E-08,119.9,1200
,,,146.353,7.81E-08,120,1201
,,,146.453,7.78E-08,120.1,1202
,,,146.553,7.81E-08,120.2,1203
,,,146.653,7.81E-08,120.3,1204
,,,146.753,7.75E-08,120.4,1205
,,,146.853,7.81E-08,120.5,1206
,,,146.953,7.81E-08,120.6,1207
,,,147.053,7.81E-08,120.7,1208
,,,147.153,7.81E-08,120.8,1209
,,,147.253,7.81E-08,120.9,1210
,,,147.353,7.81E-08,121,1211
,,,147.453,7.84E-08,121.1,1212
,,,147.553,7.84E-08,121.2,1213
,,,147.653,7.81E-08,121.3,1214
,,,147.753,7.81E-08,121.4,1215
,,,147.853,7.81E-08,121.5,1216
,,,147.953,7.84E-08,121.6,1217
,,,148.053,7.81E-08,121.7,1218
,,,148.153,7.84E-08,121.8,1219
,,,148.253,7.84E-08,121.9,1220
,,,148.353,7.84E-08,122,1221
,,,148.453,7.84E-08,122.1,1222
,,,148.553,7.84E-08,122.2,1223
,,,148.653,7.84E-08,122.3,1224
,,,148.753,7.84E-08,122.4,1225
,,,148.853,7.84E-08,122.5,1226
,,,148.953,7.87E-08,122.6,1227
,,,149.053,7.84E-08,122.7,1228
,,,149.153,7.84E-08,122.8,1229
,,,149.253,7.84E-08,122.9,1230
,,,149.353,7.81E-08,123,1231
,,,149.453,7.87E-08,123.1,1232
,,,149.553,7.87E-08,123.2,1233
,,,149.653,7.87E-08,123.3,1234
,,,149.753,7.84E-08,123.4,1235
,,,149.853,7.87E-08,123.5,1236
,,,149.953,7.90E-08,123.6,1237
,,,150.053,7.87E-08,123.7,1238
,,,150.153,7.90E-08,123.8,1239
,,,150.253,7.87E-08,123.9,1240
,,,150.353,7.87E-08,124,1241
,,,150.453,7.90E-08,124.1,1242
,,,150.553,7.90E-08,124.2,1243
,,,150.653,7.93E-08,124.3,1244
,,,150.753,7.87E-08,124.4,1245
,,,150.853,7.87E-08,124.5,1246
,,,150.953,7.90E-08,124.6,1247
,,,151.053,7.87E-08,124.7,1248
,,,151.153,7.93E-08,124.8,1249
,,,151.253,7.90E-08,124.9,1250
,,,151.353,7.87E-08,125,1251
,,,151.453,7.90E-08,125.1,1252
,,,151.553,7.93E-08,125.2,1253
,,,151.653,7.93E-08,125.3,1254
,,,151.753,7.93E-08,125.4,1255
,,,151.853,7.93E-08,125.5,1256
,,,151.953,7.90E-08,125.6,1257
,,,152.053,7.87E-08,125.7,1258
,,,152.153,7.87E-08,125.8,1259
,,,152.253,7.90E-08,125.9,1260
,,,152.353,7.93E-08,126,1261
,,,152.453,7.90E-08,126.1,1262
,,,152.553,7.90E-08,126.2,1263
,,,152.653,7.90E-08,126.3,1264
,,,152.753,7.93E-08,126.4,1265
,,,152.853,7.93E-08,126.5,1266
,,,152.953,7.93E-08,126.6,1267
,,,153.053,7.93E-08,126.7,1268
,,,153.153,7.93E-08,126.8,1269
,,,153.253,7.93E-08,126.9,1270
,,,153.353,7.97E-08,127,1271
,,,153.453,7.93E-08,127.1,1272
,,,153.553,7.97E-08,127.2,1273
,,,153.653,7.93E-08,127.3,1274
,,,153.753,7.93E-08,127.4,1275
,,,153.853,7.97E-08,127.5,1276
,,,153.953,7.97E-08,127.6,1277
,,,154.053,7.97E-08,127.7,1278
,,,154.153,7.97E-08,127.8,1279
,,,154.253,7.93E-08,127.9,1280
,,,154.353,8.00E-08,128,1281
,,,154.453,7.93E-08,128.1,1282
,,,154.553,8.00E-08,128.2,1283
,,,154.653,8.00E-08,128.3,1284
,,,154.753,7.93E-08,128.4,1285
,,,154.853,8.00E-08,128.5,1286
,,,154.953,8.00E-08,128.6,1287
,,,155.053,8.00E-08,128.7,1288
,,,155.153,7.97E-08,128.8,1289
,,,155.253,7.97E-08,128.9,1290
,,,155.353,7.97E-08,129,1291
,,,155.453,7.97E-08,129.1,1292
,,,155.553,8.00E-08,129.2,1293
,,,155.653,7.97E-08,129.3,1294
,,,155.753,7.97E-08,129.4,1295
,,,155.853,7.97E-08,129.5,1296
,,,155.953,7.93E-08,129.6,1297
,,,156.053,7.97E-08,129.7,1298
,,,156.153,8.00E-08,129.8,1299
,,,156.253,8.00E-08,129.9,1300
,,,156.353,7.97E-08,130,1301
,,,156.453,8.03E-08,130.1,1302
,,,156.553,8.00E-08,130.2,1303
,,,156.653,8.03E-08,130.3,1304
,,,156.753,7.97E-08,130.4,1305
,,,156.853,8.00E-08,130.5,1306
,,,156.953,8.00E-08,130.6,1307
,,,157.053,8.00E-08,130.7,1308
,,,157.153,8.00E-08,130.8,1309
,,,157.253,8.00E-08,130.9,1310
,,,157.353,7.97E-08,131,1311
,,,157.453,8.00E-08,131.1,1312
,,,157.553,8.03E-08,131.2,1313
,,,157.653,8.03E-08,131.3,1314
,,,157.753,8.00E-08,131.4,1315
,,,157.853,8.00E-08,131.5,1316
,,,157.953,8.00E-08,131.6,1317
,,,158.053,8.00E-08,131.7,1318
,,,158.153,8.03E-08,131.8,1319
,,,158.253,8.00E-08,131.9,1320
,,,158.353,8.00E-08,132,1321
,,,158.453,8.00E-08,132.1,1322
,,,158.553,8.03E-08,132.2,1323
,,,158.653,8.00E-08,132.3,1324
,,,158.753,8.00E-08,132.4,1325
,,,158.853,8.00E-08,132.5,1326
,,,158.953,8.03E-08,132.6,1327
,,,159.053,8.03E-08,132.7,1328
,,,159.153,8.03E-08,132.8,1329
,,,159.253,8.06E-08,132.9,1330
,,,159.353,8.03E-08,133,1331
,,,159.453,8.03E-08,133.1,1332
,,,159.553,8.03E-08,133.2,1333
,,,159.653,8.09E-08,133.3,1334
,,,159.753,8.06E-08,133.4,1335
,,,159.853,8.06E-08,133.5,1336
,,,159.953,8.03E-08,133.6,1337
,,,160.053,8.03E-08,133.7,1338
,,,160.153,8.06E-08,133.8,1339
,,,160.253,8.03E-08,133.9,1340
,,,160.353,8.03E-08,134,1341
,,,160.453,8.06E-08,134.1,1342
,,,160.553,8.09E-08,134.2,1343
,,,160.653,8.06E-08,134.3,1344
,,,160.753,8.03E-08,134.4,1345
,,,160.853,8.03E-08,134.5,1346
,,,160.953,8.06E-08,134.6,1347
,,,161.053,8.06E-08,134.7,1348
,,,161.153,8.03E-08,134.8,1349
,,,161.253,8.03E-08,134.9,1350
,,,161.353,8.03E-08,135,1351
,,,161.453,8.06E-08,135.1,1352
,,,161.553,8.06E-08,135.2,1353
,,,161.653,8.09E-08,135.3,1354
,,,161.753,8.06E-08,135.4,1355
,,,161.853,8.18E-08,135.5,1356
,,,161.953,8.27E-08,135.6,1357
,,,162.053,8.27E-08,135.7,1358
,,,162.153,8.33E-08,135.8,1359
,,,162.253,8.27E-08,135.9,1360
,,,162.353,8.30E-08,136,1361
,,,162.453,8.30E-08,136.1,1362
,,,162.553,8.24E-08,136.2,1363
,,,162.653,8.27E-08,136.3,1364
,,,162.753,8.27E-08,136.4,1365
,,,162.853,8.27E-08,136.5,1366
,,,162.953,8.24E-08,136.6,1367
,,,163.053,8.21E-08,136.7,1368
,,,163.153,8.24E-08,136.8,1369
,,,163.253,8.24E-08,136.9,1370
,,,163.353,8.21E-08,137,1371
,,,163.453,8.24E-08,137.1,1372
,,,163.553,8.21E-08,137.2,1373
,,,163.653,8.24E-08,137.3,1374
,,,163.753,8.24E-08,137.4,1375
,,,163.853,8.18E-08,137.5,1376
,,,163.953,8.21E-08,137.6,1377
,,,164.053,8.18E-08,137.7,1378
,,,164.153,8.21E-08,137.8,1379
,,,164.253,8.18E-08,137.9,1380
,,,164.353,8.18E-08,138,1381
,,,164.453,8.21E-08,138.1,1382
,,,164.553,8.18E-08,138.2,1383
,,,164.653,8.18E-08,138.3,1384
,,,164.753,8.15E-08,138.4,1385
,,,164.853,8.18E-08,138.5,1386
,,,164.953,8.09E-08,138.6,1387
,,,165.053,8.15E-08,138.7,1388
,,,165.153,8.18E-08,138.8,1389
,,,165.253,8.15E-08,138.9,1390
,,,165.353,8.15E-08,139,1391
,,,165.453,8.21E-08,139.1,1392
,,,165.553,8.18E-08,139.2,1393
,,,165.653,8.15E-08,139.3,1394
,,,165.753,8.18E-08,139.4,1395
,,,165.853,8.12E-08,139.5,1396
,,,165.953,8.18E-08,139.6,1397
,,,166.053,8.15E-08,139.7,1398
,,,166.153,8.12E-08,139.8,1399
,,,166.253,8.15E-08,139.9,1400
,,,166.353,8.15E-08,140,1401
,,,166.453,8.12E-08,140.1,1402
,,,166.553,8.12E-08,140.2,1403
,,,166.653,8.09E-08,140.3,1404
,,,166.753,8.18E-08,140.4,1405
,,,166.853,8.12E-08,140.5,1406
,,,166.953,8.09E-08,140.6,1407
,,,167.053,8.15E-08,140.7,1408
,,,167.153,8.15E-08,140.8,1409
,,,167.253,8.12E-08,140.9,1410
,,,167.353,8.12E-08,141,1411
,,,167.453,8.12E-08,141.1,1412
,,,167.553,8.15E-08,141.2,1413
,,,167.653,8.15E-08,141.3,1414
,,,167.753,8.12E-08,141.4,1415
,,,167.853,8.15E-08,141.5,1416
,,,167.953,8.12E-08,141.6,1417
,,,168.053,8.15E-08,141.7,1418
,,,168.153,8.15E-08,141.8,1419
,,,168.253,8.12E-08,141.9,1420
,,,168.353,8.15E-08,142,1421
,,,168.453,8.09E-08,142.1,1422
,,,168.553,8.12E-08,142.2,1423
,,,168.653,8.09E-08,142.3,1424
,,,168.753,8.09E-08,142.4,1425
,,,168.853,8.06E-08,142.5,1426
,,,168.953,8.12E-08,142.6,1427
,,,169.053,8.12E-08,142.7,1428
,,,169.153,8.09E-08,142.8,1429
,,,169.253,8.09E-08,142.9,1430
,,,169.353,8.09E-08,143,1431
,,,169.453,8.15E-08,143.1,1432
,,,169.553,8.15E-08,143.2,1433
,,,169.653,8.15E-08,143.3,1434
,,,169.753,8.15E-08,143.4,1435
,,,169.853,8.15E-08,143.5,1436
,,,169.953,8.15E-08,143.6,1437
,,,170.053,8.15E-08,143.7,1438
,,,170.153,8.12E-08,143.8,1439
,,,170.253,8.12E-08,143.9,1440
,,,170.353,8.12E-08,144,1441
,,,170.453,8.15E-08,144.1,1442
,,,170.553,8.09E-08,144.2,1443
,,,170.653,8.12E-08,144.3,1444
,,,170.753,8.09E-08,144.4,1445
,,,170.853,8.09E-08,144.5,1446
,,,170.953,8.12E-08,144.6,1447
,,,171.053,8.12E-08,144.7,1448
,,,171.153,8.12E-08,144.8,1449
,,,171.253,8.09E-08,144.9,1450
,,,171.353,8.09E-08,145,1451
,,,171.453,8.12E-08,145.1,1452
,,,171.553,8.12E-08,145.2,1453
,,,171.653,8.12E-08,145.3,1454
,,,171.753,8.09E-08,145.4,1455
,,,171.853,8.12E-08,145.5,1456
,,,171.953,8.12E-08,145.6,1457
,,,172.053,8.15E-08,145.7,1458
,,,172.153,8.12E-08,145.8,1459
,,,172.253,8.12E-08,145.9,1460
,,,172.353,8.06E-08,146,1461
,,,172.453,8.12E-08,146.1,1462
,,,172.553,8.12E-08,146.2,1463
,,,172.653,8.09E-08,146.3,1464
,,,172.753,8.12E-08,146.4,1465
,,,172.853,8.12E-08,146.5,1466
,,,172.953,8.12E-08,146.6,1467
,,,173.053,8.09E-08,146.7,1468
,,,173.153,8.12E-08,146.8,1469
,,,173.253,8.12E-08,146.9,1470
,,,173.353,8.15E-08,147,1471
,,,173.453,8.15E-08,147.1,1472
,,,173.553,8.15E-08,147.2,1473
,,,173.653,8.09E-08,147.3,1474
,,,173.753,8.12E-08,147.4,1475
,,,173.853,8.12E-08,147.5,1476
,,,173.953,8.15E-08,147.6,1477
,,,174.053,8.12E-08,147.7,1478
,,,174.153,8.09E-08,147.8,1479
,,,174.253,8.09E-08,147.9,1480
,,,174.353,8.12E-08,148,1481
,,,174.453,8.09E-08,148.1,1482
,,,174.553,8.12E-08,148.2,1483
,,,174.653,8.15E-08,148.3,1484
,,,174.753,8.12E-08,148.4,1485
,,,174.853,8.09E-08,148.5,1486
,,,174.953,8.12E-08,148.6,1487
,,,175.053,8.15E-08,148.7,1488
,,,175.153,8.12E-08,148.8,1489
,,,175.253,8.09E-08,148.9,1490
,,,175.353,8.12E-08,149,1491
,,,175.453,8.15E-08,149.1,1492
,,,175.553,8.09E-08,149.2,1493
,,,175.653,8.18E-08,149.3,1494
,,,175.753,8.15E-08,149.4,1495
,,,175.853,8.12E-08,149.5,1496
,,,175.953,8.15E-08,149.6,1497
,,,176.053,8.15E-08,149.7,1498
,,,176.153,8.12E-08,149.8,1499
,,,176.253,8.09E-08,149.9,1500
,,,176.353,8.15E-08,150,1501
,,,176.453,8.15E-08,150.1,1502
,,,176.553,8.15E-08,150.2,1503
,,,176.653,8.15E-08,150.3,1504
,,,176.753,8.15E-08,150.4,1505
,,,176.853,8.15E-08,150.5,1506
,,,176.953,8.18E-08,150.6,1507
,,,177.053,8.15E-08,150.7,1508
,,,177.153,8.18E-08,150.8,1509
,,,177.253,8.12E-08,150.9,1510
,,,177.353,8.15E-08,151,1511
,,,177.453,8.18E-08,151.1,1512
,,,177.553,8.15E-08,151.2,1513
,,,177.653,8.15E-08,151.3,1514
,,,177.753,8.12E-08,151.4,1515
,,,177.853,8.12E-08,151.5,1516
,,,177.953,8.12E-08,151.6,1517
,,,178.053,8.18E-08,151.7,1518
,,,178.153,8.12E-08,151.8,1519
,,,178.253,8.12E-08,151.9,1520
,,,178.353,8.15E-08,152,1521
,,,178.453,8.15E-08,152.1,1522
,,,178.553,8.15E-08,152.2,1523
,,,178.653,8.15E-08,152.3,1524
,,,178.753,8.18E-08,152.4,1525
,,,178.853,8.15E-08,152.5,1526
,,,178.953,8.18E-08,152.6,1527
,,,179.053,8.15E-08,152.7,1528
,,,179.153,8.15E-08,152.8,1529
,,,179.253,8.18E-08,152.9,1530
,,,179.353,8.18E-08,153,1531
,,,179.453,8.18E-08,153.1,1532
,,,179.553,8.15E-08,153.2,1533
,,,179.653,8.18E-08,153.3,1534
,,,179.753,8.12E-08,153.4,1535
,,,179.853,8.12E-08,153.5,1536
,,,179.953,8.15E-08,153.6,1537
,,,180.053,8.15E-08,153.7,1538
,,,180.153,8.15E-08,153.8,1539
,,,180.253,8.18E-08,153.9,1540
,,,180.353,8.15E-08,154,1541
,,,180.453,8.15E-08,154.1,1542
,,,180.553,8.18E-08,154.2,1543
,,,180.653,8.21E-08,154.3,1544
,,,180.753,8.24E-08,154.4,1545
,,,180.853,8.18E-08,154.5,1546
,,,180.953,8.12E-08,154.6,1547
,,,181.053,8.15E-08,154.7,1548
,,,181.153,8.12E-08,154.8,1549
,,,181.253,8.21E-08,154.9,1550
,,,181.353,8.15E-08,155,1551
,,,181.453,8.15E-08,155.1,1552
,,,181.553,8.18E-08,155.2,1553
,,,181.653,8.15E-08,155.3,1554
,,,181.753,8.15E-08,155.4,1555
,,,181.853,8.18E-08,155.5,1556
,,,181.953,8.15E-08,155.6,1557
,,,182.053,8.15E-08,155.7,1558
,,,182.153,8.18E-08,155.8,1559
,,,182.253,8.15E-08,155.9,1560
,,,182.353,8.15E-08,156,1561
,,,182.453,8.15E-08,156.1,1562
,,,182.553,8.15E-08,156.2,1563
,,,182.653,8.18E-08,156.3,1564
,,,182.753,8.12E-08,156.4,1565
,,,182.853,8.15E-08,156.5,1566
,,,182.953,8.18E-08,156.6,1567
,,,183.053,8.15E-08,156.7,1568
,,,183.153,8.15E-08,156.8,1569
,,,183.253,8.18E-08,156.9,1570
,,,183.353,8.12E-08,157,1571
,,,183.453,8.12E-08,157.1,1572
,,,183.553,8.15E-08,157.2,1573
,,,183.653,8.15E-08,157.3,1574
,,,183.753,8.12E-08,157.4,1575
,,,183.853,8.12E-08,157.5,1576
,,,183.953,8.15E-08,157.6,1577
,,,184.053,8.15E-08,157.7,1578
,,,184.153,8.12E-08,157.8,1579
,,,184.253,8.15E-08,157.9,1580
,,,184.353,8.15E-08,158,1581
,,,184.453,8.15E-08,158.1,1582
,,,184.553,8.15E-08,158.2,1583
,,,184.653,8.15E-08,158.3,1584
,,,184.753,8.18E-08,158.4,1585
,,,184.853,8.18E-08,158.5,1586
,,,184.953,8.15E-08,158.6,1587
,,,185.053,8.12E-08,158.7,1588
,,,185.153,8.15E-08,158.8,1589
,,,185.253,8.21E-08,158.9,1590
,,,185.353,8.15E-08,159,1591
,,,185.453,8.12E-08,159.1,1592
,,,185.553,8.15E-08,159.2,1593
,,,185.653,8.15E-08,159.3,1594
,,,185.753,8.15E-08,159.4,1595
,,,185.853,8.15E-08,159.5,1596
,,,185.953,8.18E-08,159.6,1597
,,,186.053,8.15E-08,159.7,1598
,,,186.153,8.18E-08,159.8,1599
,,,186.253,8.18E-08,159.9,1600
,,,186.353,8.15E-08,160,1601
,,,186.453,8.18E-08,160.1,1602
,,,186.553,8.15E-08,160.2,1603
,,,186.653,8.12E-08,160.3,1604
,,,186.753,8.15E-08,160.4,1605
,,,186.853,8.12E-08,160.5,1606
,,,186.953,8.15E-08,160.6,1607
,,,187.053,8.15E-08,160.7,1608
,,,187.153,8.12E-08,160.8,1609
,,,187.253,8.15E-08,160.9,1610
,,,187.353,8.15E-08,161,1611
,,,187.453,8.18E-08,161.1,1612
,,,187.553,8.12E-08,161.2,1613
,,,187.653,8.18E-08,161.3,1614
,,,187.753,8.15E-08,161.4,1615
,,,187.853,8.15E-08,161.5,1616
,,,187.953,8.18E-08,161.6,1617
,,,188.053,8.21E-08,161.7,1618
,,,188.153,8.18E-08,161.8,1619
,,,188.253,8.15E-08,161.9,1620
,,,188.353,8.15E-08,162,1621
,,,188.453,8.15E-08,162.1,1622
,,,188.553,8.18E-08,162.2,1623
,,,188.653,8.15E-08,162.3,1624
,,,188.753,8.18E-08,162.4,1625
,,,188.853,8.12E-08,162.5,1626
,,,188.953,8.12E-08,162.6,1627
,,,189.053,8.12E-08,162.7,1628
,,,189.153,8.15E-08,162.8,1629
,,,189.253,8.18E-08,162.9,1630
,,,189.353,8.15E-08,163,1631
,,,189.453,8.18E-08,163.1,1632
,,,189.553,8.18E-08,163.2,1633
,,,189.653,8.18E-08,163.3,1634
,,,189.753,8.15E-08,163.4,1635
,,,189.853,8.18E-08,163.5,1636
,,,189.953,8.24E-08,163.6,1637
,,,190.053,8.18E-08,163.7,1638
,,,190.153,8.18E-08,163.8,1639
,,,190.253,8.21E-08,163.9,1640
,,,190.353,8.15E-08,164,1641
,,,190.453,8.18E-08,164.1,1642
,,,190.553,8.18E-08,164.2,1643
,,,190.653,8.18E-08,164.3,1644
,,,190.753,8.18E-08,164.4,1645
,,,190.853,8.15E-08,164.5,1646
,,,190.953,8.18E-08,164.6,1647
,,,191.053,8.15E-08,164.7,1648
,,,191.153,8.18E-08,164.8,1649
,,,191.253,8.21E-08,164.9,1650
,,,191.353,8.18E-08,165,1651
,,,191.453,8.12E-08,165.1,1652
,,,191.553,8.15E-08,165.2,1653
,,,191.653,8.18E-08,165.3,1654
,,,191.753,8.18E-08,165.4,1655
,,,191.853,8.18E-08,165.5,1656
,,,191.953,8.15E-08,165.6,1657
,,,192.053,8.15E-08,165.7,1658
,,,192.153,8.15E-08,165.8,1659
,,,192.253,8.18E-08,165.9,1660
,,,192.353,8.18E-08,166,1661
,,,192.453,8.15E-08,166.1,1662
,,,192.553,8.18E-08,166.2,1663
,,,192.653,8.18E-08,166.3,1664
,,,192.753,8.18E-08,166.4,1665
,,,192.853,8.12E-08,166.5,1666
,,,192.953,8.15E-08,166.6,1667
,,,193.053,8.12E-08,166.7,1668
,,,193.153,7.78E-08,166.8,1669
,,,193.253,7.78E-08,166.9,1670
,,,193.353,7.84E-08,167,1671
,,,193.453,7.87E-08,167.1,1672
,,,193.553,7.90E-08,167.2,1673
,,,193.653,7.93E-08,167.3,1674
,,,193.753,7.93E-08,167.4,1675
,,,193.853,7.93E-08,167.5,1676
,,,193.953,7.97E-08,167.6,1677
,,,194.053,7.93E-08,167.7,1678
,,,194.153,7.97E-08,167.8,1679
,,,194.253,7.97E-08,167.9,1680
,,,194.353,8.03E-08,168,1681
,,,194.453,8.03E-08,168.1,1682
,,,194.553,8.03E-08,168.2,1683
,,,194.653,8.06E-08,168.3,1684
,,,194.753,8.09E-08,168.4,1685
,,,194.853,8.06E-08,168.5,1686
,,,194.953,8.03E-08,168.6,1687
,,,195.053,8.03E-08,168.7,1688
,,,195.153,8.06E-08,168.8,1689
,,,195.253,8.09E-08,168.9,1690
,,,195.353,8.09E-08,169,1691
,,,195.453,8.03E-08,169.1,1692
,,,195.553,8.06E-08,169.2,1693
,,,195.653,8.09E-08,169.3,1694
,,,195.753,8.12E-08,169.4,1695
,,,195.853,8.15E-08,169.5,1696
,,,195.953,8.12E-08,169.6,1697
,,,196.053,8.06E-08,169.7,1698
,,,196.153,8.09E-08,169.8,1699
,,,196.253,8.12E-08,169.9,1700
,,,196.353,8.12E-08,170,1701
,,,196.453,8.12E-08,170.1,1702
,,,196.553,8.15E-08,170.2,1703
,,,196.653,8.12E-08,170.3,1704
,,,196.753,8.15E-08,170.4,1705
,,,196.853,8.12E-08,170.5,1706
,,,196.953,8.12E-08,170.6,1707
,,,197.053,8.15E-08,170.7,1708
,,,197.153,8.12E-08,170.8,1709
,,,197.253,8.18E-08,170.9,1710
,,,197.353,8.15E-08,171,1711
,,,197.453,8.15E-08,171.1,1712
,,,197.553,8.15E-08,171.2,1713
,,,197.653,8.15E-08,171.3,1714
,,,197.753,8.18E-08,171.4,1715
,,,197.853,8.18E-08,171.5,1716
,,,197.953,8.15E-08,171.6,1717
,,,198.053,8.18E-08,171.7,1718
,,,198.153,8.21E-08,171.8,1719
,,,198.253,8.15E-08,171.9,1720
,,,198.353,8.15E-08,172,1721
,,,198.453,8.18E-08,172.1,1722
,,,198.553,8.15E-08,172.2,1723
,,,198.653,8.15E-08,172.3,1724
,,,198.753,8.18E-08,172.4,1725
,,,198.853,8.15E-08,172.5,1726
,,,198.953,8.15E-08,172.6,1727
,,,199.053,8.21E-08,172.7,1728
,,,199.153,8.18E-08,172.8,1729
,,,199.253,8.21E-08,172.9,1730
,,,199.353,8.18E-08,173,1731
,,,199.453,8.21E-08,173.1,1732
,,,199.553,8.21E-08,173.2,1733
,,,199.653,8.24E-08,173.3,1734
,,,199.753,8.24E-08,173.4,1735
,,,199.853,8.27E-08,173.5,1736
,,,199.953,8.24E-08,173.6,1737
,,,200.053,8.24E-08,173.7,1738
,,,200.153,8.24E-08,173.8,1739
,,,200.253,8.24E-08,173.9,1740
,,,200.353,8.24E-08,174,1741
,,,200.453,8.24E-08,174.1,1742
,,,200.553,8.24E-08,174.2,1743
,,,200.653,8.21E-08,174.3,1744
,,,200.753,8.24E-08,174.4,1745
,,,200.853,8.24E-08,174.5,1746
,,,200.953,8.27E-08,174.6,1747
,,,201.053,8.24E-08,174.7,1748
,,,201.153,8.24E-08,174.8,1749
,,,201.253,8.24E-08,174.9,1750
,,,201.353,8.24E-08,175,1751
,,,201.453,8.24E-08,175.1,1752
,,,201.553,8.24E-08,175.2,1753
,,,201.653,8.21E-08,175.3,1754
,,,201.753,8.24E-08,175.4,1755
,,,201.853,8.21E-08,175.5,1756
,,,201.953,8.24E-08,175.6,1757
,,,202.053,8.24E-08,175.7,1758
,,,202.153,8.24E-08,175.8,1759
,,,202.253,8.24E-08,175.9,1760
,,,202.353,8.27E-08,176,1761
,,,202.453,8.24E-08,176.1,1762
,,,202.553,8.27E-08,176.2,1763
,,,202.653,8.27E-08,176.3,1764
,,,202.753,8.24E-08,176.4,1765
,,,202.853,8.24E-08,176.5,1766
,,,202.953,8.24E-08,176.6,1767
,,,203.053,8.27E-08,176.7,1768
,,,203.153,8.24E-08,176.8,1769
,,,203.253,8.27E-08,176.9,1770
,,,203.353,8.27E-08,177,1771
,,,203.453,8.30E-08,177.1,1772
,,,203.553,8.30E-08,177.2,1773
,,,203.653,8.30E-08,177.3,1774
,,,203.753,8.30E-08,177.4,1775
,,,203.853,8.30E-08,177.5,1776
,,,203.953,8.30E-08,177.6,1777
,,,204.053,8.33E-08,177.7,1778
,,,204.153,8.33E-08,177.8,1779
,,,204.253,8.33E-08,177.9,1780
,,,204.353,8.27E-08,178,1781
,,,204.453,8.33E-08,178.1,1782
,,,204.553,8.30E-08,178.2,1783
,,,204.653,8.30E-08,178.3,1784
,,,204.753,8.30E-08,178.4,1785
,,,204.853,8.27E-08,178.5,1786
,,,204.953,8.33E-08,178.6,1787
,,,205.053,8.33E-08,178.7,1788
,,,205.153,8.30E-08,178.8,1789
,,,205.253,8.33E-08,178.9,1790
,,,205.353,8.33E-08,179,1791
,,,205.453,8.33E-08,179.1,1792
,,,205.553,8.30E-08,179.2,1793
,,,205.653,8.36E-08,179.3,1794
,,,205.753,8.33E-08,179.4,1795
,,,205.853,8.33E-08,179.5,1796
,,,205.953,8.33E-08,179.6,1797
,,,206.053,8.36E-08,179.7,1798
,,,206.153,8.36E-08,179.8,1799
,,,206.253,8.51E-08,179.9,1800
,,,206.353,8.58E-08,180,1801
,,,206.453,8.58E-08,180.1,1802
,,,206.553,8.54E-08,180.2,1803
,,,206.653,8.54E-08,180.3,1804
,,,206.753,8.64E-08,180.4,1805
,,,206.853,8.61E-08,180.5,1806
,,,206.953,8.58E-08,180.6,1807
,,,207.053,8.54E-08,180.7,1808
,,,207.153,8.54E-08,180.8,1809
,,,207.253,8.54E-08,180.9,1810
,,,207.353,8.54E-08,181,1811
,,,207.453,8.54E-08,181.1,1812
,,,207.553,8.54E-08,181.2,1813
,,,207.653,8.54E-08,181.3,1814
,,,207.753,8.51E-08,181.4,1815
,,,207.853,8.54E-08,181.5,1816
,,,207.953,8.54E-08,181.6,1817
,,,208.053,8.54E-08,181.7,1818
,,,208.153,8.51E-08,181.8,1819
,,,208.253,8.48E-08,181.9,1820
,,,208.353,8.51E-08,182,1821
,,,208.453,8.54E-08,182.1,1822
,,,208.553,8.48E-08,182.2,1823
,,,208.653,8.48E-08,182.3,1824
,,,208.753,8.45E-08,182.4,1825
,,,208.853,8.51E-08,182.5,1826
,,,208.953,8.45E-08,182.6,1827
,,,209.053,8.51E-08,182.7,1828
,,,209.153,8.48E-08,182.8,1829
,,,209.253,8.51E-08,182.9,1830
,,,209.353,8.48E-08,183,1831
,,,209.453,8.51E-08,183.1,1832
,,,209.553,8.51E-08,183.2,1833
,,,209.653,8.45E-08,183.3,1834
,,,209.753,8.48E-08,183.4,1835
,,,209.853,8.45E-08,183.5,1836
,,,209.953,8.48E-08,183.6,1837
,,,210.053,8.51E-08,183.7,1838
,,,210.153,8.48E-08,183.8,1839
,,,210.253,8.54E-08,183.9,1840
,,,210.353,8.51E-08,184,1841
,,,210.453,8.48E-08,184.1,1842
,,,210.553,8.45E-08,184.2,1843
,,,210.653,8.45E-08,184.3,1844
,,,210.753,8.48E-08,184.4,1845
,,,210.853,8.48E-08,184.5,1846
,,,210.953,8.42E-08,184.6,1847
,,,211.053,8.45E-08,184.7,1848
,,,211.153,8.42E-08,184.8,1849
,,,211.253,8.48E-08,184.9,1850
,,,211.353,8.48E-08,185,1851
,,,211.453,8.45E-08,185.1,1852
,,,211.553,8.45E-08,185.2,1853
,,,211.653,8.45E-08,185.3,1854
,,,211.753,8.45E-08,185.4,1855
,,,211.853,8.45E-08,185.5,1856
,,,211.953,8.45E-08,185.6,1857
,,,212.053,8.45E-08,185.7,1858
,,,212.153,8.45E-08,185.8,1859
,,,212.253,8.42E-08,185.9,1860
,,,212.353,8.45E-08,186,1861
,,,212.453,8.45E-08,186.1,1862
,,,212.553,8.42E-08,186.2,1863
,,,212.653,8.45E-08,186.3,1864
,,,212.753,8.45E-08,186.4,1865
,,,212.853,8.45E-08,186.5,1866
,,,212.953,8.48E-08,186.6,1867
,,,213.053,8.45E-08,186.7,1868
,,,213.153,8.45E-08,186.8,1869
,,,213.253,8.45E-08,186.9,1870
,,,213.353,8.42E-08,187,1871
,,,213.453,8.42E-08,187.1,1872
,,,213.553,8.48E-08,187.2,1873
,,,213.653,8.39E-08,187.3,1874
,,,213.753,8.45E-08,187.4,1875
,,,213.853,8.42E-08,187.5,1876
,,,213.953,8.45E-08,187.6,1877
,,,214.053,8.45E-08,187.7,1878
,,,214.153,8.42E-08,187.8,1879
,,,214.253,8.45E-08,187.9,1880
,,,214.353,8.45E-08,188,1881
,,,214.453,8.42E-08,188.1,1882
,,,214.553,8.42E-08,188.2,1883
,,,214.653,8.45E-08,188.3,1884
,,,214.753,8.45E-08,188.4,1885
,,,214.853,8.45E-08,188.5,1886
