0.000000000000000000e+00,0.000000000000000000e+00
1.000000000000000056e-01,2.013843429145026040e-08
2.000000000000000111e-01,3.716589751259956430e-08
2.999999999999999889e-01,5.175157308518128468e-08
4.000000000000000222e-01,6.438555939771221708e-08
5.000000000000000000e-01,7.543502086454946280e-08
5.999999999999999778e-01,8.518045865576350388e-08
6.999999999999999556e-01,9.383985528974931355e-08
8.000000000000000444e-01,1.015851731761502009e-07
9.000000000000000222e-01,1.085538903748253059e-07
1.000000000000000000e+00,1.148572320400237380e-07
1.100000000000000089e+00,1.205861514751124372e-07
1.199999999999999956e+00,1.258157472892928818e-07
1.300000000000000044e+00,1.306085738081209564e-07
1.399999999999999911e+00,1.350171552886211865e-07
1.500000000000000000e+00,1.390859187394815732e-07
1.600000000000000089e+00,1.428526963763808349e-07
1.699999999999999956e+00,1.463499055087915252e-07
1.800000000000000044e+00,1.496054838629410734e-07
1.899999999999999911e+00,1.526436375073575222e-07
2.000000000000000000e+00,1.554854437693995830e-07
2.100000000000000089e+00,1.581493409163971484e-07
2.200000000000000178e+00,1.606515286598746482e-07
2.299999999999999822e+00,1.630062978716271736e-07
2.399999999999999911e+00,1.652263036908648349e-07
2.500000000000000000e+00,1.673227930460317266e-07
2.600000000000000089e+00,1.693057952279880945e-07
2.700000000000000178e+00,1.711842823304402549e-07
2.799999999999999822e+00,1.729663049734593705e-07
2.899999999999999911e+00,1.746591076413185488e-07
3.000000000000000000e+00,1.762692271196588932e-07
3.100000000000000089e+00,1.778025768523411881e-07
3.200000000000000178e+00,1.792645195129710008e-07
3.299999999999999822e+00,1.806599296683084775e-07
3.399999999999999911e+00,1.819932480766529680e-07
3.500000000000000000e+00,1.832685288956159843e-07
3.600000000000000089e+00,1.844894808565311505e-07
3.700000000000000178e+00,1.856595032863429884e-07
3.799999999999999822e+00,1.867817177138507975e-07
3.899999999999999911e+00,1.878589956791574194e-07
4.000000000000000000e+00,1.888939832679967926e-07
4.099999999999999645e+00,1.898891228122734478e-07
4.200000000000000178e+00,1.908466721314654588e-07
4.299999999999999822e+00,1.917687216339819746e-07
4.400000000000000355e+00,1.926572095511087983e-07
4.500000000000000000e+00,1.935139355371919454e-07
4.599999999999999645e+00,1.943405728368823580e-07
4.700000000000000178e+00,1.951386791925436764e-07
4.799999999999999822e+00,1.959097066414290443e-07
4.900000000000000355e+00,1.966550103322695777e-07
