Potential,potstdev,Photocurrent (nA),pcstdev,Phase (°),phstdev,DC Current (µA),dcCurrstdev
0.000842285,1.0,9.2499e-09,1.0,-44.28576,1.0,-1.6e-06,1.0
0.0008819580000000001,1.0,9.272750000000001e-09,1.0,-43.14348,1.0,-1.01e-06,1.0
0.0008636469999999999,1.0,9.24225e-09,1.0,-43.14348,1.0,-1.03e-06,1.0
0.0008819580000000001,1.0,9.44365e-09,1.0,-46.0656,1.0,-1.17e-06,1.0
0.0008636469999999999,1.0,9.870899999999999e-09,1.0,-49.317479999999996,1.0,-8.179999999999999e-07,1.0
0.0008636469999999999,1.0,1.007235e-08,1.0,-54.459360000000004,1.0,-1.7e-06,1.0
0.000866699,1.0,1.0116599999999999e-08,1.0,-58.22748,1.0,-1.03e-06,1.0
0.000854492,1.0,1.05194e-08,1.0,-62.18244000000001,1.0,-1.14e-06,1.0
0.000866699,1.0,1.0746749999999998e-08,1.0,-65.98404000000001,1.0,-1.16e-06,1.0
0.00109253,1.0,1.1187749999999999e-08,1.0,-67.23648,1.0,-9.21e-07,1.0
0.00148315,1.0,1.11389e-08,1.0,-59.91948,1.0,-7.78e-07,1.0
0.00186768,1.0,1.09497e-08,1.0,-39.75948,1.0,-1.11e-06,1.0
0.00227051,1.0,1.122895e-08,1.0,-20.28186,1.0,-1.08e-06,1.0
0.00265808,1.0,1.1189249999999999e-08,1.0,-11.320308,1.0,-1.09e-06,1.0
0.00301819,1.0,1.12091e-08,1.0,-13.601087999999999,1.0,-1.13e-06,1.0
0.00342712,1.0,1.0823049999999998e-08,1.0,-21.762827999999995,1.0,-1.14e-06,1.0
0.00381165,1.0,1.074525e-08,1.0,-31.245120000000004,1.0,-1.57e-06,1.0
0.00421448,1.0,1.051025e-08,1.0,-37.29852,1.0,-1.01e-06,1.0
0.00460815,1.0,1.02707e-08,1.0,-42.769800000000004,1.0,-8.629999999999999e-07,1.0
0.00498962,1.0,1.013945e-08,1.0,-45.79092,1.0,-7.529999999999999e-07,1.0
0.00537415,1.0,9.46045e-09,1.0,-46.0656,1.0,-8.87e-07,1.0
0.00578003,1.0,9.245299999999999e-09,1.0,-45.85680000000001,1.0,-7.529999999999999e-07,1.0
0.006155399999999999,1.0,8.802799999999999e-09,1.0,-42.879599999999996,1.0,-5.93e-07,1.0
0.00655212,1.0,8.596799999999998e-09,1.0,-40.9572,1.0,-7.93e-07,1.0
0.006951899999999999,1.0,8.3328e-09,1.0,-40.17708,1.0,-6.970000000000001e-07,1.0
0.00733948,1.0,8.168049999999998e-09,1.0,-39.386160000000004,1.0,-3.55e-07,1.0
0.00774841,1.0,8.1253e-09,1.0,-39.39696,1.0,-7.48e-07,1.0
0.00812988,1.0,8.13445e-09,1.0,-38.14452000000001,1.0,-7.68e-07,1.0
0.00851135,1.0,8.177199999999999e-09,1.0,-36.485640000000004,1.0,-9.709999999999999e-07,1.0
0.00889587,1.0,7.925399999999998e-09,1.0,-30.146472000000006,1.0,-7.75e-07,1.0
0.0092865,1.0,7.70265e-09,1.0,-22.279176,1.0,-8.459999999999999e-07,1.0
0.00969849,1.0,7.659899999999998e-09,1.0,-15.543468,1.0,-5.13e-07,1.0
0.010083,1.0,7.4402e-09,1.0,-10.106316,1.0,-5.67e-07,1.0
0.0104675,1.0,7.45545e-09,1.0,-5.978772,1.0,-3.5399999999999997e-07,1.0
0.0108551,1.0,7.229600000000001e-09,1.0,-3.2464583999999994,1.0,-3.6700000000000004e-07,1.0
0.0112366,1.0,7.26165e-09,1.0,-1.8500975999999998,1.0,-3.8e-07,1.0
0.0116364,1.0,7.005299999999999e-09,1.0,-0.44055,1.0,-9.340000000000001e-07,1.0
0.012023899999999999,1.0,6.74285e-09,1.0,-0.44340840000000004,1.0,-6.970000000000001e-07,1.0
0.0124512,1.0,6.514e-09,1.0,-0.43604639999999995,1.0,-4.5700000000000003e-07,1.0
0.012817400000000001,1.0,6.30035e-09,1.0,-0.4428576000000001,1.0,-4.94e-07,1.0
0.013208000000000001,1.0,5.4779e-09,1.0,-0.43912439999999997,1.0,-4.3e-07,1.0
0.013604699999999999,1.0,4.824829999999999e-09,1.0,-0.4369248,1.0,-5.9e-07,1.0
0.0140167,1.0,3.694155e-09,1.0,-0.4369248,1.0,-1.1699999999999999e-07,1.0
0.0143982,1.0,3.337095e-09,1.0,-0.43527960000000004,1.0,-4.9400000000000006e-08,1.0
0.014794899999999998,1.0,3.03955e-09,1.0,-0.43857359999999995,1.0,-2.4899999999999997e-07,1.0
0.0151855,1.0,2.84424e-09,1.0,-0.4375872,1.0,8.119999999999999e-08,1.0
0.015567,1.0,2.65503e-09,1.0,-0.436266,1.0,-1.1699999999999999e-07,1.0
0.0159576,1.0,1.576235e-09,1.0,-0.43989120000000004,1.0,-2.98e-07,1.0
0.0163391,1.0,-3.9825449999999993e-10,1.0,-0.4368168,1.0,-5.7699999999999994e-08,1.0
0.016748,1.0,-2.40631e-09,1.0,-0.44088120000000003,1.0,-3.75e-08,1.0
0.0171387,1.0,-3.875729999999999e-09,1.0,-0.43714440000000004,1.0,5.1900000000000005e-09,1.0
0.0175201,1.0,-4.718019999999999e-09,1.0,-0.4356072,1.0,-8.39e-08,1.0
0.017922999999999998,1.0,-5.3421e-09,1.0,-0.44088120000000003,1.0,1.41e-07,1.0
0.0183136,1.0,-5.9784e-09,1.0,-0.435168,1.0,1.74e-08,1.0
0.0186951,1.0,-6.0058499999999995e-09,1.0,-0.43967159999999994,1.0,-9.19e-08,1.0
0.0190887,1.0,-6.23475e-09,1.0,-0.43802640000000004,1.0,-1.35e-07,1.0
0.0194855,1.0,-5.5679499999999996e-09,1.0,-0.4376952,1.0,1.13e-07,1.0
0.0198608,1.0,-3.385925e-09,1.0,-0.43407,1.0,-4.43e-07,1.0
0.020275900000000003,1.0,-4.1198749999999997e-10,1.0,-0.43527960000000004,1.0,4.970000000000001e-07,1.0
0.0206665,1.0,2.6000999999999997e-09,1.0,-0.44000279999999997,1.0,1.93e-07,1.0
0.0210724,1.0,5.496199999999999e-09,1.0,-0.435168,1.0,-1.04e-07,1.0
0.0214386,1.0,8.1253e-09,1.0,-0.43857359999999995,1.0,1.0900000000000001e-07,1.0
0.0218353,1.0,1.0307299999999999e-08,1.0,-0.4369248,1.0,1.12e-07,1.0
0.0222565,1.0,1.137085e-08,1.0,-0.43428960000000005,1.0,5.28e-08,1.0
0.022628799999999998,1.0,1.198885e-08,1.0,-0.44077320000000003,1.0,2.69e-07,1.0
0.023016400000000003,1.0,1.20407e-08,1.0,-0.43846560000000007,1.0,-7.020000000000001e-09,1.0
0.02341,1.0,1.182555e-08,1.0,-0.43857359999999995,1.0,-5.0999999999999993e-08,1.0
0.023822,1.0,1.178285e-08,1.0,-0.436266,1.0,2.08e-07,1.0
0.0241943,1.0,1.15616e-08,1.0,-0.43407,1.0,3.9899999999999996e-07,1.0
0.024600200000000003,1.0,1.1309799999999999e-08,1.0,-0.439452,1.0,2.62e-07,1.0
0.0249817,1.0,1.1351e-08,1.0,-0.4315428,1.0,6.09e-07,1.0
0.0253815,1.0,1.1357099999999999e-08,1.0,-1.4975460000000003,1.0,4.55e-08,1.0
0.0257721,1.0,1.1390700000000001e-08,1.0,-5.854608,1.0,3.95e-07,1.0
0.0261749,1.0,1.136475e-08,1.0,-13.351680000000002,1.0,4.86e-07,1.0
0.026553300000000002,1.0,1.1462399999999999e-08,1.0,-20.958624,1.0,2.56e-07,1.0
0.0269653,1.0,1.1801149999999999e-08,1.0,-28.026108,1.0,3.33e-07,1.0
0.027343799999999998,1.0,1.2034600000000001e-08,1.0,-35.035416,1.0,4e-07,1.0
0.0277496,1.0,1.2422200000000001e-08,1.0,-40.8582,1.0,7.8e-07,1.0
0.0281219,1.0,1.29364e-08,1.0,-45.142920000000004,1.0,1.1e-07,1.0
0.0285187,1.0,1.3084399999999998e-08,1.0,-48.75732000000001,1.0,5.05e-07,1.0
0.028903199999999997,1.0,1.3546749999999999e-08,1.0,-50.613839999999996,1.0,2.6e-07,1.0
0.0293091,1.0,1.3958750000000001e-08,1.0,-51.04260000000001,1.0,5.22e-07,1.0
0.0297058,1.0,1.43997e-08,1.0,-51.92136000000001,1.0,3.33e-07,1.0
0.030087299999999997,1.0,1.4614849999999999e-08,1.0,-52.33896,1.0,4.52e-07,1.0
0.030483999999999997,1.0,1.5072649999999996e-08,1.0,-51.19632,1.0,4.970000000000001e-07,1.0
0.030865499999999997,1.0,1.54724e-08,1.0,-52.020360000000004,1.0,4.979999999999999e-07,1.0
0.0312531,1.0,1.5774549999999996e-08,1.0,-52.020360000000004,1.0,6.71e-08,1.0
0.031662,1.0,1.6386399999999997e-08,1.0,-53.55828,1.0,2.5e-07,1.0
0.0320526,1.0,1.7060849999999998e-08,1.0,-55.05264,1.0,4.6399999999999997e-07,1.0
0.032440199999999995,1.0,1.72455e-08,1.0,-57.19500000000001,1.0,4.979999999999999e-07,1.0
0.032827800000000004,1.0,1.7459099999999997e-08,1.0,-58.23864,1.0,6.74e-07,1.0
0.0332306,1.0,1.7666650000000003e-08,1.0,-59.6448,1.0,6.18e-07,1.0
0.0336243,1.0,1.74774e-08,1.0,-60.73235999999999,1.0,3.7200000000000005e-07,1.0
0.0340118,1.0,1.7646799999999995e-08,1.0,-62.0838,1.0,2.88e-07,1.0
0.034402499999999996,1.0,1.7816150000000004e-08,1.0,-62.78688,1.0,6.629999999999999e-07,1.0
0.034777800000000005,1.0,1.782225e-08,1.0,-65.21472,1.0,2.7600000000000004e-07,1.0
0.035205099999999996,1.0,1.7863449999999997e-08,1.0,-66.9618,1.0,1.22e-06,1.0
0.0355713,1.0,1.8171700000000003e-08,1.0,-68.91732,1.0,-1.1299999999999999e-08,1.0
0.0359741,1.0,1.81427e-08,1.0,-71.23535999999999,1.0,2.69e-07,1.0
0.0363739,1.0,1.863555e-08,1.0,-72.47664,1.0,9.27e-07,1.0
0.0367523,1.0,1.8591299999999997e-08,1.0,-72.67464000000001,1.0,8.83e-07,1.0
0.037164300000000004,1.0,1.8846149999999997e-08,1.0,-72.82835999999999,1.0,6.709999999999999e-07,1.0
0.037536599999999996,1.0,1.91803e-08,1.0,-72.98208,1.0,7.540000000000001e-07,1.0
0.03793030000000001,1.0,1.9244400000000002e-08,1.0,-72.55368,1.0,5.45e-07,1.0
0.0383423,1.0,1.926725e-08,1.0,-72.56484,1.0,6.48e-07,1.0
0.038726800000000006,1.0,1.928405e-08,1.0,-72.54288,1.0,6.94e-07,1.0
0.0390961,1.0,1.9244400000000002e-08,1.0,-73.13615999999999,1.0,4.2799999999999997e-07,1.0
0.039501999999999995,1.0,1.9531249999999998e-08,1.0,-73.7622,1.0,9.8e-08,1.0
0.0399139,1.0,1.9428999999999998e-08,1.0,-73.7622,1.0,9.03e-07,1.0
0.0403076,1.0,1.92322e-08,1.0,-74.21256,1.0,9.72e-07,1.0
0.0406708,1.0,1.9490049999999997e-08,1.0,-73.75139999999999,1.0,7.23e-07,1.0
0.0410736,1.0,1.9227599999999997e-08,1.0,-73.13615999999999,1.0,6.09e-07,1.0
0.0414612,1.0,1.92398e-08,1.0,-74.20176,1.0,9.13e-07,1.0
0.041864,1.0,1.931305e-08,1.0,-74.19059999999999,1.0,8.67e-07,1.0
0.0422485,1.0,1.9467150000000003e-08,1.0,-73.7622,1.0,8.709999999999999e-07,1.0
0.0426544,1.0,1.946565e-08,1.0,-74.77308,1.0,1.48e-06,1.0
0.04305730000000001,1.0,1.9479349999999998e-08,1.0,-74.34432000000001,1.0,1.05e-06,1.0
0.043432599999999995,1.0,1.9891349999999998e-08,1.0,-75.52008,1.0,1.17e-06,1.0
0.043814099999999995,1.0,1.990815e-08,1.0,-76.05828,1.0,5.4e-07,1.0
0.044219999999999995,1.0,1.99112e-08,1.0,-77.06915999999998,1.0,8.109999999999999e-07,1.0
0.0446198,1.0,1.9915749999999998e-08,1.0,-77.06915999999998,1.0,1.08e-06,1.0
0.045004300000000004,1.0,1.9931049999999998e-08,1.0,-77.20092000000001,1.0,7.28e-07,1.0
0.045401,1.0,2.05475e-08,1.0,-75.8826,1.0,9.29e-07,1.0
0.0457764,1.0,2.11838e-08,1.0,-73.80611999999999,1.0,8.03e-07,1.0
0.0461761,1.0,2.207945e-08,1.0,-71.36712,1.0,1.01e-06,1.0
0.046582,1.0,2.2947700000000002e-08,1.0,-69.10416000000001,1.0,1.18e-06,1.0
0.046948199999999995,1.0,2.3609900000000002e-08,1.0,-67.31316,1.0,1.04e-06,1.0
0.0473663,1.0,2.379305e-08,1.0,-66.30264000000001,1.0,1.03e-06,1.0
0.0477692,1.0,2.4246200000000002e-08,1.0,-66.10464,1.0,1.36e-06,1.0
0.048150599999999995,1.0,2.4458299999999996e-08,1.0,-65.45664000000001,1.0,7.909999999999999e-07,1.0
0.0485352,1.0,2.48398e-08,1.0,-64.76435999999998,1.0,1.11e-06,1.0
0.0489288,1.0,2.5115950000000002e-08,1.0,-63.819720000000004,1.0,1.11e-06,1.0
0.0493256,1.0,2.5726299999999995e-08,1.0,-63.380160000000004,1.0,7.58e-07,1.0
0.0497284,1.0,2.633665e-08,1.0,-62.17164000000001,1.0,1.19e-06,1.0
0.0501404,1.0,2.6626599999999996e-08,1.0,-61.28172000000001,1.0,1.16e-06,1.0
0.0505981,1.0,2.705385e-08,1.0,-60.72156,1.0,1.12e-06,1.0
0.0509644,1.0,2.7191149999999997e-08,1.0,-60.62256,1.0,1.31e-06,1.0
0.0513611,1.0,2.7923599999999997e-08,1.0,-60.53472000000001,1.0,1.39e-06,1.0
0.051727300000000004,1.0,2.8213499999999997e-08,1.0,-60.32592000000001,1.0,8.29e-07,1.0
0.052124000000000004,1.0,2.87781e-08,1.0,-60.13907999999999,1.0,1.34e-06,1.0
0.0525818,1.0,2.9251099999999994e-08,1.0,-59.34815999999999,1.0,6.74e-07,1.0
0.052948,1.0,2.944945e-08,1.0,-58.84272,1.0,8.76e-07,1.0
0.05331419999999999,1.0,2.967835e-08,1.0,-58.29336000000001,1.0,8.05e-07,1.0
0.053710900000000006,1.0,3.01361e-08,1.0,-59.66676,1.0,1.38e-06,1.0
0.0541077,1.0,3.02429e-08,1.0,-61.93008,1.0,1.49e-06,1.0
0.054534900000000004,1.0,3.071595e-08,1.0,-64.40184,1.0,1.23e-06,1.0
0.054962199999999996,1.0,3.085325e-08,1.0,-66.5442,1.0,1.68e-06,1.0
0.0553284,1.0,3.1326299999999995e-08,1.0,-67.41216,1.0,7.72e-07,1.0
0.055664099999999994,1.0,3.092955e-08,1.0,-66.5442,1.0,1.33e-06,1.0
0.05606080000000001,1.0,3.071595e-08,1.0,-64.83024,1.0,9.59e-07,1.0
0.05645750000000001,1.0,3.02429e-08,1.0,-63.07235999999999,1.0,1.12e-06,1.0
0.056854199999999994,1.0,3.05176e-08,1.0,-62.39124,1.0,1.36e-06,1.0
0.057281500000000006,1.0,3.0456549999999995e-08,1.0,-62.4024,1.0,1.07e-06,1.0
0.057647699999999996,1.0,3.06854e-08,1.0,-62.99567999999999,1.0,1.54e-06,1.0
0.058075,1.0,3.108215e-08,1.0,-63.33624000000001,1.0,1.57e-06,1.0
0.05844119999999999,1.0,3.1570449999999995e-08,1.0,-64.33595999999999,1.0,1.5e-06,1.0
0.058868399999999994,1.0,3.234865000000001e-08,1.0,-65.76407999999999,1.0,1.69e-06,1.0
0.059265099999999994,1.0,3.28369e-08,1.0,-66.48912,1.0,1.59e-06,1.0
0.0596313,1.0,3.3248900000000003e-08,1.0,-66.76379999999999,1.0,1.74e-06,1.0
0.05996699999999999,1.0,3.3874500000000003e-08,1.0,-66.41244,1.0,1.71e-06,1.0
0.06042480000000001,1.0,3.385925e-08,1.0,-66.12660000000001,1.0,1.35e-06,1.0
0.060791,1.0,3.3889749999999994e-08,1.0,-66.14856,1.0,1.86e-06,1.0
0.0611877,1.0,3.39203e-08,1.0,-66.11580000000001,1.0,1.52e-06,1.0
0.061554,1.0,3.37219e-08,1.0,-64.90728,1.0,1.71e-06,1.0
0.0619812,1.0,3.326415e-08,1.0,-63.709559999999996,1.0,1.3e-06,1.0
0.062439,1.0,3.326415e-08,1.0,-62.61120000000001,1.0,1.78e-06,1.0
0.06277469999999999,1.0,3.3309949999999996e-08,1.0,-62.622,1.0,1.55e-06,1.0
0.0631714,1.0,3.3843999999999995e-08,1.0,-62.9298,1.0,1.8e-06,1.0
0.0635376,1.0,3.414915e-08,1.0,-64.14912000000001,1.0,1.52e-06,1.0
0.0639038,1.0,3.453065e-08,1.0,-65.09412,1.0,1.59e-06,1.0
0.0643921,1.0,3.456115e-08,1.0,-65.90700000000001,1.0,1.83e-06,1.0
0.0647583,1.0,3.4988400000000004e-08,1.0,-65.76407999999999,1.0,1.51e-06,1.0
0.065094,1.0,3.54309e-08,1.0,-65.66544,1.0,1.65e-06,1.0
0.0655212,1.0,3.541565e-08,1.0,-65.66544,1.0,1.8e-06,1.0
0.06594850000000001,1.0,3.541565e-08,1.0,-65.40155999999999,1.0,2.04e-06,1.0
0.0662842,1.0,3.536984999999999e-08,1.0,-65.061,1.0,1.93e-06,1.0
0.06674189999999999,1.0,3.559875e-08,1.0,-64.78632,1.0,1.94e-06,1.0
0.0670776,1.0,3.58124e-08,1.0,-63.929520000000004,1.0,1.75e-06,1.0
0.06750489999999999,1.0,3.60718e-08,1.0,-64.07244,1.0,2.03e-06,1.0
0.0678711,1.0,3.6056499999999996e-08,1.0,-63.6768,1.0,1.86e-06,1.0
0.0682678,1.0,3.60718e-08,1.0,-63.687599999999996,1.0,2.2e-06,1.0
0.06872560000000001,1.0,3.588865e-08,1.0,-62.9406,1.0,2.06e-06,1.0
0.0690918,1.0,3.564455e-08,1.0,-62.52335999999999,1.0,1.77e-06,1.0
0.069397,1.0,3.585815e-08,1.0,-61.677359999999986,1.0,2.04e-06,1.0
0.0698547,1.0,3.634644999999999e-08,1.0,-60.996240000000014,1.0,2.08e-06,1.0
0.0703125,1.0,3.7155150000000006e-08,1.0,-60.27084,1.0,2.88e-06,1.0
0.0706482,1.0,3.7567149999999996e-08,1.0,-60.01848,1.0,2.08e-06,1.0
0.07101439999999999,1.0,3.822325e-08,1.0,-60.30396,1.0,1.8e-06,1.0
0.0714111,1.0,3.855895e-08,1.0,-60.42492000000001,1.0,2.14e-06,1.0
0.0718384,1.0,3.9047250000000006e-08,1.0,-60.33707999999999,1.0,2.45e-06,1.0
0.07223510000000001,1.0,3.9688099999999997e-08,1.0,-60.457679999999996,1.0,2.61e-06,1.0
0.07266239999999999,1.0,3.9855949999999994e-08,1.0,-60.40295999999999,1.0,2.55e-06,1.0
0.07299800000000001,1.0,4.029845e-08,1.0,-59.78772,1.0,2.16e-06,1.0
0.0733948,1.0,4.075625e-08,1.0,-59.18328,1.0,2.25e-06,1.0
0.07376100000000001,1.0,4.141235e-08,1.0,-58.95252000000001,1.0,2.25e-06,1.0
0.0741577,1.0,4.190065e-08,1.0,-58.699799999999996,1.0,2.7e-06,1.0
0.07455439999999999,1.0,4.2572000000000006e-08,1.0,-58.46939999999999,1.0,2.34e-06,1.0
0.0749817,1.0,4.25873e-08,1.0,-58.07375999999999,1.0,2.4e-06,1.0
0.07531739999999999,1.0,4.275515e-08,1.0,-57.601440000000004,1.0,2.56e-06,1.0
0.07574460000000001,1.0,4.298399999999999e-08,1.0,-57.359519999999996,1.0,2.64e-06,1.0
0.0760803,1.0,4.344175e-08,1.0,-57.01896000000001,1.0,2.56e-06,1.0
0.07653810000000001,1.0,4.338075e-08,1.0,-56.31588000000001,1.0,2.44e-06,1.0
0.0769043,1.0,4.3868999999999994e-08,1.0,-55.96452000000001,1.0,2.34e-06,1.0
0.077301,1.0,4.3808e-08,1.0,-55.44792000000001,1.0,2.58e-06,1.0
0.0777283,1.0,4.4097900000000003e-08,1.0,-55.26107999999999,1.0,2.74e-06,1.0
0.07809450000000001,1.0,4.408265e-08,1.0,-55.44792000000001,1.0,2.37e-06,1.0
0.0784607,1.0,4.385375e-08,1.0,-55.77768,1.0,2.63e-06,1.0
0.0788879,1.0,4.3624899999999996e-08,1.0,-56.49156000000001,1.0,3.12e-06,1.0
0.0791931,1.0,4.336549999999999e-08,1.0,-57.53556000000001,1.0,2.63e-06,1.0
0.0796204,1.0,4.3624899999999996e-08,1.0,-59.20524,1.0,2.71e-06,1.0
0.08004760000000001,1.0,4.4097900000000003e-08,1.0,-60.86412,1.0,2.8e-06,1.0
0.0804443,1.0,4.418945e-08,1.0,-62.18244000000001,1.0,2.87e-06,1.0
0.0808411,1.0,4.49219e-08,1.0,-63.07235999999999,1.0,2.88e-06,1.0
0.0812683,1.0,4.58832e-08,1.0,-63.0504,1.0,2.71e-06,1.0
0.08157350000000001,1.0,4.649355e-08,1.0,-62.12772,1.0,2.85e-06,1.0
0.0820313,1.0,4.696655e-08,1.0,-61.43544000000001,1.0,3.05e-06,1.0
0.0823975,1.0,4.759215e-08,1.0,-61.3476,1.0,2.92e-06,1.0
0.0827942,1.0,4.737855e-08,1.0,-61.52328,1.0,2.93e-06,1.0
0.0831909,1.0,4.69208e-08,1.0,-61.89695999999999,1.0,2.75e-06,1.0
0.0836182,1.0,4.6737650000000006e-08,1.0,-62.55612,1.0,2.66e-06,1.0
0.0839233,1.0,4.6722399999999995e-08,1.0,-63.02844,1.0,2.51e-06,1.0
0.08435060000000001,1.0,4.69208e-08,1.0,-63.65484,1.0,3.04e-06,1.0
0.0847778,1.0,4.763795e-08,1.0,-64.50084000000001,1.0,3.16e-06,1.0
0.0851746,1.0,4.78058e-08,1.0,-65.37960000000001,1.0,2.82e-06,1.0
0.0856018,1.0,4.811095e-08,1.0,-66.46716,1.0,3.04e-06,1.0
0.0859375,1.0,4.8263550000000003e-08,1.0,-67.53312,1.0,2.28e-06,1.0
0.0863037,1.0,4.821775e-08,1.0,-67.93956,1.0,2.88e-06,1.0
0.0867615,1.0,4.86908e-08,1.0,-68.32404,1.0,3.05e-06,1.0
0.0870972,1.0,4.9087499999999995e-08,1.0,-68.48892000000001,1.0,2.64e-06,1.0
0.0875854,1.0,5.00185e-08,1.0,-68.30207999999999,1.0,3.01e-06,1.0
0.0879211,1.0,5.0461e-08,1.0,-68.20307999999999,1.0,3.1e-06,1.0
0.0882568,1.0,5.0842499999999994e-08,1.0,-68.37875999999999,1.0,3.31e-06,1.0
0.0886841,1.0,5.0888e-08,1.0,-68.65344,1.0,3.51e-06,1.0
0.0891113,1.0,5.13155e-08,1.0,-68.74127999999999,1.0,2.66e-06,1.0
0.08950810000000001,1.0,5.1299999999999996e-08,1.0,-68.09328,1.0,3.06e-06,1.0
0.0898132,1.0,5.195599999999999e-08,1.0,-67.63176,1.0,3.19e-06,1.0
0.09021,1.0,5.235299999999999e-08,1.0,-67.10436,1.0,3.04e-06,1.0
0.0906067,1.0,5.2779999999999994e-08,1.0,-67.2912,1.0,3.19e-06,1.0
0.09106449999999999,1.0,5.3252999999999994e-08,1.0,-67.9284,1.0,3.01e-06,1.0
0.09136960000000001,1.0,5.35125e-08,1.0,-68.00544,1.0,3.17e-06,1.0
0.09185789999999999,1.0,5.365e-08,1.0,-68.09328,1.0,3.13e-06,1.0
0.0922241,1.0,5.38485e-08,1.0,-68.36796,1.0,3.48e-06,1.0
0.09255980000000001,1.0,5.39245e-08,1.0,-68.37875999999999,1.0,3.29e-06,1.0
0.09304810000000001,1.0,5.3909500000000004e-08,1.0,-68.35679999999999,1.0,3.47e-06,1.0
0.0933533,1.0,5.3894e-08,1.0,-68.60952,1.0,3.34e-06,1.0
0.09378049999999999,1.0,5.41075e-08,1.0,-68.69735999999999,1.0,3.59e-06,1.0
0.0941467,1.0,5.4291e-08,1.0,-68.35679999999999,1.0,3.5e-06,1.0
0.09454349999999999,1.0,5.477899999999999e-08,1.0,-68.08212,1.0,3.12e-06,1.0
0.09494019999999999,1.0,5.542e-08,1.0,-67.82976,1.0,3.53e-06,1.0
0.09536739999999999,1.0,5.6076e-08,1.0,-67.42295999999999,1.0,3.44e-06,1.0
0.0957642,1.0,5.6946e-08,1.0,-67.24728,1.0,3.31e-06,1.0
0.09613039999999999,1.0,5.7555999999999996e-08,1.0,-67.11552,1.0,3.34e-06,1.0
0.0964966,1.0,5.8242999999999994e-08,1.0,-67.0716,1.0,3.7e-06,1.0
0.0968628,1.0,5.8502e-08,1.0,-67.01652,1.0,3.46e-06,1.0
0.09729,1.0,5.86855e-08,1.0,-67.08239999999999,1.0,3.64e-06,1.0
0.0976868,1.0,5.8868499999999995e-08,1.0,-66.95064,1.0,3.77e-06,1.0
0.0980835,1.0,5.906699999999999e-08,1.0,-66.77496,1.0,3.7e-06,1.0
0.0984802,1.0,5.8914e-08,1.0,-66.51107999999999,1.0,3.34e-06,1.0
0.0988464,1.0,5.8899e-08,1.0,-66.53304,1.0,3.4e-06,1.0
0.09927369999999999,1.0,5.8914e-08,1.0,-65.88504,1.0,3.97e-06,1.0
0.09967039999999999,1.0,5.8883500000000006e-08,1.0,-65.89583999999999,1.0,3.87e-06,1.0
0.100006,1.0,5.8883500000000006e-08,1.0,-65.88504,1.0,3.7e-06,1.0
0.100494,1.0,5.90515e-08,1.0,-66.14856,1.0,3.37e-06,1.0
0.10082999999999999,1.0,5.9509499999999994e-08,1.0,-66.93984,1.0,3.76e-06,1.0
0.101227,1.0,6.0074e-08,1.0,-67.75272,1.0,4.35e-06,1.0
0.101624,1.0,6.08675e-08,1.0,-68.85144,1.0,3.89e-06,1.0
0.10195900000000001,1.0,6.1264e-08,1.0,-69.86196,1.0,4.1e-06,1.0
0.10241700000000001,1.0,6.217949999999999e-08,1.0,-70.686,1.0,4.21e-06,1.0
0.10281400000000002,1.0,6.28355e-08,1.0,-71.4222,1.0,4.03e-06,1.0
0.10318,1.0,6.352249999999999e-08,1.0,-72.01548,1.0,3.78e-06,1.0
0.103577,1.0,6.36595e-08,1.0,-72.30095999999999,1.0,3.95e-06,1.0
0.10394300000000001,1.0,6.411749999999999e-08,1.0,-72.20232,1.0,4.19e-06,1.0
0.10437,1.0,6.460549999999999e-08,1.0,-71.72964,1.0,4.24e-06,1.0
0.104736,1.0,6.500249999999999e-08,1.0,-71.09244,1.0,4.39e-06,1.0
0.105103,1.0,6.547550000000001e-08,1.0,-70.02684,1.0,3.96e-06,1.0
0.10553,1.0,6.562799999999998e-08,1.0,-69.13692,1.0,4.17e-06,1.0
0.105896,1.0,6.5689e-08,1.0,-68.54364000000001,1.0,4.92e-06,1.0
0.106262,1.0,6.5613e-08,1.0,-68.5656,1.0,4.31e-06,1.0
0.106689,1.0,6.549049999999999e-08,1.0,-68.71932000000001,1.0,4.53e-06,1.0
0.107117,1.0,6.547550000000001e-08,1.0,-69.0822,1.0,4.87e-06,1.0
0.10745199999999999,1.0,6.52465e-08,1.0,-69.98292000000001,1.0,4.39e-06,1.0
0.10778800000000001,1.0,6.541449999999999e-08,1.0,-70.785,1.0,4.61e-06,1.0
0.10824600000000001,1.0,6.57655e-08,1.0,-71.18028,1.0,4.3e-06,1.0
0.108643,1.0,6.58875e-08,1.0,-71.48808,1.0,4.42e-06,1.0
0.109009,1.0,6.652849999999999e-08,1.0,-71.47692,1.0,4.34e-06,1.0
0.10940599999999999,1.0,6.7154e-08,1.0,-71.27928,1.0,4.61e-06,1.0
0.109741,1.0,6.80235e-08,1.0,-70.94988,1.0,4.01e-06,1.0
0.110168,1.0,6.8619e-08,1.0,-70.38935999999998,1.0,4.34e-06,1.0
0.110596,1.0,6.92445e-08,1.0,-70.00488,1.0,4.54e-06,1.0
0.110901,1.0,6.977849999999999e-08,1.0,-69.43356,1.0,4.38e-06,1.0
0.111328,1.0,7.0175e-08,1.0,-68.64264,1.0,4.51e-06,1.0
0.111755,1.0,7.08465e-08,1.0,-68.10408,1.0,4.19e-06,1.0
0.112122,1.0,7.1289e-08,1.0,-67.35708,1.0,4.28e-06,1.0
0.112518,1.0,7.14875e-08,1.0,-66.753,1.0,4.52e-06,1.0
0.11291500000000002,1.0,7.18995e-08,1.0,-66.13775999999999,1.0,4.65e-06,1.0
0.11328099999999999,1.0,7.2357e-08,1.0,-65.87388,1.0,4.87e-06,1.0
0.113678,1.0,7.234199999999999e-08,1.0,-65.32488,1.0,5.03e-06,1.0
0.114075,1.0,7.2357e-08,1.0,-64.51164000000001,1.0,4.38e-06,1.0
0.11444100000000001,1.0,7.257100000000001e-08,1.0,-64.06128,1.0,4.86e-06,1.0
0.11483800000000001,1.0,7.310499999999999e-08,1.0,-64.01736,1.0,4.72e-06,1.0
0.115204,1.0,7.32725e-08,1.0,-64.11635999999999,1.0,4.96e-06,1.0
0.115692,1.0,7.3532e-08,1.0,-64.44575999999999,1.0,4.61e-06,1.0
0.11608900000000001,1.0,7.4219e-08,1.0,-64.80828,1.0,4.55e-06,1.0
0.116425,1.0,7.43715e-08,1.0,-64.87415999999999,1.0,4.78e-06,1.0
0.11682100000000001,1.0,7.5073e-08,1.0,-65.22587999999999,1.0,4.81e-06,1.0
0.117218,1.0,7.572949999999999e-08,1.0,-66.09384,1.0,4.61e-06,1.0
0.11761500000000001,1.0,7.609550000000001e-08,1.0,-66.92868,1.0,4.71e-06,1.0
0.11795,1.0,7.71025e-08,1.0,-67.51115999999999,1.0,4.72e-06,1.0
0.118408,1.0,7.76215e-08,1.0,-67.8186,1.0,4.61e-06,1.0
0.11871300000000001,1.0,7.810949999999999e-08,1.0,-67.82976,1.0,4.68e-06,1.0
0.11914100000000001,1.0,7.878099999999998e-08,1.0,-68.15916,1.0,4.97e-06,1.0
0.119598,1.0,7.9178e-08,1.0,-68.25816,1.0,4.9e-06,1.0
0.119965,1.0,7.96355e-08,1.0,-68.36796,1.0,5.37e-06,1.0
0.120331,1.0,8.00325e-08,1.0,-68.43384,1.0,4.37e-06,1.0
0.12075799999999999,1.0,8.0307e-08,1.0,-68.68656,1.0,4.79e-06,1.0
0.121124,1.0,8.053599999999999e-08,1.0,-68.81832,1.0,5.04e-06,1.0
0.121521,1.0,8.09325e-08,1.0,-68.96124,1.0,4.96e-06,1.0
0.121857,1.0,8.09325e-08,1.0,-69.3126,1.0,4.98e-06,1.0
0.122253,1.0,8.15125e-08,1.0,-69.64236,1.0,5.08e-06,1.0
0.122681,1.0,8.201599999999998e-08,1.0,-69.75216,1.0,5.21e-06,1.0
0.12307699999999999,1.0,8.23975e-08,1.0,-69.86196,1.0,4.83e-06,1.0
0.12344400000000001,1.0,8.303849999999999e-08,1.0,-69.84,1.0,5.06e-06,1.0
0.12380999999999999,1.0,8.392349999999999e-08,1.0,-69.89508,1.0,5.24e-06,1.0
0.12423699999999999,1.0,8.508300000000001e-08,1.0,-69.53256,1.0,4.82e-06,1.0
0.12466400000000001,1.0,8.5953e-08,1.0,-69.13692,1.0,4.92e-06,1.0
0.12506099999999998,1.0,8.67615e-08,1.0,-68.44500000000001,1.0,4.99e-06,1.0
0.125366,1.0,8.76615e-08,1.0,-68.00544,1.0,5.36e-06,1.0
0.125854,1.0,8.81655e-08,1.0,-67.67568,1.0,4.88e-06,1.0
0.12619,1.0,8.85315e-08,1.0,-67.33511999999999,1.0,5.41e-06,1.0
0.12658699999999998,1.0,8.895850000000001e-08,1.0,-66.99456,1.0,5.76e-06,1.0
0.12701400000000002,1.0,8.920299999999998e-08,1.0,-66.76379999999999,1.0,5.8e-06,1.0
0.127411,1.0,8.91725e-08,1.0,-66.654,1.0,5.3e-06,1.0
0.127808,1.0,8.982849999999999e-08,1.0,-66.78576,1.0,5.35e-06,1.0
0.128235,1.0,9.030149999999998e-08,1.0,-66.80772,1.0,5.54e-06,1.0
0.128601,1.0,9.0698e-08,1.0,-66.654,1.0,5.31e-06,1.0
0.128906,1.0,9.13695e-08,1.0,-66.76379999999999,1.0,5.1e-06,1.0
0.129364,1.0,9.1614e-08,1.0,-66.69792000000001,1.0,5.15e-06,1.0
0.1297,1.0,9.2041e-08,1.0,-66.654,1.0,5.53e-06,1.0
0.130157,1.0,9.246849999999999e-08,1.0,-66.59928,1.0,5.52e-06,1.0
0.130554,1.0,9.266649999999999e-08,1.0,-66.64320000000001,1.0,5.92e-06,1.0
0.13089,1.0,9.281899999999999e-08,1.0,-66.69792000000001,1.0,5.72e-06,1.0
0.131287,1.0,9.28955e-08,1.0,-67.12632,1.0,5.48e-06,1.0
0.131714,1.0,9.2972e-08,1.0,-67.66488000000001,1.0,5.66e-06,1.0
0.13211099999999998,1.0,9.2926e-08,1.0,-68.247,1.0,6.09e-06,1.0
0.132477,1.0,9.35975e-08,1.0,-68.60952,1.0,6.1e-06,1.0
0.132874,1.0,9.40855e-08,1.0,-69.14808,1.0,5.8e-06,1.0
0.13327,1.0,9.449749999999999e-08,1.0,-69.38964000000001,1.0,6.08e-06,1.0
0.133698,1.0,9.509299999999999e-08,1.0,-69.65316,1.0,6e-06,1.0
0.13403299999999999,1.0,9.57945e-08,1.0,-69.65316,1.0,5.35e-06,1.0
0.13443,1.0,9.640499999999998e-08,1.0,-69.6312,1.0,5.9e-06,1.0
0.134827,1.0,9.706099999999998e-08,1.0,-69.35652,1.0,5.85e-06,1.0
0.13525399999999999,1.0,9.7458e-08,1.0,-69.35652,1.0,5.93e-06,1.0
0.13562000000000002,1.0,9.793099999999999e-08,1.0,-69.4008,1.0,6.03e-06,1.0
0.136017,1.0,9.788499999999999e-08,1.0,-69.7194,1.0,6.22e-06,1.0
0.136353,1.0,9.8282e-08,1.0,-70.05995999999999,1.0,5.9e-06,1.0
0.13677999999999998,1.0,9.877e-08,1.0,-70.52112,1.0,5.56e-06,1.0
0.137177,1.0,9.936499999999999e-08,1.0,-70.87284,1.0,6.41e-06,1.0
0.137573,1.0,9.96245e-08,1.0,-71.08164000000001,1.0,6.15e-06,1.0
0.13797,1.0,1.00052e-07,1.0,-70.92756,1.0,6.34e-06,1.0
0.138428,1.0,1.009215e-07,1.0,-70.75188,1.0,6.31e-06,1.0
0.138733,1.0,1.0145549999999999e-07,1.0,-70.80695999999999,1.0,6.21e-06,1.0
0.13913,1.0,1.02295e-07,1.0,-71.09244,1.0,6.41e-06,1.0
0.139526,1.0,1.029665e-07,1.0,-71.2242,1.0,6.15e-06,1.0
0.139954,1.0,1.03821e-07,1.0,-71.07048,1.0,7.02e-06,1.0
0.14032,1.0,1.0421749999999999e-07,1.0,-70.55424000000001,1.0,6.52e-06,1.0
0.140717,1.0,1.0465999999999999e-07,1.0,-70.2576,1.0,5.89e-06,1.0
0.141083,1.0,1.04843e-07,1.0,-69.67512,1.0,6.55e-06,1.0
0.14151,1.0,1.0510250000000001e-07,1.0,-69.2028,1.0,6.2e-06,1.0
0.141907,1.0,1.0527049999999999e-07,1.0,-68.7744,1.0,6.52e-06,1.0
0.14221199999999998,1.0,1.05545e-07,1.0,-68.33484,1.0,6.48e-06,1.0
0.14263900000000002,1.0,1.0571300000000001e-07,1.0,-68.00544,1.0,6.84e-06,1.0
0.143066,1.0,1.0574349999999998e-07,1.0,-68.01624000000001,1.0,6.41e-06,1.0
0.143494,1.0,1.057585e-07,1.0,-68.26895999999999,1.0,6.52e-06,1.0
0.14386,1.0,1.0557550000000002e-07,1.0,-68.346,1.0,6.56e-06,1.0
0.144257,1.0,1.0562149999999999e-07,1.0,-68.5656,1.0,6.96e-06,1.0
0.144623,1.0,1.058045e-07,1.0,-68.7744,1.0,6.91e-06,1.0
0.14505,1.0,1.0623150000000001e-07,1.0,-68.93928,1.0,7.04e-06,1.0
0.145386,1.0,1.0665899999999999e-07,1.0,-69.18084,1.0,6.52e-06,1.0
0.145813,1.0,1.0748299999999998e-07,1.0,-69.45552,1.0,6.89e-06,1.0
0.14620999999999998,1.0,1.083525e-07,1.0,-69.74135999999999,1.0,7.24e-06,1.0
0.146576,1.0,1.093905e-07,1.0,-69.78528,1.0,6.59e-06,1.0
0.147064,1.0,1.1073299999999999e-07,1.0,-69.77412000000001,1.0,7.06e-06,1.0
0.147369,1.0,1.1155699999999998e-07,1.0,-69.84,1.0,7.1e-06,1.0
0.147766,1.0,1.1294549999999998e-07,1.0,-69.8292,1.0,7.18e-06,1.0
0.14819300000000002,1.0,1.13785e-07,1.0,-69.74135999999999,1.0,7.53e-06,1.0
0.14856,1.0,1.1398299999999998e-07,1.0,-69.46668,1.0,7.02e-06,1.0
0.149017,1.0,1.14395e-07,1.0,-69.3126,1.0,7.3e-06,1.0
0.149323,1.0,1.15021e-07,1.0,-69.05987999999999,1.0,7.29e-06,1.0
0.14975,1.0,1.1534100000000001e-07,1.0,-68.86224000000001,1.0,7.24e-06,1.0
0.150116,1.0,1.1557e-07,1.0,-68.69735999999999,1.0,7.13e-06,1.0
0.150513,1.0,1.160125e-07,1.0,-68.6754,1.0,7.33e-06,1.0
0.150909,1.0,1.1659249999999999e-07,1.0,-68.62068,1.0,7.45e-06,1.0
0.151276,1.0,1.16638e-07,1.0,-68.46696,1.0,7.53e-06,1.0
0.151672,1.0,1.1732499999999999e-07,1.0,-68.33484,1.0,7.64e-06,1.0
0.1521,1.0,1.1773699999999999e-07,1.0,-68.29092,1.0,7.47e-06,1.0
0.152496,1.0,1.181335e-07,1.0,-68.247,1.0,7.73e-06,1.0
0.152863,1.0,1.1839300000000001e-07,1.0,-68.53284,1.0,7.39e-06,1.0
0.15329,1.0,1.186065e-07,1.0,-68.78556,1.0,7.68e-06,1.0
0.153656,1.0,1.1878949999999999e-07,1.0,-68.95007999999999,1.0,7.49e-06,1.0
0.154083,1.0,1.19705e-07,1.0,-68.93928,1.0,7.89e-06,1.0
0.154449,1.0,1.203005e-07,1.0,-68.7744,1.0,7.57e-06,1.0
0.154877,1.0,1.2117e-07,1.0,-68.47775999999999,1.0,8e-06,1.0
0.155273,1.0,1.2175e-07,1.0,-68.37875999999999,1.0,7.86e-06,1.0
0.15564,1.0,1.22452e-07,1.0,-68.21424,1.0,8.07e-06,1.0
0.156006,1.0,1.230775e-07,1.0,-68.20307999999999,1.0,7.73e-06,1.0
0.15631099999999998,1.0,1.239625e-07,1.0,-68.23620000000001,1.0,8.25e-06,1.0
0.156799,1.0,1.2527449999999997e-07,1.0,-68.20307999999999,1.0,8.17e-06,1.0
0.15725699999999998,1.0,1.2614449999999998e-07,1.0,-68.31287999999999,1.0,8.26e-06,1.0
0.15756199999999998,1.0,1.2698349999999998e-07,1.0,-68.33484,1.0,7.99e-06,1.0
0.15792799999999999,1.0,1.2764e-07,1.0,-68.65344,1.0,8.41e-06,1.0
0.158386,1.0,1.2825e-07,1.0,-68.93928,1.0,8.36e-06,1.0
0.15878299999999998,1.0,1.2896749999999998e-07,1.0,-69.15888,1.0,8.26e-06,1.0
0.15921,1.0,1.29425e-07,1.0,-69.47748,1.0,8.39e-06,1.0
0.159485,1.0,1.302795e-07,1.0,-69.59844000000001,1.0,8.22e-06,1.0
0.159943,1.0,1.3095100000000002e-07,1.0,-69.77412000000001,1.0,8.61e-06,1.0
0.16030899999999998,1.0,1.3186649999999999e-07,1.0,-70.21368,1.0,8.95e-06,1.0
0.160736,1.0,1.32492e-07,1.0,-70.6752,1.0,8.55e-06,1.0
0.161102,1.0,1.33194e-07,1.0,-71.01576,1.0,8.3e-06,1.0
0.16153,1.0,1.33774e-07,1.0,-71.18028,1.0,8.84e-06,1.0
0.161896,1.0,1.3468949999999998e-07,1.0,-71.21340000000001,1.0,8.74e-06,1.0
0.162262,1.0,1.3536049999999998e-07,1.0,-71.1036,1.0,8.84e-06,1.0
0.162689,1.0,1.3591e-07,1.0,-70.9938,1.0,8.45e-06,1.0
0.16308599999999998,1.0,1.361695e-07,1.0,-70.76304,1.0,9.07e-06,1.0
0.163483,1.0,1.3636800000000002e-07,1.0,-70.47720000000001,1.0,9.08e-06,1.0
0.163849,1.0,1.3635250000000002e-07,1.0,-70.00488,1.0,8.73e-06,1.0
0.164246,1.0,1.361695e-07,1.0,-69.48864,1.0,8.91e-06,1.0
0.164642,1.0,1.361845e-07,1.0,-69.21396,1.0,9.07e-06,1.0
0.16503900000000002,1.0,1.362305e-07,1.0,-69.02712,1.0,9.59e-06,1.0
0.165405,1.0,1.36383e-07,1.0,-68.85144,1.0,8.93e-06,1.0
0.16583299999999998,1.0,1.3706949999999998e-07,1.0,-68.53284,1.0,9.24e-06,1.0
0.166229,1.0,1.3768e-07,1.0,-68.46696,1.0,9.57e-06,1.0
0.166595,1.0,1.3847349999999999e-07,1.0,-68.52167999999999,1.0,9.49e-06,1.0
0.166962,1.0,1.391145e-07,1.0,-68.63148,1.0,9.04e-06,1.0
0.167389,1.0,1.400755e-07,1.0,-69.01595999999999,1.0,9.29e-06,1.0
0.167786,1.0,1.408845e-07,1.0,-69.5214,1.0,9.72e-06,1.0
0.168152,1.0,1.4155599999999997e-07,1.0,-69.89508,1.0,9.55e-06,1.0
0.16864,1.0,1.4265450000000002e-07,1.0,-70.32347999999999,1.0,9.02e-06,1.0
0.168915,1.0,1.43677e-07,1.0,-70.44444000000001,1.0,9.58e-06,1.0
0.169281,1.0,1.4448549999999997e-07,1.0,-70.45524,1.0,9.5e-06,1.0
0.169739,1.0,1.45172e-07,1.0,-70.37856,1.0,9.57e-06,1.0
0.170074,1.0,1.46042e-07,1.0,-70.22448,1.0,9.13e-06,1.0
0.170502,1.0,1.472015e-07,1.0,-70.0488,1.0,9.58e-06,1.0
0.170898,1.0,1.4785749999999999e-07,1.0,-69.8292,1.0,9.53e-06,1.0
0.171265,1.0,1.48224e-07,1.0,-69.7194,1.0,9.57e-06,1.0
0.171722,1.0,1.48651e-07,1.0,-69.4008,1.0,9.6e-06,1.0
0.172058,1.0,1.4887999999999997e-07,1.0,-69.23592000000001,1.0,1.01e-05,1.0
0.172455,1.0,1.4930750000000002e-07,1.0,-69.2028,1.0,9.54e-06,1.0
0.172852,1.0,1.4924599999999999e-07,1.0,-69.15888,1.0,9.57e-06,1.0
0.173218,1.0,1.49765e-07,1.0,-69.27984000000001,1.0,9.89e-06,1.0
0.173584,1.0,1.49887e-07,1.0,-69.48864,1.0,9.58e-06,1.0
0.174011,1.0,1.50116e-07,1.0,-69.69744,1.0,1.01e-05,1.0
0.17440799999999998,1.0,1.50543e-07,1.0,-70.02684,1.0,9.99e-06,1.0
0.174805,1.0,1.5098549999999999e-07,1.0,-70.33464000000001,1.0,1.0199999999999999e-05,1.0
0.175201,1.0,1.51886e-07,1.0,-70.85087999999999,1.0,1.01e-05,1.0
0.175537,1.0,1.52954e-07,1.0,-71.5428,1.0,9.74e-06,1.0
0.176025,1.0,1.5451049999999999e-07,1.0,-72.15804000000001,1.0,1.0199999999999999e-05,1.0
0.176331,1.0,1.557615e-07,1.0,-72.36684,1.0,1.01e-05,1.0
0.176727,1.0,1.571505e-07,1.0,-72.36684,1.0,9.96e-06,1.0
0.177155,1.0,1.586455e-07,1.0,-71.88372000000001,1.0,1.05e-05,1.0
0.177551,1.0,1.599885e-07,1.0,-71.52083999999999,1.0,1.0300000000000001e-05,1.0
0.177948,1.0,1.60904e-07,1.0,-71.19144,1.0,1.0300000000000001e-05,1.0
0.178345,1.0,1.6145299999999998e-07,1.0,-71.13636,1.0,1.0300000000000001e-05,1.0
0.17877200000000001,1.0,1.6212449999999996e-07,1.0,-71.03772000000001,1.0,1.0300000000000001e-05,1.0
0.179169,1.0,1.6258249999999998e-07,1.0,-71.09244,1.0,1.06e-05,1.0
0.179535,1.0,1.62613e-07,1.0,-71.01576,1.0,1.04e-05,1.0
0.179901,1.0,1.6278099999999998e-07,1.0,-70.69716,1.0,1.05e-05,1.0
0.180298,1.0,1.62796e-07,1.0,-70.31268,1.0,1.07e-05,1.0
0.180634,1.0,1.62567e-07,1.0,-70.0488,1.0,1.0800000000000002e-05,1.0
0.181061,1.0,1.62613e-07,1.0,-69.97175999999999,1.0,1.04e-05,1.0
0.18145799999999998,1.0,1.627655e-07,1.0,-69.98292000000001,1.0,1.12e-05,1.0
0.181854,1.0,1.629485e-07,1.0,-70.19172,1.0,1.06e-05,1.0
0.182281,1.0,1.636505e-07,1.0,-70.43328,1.0,1.11e-05,1.0
0.182678,1.0,1.646425e-07,1.0,-70.54308,1.0,1.1e-05,1.0
0.18298299999999998,1.0,1.6590899999999998e-07,1.0,-70.4664,1.0,1.12e-05,1.0
0.18344100000000002,1.0,1.6726699999999998e-07,1.0,-70.37856,1.0,1.11e-05,1.0
0.183807,1.0,1.68579e-07,1.0,-70.27955999999999,1.0,1.11e-05,1.0
0.184174,1.0,1.6944899999999997e-07,1.0,-70.09272,1.0,1.12e-05,1.0
0.18454,1.0,1.706545e-07,1.0,-69.80724000000001,1.0,1.12e-05,1.0
0.184998,1.0,1.71417e-07,1.0,-69.5214,1.0,1.12e-05,1.0
0.185364,1.0,1.725615e-07,1.0,-69.26867999999999,1.0,1.0800000000000002e-05,1.0
0.185791,1.0,1.736605e-07,1.0,-69.01595999999999,1.0,1.13e-05,1.0
0.186218,1.0,1.747285e-07,1.0,-68.81832,1.0,1.2e-05,1.0
0.186523,1.0,1.75125e-07,1.0,-68.6754,1.0,1.1599999999999999e-05,1.0
0.186981,1.0,1.7536949999999997e-07,1.0,-68.5656,1.0,1.15e-05,1.0
0.187378,1.0,1.7604049999999997e-07,1.0,-68.59872,1.0,1.15e-05,1.0
0.187744,1.0,1.761625e-07,1.0,-68.86224000000001,1.0,1.1599999999999999e-05,1.0
0.188141,1.0,1.7671199999999997e-07,1.0,-69.21396,1.0,1.1900000000000001e-05,1.0
0.188477,1.0,1.7678849999999997e-07,1.0,-69.6312,1.0,1.1400000000000001e-05,1.0
0.188904,1.0,1.7683399999999998e-07,1.0,-69.79607999999999,1.0,1.1400000000000001e-05,1.0
0.18924000000000002,1.0,1.7726149999999998e-07,1.0,-69.96095999999999,1.0,1.1900000000000001e-05,1.0
0.189636,1.0,1.77521e-07,1.0,-70.30152000000001,1.0,1.21e-05,1.0
0.190094,1.0,1.78177e-07,1.0,-70.65324000000001,1.0,1.18e-05,1.0
0.19049100000000002,1.0,1.79062e-07,1.0,-71.00460000000001,1.0,1.22e-05,1.0
0.190887,1.0,1.796875e-07,1.0,-71.20224,1.0,1.25e-05,1.0
0.191223,1.0,1.8061849999999997e-07,1.0,-71.33435999999999,1.0,1.23e-05,1.0
0.19165,1.0,1.812285e-07,1.0,-71.433,1.0,1.22e-05,1.0
0.19201700000000002,1.0,1.82617e-07,1.0,-71.47692,1.0,1.22e-05,1.0
0.192413,1.0,1.836245e-07,1.0,-71.44416,1.0,1.25e-05,1.0
0.192841,1.0,1.8502799999999998e-07,1.0,-71.16948,1.0,1.29e-05,1.0
0.193268,1.0,1.861115e-07,1.0,-70.7958,1.0,1.28e-05,1.0
0.193634,1.0,1.871645e-07,1.0,-70.54308,1.0,1.29e-05,1.0
0.19397,1.0,1.8780499999999998e-07,1.0,-70.4664,1.0,1.24e-05,1.0
0.194427,1.0,1.88278e-07,1.0,-70.37856,1.0,1.28e-05,1.0
0.194794,1.0,1.8870549999999998e-07,1.0,-70.47720000000001,1.0,1.28e-05,1.0
0.19516,1.0,1.8872049999999997e-07,1.0,-70.70795999999999,1.0,1.31e-05,1.0
0.19555699999999998,1.0,1.889495e-07,1.0,-70.86168,1.0,1.31e-05,1.0
0.195923,1.0,1.8928549999999998e-07,1.0,-71.01576,1.0,1.31e-05,1.0
0.19635,1.0,1.8986499999999999e-07,1.0,-71.15832,1.0,1.31e-05,1.0
0.196716,1.0,1.9004799999999998e-07,1.0,-71.37827999999999,1.0,1.31e-05,1.0
0.197174,1.0,1.904755e-07,1.0,-71.56512000000001,1.0,1.29e-05,1.0
0.19754000000000002,1.0,1.911315e-07,1.0,-71.6418,1.0,1.3300000000000001e-05,1.0
0.197998,1.0,1.9213849999999998e-07,1.0,-71.72964,1.0,1.3500000000000001e-05,1.0
0.19833399999999998,1.0,1.93466e-07,1.0,-71.68572,1.0,1.3300000000000001e-05,1.0
0.198669,1.0,1.9502249999999997e-07,1.0,-71.433,1.0,1.3500000000000001e-05,1.0
0.19906600000000002,1.0,1.9630450000000002e-07,1.0,-71.15832,1.0,1.32e-05,1.0
0.199493,1.0,1.9728099999999998e-07,1.0,-70.72992,1.0,1.39e-05,1.0
0.19989,1.0,1.98715e-07,1.0,-70.3674,1.0,1.3699999999999998e-05,1.0
0.200317,1.0,1.9955449999999998e-07,1.0,-70.27955999999999,1.0,1.4099999999999999e-05,1.0
0.20059200000000002,1.0,2.0047e-07,1.0,-70.30152000000001,1.0,1.36e-05,1.0
0.201019,1.0,2.01126e-07,1.0,-70.45524,1.0,1.4099999999999999e-05,1.0
0.20144700000000001,1.0,2.0176699999999998e-07,1.0,-70.587,1.0,1.39e-05,1.0
0.20181300000000002,1.0,2.0242299999999999e-07,1.0,-70.587,1.0,1.39e-05,1.0
0.202271,1.0,2.0310949999999998e-07,1.0,-70.45524,1.0,1.4000000000000001e-05,1.0
0.20263699999999998,1.0,2.0346049999999998e-07,1.0,-70.37856,1.0,1.42e-05,1.0
0.203033,1.0,2.03781e-07,1.0,-70.42248,1.0,1.39e-05,1.0
0.203369,1.0,2.039795e-07,1.0,-70.49915999999999,1.0,1.4400000000000001e-05,1.0
0.203766,1.0,2.0434549999999998e-07,1.0,-70.70795999999999,1.0,1.47e-05,1.0
0.204163,1.0,2.0480349999999997e-07,1.0,-71.08164000000001,1.0,1.4000000000000001e-05,1.0
0.20459000000000002,1.0,2.053985e-07,1.0,-71.40024000000001,1.0,1.47e-05,1.0
0.205017,1.0,2.06558e-07,1.0,-71.69688,1.0,1.4400000000000001e-05,1.0
0.20541399999999999,1.0,2.0739749999999997e-07,1.0,-71.90567999999999,1.0,1.51e-05,1.0
0.20575,1.0,2.0825199999999998e-07,1.0,-72.03744,1.0,1.47e-05,1.0
0.206146,1.0,2.0954899999999997e-07,1.0,-72.14724000000001,1.0,1.47e-05,1.0
0.206512,1.0,2.10602e-07,1.0,-72.19116,1.0,1.4800000000000002e-05,1.0
0.20700100000000002,1.0,2.1150199999999998e-07,1.0,-72.14724000000001,1.0,1.51e-05,1.0
0.207367,1.0,2.1243299999999998e-07,1.0,-71.96039999999999,1.0,1.49e-05,1.0
0.20770300000000003,1.0,2.1310399999999997e-07,1.0,-71.66376,1.0,1.49e-05,1.0
0.20809899999999998,1.0,2.1398949999999999e-07,1.0,-71.27928,1.0,1.51e-05,1.0
0.20843499999999998,1.0,2.146455e-07,1.0,-71.07048,1.0,1.52e-05,1.0
0.208893,1.0,2.1467600000000004e-07,1.0,-70.7958,1.0,1.51e-05,1.0
0.20925900000000003,1.0,2.1510300000000002e-07,1.0,-70.70795999999999,1.0,1.52e-05,1.0
0.20971700000000001,1.0,2.1524050000000003e-07,1.0,-70.47720000000001,1.0,1.56e-05,1.0
0.210114,1.0,2.1575949999999998e-07,1.0,-70.2576,1.0,1.58e-05,1.0
0.21051,1.0,2.1614050000000002e-07,1.0,-70.12584000000001,1.0,1.55e-05,1.0
0.21087600000000004,1.0,2.1684250000000002e-07,1.0,-70.32347999999999,1.0,1.59e-05,1.0
0.211243,1.0,2.18094e-07,1.0,-70.72992,1.0,1.56e-05,1.0
0.211639,1.0,2.191925e-07,1.0,-71.12556,1.0,1.6100000000000002e-05,1.0
0.212036,1.0,2.2041299999999998e-07,1.0,-71.60904000000001,1.0,1.56e-05,1.0
0.212463,1.0,2.21527e-07,1.0,-72.03744,1.0,1.6100000000000002e-05,1.0
0.212769,1.0,2.2262549999999998e-07,1.0,-72.43272,1.0,1.58e-05,1.0
0.21325700000000003,1.0,2.239225e-07,1.0,-72.58680000000001,1.0,1.59e-05,1.0
0.21365399999999998,1.0,2.25189e-07,1.0,-72.49860000000001,1.0,1.6e-05,1.0
0.21398899999999998,1.0,2.2686750000000003e-07,1.0,-72.27900000000001,1.0,1.6e-05,1.0
0.21438600000000002,1.0,2.28134e-07,1.0,-71.90567999999999,1.0,1.6100000000000002e-05,1.0
0.214752,1.0,2.2921750000000002e-07,1.0,-71.4222,1.0,1.56e-05,1.0
0.21514899999999998,1.0,2.30057e-07,1.0,-71.09244,1.0,1.63e-05,1.0
0.21554600000000002,1.0,2.3074349999999998e-07,1.0,-70.94988,1.0,1.63e-05,1.0
0.215942,1.0,2.3112499999999997e-07,1.0,-70.8948,1.0,1.63e-05,1.0
0.21636999999999998,1.0,2.3162849999999998e-07,1.0,-70.81775999999999,1.0,1.6899999999999997e-05,1.0
0.216736,1.0,2.3184200000000002e-07,1.0,-70.64207999999999,1.0,1.7e-05,1.0
0.21716300000000002,1.0,2.3205549999999996e-07,1.0,-70.6752,1.0,1.6e-05,1.0
0.217529,1.0,2.32071e-07,1.0,-70.72992,1.0,1.67e-05,1.0
0.217957,1.0,2.32651e-07,1.0,-71.1144,1.0,1.65e-05,1.0
0.21835300000000002,1.0,2.33307e-07,1.0,-71.57592000000001,1.0,1.66e-05,1.0
0.218689,1.0,2.34131e-07,1.0,-71.88372000000001,1.0,1.6100000000000002e-05,1.0
0.219086,1.0,2.3525999999999998e-07,1.0,-71.90567999999999,1.0,1.6899999999999997e-05,1.0
0.219421,1.0,2.365415e-07,1.0,-71.89452,1.0,1.6899999999999997e-05,1.0
0.21994,1.0,2.37213e-07,1.0,-71.9496,1.0,1.73e-05,1.0
0.22027600000000003,1.0,2.3857099999999997e-07,1.0,-71.97156,1.0,1.6899999999999997e-05,1.0
0.220673,1.0,2.394255e-07,1.0,-72.11411999999999,1.0,1.6899999999999997e-05,1.0
0.22103899999999999,1.0,2.4034099999999997e-07,1.0,-72.21312,1.0,1.73e-05,1.0
0.22140500000000002,1.0,2.41226e-07,1.0,-72.24624,1.0,1.7199999999999998e-05,1.0
0.221802,1.0,2.4208049999999997e-07,1.0,-72.02628,1.0,1.7199999999999998e-05,1.0
0.22225999999999999,1.0,2.434385e-07,1.0,-71.75160000000001,1.0,1.74e-05,1.0
0.22262600000000002,1.0,2.44232e-07,1.0,-71.40024000000001,1.0,1.77e-05,1.0
0.22296100000000002,1.0,2.451325e-07,1.0,-71.03772000000001,1.0,1.74e-05,1.0
0.223419,1.0,2.4598699999999996e-07,1.0,-70.75188,1.0,1.7899999999999998e-05,1.0
0.22378499999999998,1.0,2.46765e-07,1.0,-70.47720000000001,1.0,1.76e-05,1.0
0.22421300000000002,1.0,2.47284e-07,1.0,-70.27955999999999,1.0,1.77e-05,1.0
0.224579,1.0,2.47711e-07,1.0,-70.14779999999999,1.0,1.8e-05,1.0
0.22494499999999998,1.0,2.4794000000000004e-07,1.0,-70.0488,1.0,1.8100000000000003e-05,1.0
0.225311,1.0,2.481385e-07,1.0,-70.18055999999999,1.0,1.7800000000000002e-05,1.0
0.225769,1.0,2.4874899999999997e-07,1.0,-70.44444000000001,1.0,1.83e-05,1.0
0.22610500000000003,1.0,2.4951149999999995e-07,1.0,-70.86168,1.0,1.82e-05,1.0
0.22656300000000001,1.0,2.5059499999999995e-07,1.0,-71.19144,1.0,1.87e-05,1.0
0.22699,1.0,2.514345e-07,1.0,-71.532,1.0,1.86e-05,1.0
0.227325,1.0,2.524415e-07,1.0,-71.88372000000001,1.0,1.85e-05,1.0
0.227661,1.0,2.5440999999999996e-07,1.0,-72.12527999999999,1.0,1.83e-05,1.0
0.22811900000000002,1.0,2.5608849999999997e-07,1.0,-72.17999999999999,1.0,1.85e-05,1.0
0.228516,1.0,2.576295e-07,1.0,-72.08135999999999,1.0,1.9e-05,1.0
0.228821,1.0,2.5866699999999994e-07,1.0,-71.91648,1.0,1.91e-05,1.0
0.229248,1.0,2.598115e-07,1.0,-71.71884,1.0,1.91e-05,1.0
0.229675,1.0,2.604525e-07,1.0,-71.49888,1.0,1.93e-05,1.0
0.23007199999999997,1.0,2.610015e-07,1.0,-71.33435999999999,1.0,1.91e-05,1.0
0.230408,1.0,2.6165749999999996e-07,1.0,-71.24616,1.0,1.95e-05,1.0
0.23086500000000001,1.0,2.62085e-07,1.0,-71.08164000000001,1.0,1.99e-05,1.0
0.231262,1.0,2.62741e-07,1.0,-70.97184,1.0,1.92e-05,1.0
0.231598,1.0,2.6298499999999997e-07,1.0,-70.81775999999999,1.0,1.95e-05,1.0
0.232025,1.0,2.6339699999999996e-07,1.0,-70.76304,1.0,2.02e-05,1.0
0.232422,1.0,2.63855e-07,1.0,-70.93872,1.0,1.98e-05,1.0
0.232819,1.0,2.640535e-07,1.0,-71.09244,1.0,1.99e-05,1.0
0.233215,1.0,2.6454149999999995e-07,1.0,-71.08164000000001,1.0,1.99e-05,1.0
0.233551,1.0,2.6518249999999996e-07,1.0,-71.04852,1.0,2e-05,1.0
0.233917,1.0,2.66266e-07,1.0,-71.09244,1.0,1.9699999999999998e-05,1.0
0.234344,1.0,2.6756299999999997e-07,1.0,-71.14752,1.0,2.02e-05,1.0
0.23474099999999998,1.0,2.68936e-07,1.0,-71.3124,1.0,2.0399999999999998e-05,1.0
0.235107,1.0,2.7044699999999996e-07,1.0,-71.46612,1.0,2.01e-05,1.0
0.235504,1.0,2.71988e-07,1.0,-71.60904000000001,1.0,2.01e-05,1.0
0.23590100000000003,1.0,2.7366649999999994e-07,1.0,-71.71884,1.0,1.9699999999999998e-05,1.0
0.236359,1.0,2.7475e-07,1.0,-71.71884,1.0,2.0300000000000002e-05,1.0
0.23669400000000002,1.0,2.7601599999999995e-07,1.0,-71.65296,1.0,2.0300000000000002e-05,1.0
0.23706100000000002,1.0,2.7668749999999996e-07,1.0,-71.51004,1.0,2.0300000000000002e-05,1.0
0.23745700000000003,1.0,2.77359e-07,1.0,-71.34515999999999,1.0,2.05e-05,1.0
0.23788499999999999,1.0,2.7777099999999995e-07,1.0,-71.24616,1.0,2.0600000000000003e-05,1.0
0.238281,1.0,2.7838149999999997e-07,1.0,-71.24616,1.0,2.05e-05,1.0
0.238617,1.0,2.78885e-07,1.0,-71.21340000000001,1.0,2.0600000000000003e-05,1.0
0.239075,1.0,2.79312e-07,1.0,-71.13636,1.0,2.14e-05,1.0
0.23947100000000002,1.0,2.8013599999999996e-07,1.0,-71.02655999999999,1.0,2.12e-05,1.0
0.23980700000000002,1.0,2.80609e-07,1.0,-70.87284,1.0,2.07e-05,1.0
0.240265,1.0,2.812345e-07,1.0,-70.91676,1.0,2.09e-05,1.0
0.240601,1.0,2.8215050000000004e-07,1.0,-71.24616,1.0,2.07e-05,1.0
0.241058,1.0,2.826235e-07,1.0,-71.67492000000001,1.0,2.14e-05,1.0
0.241364,1.0,2.8344749999999994e-07,1.0,-71.99352,1.0,2.12e-05,1.0
0.241821,1.0,2.84378e-07,1.0,-72.24624,1.0,2.13e-05,1.0
0.24218800000000001,1.0,2.85034e-07,1.0,-72.29016,1.0,2.17e-05,1.0
0.242554,1.0,2.86499e-07,1.0,-72.36684,1.0,2.2100000000000002e-05,1.0
0.24291999999999997,1.0,2.875975e-07,1.0,-72.35604,1.0,2.14e-05,1.0
0.24334699999999998,1.0,2.886965e-07,1.0,-72.23508000000001,1.0,2.1600000000000003e-05,1.0
0.243713,1.0,2.90146e-07,1.0,-72.13607999999999,1.0,2.2100000000000002e-05,1.0
0.24411,1.0,2.910155e-07,1.0,-72.01548,1.0,2.1899999999999997e-05,1.0
0.24450700000000003,1.0,2.921905e-07,1.0,-71.92764000000001,1.0,2.2100000000000002e-05,1.0
0.244934,1.0,2.9322800000000004e-07,1.0,-71.79552,1.0,2.2e-05,1.0
0.2453,1.0,2.9455549999999994e-07,1.0,-71.48808,1.0,2.2e-05,1.0
0.24569699999999997,1.0,2.95288e-07,1.0,-71.14752,1.0,2.22e-05,1.0
0.246063,1.0,2.9566950000000004e-07,1.0,-70.9938,1.0,2.26e-05,1.0
0.24649000000000001,1.0,2.961425e-07,1.0,-70.97184,1.0,2.24e-05,1.0
0.246887,1.0,2.961425e-07,1.0,-70.97184,1.0,2.27e-05,1.0
0.247223,1.0,2.9656999999999996e-07,1.0,-71.12556,1.0,2.23e-05,1.0
0.24768099999999998,1.0,2.970125e-07,1.0,-71.36712,1.0,2.27e-05,1.0
0.248077,1.0,2.976225e-07,1.0,-71.66376,1.0,2.26e-05,1.0
0.248444,1.0,2.9873649999999994e-07,1.0,-71.8614,1.0,2.2899999999999998e-05,1.0
0.248779,1.0,3.000795e-07,1.0,-72.02628,1.0,2.2899999999999998e-05,1.0
0.249237,1.0,3.017425e-07,1.0,-72.36684,1.0,2.2899999999999998e-05,1.0
0.249573,1.0,3.0364999999999994e-07,1.0,-72.67464000000001,1.0,2.3100000000000002e-05,1.0
0.249969,1.0,3.05649e-07,1.0,-72.87227999999999,1.0,2.3e-05,1.0
0.250366,1.0,3.0743400000000005e-07,1.0,-72.98208,1.0,2.3199999999999998e-05,1.0
0.250824,1.0,3.0862449999999993e-07,1.0,-72.96012,1.0,2.3199999999999998e-05,1.0
0.25119,1.0,3.1002800000000003e-07,1.0,-72.9054,1.0,2.3800000000000003e-05,1.0
0.251526,1.0,3.108675e-07,1.0,-72.67464000000001,1.0,2.36e-05,1.0
0.25195300000000004,1.0,3.1126399999999995e-07,1.0,-72.45468000000001,1.0,2.36e-05,1.0
0.25235,1.0,3.11737e-07,1.0,-72.30095999999999,1.0,2.4e-05,1.0
0.252716,1.0,3.1193549999999995e-07,1.0,-72.15804000000001,1.0,2.4100000000000003e-05,1.0
0.253143,1.0,3.121489999999999e-07,1.0,-71.93844,1.0,2.3899999999999998e-05,1.0
0.25351,1.0,3.12805e-07,1.0,-71.76275999999999,1.0,2.46e-05,1.0
0.253906,1.0,3.13034e-07,1.0,-71.532,1.0,2.4100000000000003e-05,1.0
0.254272,1.0,3.132935e-07,1.0,-71.40024000000001,1.0,2.42e-05,1.0
0.2547,1.0,3.13278e-07,1.0,-71.46612,1.0,2.51e-05,1.0
0.255035,1.0,3.13751e-07,1.0,-71.68572,1.0,2.48e-05,1.0
0.25549299999999997,1.0,3.145295e-07,1.0,-71.97156,1.0,2.44e-05,1.0
0.255859,1.0,3.1568899999999996e-07,1.0,-72.27900000000001,1.0,2.49e-05,1.0
0.256226,1.0,3.165895e-07,1.0,-72.52092000000002,1.0,2.49e-05,1.0
0.256683,1.0,3.1756599999999995e-07,1.0,-72.77328,1.0,2.54e-05,1.0
0.25705,1.0,3.19046e-07,1.0,-72.89424,1.0,2.5e-05,1.0
0.257446,1.0,3.206025e-07,1.0,-72.9162,1.0,2.59e-05,1.0
0.257813,1.0,3.22403e-07,1.0,-72.83952000000001,1.0,2.54e-05,1.0
0.258209,1.0,3.23776e-07,1.0,-72.81756,1.0,2.58e-05,1.0
0.25863600000000003,1.0,3.25287e-07,1.0,-72.76248,1.0,2.59e-05,1.0
0.25900300000000004,1.0,3.27011e-07,1.0,-72.49860000000001,1.0,2.58e-05,1.0
0.25943,1.0,3.28125e-07,1.0,-72.14724000000001,1.0,2.6000000000000002e-05,1.0
0.259796,1.0,3.29422e-07,1.0,-71.74080000000001,1.0,2.61e-05,1.0
0.260193,1.0,3.30002e-07,1.0,-71.45496,1.0,2.62e-05,1.0
0.26059,1.0,3.30017e-07,1.0,-71.23535999999999,1.0,2.6300000000000002e-05,1.0
0.260986,1.0,3.29605e-07,1.0,-71.21340000000001,1.0,2.6600000000000003e-05,1.0
0.261353,1.0,3.294065e-07,1.0,-71.27928,1.0,2.61e-05,1.0
0.26174899999999995,1.0,3.294065e-07,1.0,-71.433,1.0,2.61e-05,1.0
0.262177,1.0,3.29895e-07,1.0,-71.67492000000001,1.0,2.65e-05,1.0
0.262573,1.0,3.3070349999999995e-07,1.0,-71.96039999999999,1.0,2.72e-05,1.0
0.262939,1.0,3.316345e-07,1.0,-72.21312,1.0,2.68e-05,1.0
0.263336,1.0,3.32611e-07,1.0,-72.58680000000001,1.0,2.6700000000000002e-05,1.0
0.263702,1.0,3.33847e-07,1.0,-72.97128000000001,1.0,2.68e-05,1.0
0.26413000000000003,1.0,3.35205e-07,1.0,-73.19088,1.0,2.7300000000000003e-05,1.0
0.264496,1.0,3.3680749999999994e-07,1.0,-73.3446,1.0,2.7600000000000003e-05,1.0
0.264832,1.0,3.38562e-07,1.0,-73.35576,1.0,2.7300000000000003e-05,1.0
0.265259,1.0,3.398895e-07,1.0,-73.30068,1.0,2.75e-05,1.0
0.265625,1.0,3.40988e-07,1.0,-73.01520000000001,1.0,2.7300000000000003e-05,1.0
0.266022,1.0,3.4182749999999997e-07,1.0,-72.57563999999999,1.0,2.7600000000000003e-05,1.0
0.266418,1.0,3.431245e-07,1.0,-72.14724000000001,1.0,2.75e-05,1.0
0.266846,1.0,3.4417699999999997e-07,1.0,-71.81748,1.0,2.78e-05,1.0
0.267212,1.0,3.452605e-07,1.0,-71.631,1.0,2.78e-05,1.0
0.26763899999999996,1.0,3.465425e-07,1.0,-71.46612,1.0,2.8199999999999998e-05,1.0
0.268005,1.0,3.471985e-07,1.0,-71.29044,1.0,2.7899999999999997e-05,1.0
0.268402,1.0,3.4747299999999995e-07,1.0,-71.07048,1.0,2.8100000000000002e-05,1.0
0.26879899999999995,1.0,3.4736650000000003e-07,1.0,-71.00460000000001,1.0,2.8199999999999998e-05,1.0
0.269196,1.0,3.4745799999999996e-07,1.0,-71.13636,1.0,2.8300000000000003e-05,1.0
0.26956199999999997,1.0,3.4745799999999996e-07,1.0,-71.26848,1.0,2.8100000000000002e-05,1.0
0.269989,1.0,3.477175e-07,1.0,-71.46612,1.0,2.8699999999999996e-05,1.0
0.270355,1.0,3.4809899999999997e-07,1.0,-71.71884,1.0,2.8800000000000002e-05,1.0
0.270782,1.0,3.487855e-07,1.0,-71.92764000000001,1.0,2.8999999999999997e-05,1.0
0.271149,1.0,3.4977699999999997e-07,1.0,-72.30095999999999,1.0,2.8999999999999997e-05,1.0
0.271484,1.0,3.509675e-07,1.0,-72.70739999999999,1.0,2.8899999999999998e-05,1.0
0.271881,1.0,3.528135e-07,1.0,-72.99324,1.0,2.8999999999999997e-05,1.0
0.272278,1.0,3.5467550000000003e-07,1.0,-73.13615999999999,1.0,2.8899999999999998e-05,1.0
0.272675,1.0,3.56888e-07,1.0,-73.13615999999999,1.0,2.97e-05,1.0
0.273071,1.0,3.5858149999999996e-07,1.0,-73.03716,1.0,2.97e-05,1.0
0.273499,1.0,3.605955e-07,1.0,-72.87227999999999,1.0,2.9299999999999997e-05,1.0
0.273895,1.0,3.6184699999999994e-07,1.0,-72.61956,1.0,3.02e-05,1.0
0.274292,1.0,3.627775e-07,1.0,-72.46584,1.0,2.9999999999999997e-05,1.0
0.274658,1.0,3.637545e-07,1.0,-72.34488,1.0,2.97e-05,1.0
0.27508499999999997,1.0,3.6422749999999996e-07,1.0,-72.30095999999999,1.0,2.99e-05,1.0
0.275452,1.0,3.65036e-07,1.0,-72.05940000000001,1.0,2.98e-05,1.0
0.275879,1.0,3.6570749999999994e-07,1.0,-71.90567999999999,1.0,3.0299999999999998e-05,1.0
0.276215,1.0,3.6611950000000004e-07,1.0,-71.77356,1.0,3.05e-05,1.0
0.276581,1.0,3.6656199999999997e-07,1.0,-71.67492000000001,1.0,3.05e-05,1.0
0.277039,1.0,3.6737049999999995e-07,1.0,-71.71884,1.0,3.05e-05,1.0
0.27737399999999995,1.0,3.681185e-07,1.0,-71.8614,1.0,3.07e-05,1.0
0.277832,1.0,3.6872849999999995e-07,1.0,-72.0702,1.0,3.12e-05,1.0
0.27813699999999997,1.0,3.694e-07,1.0,-72.34488,1.0,3.0799999999999996e-05,1.0
0.278595,1.0,3.704985e-07,1.0,-72.45468000000001,1.0,3.13e-05,1.0
0.278992,1.0,3.7155149999999995e-07,1.0,-72.5976,1.0,3.12e-05,1.0
0.279358,1.0,3.728025e-07,1.0,-72.56484,1.0,3.14e-05,1.0
0.279785,1.0,3.74008e-07,1.0,-72.57563999999999,1.0,3.13e-05,1.0
0.28015100000000004,1.0,3.7521350000000003e-07,1.0,-72.50976,1.0,3.2e-05,1.0
0.280548,1.0,3.76587e-07,1.0,-72.53171999999999,1.0,3.17e-05,1.0
0.280945,1.0,3.775025e-07,1.0,-72.44388000000001,1.0,3.2e-05,1.0
0.28137199999999996,1.0,3.782655e-07,1.0,-72.44388000000001,1.0,3.2e-05,1.0
0.281677,1.0,3.790285e-07,1.0,-72.30095999999999,1.0,3.2200000000000003e-05,1.0
0.282104,1.0,3.79944e-07,1.0,-72.12527999999999,1.0,3.26e-05,1.0
0.282471,1.0,3.80554e-07,1.0,-71.97156,1.0,3.229999999999999e-05,1.0
0.282898,1.0,3.80707e-07,1.0,-71.92764000000001,1.0,3.2e-05,1.0
0.28329499999999996,1.0,3.80554e-07,1.0,-71.72964,1.0,3.26e-05,1.0
0.283722,1.0,3.800965e-07,1.0,-71.631,1.0,3.2500000000000004e-05,1.0
0.284088,1.0,3.7963850000000004e-07,1.0,-71.57592000000001,1.0,3.289999999999999e-05,1.0
0.28442399999999995,1.0,3.7918099999999996e-07,1.0,-71.76275999999999,1.0,3.26e-05,1.0
0.284821,1.0,3.7872299999999997e-07,1.0,-71.97156,1.0,3.289999999999999e-05,1.0
0.285248,1.0,3.7918099999999996e-07,1.0,-72.27900000000001,1.0,3.27e-05,1.0
0.285675,1.0,3.8101199999999994e-07,1.0,-72.58680000000001,1.0,3.3299999999999996e-05,1.0
0.286072,1.0,3.83148e-07,1.0,-72.9162,1.0,3.3600000000000004e-05,1.0
0.286438,1.0,3.8558949999999993e-07,1.0,-72.97128000000001,1.0,3.37e-05,1.0
0.286835,1.0,3.87726e-07,1.0,-72.89424,1.0,3.3799999999999995e-05,1.0
0.287231,1.0,3.8940449999999995e-07,1.0,-72.77328,1.0,3.35e-05,1.0
0.287598,1.0,3.91083e-07,1.0,-72.69660000000002,1.0,3.41e-05,1.0
0.287994,1.0,3.9306649999999997e-07,1.0,-72.54288,1.0,3.4399999999999996e-05,1.0
0.28836100000000003,1.0,3.93982e-07,1.0,-72.42192,1.0,3.4200000000000005e-05,1.0
0.28875700000000004,1.0,3.945925e-07,1.0,-72.29016,1.0,3.37e-05,1.0
0.289124,1.0,3.952025e-07,1.0,-72.08135999999999,1.0,3.45e-05,1.0
0.289551,1.0,3.956605e-07,1.0,-71.81748,1.0,3.43e-05,1.0
0.289978,1.0,3.9505e-07,1.0,-71.49888,1.0,3.45e-05,1.0
0.290344,1.0,3.952025e-07,1.0,-71.13636,1.0,3.52e-05,1.0
0.29070999999999997,1.0,3.956605e-07,1.0,-70.97184,1.0,3.47e-05,1.0
0.291077,1.0,3.9550799999999997e-07,1.0,-70.9938,1.0,3.54e-05,1.0
0.291534,1.0,3.95355e-07,1.0,-71.1144,1.0,3.5e-05,1.0
0.291901,1.0,3.9550799999999997e-07,1.0,-71.40024000000001,1.0,3.5600000000000005e-05,1.0
0.292267,1.0,3.9627099999999996e-07,1.0,-71.80668,1.0,3.54e-05,1.0
0.292633,1.0,3.9688099999999997e-07,1.0,-72.12527999999999,1.0,3.59e-05,1.0
0.29306,1.0,3.977965e-07,1.0,-72.32292000000001,1.0,3.59e-05,1.0
0.293457,1.0,3.98712e-07,1.0,-72.43272,1.0,3.6e-05,1.0
0.29388400000000003,1.0,4.0008549999999996e-07,1.0,-72.49860000000001,1.0,3.63e-05,1.0
0.29422,1.0,4.0115349999999995e-07,1.0,-72.63072000000001,1.0,3.6200000000000006e-05,1.0
0.294617,1.0,4.0389999999999996e-07,1.0,-72.71856,1.0,3.63e-05,1.0
0.295013,1.0,4.05426e-07,1.0,-72.79524,1.0,3.6700000000000004e-05,1.0
0.295441,1.0,4.066465e-07,1.0,-72.88344,1.0,3.68e-05,1.0
