Potential,potstdev,Photocurrent (nA),pcstdev,Phase (°),phstdev,DC Current (µA),dcCurrstdev
-0.116882,1.0,5.38175e-09,1.0,-182.13119999999998,1.0,-4.3700000000000005e-05,1.0
-0.11666900000000001,1.0,1.4184549999999998e-08,1.0,-186.1632,1.0,-4.34e-05,1.0
-0.116302,1.0,2.3448199999999997e-08,1.0,-179.74728,1.0,-4.270000000000001e-05,1.0
-0.115906,1.0,2.5787349999999997e-08,1.0,-167.65127999999999,1.0,-4.210000000000001e-05,1.0
-0.115601,1.0,1.938325e-08,1.0,-129.35304000000002,1.0,-4.18e-05,1.0
-0.115204,1.0,1.602175e-08,1.0,-50.394239999999996,1.0,-4.11e-05,1.0
-0.114777,1.0,2.0459e-08,1.0,11.00502,1.0,-4.07e-05,1.0
-0.11438,1.0,2.6168799999999997e-08,1.0,29.860847999999997,1.0,-4.03e-05,1.0
-0.114014,1.0,3.4072900000000005e-08,1.0,21.237659999999998,1.0,-3.9899999999999994e-05,1.0
-0.11361700000000001,1.0,4.6035749999999996e-08,1.0,5.510736,1.0,-3.9500000000000005e-05,1.0
-0.11319000000000001,1.0,5.7312e-08,1.0,-0.38671920000000004,1.0,-3.9e-05,1.0
-0.112793,1.0,6.306449999999999e-08,1.0,4.6153439999999994,1.0,-3.86e-05,1.0
-0.11245699999999999,1.0,6.12945e-08,1.0,17.661636,1.0,-3.8299999999999996e-05,1.0
-0.11199999999999999,1.0,5.416849999999999e-08,1.0,34.727796000000005,1.0,-3.79e-05,1.0
-0.111603,1.0,4.38843e-08,1.0,50.64696,1.0,-3.75e-05,1.0
-0.111267,1.0,3.222655e-08,1.0,62.501400000000004,1.0,-3.71e-05,1.0
-0.11084000000000001,1.0,2.14264e-08,1.0,65.23668,1.0,-3.68e-05,1.0
-0.11041300000000001,1.0,1.4186099999999998e-08,1.0,53.61336,1.0,-3.63e-05,1.0
-0.110046,1.0,1.0380549999999998e-08,1.0,31.190184,1.0,-3.6099999999999997e-05,1.0
-0.10968,1.0,8.787549999999998e-09,1.0,10.118412000000001,1.0,-3.59e-05,1.0
-0.109253,1.0,8.31605e-09,1.0,-0.38540159999999996,1.0,-3.5499999999999996e-05,1.0
-0.108856,1.0,7.441699999999999e-09,1.0,-0.3899052,1.0,-3.5e-05,1.0
-0.108521,1.0,6.8039e-09,1.0,13.478039999999998,1.0,-3.48e-05,1.0
-0.10809300000000001,1.0,6.18745e-09,1.0,49.15296000000001,1.0,-3.4399999999999996e-05,1.0
-0.107697,1.0,7.699600000000001e-09,1.0,98.69004,1.0,-3.3799999999999995e-05,1.0
-0.10733,1.0,1.0525499999999999e-08,1.0,137.09844,1.0,-3.35e-05,1.0
-0.106903,1.0,1.181185e-08,1.0,165.33324000000002,1.0,-3.3e-05,1.0
-0.106476,1.0,1.04965e-08,1.0,189.01979999999998,1.0,-3.26e-05,1.0
-0.10614000000000001,1.0,6.6009500000000005e-09,1.0,204.65315999999999,1.0,-3.24e-05,1.0
-0.105743,1.0,1.1291500000000002e-09,1.0,193.50215999999998,1.0,-3.21e-05,1.0
-0.105377,1.0,-2.55127e-09,1.0,65.4786,1.0,-3.229999999999999e-05,1.0
-0.10491900000000001,1.0,1.36719e-09,1.0,-19.326060000000002,1.0,-3.2200000000000003e-05,1.0
-0.104584,1.0,4.79126e-09,1.0,-22.320936000000003,1.0,-3.19e-05,1.0
-0.104126,1.0,6.6314499999999995e-09,1.0,-8.130996,1.0,-3.16e-05,1.0
-0.103729,1.0,7.10755e-09,1.0,13.126464000000002,1.0,-3.13e-05,1.0
-0.103424,1.0,6.7810000000000005e-09,1.0,35.485848,1.0,-3.1e-05,1.0
-0.102997,1.0,5.6717e-09,1.0,60.51275999999999,1.0,-3.07e-05,1.0
-0.102631,1.0,4.14734e-09,1.0,80.16731999999999,1.0,-3.0299999999999998e-05,1.0
-0.102173,1.0,2.211e-09,1.0,89.59356,1.0,-2.98e-05,1.0
-0.101837,1.0,-1.8157949999999998e-10,1.0,75.34440000000001,1.0,-2.98e-05,1.0
-0.101379,1.0,-1.971435e-09,1.0,9.535032,1.0,-2.99e-05,1.0
-0.100983,1.0,-8.361799999999999e-10,1.0,-74.16864000000001,1.0,-2.95e-05,1.0
-0.100647,1.0,2.435305e-09,1.0,-95.38344,1.0,-2.94e-05,1.0
-0.100189,1.0,5.697649999999999e-09,1.0,-86.84675999999999,1.0,-2.9199999999999998e-05,1.0
-0.099823,1.0,8.291649999999998e-09,1.0,-70.3674,1.0,-2.8800000000000002e-05,1.0
-0.09942630000000001,1.0,1.0304250000000001e-08,1.0,-47.10924,1.0,-2.8699999999999996e-05,1.0
-0.09906010000000001,1.0,1.0932899999999999e-08,1.0,-24.588504,1.0,-2.8499999999999998e-05,1.0
-0.0986938,1.0,1.047365e-08,1.0,-0.3900132,1.0,-2.84e-05,1.0
-0.0983276,1.0,9.19495e-09,1.0,23.010876,1.0,-2.8100000000000002e-05,1.0
-0.0979309,1.0,6.761149999999999e-09,1.0,43.1982,1.0,-2.78e-05,1.0
-0.0975342,1.0,3.44391e-09,1.0,57.29364,1.0,-2.7300000000000003e-05,1.0
-0.0971069,1.0,-4.699705e-10,1.0,39.84732,1.0,-2.72e-05,1.0
-0.0967102,1.0,-1.9210799999999997e-09,1.0,-69.17004,1.0,-2.71e-05,1.0
-0.0963135,1.0,1.55487e-09,1.0,-123.78311999999998,1.0,-2.7000000000000002e-05,1.0
-0.09588619999999999,1.0,5.90975e-09,1.0,-122.13504,1.0,-2.65e-05,1.0
-0.0954895,1.0,9.570299999999999e-09,1.0,-107.09459999999999,1.0,-2.6600000000000003e-05,1.0
-0.0950928,1.0,1.1938500000000001e-08,1.0,-86.6052,1.0,-2.61e-05,1.0
-0.094696,1.0,1.3053899999999999e-08,1.0,-64.50084000000001,1.0,-2.58e-05,1.0
-0.0943298,1.0,1.2805200000000002e-08,1.0,-38.88072,1.0,-2.57e-05,1.0
-0.0939026,1.0,1.2208549999999999e-08,1.0,-12.142080000000002,1.0,-2.55e-05,1.0
-0.0935974,1.0,1.0231e-08,1.0,12.827628,1.0,-2.54e-05,1.0
-0.0931702,1.0,7.340999999999999e-09,1.0,35.233164,1.0,-2.48e-05,1.0
-0.0928345,1.0,3.749085e-09,1.0,51.82236,1.0,-2.48e-05,1.0
-0.0924072,1.0,1.985e-11,1.0,54.217439999999996,1.0,-2.45e-05,1.0
-0.0920105,1.0,-2.9815649999999997e-09,1.0,-7.135631999999999,1.0,-2.45e-05,1.0
-0.0915833,1.0,-1.768495e-09,1.0,-127.27655999999999,1.0,-2.44e-05,1.0
-0.09121699999999999,1.0,1.779175e-09,1.0,-141.08652,1.0,-2.4299999999999998e-05,1.0
-0.09085080000000001,1.0,4.803464999999999e-09,1.0,-119.10275999999999,1.0,-2.4e-05,1.0
-0.0904236,1.0,7.029699999999999e-09,1.0,-90.38448,1.0,-2.37e-05,1.0
-0.0900574,1.0,8.29775e-09,1.0,-60.23807999999999,1.0,-2.35e-05,1.0
-0.08966060000000001,1.0,8.5434e-09,1.0,-27.191160000000004,1.0,-2.33e-05,1.0
-0.08923339999999999,1.0,8.31605e-09,1.0,9.035172,1.0,-2.3e-05,1.0
-0.08883669999999999,1.0,7.59585e-09,1.0,41.35248,1.0,-2.2899999999999998e-05,1.0
-0.08843989999999999,1.0,6.40565e-09,1.0,67.24728,1.0,-2.2800000000000002e-05,1.0
-0.0881042,1.0,3.894045e-09,1.0,86.85792000000001,1.0,-2.22e-05,1.0
-0.087677,1.0,5.783099999999999e-10,1.0,94.67999999999999,1.0,-2.22e-05,1.0
-0.0872803,1.0,-2.545165e-09,1.0,55.3932,1.0,-2.22e-05,1.0
-0.086853,1.0,-2.4429299999999995e-09,1.0,-66.20364000000001,1.0,-2.2100000000000002e-05,1.0
-0.0865784,1.0,2.334595e-10,1.0,-79.20035999999999,1.0,-2.18e-05,1.0
-0.0860901,1.0,2.66571e-09,1.0,-61.58952000000001,1.0,-2.1600000000000003e-05,1.0
-0.08572389999999999,1.0,4.803464999999999e-09,1.0,-33.244632,1.0,-2.15e-05,1.0
-0.0852966,1.0,6.346149999999999e-09,1.0,-6.68736,1.0,-2.11e-05,1.0
-0.0849304,1.0,7.0328e-09,1.0,17.096939999999996,1.0,-2.1e-05,1.0
-0.0845947,1.0,6.5262e-09,1.0,40.880160000000004,1.0,-2.09e-05,1.0
-0.08416749999999999,1.0,5.0659e-09,1.0,66.99456,1.0,-2.07e-05,1.0
-0.0838623,1.0,3.2592749999999996e-09,1.0,92.61467999999999,1.0,-2.0300000000000002e-05,1.0
-0.08328250000000001,1.0,8.316049999999999e-10,1.0,116.18028,1.0,-2e-05,1.0
-0.0829773,1.0,-1.93634e-09,1.0,135.099,1.0,-1.9699999999999998e-05,1.0
-0.0825806,1.0,-4.71344e-09,1.0,126.45251999999998,1.0,-1.95e-05,1.0
-0.0821838,1.0,-3.840635e-09,1.0,-97.13016,1.0,-2.01e-05,1.0
-0.08178710000000002,1.0,-1.2146e-09,1.0,-84.375,1.0,-1.98e-05,1.0
-0.0813599,1.0,1.1276249999999998e-09,1.0,-67.01652,1.0,-1.95e-05,1.0
-0.0809937,1.0,3.518675e-09,1.0,-44.395920000000004,1.0,-1.95e-05,1.0
-0.08062739999999999,1.0,5.4886e-09,1.0,-17.648424,1.0,-1.9399999999999997e-05,1.0
-0.0802002,1.0,6.155399999999999e-09,1.0,6.045768000000001,1.0,-1.91e-05,1.0
-0.0798645,1.0,5.923449999999999e-09,1.0,29.234627999999997,1.0,-1.9e-05,1.0
-0.0794373,1.0,5.48705e-09,1.0,49.71312,1.0,-1.9e-05,1.0
-0.0790405,1.0,4.7836299999999995e-09,1.0,63.973440000000004,1.0,-1.86e-05,1.0
-0.0787048,1.0,3.77655e-09,1.0,72.0702,1.0,-1.83e-05,1.0
-0.0782776,1.0,1.9775399999999998e-09,1.0,72.378,1.0,-1.83e-05,1.0
-0.07785030000000001,1.0,2.12097e-10,1.0,51.35004,1.0,-1.82e-05,1.0
-0.07745360000000001,1.0,-6.4087e-11,1.0,3.094848,1.0,-1.8e-05,1.0
-0.07708739999999999,1.0,1.08795e-09,1.0,-30.421152,1.0,-1.8100000000000003e-05,1.0
-0.07669069999999999,1.0,3.0288699999999997e-09,1.0,-40.001400000000004,1.0,-1.77e-05,1.0
-0.07623289999999999,1.0,4.18091e-09,1.0,-39.04523999999999,1.0,-1.77e-05,1.0
-0.0758667,1.0,5.316149999999999e-09,1.0,-33.958727999999994,1.0,-1.74e-05,1.0
-0.0755005,1.0,5.5176e-09,1.0,-26.025516,1.0,-1.74e-05,1.0
-0.0751038,1.0,5.2902e-09,1.0,-17.908812,1.0,-1.7199999999999998e-05,1.0
-0.07467649999999999,1.0,4.33197e-09,1.0,-11.640024,1.0,-1.7e-05,1.0
-0.0743408,1.0,3.211975e-09,1.0,-8.86158,1.0,-1.7e-05,1.0
-0.07397460000000002,1.0,1.78375e-09,1.0,-10.574352000000001,1.0,-1.66e-05,1.0
-0.0735779,1.0,4.1809099999999996e-10,1.0,-18.360360000000004,1.0,-1.6800000000000002e-05,1.0
-0.07315060000000001,1.0,3.9649999999999994e-11,1.0,-26.906616000000003,1.0,-1.64e-05,1.0
-0.0727539,1.0,1.51062e-10,1.0,-28.476576,1.0,-1.65e-05,1.0
-0.0723572,1.0,1.2863149999999998e-09,1.0,-29.761955999999998,1.0,-1.62e-05,1.0
-0.0719604,1.0,2.6382449999999997e-09,1.0,-23.025132,1.0,-1.6e-05,1.0
-0.0715637,1.0,4.05884e-09,1.0,-15.8445,1.0,-1.58e-05,1.0
-0.071167,1.0,5.508399999999999e-09,1.0,-5.51844,1.0,-1.58e-05,1.0
-0.0707703,1.0,5.870050000000001e-09,1.0,6.134759999999999,1.0,-1.56e-05,1.0
-0.0703735,1.0,6.080649999999999e-09,1.0,15.880751999999998,1.0,-1.53e-05,1.0
-0.0700073,1.0,5.6701499999999995e-09,1.0,21.26952,1.0,-1.5399999999999998e-05,1.0
-0.06964110000000001,1.0,4.774475e-09,1.0,21.177251999999996,1.0,-1.51e-05,1.0
-0.0692139,1.0,3.913879999999999e-09,1.0,15.63246,1.0,-1.4999999999999999e-05,1.0
-0.0688171,1.0,3.02124e-09,1.0,10.270008,1.0,-1.4800000000000002e-05,1.0
-0.0684509,1.0,3.056335e-09,1.0,1.7689104,1.0,-1.4499999999999998e-05,1.0
-0.0680542,1.0,3.4469600000000003e-09,1.0,-0.39078359999999995,1.0,-1.4300000000000002e-05,1.0
-0.06765750000000001,1.0,4.351805e-09,1.0,-4.14954,1.0,-1.4300000000000002e-05,1.0
-0.0671997,1.0,5.49925e-09,1.0,-7.2279,1.0,-1.42e-05,1.0
-0.06689450000000001,1.0,6.1203e-09,1.0,-9.937116,1.0,-1.4400000000000001e-05,1.0
-0.0664368,1.0,6.777949999999999e-09,1.0,-9.528444,1.0,-1.4000000000000001e-05,1.0
-0.06610110000000001,1.0,6.98395e-09,1.0,-7.920036000000001,1.0,-1.36e-05,1.0
-0.0656738,1.0,6.802349999999999e-09,1.0,-6.50502,1.0,-1.36e-05,1.0
-0.06527709999999999,1.0,6.15995e-09,1.0,-3.6189,1.0,-1.3699999999999998e-05,1.0
-0.06488039999999999,1.0,4.821775e-09,1.0,-2.189574,1.0,-1.34e-05,1.0
-0.0645142,1.0,3.900144999999999e-09,1.0,-6.2105760000000005,1.0,-1.34e-05,1.0
-0.0640564,1.0,3.5827649999999997e-09,1.0,-12.624372000000001,1.0,-1.3300000000000001e-05,1.0
-0.06369019999999999,1.0,3.78418e-09,1.0,-20.648807999999995,1.0,-1.3000000000000001e-05,1.0
-0.06329349999999999,1.0,3.788755e-09,1.0,-24.585192,1.0,-1.29e-05,1.0
-0.0628967,1.0,4.1824349999999995e-09,1.0,-23.388804,1.0,-1.29e-05,1.0
-0.06253049999999999,1.0,5.1224e-09,1.0,-19.911636,1.0,-1.27e-05,1.0
-0.06213380000000001,1.0,5.73885e-09,1.0,-15.478632000000001,1.0,-1.26e-05,1.0
-0.0617981,1.0,5.9280500000000004e-09,1.0,-11.828988,1.0,-1.27e-05,1.0
-0.06137080000000001,1.0,5.9601e-09,1.0,-5.294304,1.0,-1.25e-05,1.0
-0.06100459999999999,1.0,5.6473e-09,1.0,-2.0566404,1.0,-1.21e-05,1.0
-0.0606384,1.0,5.48705e-09,1.0,-2.1148668000000006,1.0,-1.21e-05,1.0
-0.0602112,1.0,4.84619e-09,1.0,-2.2192380000000003,1.0,-1.1900000000000001e-05,1.0
-0.0598145,1.0,3.88794e-09,1.0,-2.5378416,1.0,-1.2e-05,1.0
-0.0594788,1.0,3.915405e-09,1.0,-4.3506,1.0,-1.1599999999999999e-05,1.0
-0.059021000000000004,1.0,4.13666e-09,1.0,-2.314818,1.0,-1.17e-05,1.0
-0.05868530000000001,1.0,4.473875e-09,1.0,-2.2532976,1.0,-1.15e-05,1.0
-0.058288599999999996,1.0,5.3116000000000006e-09,1.0,1.3570308,1.0,-1.1599999999999999e-05,1.0
-0.0578918,1.0,6.14015e-09,1.0,2.8366703999999996,1.0,-1.13e-05,1.0
-0.057525599999999996,1.0,6.567399999999999e-09,1.0,7.352064,1.0,-1.13e-05,1.0
-0.0570679,1.0,6.987e-09,1.0,11.638908,1.0,-1.12e-05,1.0
-0.0567322,1.0,7.1777499999999995e-09,1.0,14.427252000000001,1.0,-1.1e-05,1.0
-0.0562439,1.0,6.98395e-09,1.0,11.467512,1.0,-1.1e-05,1.0
-0.055969200000000004,1.0,7.21435e-09,1.0,5.469012,1.0,-1.0800000000000002e-05,1.0
-0.055541999999999994,1.0,7.199099999999999e-09,1.0,1.0750140000000001,1.0,-1.04e-05,1.0
-0.055114699999999996,1.0,7.43865e-09,1.0,-3.3057863999999997,1.0,-1.0300000000000001e-05,1.0
-0.0546875,1.0,7.6767e-09,1.0,-6.129288,1.0,-1.04e-05,1.0
-0.054351800000000006,1.0,7.6477e-09,1.0,-7.4640960000000005,1.0,-1.0199999999999999e-05,1.0
-0.053924599999999996,1.0,7.43255e-09,1.0,-9.0747,1.0,-1.01e-05,1.0
-0.0535278,1.0,7.028199999999999e-09,1.0,-12.260736000000001,1.0,-9.91e-06,1.0
-0.053161599999999996,1.0,7.16555e-09,1.0,-15.199595999999996,1.0,-1e-05,1.0
-0.05273440000000001,1.0,7.1869000000000005e-09,1.0,-15.19848,1.0,-9.88e-06,1.0
-0.0523987,1.0,7.6477e-09,1.0,-13.391244,1.0,-9.76e-06,1.0
-0.052002,1.0,7.6248e-09,1.0,-10.418327999999999,1.0,-9.51e-06,1.0
-0.0516357,1.0,7.608049999999999e-09,1.0,-7.545419999999998,1.0,-9.63e-06,1.0
-0.051208500000000004,1.0,7.64465e-09,1.0,-7.542108000000001,1.0,-9.42e-06,1.0
-0.0508728,1.0,7.44475e-09,1.0,-10.5381,1.0,-9.31e-06,1.0
-0.05044559999999999,1.0,7.41425e-09,1.0,-16.465212,1.0,-9.36e-06,1.0
-0.0500183,1.0,7.2250499999999996e-09,1.0,-19.567763999999997,1.0,-9.34e-06,1.0
-0.049649,1.0,7.247899999999999e-09,1.0,-18.120852,1.0,-9.2e-06,1.0
-0.049255400000000005,1.0,7.2250499999999996e-09,1.0,-16.664076,1.0,-9.09e-06,1.0
-0.0488464,1.0,7.59735e-09,1.0,-14.894172000000003,1.0,-8.78e-06,1.0
-0.048443599999999996,1.0,7.64465e-09,1.0,-13.236336,1.0,-8.61e-06,1.0
-0.0480804,1.0,7.6355e-09,1.0,-10.417247999999997,1.0,-8.66e-06,1.0
-0.04768680000000001,1.0,7.61565e-09,1.0,-7.541028,1.0,-8.67e-06,1.0
-0.04729,1.0,7.91475e-09,1.0,-5.976576,1.0,-8.33e-06,1.0
-0.0468903,1.0,8.287049999999998e-09,1.0,-4.498884,1.0,-8.26e-06,1.0
-0.0465057,1.0,8.256549999999998e-09,1.0,-5.790888000000001,1.0,-8.36e-06,1.0
-0.0460907,1.0,8.325200000000001e-09,1.0,-7.135631999999999,1.0,-8.19e-06,1.0
-0.0457001,1.0,8.56935e-09,1.0,-11.029176,1.0,-8.18e-06,1.0
-0.045333899999999996,1.0,9.234600000000001e-09,1.0,-13.920768,1.0,-8.11e-06,1.0
-0.0449219,1.0,9.2972e-09,1.0,-18.291131999999998,1.0,-7.84e-06,1.0
-0.0445343,1.0,9.4467e-09,1.0,-19.329336,1.0,-7.86e-06,1.0
-0.0441772,1.0,9.62065e-09,1.0,-16.74864,1.0,-7.74e-06,1.0
-0.0437836,1.0,9.59475e-09,1.0,-12.944087999999999,1.0,-7.53e-06,1.0
-0.043380699999999994,1.0,9.14915e-09,1.0,-9.277956,1.0,-7.74e-06,1.0
-0.0430023,1.0,9.245299999999999e-09,1.0,-6.755507999999999,1.0,-7.44e-06,1.0
-0.0426086,1.0,9.2041e-09,1.0,-4.25502,1.0,-7.51e-06,1.0
-0.0422028,1.0,8.987450000000001e-09,1.0,-4.305528,1.0,-7.31e-06,1.0
-0.0418365,1.0,8.831799999999998e-09,1.0,-5.6645639999999995,1.0,-7.46e-06,1.0
-0.0414337,1.0,8.930950000000001e-09,1.0,-6.901596,1.0,-7.2e-06,1.0
-0.0410431,1.0,9.2407e-09,1.0,-5.541516,1.0,-7.24e-06,1.0
-0.040625,1.0,9.8694e-09,1.0,-6.56982,1.0,-6.98e-06,1.0
-0.0402466,1.0,1.0125749999999999e-08,1.0,-7.619003999999999,1.0,-6.98e-06,1.0
-0.0398499,1.0,1.0594200000000001e-08,1.0,-9.839340000000002,1.0,-6.6e-06,1.0
-0.0394867,1.0,1.07193e-08,1.0,-13.202279999999998,1.0,-6.93e-06,1.0
-0.0390747,1.0,1.098785e-08,1.0,-14.222916000000001,1.0,-6.66e-06,1.0
-0.0386688,1.0,1.1199950000000002e-08,1.0,-15.216048,1.0,-6.52e-06,1.0
-0.0382843,1.0,1.1167899999999999e-08,1.0,-16.338851999999996,1.0,-6.69e-06,1.0
-0.0378906,1.0,1.1167899999999999e-08,1.0,-18.585576,1.0,-6.48e-06,1.0
-0.0375244,1.0,1.1132799999999997e-08,1.0,-21.026736000000003,1.0,-6.55e-06,1.0
-0.0371185,1.0,1.113585e-08,1.0,-21.02454,1.0,-6.23e-06,1.0
-0.0367188,1.0,1.072695e-08,1.0,-20.079720000000002,1.0,-6e-06,1.0
-0.0363281,1.0,1.0507199999999999e-08,1.0,-18.172476,1.0,-6.12e-06,1.0
-0.0359344,1.0,9.91365e-09,1.0,-15.087527999999997,1.0,-6.15e-06,1.0
-0.035507199999999996,1.0,9.87395e-09,1.0,-12.797963999999999,1.0,-5.89e-06,1.0
-0.0351563,1.0,9.4055e-09,1.0,-10.450188,1.0,-5.79e-06,1.0
-0.0347382,1.0,9.393299999999998e-09,1.0,-10.447992,1.0,-5.81e-06,1.0
-0.034362800000000006,1.0,9.201049999999999e-09,1.0,-9.384516,1.0,-5.6e-06,1.0
-0.0339905,1.0,8.76925e-09,1.0,-9.587772,1.0,-5.74e-06,1.0
-0.033578500000000004,1.0,8.9752e-09,1.0,-9.480096,1.0,-5.58e-06,1.0
-0.033197000000000004,1.0,9.18425e-09,1.0,-8.115587999999999,1.0,-5.42e-06,1.0
-0.0327972,1.0,9.391799999999998e-09,1.0,-6.684084,1.0,-5.41e-06,1.0
-0.0324066,1.0,9.90295e-09,1.0,-5.261364,1.0,-5.29e-06,1.0
-0.0320007,1.0,1.0552999999999999e-08,1.0,-3.928716,1.0,-5.27e-06,1.0
-0.0316223,1.0,1.0935950000000002e-08,1.0,-2.687256,1.0,-5.26e-06,1.0
-0.0312286,1.0,1.1383049999999998e-08,1.0,-1.4975460000000003,1.0,-5.15e-06,1.0
-0.0308289,1.0,1.174165e-08,1.0,-0.3912227999999999,1.0,-4.97e-06,1.0
-0.0304474,1.0,1.19858e-08,1.0,0.6900515999999999,1.0,-4.75e-06,1.0
-0.0300598,1.0,1.221465e-08,1.0,-0.39100320000000005,1.0,-4.94e-06,1.0
-0.029663099999999998,1.0,1.259005e-08,1.0,-0.3961656,1.0,-4.7e-06,1.0
-0.0292633,1.0,1.3024899999999999e-08,1.0,-0.39177360000000006,1.0,-4.63e-06,1.0
-0.0288788,1.0,1.35086e-08,1.0,-1.3779036,1.0,-4.5e-06,1.0
-0.0285065,1.0,1.388245e-08,1.0,-3.3079823999999993,1.0,-4.39e-06,1.0
-0.0280914,1.0,1.440275e-08,1.0,-5.1240239999999995,1.0,-4.46e-06,1.0
-0.027691700000000003,1.0,1.4785749999999997e-08,1.0,-5.977656,1.0,-4.38e-06,1.0
-0.027310200000000003,1.0,1.5223699999999998e-08,1.0,-7.65198,1.0,-4.16e-06,1.0
-0.026916500000000003,1.0,1.5843200000000003e-08,1.0,-8.316647999999999,1.0,-4.22e-06,1.0
-0.026553300000000002,1.0,1.633455e-08,1.0,-9.001116,1.0,-4.25e-06,1.0
-0.0261444,1.0,1.670225e-08,1.0,-8.86158,1.0,-4.05e-06,1.0
-0.025744599999999996,1.0,1.6978450000000003e-08,1.0,-8.791272000000001,1.0,-4.16e-06,1.0
-0.0253418,1.0,1.6275000000000002e-08,1.0,-8.992296,1.0,-4.05e-06,1.0
-0.024966400000000003,1.0,1.5683000000000002e-08,1.0,-8.383680000000002,1.0,-3.98e-06,1.0
-0.0245575,1.0,1.502535e-08,1.0,-7.772831999999999,1.0,-3.69e-06,1.0
-0.0241608,1.0,1.41571e-08,1.0,-7.1301239999999995,1.0,-3.66e-06,1.0
-0.0237823,1.0,1.3459799999999999e-08,1.0,-8.28918,1.0,-3.76e-06,1.0
-0.023376499999999998,1.0,1.322175e-08,1.0,-10.445796,1.0,-3.57e-06,1.0
-0.0229889,1.0,1.3523850000000001e-08,1.0,-14.414076,1.0,-3.48e-06,1.0
-0.0226166,1.0,1.3749700000000001e-08,1.0,-19.170036,1.0,-3.57e-06,1.0
-0.0221863,1.0,1.394805e-08,1.0,-23.789808,1.0,-3.33e-06,1.0
-0.021795699999999998,1.0,1.4396649999999999e-08,1.0,-25.255367999999997,1.0,-3.4e-06,1.0
-0.0214203,1.0,1.4393600000000001e-08,1.0,-22.276980000000002,1.0,-3.21e-06,1.0
-0.0210358,1.0,1.4125049999999998e-08,1.0,-17.768196,1.0,-3.17e-06,1.0
-0.0206696,1.0,1.414335e-08,1.0,-13.950431999999998,1.0,-3.41e-06,1.0
-0.020230099999999997,1.0,1.412965e-08,1.0,-11.924568,1.0,-3.08e-06,1.0
-0.0198334,1.0,1.4169299999999997e-08,1.0,-9.037367999999999,1.0,-3.03e-06,1.0
-0.0194824,1.0,1.4341749999999998e-08,1.0,-7.961796000000001,1.0,-2.98e-06,1.0
-0.0190857,1.0,1.524965e-08,1.0,-7.653059999999999,1.0,-2.9e-06,1.0
-0.0186676,1.0,1.6557299999999997e-08,1.0,-6.37758,1.0,-2.81e-06,1.0
-0.0182739,1.0,1.7826849999999997e-08,1.0,-6.086412,1.0,-2.79e-06,1.0
-0.0178864,1.0,1.848145e-08,1.0,-6.667595999999999,1.0,-2.73e-06,1.0
-0.0175079,1.0,1.91818e-08,1.0,-6.503904,1.0,-2.61e-06,1.0
-0.0171112,1.0,1.9679249999999997e-08,1.0,-7.131240000000001,1.0,-2.72e-06,1.0
-0.0167175,1.0,2.0079049999999997e-08,1.0,-6.993900000000001,1.0,-2.52e-06,1.0
-0.01633,1.0,2.01309e-08,1.0,-6.996096,1.0,-2.75e-06,1.0
-0.0159088,1.0,2.0082099999999996e-08,1.0,-6.99498,1.0,-2.41e-06,1.0
-0.0155243,1.0,1.93115e-08,1.0,-5.68872,1.0,-2.47e-06,1.0
-0.015136700000000001,1.0,1.8464649999999998e-08,1.0,-4.320936,1.0,-2.32e-06,1.0
-0.0147278,1.0,1.780855e-08,1.0,-3.654036,1.0,-2.19e-06,1.0
-0.0143433,1.0,1.6972349999999997e-08,1.0,-4.621932,1.0,-2.25e-06,1.0
-0.013955700000000001,1.0,1.62903e-08,1.0,-7.287228000000001,1.0,-2.22e-06,1.0
-0.013574200000000002,1.0,1.63315e-08,1.0,-11.747664,1.0,-2.08e-06,1.0
-0.0131622,1.0,1.63452e-08,1.0,-18.751464,1.0,-1.99e-06,1.0
-0.012793,1.0,1.6270449999999997e-08,1.0,-23.884272000000003,1.0,-2.11e-06,1.0
-0.012377899999999999,1.0,1.719665e-08,1.0,-27.454824000000002,1.0,-2.03e-06,1.0
-0.0119934,1.0,1.7411799999999996e-08,1.0,-26.100216,1.0,-1.84e-06,1.0
-0.0115875,1.0,1.8304449999999998e-08,1.0,-22.868028,1.0,-1.81e-06,1.0
-0.0112152,1.0,1.8725599999999997e-08,1.0,-18.439452,1.0,-1.7e-06,1.0
-0.0108063,1.0,1.925505e-08,1.0,-15.588504,1.0,-1.74e-06,1.0
-0.010421799999999998,1.0,1.9900499999999997e-08,1.0,-13.083624,1.0,-1.6e-06,1.0
-0.0100037,1.0,2.0382699999999998e-08,1.0,-10.653444,1.0,-1.44e-06,1.0
-0.0096283,1.0,2.0770249999999997e-08,1.0,-9.761363999999999,1.0,-1.6e-06,1.0
-0.00925903,1.0,2.1218849999999998e-08,1.0,-8.858267999999999,1.0,-1.64e-06,1.0
-0.00884705,1.0,2.16339e-08,1.0,-8.70228,1.0,-1.5e-06,1.0
-0.00846863,1.0,2.2103900000000002e-08,1.0,-8.608896,1.0,-1.31e-06,1.0
-0.00808716,1.0,2.22824e-08,1.0,-8.5221,1.0,-1.32e-06,1.0
-0.00766907,1.0,2.25403e-08,1.0,-8.474868,1.0,-1.35e-06,1.0
-0.00729065,1.0,2.27463e-08,1.0,-8.4276,1.0,-1.47e-06,1.0
-0.00690613,1.0,2.31064e-08,1.0,-8.2881,1.0,-1.1e-06,1.0
-0.00647888,1.0,2.362825e-08,1.0,-8.144172000000001,1.0,-9.93e-07,1.0
-0.00612488,1.0,2.423705e-08,1.0,-7.382808,1.0,-1.03e-06,1.0
-0.00570374,1.0,2.42798e-08,1.0,-7.374024,1.0,-1.07e-06,1.0
-0.00532227,1.0,2.4284349999999997e-08,1.0,-8.02332,1.0,-1.04e-06,1.0
-0.00491638,1.0,2.3823549999999998e-08,1.0,-8.7462,1.0,-8.94e-07,1.0
-0.00454102,1.0,2.35916e-08,1.0,-10.859976,1.0,-8.359999999999999e-07,1.0
-0.00412598,1.0,2.272645e-08,1.0,-13.739508,1.0,-7.96e-07,1.0
-0.00376282,1.0,2.2316e-08,1.0,-18.108756000000003,1.0,-9.62e-07,1.0
-0.00334473,1.0,2.1398950000000002e-08,1.0,-23.583239999999996,1.0,-6.75e-07,1.0
-0.002948,1.0,2.1191400000000003e-08,1.0,-30.542004,1.0,-6.27e-07,1.0
-0.00256653,1.0,2.119445e-08,1.0,-36.37584,1.0,-5.560000000000001e-07,1.0
-0.00216064,1.0,2.14142e-08,1.0,-39.034440000000004,1.0,-4.6399999999999997e-07,1.0
-0.00180359,1.0,2.1424849999999997e-08,1.0,-38.79288,1.0,-6.990000000000001e-07,1.0
-0.00140991,1.0,2.182465e-08,1.0,-36.8262,1.0,-5.529999999999999e-07,1.0
-0.000973511,1.0,2.20566e-08,1.0,-32.937011999999996,1.0,-4.06e-07,1.0
-0.000610352,1.0,2.254945e-08,1.0,-28.959948000000004,1.0,-3.75e-07,1.0
-0.00020752,1.0,2.2743249999999998e-08,1.0,-21.859488,1.0,-2.69e-07,1.0
0.000170898,1.0,2.315065e-08,1.0,-14.891976,1.0,-3.34e-07,1.0
0.000588989,1.0,2.4275199999999998e-08,1.0,-9.270252000000003,1.0,-7.72e-08,1.0
0.000967407,1.0,2.5726299999999995e-08,1.0,-5.84802,1.0,-2.16e-07,1.0
0.00135193,1.0,2.68402e-08,1.0,-3.3222671999999998,1.0,-2.89e-07,1.0
0.00172729,1.0,2.7648950000000002e-08,1.0,-2.1203604,1.0,-2.1300000000000001e-07,1.0
0.00213318,1.0,2.8060900000000003e-08,1.0,-0.9397692000000001,1.0,-3.6599999999999998e-09,1.0
0.00254517,1.0,2.8503399999999996e-08,1.0,-0.9322991999999999,1.0,-1.6300000000000002e-07,1.0
0.00293274,1.0,2.8671249999999996e-08,1.0,-0.3924324,1.0,5.83e-08,1.0
0.00334167,1.0,2.8945899999999998e-08,1.0,-0.3908952,1.0,4.91e-08,1.0
0.00369873,1.0,2.92053e-08,1.0,-0.39100320000000005,1.0,-9.06e-08,1.0
0.00410767,1.0,2.915955e-08,1.0,-0.39276,1.0,-6.530000000000001e-08,1.0
0.00450745,1.0,2.912905e-08,1.0,-0.39693600000000007,1.0,8.7e-08,1.0
0.00490112,1.0,2.905275e-08,1.0,-0.39452040000000005,1.0,1.94e-07,1.0
0.0052887,1.0,2.9113749999999995e-08,1.0,-0.3956184,1.0,2.1399999999999998e-07,1.0
0.00567322,1.0,2.9144299999999996e-08,1.0,-0.39155400000000007,1.0,4.9699999999999995e-08,1.0
0.00604858,1.0,2.912905e-08,1.0,-0.39386160000000003,1.0,3.37e-07,1.0
0.00643005,1.0,2.9144299999999996e-08,1.0,-0.3946284,1.0,3.13e-07,1.0
0.00682678,1.0,2.91748e-08,1.0,-0.3940812000000001,1.0,2.17e-07,1.0
0.00721741,1.0,2.9083249999999997e-08,1.0,-0.39430079999999995,1.0,2.88e-07,1.0
0.00759583,1.0,2.912905e-08,1.0,-0.39638520000000005,1.0,4.8e-07,1.0
0.00802612,1.0,2.9083249999999997e-08,1.0,-0.39341879999999996,1.0,3.18e-07,1.0
0.00838928,1.0,2.9113749999999995e-08,1.0,-0.39396960000000003,1.0,5.15e-07,1.0
0.00879517,1.0,2.9083249999999997e-08,1.0,-0.39748680000000003,1.0,4.32e-07,1.0
0.00917358,1.0,2.90985e-08,1.0,-0.3960576,1.0,5.22e-07,1.0
0.009552,1.0,2.915955e-08,1.0,-0.9279035999999999,1.0,5.3e-07,1.0
0.00994873,1.0,2.9113749999999995e-08,1.0,-3.67164,1.0,4.43e-07,1.0
0.0103455,1.0,2.9144299999999996e-08,1.0,-9.698724,1.0,6.86e-07,1.0
0.01073,1.0,2.885435e-08,1.0,-16.881588,1.0,3.5200000000000003e-07,1.0
0.011145,1.0,2.8701799999999994e-08,1.0,-23.679936,1.0,7.86e-07,1.0
0.0115173,1.0,2.9403700000000003e-08,1.0,-28.223892,1.0,6.790000000000001e-07,1.0
0.0119171,1.0,3.111265e-08,1.0,-30.717755999999998,1.0,8.45e-07,1.0
0.0123413,1.0,3.2791149999999994e-08,1.0,-31.464828,1.0,7.559999999999999e-07,1.0
0.012692299999999998,1.0,3.411865e-08,1.0,-31.981212,1.0,8.27e-07,1.0
0.013085900000000001,1.0,3.453065e-08,1.0,-30.091536,1.0,8.98e-07,1.0
0.0134888,1.0,3.4729e-08,1.0,-27.092268,1.0,1.11e-06,1.0
0.013858,1.0,3.4316999999999996e-08,1.0,-23.028444,1.0,8.340000000000001e-07,1.0
0.014266999999999998,1.0,3.3630349999999996e-08,1.0,-19.601819999999996,1.0,1.1e-06,1.0
0.014669799999999998,1.0,3.29895e-08,1.0,-17.30016,1.0,1.17e-06,1.0
0.015033000000000001,1.0,3.216555e-08,1.0,-16.448724000000002,1.0,1.16e-06,1.0
0.015451,1.0,3.1967150000000006e-08,1.0,-17.074944,1.0,1.38e-06,1.0
0.0158417,1.0,3.216555e-08,1.0,-18.095579999999998,1.0,1.38e-06,1.0
0.0162476,1.0,3.2135e-08,1.0,-19.991808,1.0,1.31e-06,1.0
0.016622900000000003,1.0,3.3004749999999996e-08,1.0,-21.695796,1.0,1.38e-06,1.0
0.0169952,1.0,3.35846e-08,1.0,-21.896856,1.0,1.47e-06,1.0
0.0174042,1.0,3.4286499999999994e-08,1.0,-20.590560000000004,1.0,1.44e-06,1.0
0.017797900000000002,1.0,3.448484999999999e-08,1.0,-19.027224,1.0,1.56e-06,1.0
0.0182037,1.0,3.45001e-08,1.0,-17.067276,1.0,1.59e-06,1.0
0.018551599999999998,1.0,3.404235e-08,1.0,-14.830452,1.0,1.44e-06,1.0
0.0189606,1.0,3.294375e-08,1.0,-13.187988,1.0,1.57e-06,1.0
0.019341999999999998,1.0,3.21045e-08,1.0,-11.429064,1.0,1.72e-06,1.0
0.0197296,1.0,3.1509399999999996e-08,1.0,-11.106072000000001,1.0,1.51e-06,1.0
0.0201355,1.0,3.108215e-08,1.0,-11.26098,1.0,1.63e-06,1.0
0.0205048,1.0,3.089905e-08,1.0,-11.826792,1.0,1.73e-06,1.0
0.0209351,1.0,3.10974e-08,1.0,-12.785903999999999,1.0,1.75e-06,1.0
0.0213226,1.0,3.1539900000000004e-08,1.0,-13.124268,1.0,1.98e-06,1.0
0.021722400000000003,1.0,3.269959999999999e-08,1.0,-12.328847999999999,1.0,2.09e-06,1.0
0.022100799999999997,1.0,3.4271249999999997e-08,1.0,-11.390616000000001,1.0,2.16e-06,1.0
0.022488400000000002,1.0,3.60718e-08,1.0,-10.504044,1.0,2.13e-06,1.0
0.0228912,1.0,3.7368749999999995e-08,1.0,-9.288936000000001,1.0,1.91e-06,1.0
0.0232635,1.0,3.82843e-08,1.0,-7.818984,1.0,1.98e-06,1.0
0.0236511,1.0,3.84369e-08,1.0,-7.758540000000001,1.0,2.07e-06,1.0
0.0240601,1.0,3.8711550000000005e-08,1.0,-9.443843999999999,1.0,2.08e-06,1.0
0.024469,1.0,3.86963e-08,1.0,-12.042108,1.0,2.25e-06,1.0
0.024856599999999996,1.0,3.889465e-08,1.0,-15.445692,1.0,2.39e-06,1.0
0.0252472,1.0,3.889465e-08,1.0,-18.419688,1.0,2.33e-06,1.0
0.0256317,1.0,3.9581300000000005e-08,1.0,-20.37744,1.0,2.44e-06,1.0
0.0260223,1.0,4.019165e-08,1.0,-22.218767999999997,1.0,2.26e-06,1.0
0.0264099,1.0,4.107665e-08,1.0,-23.495364,1.0,2.31e-06,1.0
0.026794400000000003,1.0,4.1763300000000004e-08,1.0,-24.369875999999998,1.0,2.28e-06,1.0
0.0271973,1.0,4.25873e-08,1.0,-24.343488,1.0,2.44e-06,1.0
0.0275665,1.0,4.325865e-08,1.0,-23.939208,1.0,2.49e-06,1.0
0.027972399999999998,1.0,4.3670649999999995e-08,1.0,-23.778792000000003,1.0,2.39e-06,1.0
0.028353899999999998,1.0,4.3945300000000004e-08,1.0,-22.949351999999998,1.0,2.64e-06,1.0
0.0287567,1.0,4.348755000000001e-08,1.0,-21.484872000000003,1.0,2.66e-06,1.0
0.0291382,1.0,4.2861949999999994e-08,1.0,-20.53674,1.0,2.46e-06,1.0
0.029525799999999998,1.0,4.1976949999999997e-08,1.0,-20.581775999999998,1.0,2.68e-06,1.0
0.0299377,1.0,4.1122449999999994e-08,1.0,-21.021228,1.0,2.72e-06,1.0
0.0303223,1.0,4.037475e-08,1.0,-22.119875999999998,1.0,2.93e-06,1.0
0.0306976,1.0,4.0405250000000004e-08,1.0,-22.940568,1.0,2.84e-06,1.0
0.031106599999999998,1.0,4.1046150000000004e-08,1.0,-22.543956,1.0,2.77e-06,1.0
0.0314758,1.0,4.2083749999999995e-08,1.0,-20.899296,1.0,2.83e-06,1.0
0.0318695,1.0,4.29535e-08,1.0,-18.94482,1.0,2.7e-06,1.0
0.0322845,1.0,4.3136599999999996e-08,1.0,-16.815672,1.0,2.88e-06,1.0
0.032663,1.0,4.29535e-08,1.0,-14.560164,1.0,2.95e-06,1.0
0.033062699999999993,1.0,4.234315e-08,1.0,-12.765024,1.0,2.96e-06,1.0
0.03344419999999999,1.0,4.118345e-08,1.0,-12.186036,1.0,3.02e-06,1.0
0.0338501,1.0,4.029845e-08,1.0,-11.984976,1.0,3.19e-06,1.0
0.0342285,1.0,4.011535e-08,1.0,-12.525516,1.0,2.99e-06,1.0
0.0346436,1.0,3.99475e-08,1.0,-13.824108,1.0,3.23e-06,1.0
0.0350037,1.0,4.0618899999999996e-08,1.0,-14.444819999999998,1.0,3.24e-06,1.0
0.0354065,1.0,4.14734e-08,1.0,-14.587632,1.0,3.13e-06,1.0
0.0358032,1.0,4.275515e-08,1.0,-14.207508,1.0,3.41e-06,1.0
0.036203,1.0,4.39911e-08,1.0,-13.503312,1.0,3.39e-06,1.0
0.036602800000000005,1.0,4.515074999999999e-08,1.0,-12.092652000000001,1.0,3.41e-06,1.0
0.03698730000000001,1.0,4.5745849999999997e-08,1.0,-10.79406,1.0,3.58e-06,1.0
0.0373962,1.0,4.620359999999999e-08,1.0,-9.591047999999999,1.0,3.68e-06,1.0
0.0377502,1.0,4.6157849999999994e-08,1.0,-9.215316,1.0,3.42e-06,1.0
0.0381592,1.0,4.595945e-08,1.0,-9.653687999999999,1.0,3.53e-06,1.0
0.038519300000000006,1.0,4.5288099999999994e-08,1.0,-10.861092,1.0,3.56e-06,1.0
0.0389587,1.0,4.5318599999999995e-08,1.0,-12.776004,1.0,3.8e-06,1.0
0.039327999999999995,1.0,4.501344999999999e-08,1.0,-15.06114,1.0,3.66e-06,1.0
0.0397522,1.0,4.52423e-08,1.0,-17.601192,1.0,3.79e-06,1.0
0.0401276,1.0,4.61731e-08,1.0,-19.628172,1.0,3.89e-06,1.0
0.0405304,1.0,4.693605e-08,1.0,-21.117924000000002,1.0,3.98e-06,1.0
0.040927099999999994,1.0,4.8049949999999994e-08,1.0,-21.850704,1.0,4.01e-06,1.0
0.0413025,1.0,4.89044e-08,1.0,-21.864995999999998,1.0,3.9e-06,1.0
0.041684,1.0,4.93469e-08,1.0,-21.676032,1.0,3.99e-06,1.0
0.042089800000000004,1.0,4.92096e-08,1.0,-20.921256000000003,1.0,4.31e-06,1.0
0.042504900000000005,1.0,4.936219999999999e-08,1.0,-20.237904,1.0,4.15e-06,1.0
0.0428925,1.0,4.911805e-08,1.0,-19.227168,1.0,4.16e-06,1.0
0.0432831,1.0,4.888915e-08,1.0,-18.9756,1.0,4.29e-06,1.0
0.04368590000000001,1.0,4.818725e-08,1.0,-19.161251999999998,1.0,4.3e-06,1.0
0.0440948,1.0,4.811095e-08,1.0,-19.5282,1.0,4.54e-06,1.0
0.0444794,1.0,4.8049949999999994e-08,1.0,-20.378556,1.0,4.56e-06,1.0
0.0448639,1.0,4.8171999999999996e-08,1.0,-21.295908,1.0,4.47e-06,1.0
0.0452637,1.0,4.888915e-08,1.0,-21.813372,1.0,4.67e-06,1.0
0.0456909,1.0,5.0247e-08,1.0,-21.70458,1.0,4.72e-06,1.0
0.0460815,1.0,5.1239e-08,1.0,-20.210436,1.0,4.77e-06,1.0
0.0464569,1.0,5.23375e-08,1.0,-18.54054,1.0,4.76e-06,1.0
0.0468781,1.0,5.3405999999999995e-08,1.0,-16.940916,1.0,4.93e-06,1.0
0.047250400000000005,1.0,5.3833e-08,1.0,-15.799427999999997,1.0,4.89e-06,1.0
0.0476532,1.0,5.401599999999999e-08,1.0,-14.465699999999998,1.0,5.05e-06,1.0
0.048043800000000005,1.0,5.40315e-08,1.0,-13.502196000000001,1.0,4.86e-06,1.0
0.048443599999999996,1.0,5.38485e-08,1.0,-12.897936000000001,1.0,4.71e-06,1.0
0.0488403,1.0,5.337499999999999e-08,1.0,-13.623048,1.0,4.9e-06,1.0
0.049231,1.0,5.365e-08,1.0,-15.203988,1.0,4.73e-06,1.0
0.0496216,1.0,5.4076999999999995e-08,1.0,-17.27928,1.0,5.02e-06,1.0
0.0501099,1.0,5.5114499999999994e-08,1.0,-18.665784,1.0,4.95e-06,1.0
0.050476099999999996,1.0,5.6304999999999994e-08,1.0,-19.285416,1.0,4.85e-06,1.0
0.0508728,1.0,5.7159499999999996e-08,1.0,-18.677844,1.0,4.9e-06,1.0
0.0512695,1.0,5.796799999999999e-08,1.0,-18.142812,1.0,4.91e-06,1.0
0.0516663,1.0,5.84715e-08,1.0,-17.076060000000002,1.0,4.83e-06,1.0
0.0520325,1.0,5.90515e-08,1.0,-16.374024,1.0,4.88e-06,1.0
0.05242919999999999,1.0,5.928049999999999e-08,1.0,-15.087527999999997,1.0,4.95e-06,1.0
0.0528564,1.0,5.9021e-08,1.0,-14.258052000000001,1.0,4.88e-06,1.0
0.053283699999999996,1.0,5.8639499999999994e-08,1.0,-13.776840000000002,1.0,5.15e-06,1.0
0.053680399999999996,1.0,5.775449999999999e-08,1.0,-14.244876,1.0,5.06e-06,1.0
0.0540466,1.0,5.706799999999999e-08,1.0,-15.294060000000002,1.0,5.2e-06,1.0
0.054382299999999995,1.0,5.6671000000000005e-08,1.0,-16.954092,1.0,5.1e-06,1.0
0.0547791,1.0,5.651849999999999e-08,1.0,-18.27684,1.0,5.08e-06,1.0
0.0552063,1.0,5.64115e-08,1.0,-19.488636,1.0,5.08e-06,1.0
0.055572500000000004,1.0,5.6899999999999993e-08,1.0,-20.349972,1.0,5.28e-06,1.0
0.0559998,1.0,5.7312e-08,1.0,-21.069575999999998,1.0,5.2e-06,1.0
0.056366,1.0,5.801399999999999e-08,1.0,-21.147588,1.0,5.16e-06,1.0
0.05676269999999999,1.0,5.837999999999999e-08,1.0,-21.267324000000002,1.0,5.05e-06,1.0
0.057159400000000006,1.0,5.9036499999999994e-08,1.0,-20.816892000000003,1.0,5.28e-06,1.0
0.0574646,1.0,5.9677e-08,1.0,-20.052251999999996,1.0,5.4e-06,1.0
0.057922400000000006,1.0,6.04705e-08,1.0,-19.563372,1.0,5.44e-06,1.0
0.058319100000000006,1.0,6.063849999999999e-08,1.0,-19.130508,1.0,5.19e-06,1.0
0.05868530000000001,1.0,6.10655e-08,1.0,-19.330452,1.0,5.5e-06,1.0
0.0590515,1.0,6.12945e-08,1.0,-19.285416,1.0,5.45e-06,1.0
0.0594482,1.0,6.147749999999999e-08,1.0,-20.0808,1.0,5.51e-06,1.0
0.059905999999999994,1.0,6.19965e-08,1.0,-20.805912,1.0,5.66e-06,1.0
0.060302699999999994,1.0,6.279e-08,1.0,-21.658464,1.0,5.59e-06,1.0
0.0606995,1.0,6.3904e-08,1.0,-21.908952,1.0,5.53e-06,1.0
0.0610352,1.0,6.49415e-08,1.0,-21.539808,1.0,5.5e-06,1.0
0.06137080000000001,1.0,6.6086e-08,1.0,-20.473019999999998,1.0,5.62e-06,1.0
0.061889599999999996,1.0,6.6513e-08,1.0,-19.039319999999996,1.0,5.94e-06,1.0
0.062164300000000006,1.0,6.64825e-08,1.0,-17.648424,1.0,5.83e-06,1.0
0.062561,1.0,6.64675e-08,1.0,-16.581672000000005,1.0,5.82e-06,1.0
0.0630188,1.0,6.585699999999999e-08,1.0,-15.903792,1.0,5.8e-06,1.0
0.0634155,1.0,6.53685e-08,1.0,-15.747804000000002,1.0,5.94e-06,1.0
0.0637207,1.0,6.500249999999999e-08,1.0,-16.086168,1.0,5.98e-06,1.0
0.06414790000000001,1.0,6.4972e-08,1.0,-16.61022,1.0,6.07e-06,1.0
0.0646057,1.0,6.5399e-08,1.0,-17.657244,1.0,5.84e-06,1.0
0.0649414,1.0,6.625349999999999e-08,1.0,-17.990099999999998,1.0,6.06e-06,1.0
0.06530760000000001,1.0,6.709299999999999e-08,1.0,-17.781372,1.0,6.15e-06,1.0
0.0656738,1.0,6.799299999999999e-08,1.0,-17.026595999999998,1.0,6.03e-06,1.0
0.0661316,1.0,6.878649999999999e-08,1.0,-16.043327999999995,1.0,6.17e-06,1.0
0.0665283,1.0,6.9763e-08,1.0,-15.367680000000002,1.0,6.34e-06,1.0
0.066925,1.0,6.987e-08,1.0,-14.527224,1.0,6.38e-06,1.0
0.06726069999999999,1.0,7.032799999999999e-08,1.0,-13.981212,1.0,6.11e-06,1.0
0.06765750000000001,1.0,7.0511e-08,1.0,-14.197644,1.0,6.3e-06,1.0
0.0680542,1.0,7.05565e-08,1.0,-14.949107999999999,1.0,6.28e-06,1.0
0.0684509,1.0,7.03125e-08,1.0,-16.479504000000002,1.0,6.47e-06,1.0
0.06887819999999999,1.0,7.054149999999998e-08,1.0,-17.987904000000004,1.0,6.46e-06,1.0
0.0692444,1.0,7.07855e-08,1.0,-19.159056,1.0,6.36e-06,1.0
0.06961060000000001,1.0,7.1411e-08,1.0,-20.077524,1.0,6.53e-06,1.0
0.0700073,1.0,7.208250000000001e-08,1.0,-20.855339999999998,1.0,6.56e-06,1.0
0.07040410000000001,1.0,7.312e-08,1.0,-21.320064,1.0,6.58e-06,1.0
0.0708313,1.0,7.434099999999999e-08,1.0,-20.723508,1.0,6.67e-06,1.0
0.071228,1.0,7.539349999999998e-08,1.0,-19.99512,1.0,6.74e-06,1.0
0.0715637,1.0,7.6248e-08,1.0,-19.097532,1.0,6.76e-06,1.0
0.071991,1.0,7.633950000000001e-08,1.0,-18.375732000000003,1.0,7.04e-06,1.0
0.0722961,1.0,7.606499999999999e-08,1.0,-18.187884,1.0,6.92e-06,1.0
0.0727844,1.0,7.56685e-08,1.0,-18.036251999999998,1.0,6.97e-06,1.0
0.07315060000000001,1.0,7.496649999999999e-08,1.0,-18.458136000000003,1.0,6.97e-06,1.0
0.0735474,1.0,7.4356e-08,1.0,-19.282104,1.0,7.16e-06,1.0
0.0739441,1.0,7.406599999999998e-08,1.0,-20.125872,1.0,7.03e-06,1.0
0.0743408,1.0,7.40815e-08,1.0,-21.062988,1.0,7.27e-06,1.0
0.0747375,1.0,7.459999999999999e-08,1.0,-21.384900000000002,1.0,7.13e-06,1.0
0.0751038,1.0,7.5409e-08,1.0,-21.182724,1.0,7.2e-06,1.0
0.0755615,1.0,7.649249999999998e-08,1.0,-20.649888,1.0,7.34e-06,1.0
0.0758972,1.0,7.759099999999998e-08,1.0,-19.927008,1.0,7.32e-06,1.0
0.07635499999999999,1.0,7.8476e-08,1.0,-18.84816,1.0,7.13e-06,1.0
0.0767212,1.0,7.87355e-08,1.0,-17.675892,1.0,7.59e-06,1.0
0.0770569,1.0,7.8079e-08,1.0,-16.368516000000003,1.0,7.32e-06,1.0
0.07745360000000001,1.0,7.7423e-08,1.0,-16.044444,1.0,7.46e-06,1.0
0.07791139999999999,1.0,7.695e-08,1.0,-16.807968,1.0,7.61e-06,1.0
0.07821660000000001,1.0,7.6523e-08,1.0,-18.083484,1.0,7.58e-06,1.0
0.0786133,1.0,7.656849999999999e-08,1.0,-19.711655999999998,1.0,7.72e-06,1.0
0.0790405,1.0,7.68125e-08,1.0,-21.30138,1.0,7.72e-06,1.0
0.0793762,1.0,7.75755e-08,1.0,-22.505508,1.0,7.64e-06,1.0
0.079834,1.0,7.870499999999999e-08,1.0,-23.158079999999998,1.0,7.81e-06,1.0
0.0801086,1.0,8.0002e-08,1.0,-23.219604,1.0,7.86e-06,1.0
0.0805969,1.0,8.149699999999999e-08,1.0,-22.598892,1.0,7.93e-06,1.0
0.0809937,1.0,8.279400000000001e-08,1.0,-21.643055999999998,1.0,7.94e-06,1.0
0.08142089999999999,1.0,8.317549999999999e-08,1.0,-20.637827999999995,1.0,8.21e-06,1.0
0.0817566,1.0,8.34655e-08,1.0,-19.286496,1.0,7.88e-06,1.0
0.0821533,1.0,8.326699999999999e-08,1.0,-18.49986,1.0,7.95e-06,1.0
0.0825806,1.0,8.255e-08,1.0,-17.957160000000002,1.0,8.25e-06,1.0
0.0829468,1.0,8.2123e-08,1.0,-18.050544,1.0,8.17e-06,1.0
0.083313,1.0,8.197e-08,1.0,-18.752580000000002,1.0,8.11e-06,1.0
0.0837097,1.0,8.215349999999998e-08,1.0,-20.019275999999998,1.0,8.34e-06,1.0
0.084137,1.0,8.279400000000001e-08,1.0,-21.414564,1.0,8.39e-06,1.0
0.0845337,1.0,8.358749999999999e-08,1.0,-22.498884,1.0,8.25e-06,1.0
0.0849915,1.0,8.52205e-08,1.0,-22.7439,1.0,8.53e-06,1.0
0.08526610000000001,1.0,8.68685e-08,1.0,-22.347288,1.0,8.38e-06,1.0
0.08566280000000001,1.0,8.883649999999999e-08,1.0,-21.324456,1.0,8.64e-06,1.0
0.0860901,1.0,9.01335e-08,1.0,-19.819331999999996,1.0,8.43e-06,1.0
0.0865479,1.0,9.063699999999999e-08,1.0,-17.738532,1.0,8.75e-06,1.0
0.0869446,1.0,9.037799999999999e-08,1.0,-15.958727999999999,1.0,8.65e-06,1.0
0.0872803,1.0,8.973699999999999e-08,1.0,-14.873292000000001,1.0,8.82e-06,1.0
0.087677,1.0,8.895850000000001e-08,1.0,-14.384412000000001,1.0,8.9e-06,1.0
0.08807369999999999,1.0,8.8455e-08,1.0,-15.247907999999999,1.0,8.97e-06,1.0
0.08847050000000001,1.0,8.869949999999999e-08,1.0,-17.049672,1.0,9.11e-06,1.0
0.08886720000000001,1.0,8.973699999999999e-08,1.0,-19.130508,1.0,8.94e-06,1.0
0.08923339999999999,1.0,9.11865e-08,1.0,-20.590560000000004,1.0,9.15e-06,1.0
0.0895691,1.0,9.34755e-08,1.0,-20.984976,1.0,9.05e-06,1.0
0.0900574,1.0,9.5169e-08,1.0,-20.379636,1.0,9.2e-06,1.0
0.0904236,1.0,9.67255e-08,1.0,-19.335924000000002,1.0,9.42e-06,1.0
0.09082029999999999,1.0,9.7763e-08,1.0,-17.853876,1.0,9.37e-06,1.0
0.09124760000000001,1.0,9.771749999999999e-08,1.0,-16.151004,1.0,9.49e-06,1.0
0.0916443,1.0,9.707649999999999e-08,1.0,-14.940324,1.0,9.65e-06,1.0
0.0920105,1.0,9.581e-08,1.0,-14.371199999999998,1.0,9.52e-06,1.0
0.0924683,1.0,9.411599999999998e-08,1.0,-14.589828,1.0,9.76e-06,1.0
0.09277339999999999,1.0,9.257500000000001e-08,1.0,-15.997176,1.0,9.59e-06,1.0
0.0931702,1.0,9.17205e-08,1.0,-17.954964,1.0,9.81e-06,1.0
0.0935974,1.0,9.18885e-08,1.0,-19.888560000000002,1.0,9.86e-06,1.0
0.09396360000000001,1.0,9.3338e-08,1.0,-21.355235999999998,1.0,9.92e-06,1.0
0.0943604,1.0,9.5581e-08,1.0,-22.080312,1.0,1.01e-05,1.0
0.094696,1.0,9.79155e-08,1.0,-21.539808,1.0,9.98e-06,1.0
0.0951538,1.0,9.99605e-08,1.0,-20.966292000000003,1.0,1.04e-05,1.0
0.0955811,1.0,1.0125749999999999e-07,1.0,-19.806155999999998,1.0,1.04e-05,1.0
0.09588619999999999,1.0,1.015625e-07,1.0,-18.28674,1.0,1.04e-05,1.0
0.096344,1.0,1.0140999999999999e-07,1.0,-16.839827999999997,1.0,1.04e-05,1.0
0.0967712,1.0,1.007995e-07,1.0,-15.700572000000003,1.0,1.07e-05,1.0
0.0971069,1.0,9.992999999999998e-08,1.0,-15.246827999999999,1.0,1.07e-05,1.0
0.0975342,1.0,9.930399999999999e-08,1.0,-15.922476,1.0,1.0800000000000002e-05,1.0
0.0978699,1.0,9.8816e-08,1.0,-17.660519999999998,1.0,1.09e-05,1.0
0.0983276,1.0,9.8999e-08,1.0,-20.150028,1.0,1.0800000000000002e-05,1.0
0.0986938,1.0,9.98995e-08,1.0,-22.603284,1.0,1.11e-05,1.0
0.09902949999999999,1.0,1.014405e-07,1.0,-23.949108,1.0,1.11e-05,1.0
0.0994568,1.0,1.032865e-07,1.0,-24.068844000000002,1.0,1.13e-05,1.0
0.099884,1.0,1.050875e-07,1.0,-23.427251999999996,1.0,1.13e-05,1.0
0.100281,1.0,1.0690299999999999e-07,1.0,-22.035276,1.0,1.13e-05,1.0
0.100616,1.0,1.0777300000000001e-07,1.0,-20.164319999999996,1.0,1.1400000000000001e-05,1.0
0.101074,1.0,1.077575e-07,1.0,-18.462528,1.0,1.1599999999999999e-05,1.0
0.10141,1.0,1.0734549999999999e-07,1.0,-16.99146,1.0,1.17e-05,1.0
0.10180700000000001,1.0,1.0623150000000001e-07,1.0,-16.504776,1.0,1.1599999999999999e-05,1.0
0.102173,1.0,1.04721e-07,1.0,-17.0343,1.0,1.18e-05,1.0
0.10257000000000001,1.0,1.0404949999999998e-07,1.0,-18.394416000000003,1.0,1.18e-05,1.0
0.10293599999999999,1.0,1.0407999999999999e-07,1.0,-19.791863999999997,1.0,1.1900000000000001e-05,1.0
0.103333,1.0,1.0493449999999999e-07,1.0,-20.858652,1.0,1.1900000000000001e-05,1.0
0.10366800000000001,1.0,1.0662850000000001e-07,1.0,-21.383784,1.0,1.18e-05,1.0
0.10418699999999999,1.0,1.08795e-07,1.0,-20.998151999999997,1.0,1.2e-05,1.0
0.104523,1.0,1.107635e-07,1.0,-20.046743999999997,1.0,1.21e-05,1.0
0.10495,1.0,1.123045e-07,1.0,-18.916272,1.0,1.23e-05,1.0
0.105255,1.0,1.131285e-07,1.0,-17.158464000000002,1.0,1.22e-05,1.0
0.105652,1.0,1.1271649999999999e-07,1.0,-15.57972,1.0,1.21e-05,1.0
0.106049,1.0,1.1207599999999999e-07,1.0,-14.369003999999999,1.0,1.23e-05,1.0
0.106476,1.0,1.1056500000000001e-07,1.0,-13.888908,1.0,1.24e-05,1.0
0.10681199999999999,1.0,1.0925299999999999e-07,1.0,-14.862312,1.0,1.25e-05,1.0
0.107269,1.0,1.08429e-07,1.0,-16.814592,1.0,1.26e-05,1.0
0.107635,1.0,1.0844399999999999e-07,1.0,-19.196424,1.0,1.25e-05,1.0
0.108063,1.0,1.0948199999999999e-07,1.0,-21.552984,1.0,1.26e-05,1.0
0.108429,1.0,1.1122149999999999e-07,1.0,-23.383296,1.0,1.28e-05,1.0
0.10882599999999999,1.0,1.135865e-07,1.0,-23.918327999999995,1.0,1.27e-05,1.0
0.10919200000000001,1.0,1.1642449999999998e-07,1.0,-23.399784,1.0,1.29e-05,1.0
0.10955799999999999,1.0,1.1856099999999999e-07,1.0,-22.041863999999997,1.0,1.29e-05,1.0
0.10998499999999999,1.0,1.20102e-07,1.0,-20.379636,1.0,1.31e-05,1.0
0.11035199999999999,1.0,1.206205e-07,1.0,-18.773424000000002,1.0,1.3000000000000001e-05,1.0
0.11071800000000001,1.0,1.201325e-07,1.0,-17.628660000000004,1.0,1.31e-05,1.0
0.11114500000000001,1.0,1.1910999999999999e-07,1.0,-17.280396,1.0,1.3300000000000001e-05,1.0
0.11151099999999999,1.0,1.1795050000000001e-07,1.0,-17.740727999999997,1.0,1.34e-05,1.0
0.11193800000000001,1.0,1.1781300000000001e-07,1.0,-18.898667999999997,1.0,1.3000000000000001e-05,1.0
0.112305,1.0,1.179655e-07,1.0,-20.760876,1.0,1.3500000000000001e-05,1.0
0.112732,1.0,1.19095e-07,1.0,-22.864751999999996,1.0,1.34e-05,1.0
0.113098,1.0,1.214445e-07,1.0,-24.47424,1.0,1.36e-05,1.0
0.113495,1.0,1.23993e-07,1.0,-25.02576,1.0,1.3500000000000001e-05,1.0
0.11392200000000001,1.0,1.2669349999999997e-07,1.0,-24.535763999999997,1.0,1.36e-05,1.0
0.114227,1.0,1.288605e-07,1.0,-23.129532,1.0,1.3699999999999998e-05,1.0
0.11465499999999999,1.0,1.3000499999999998e-07,1.0,-21.052008,1.0,1.3800000000000002e-05,1.0
0.11511199999999999,1.0,1.30371e-07,1.0,-19.253556,1.0,1.39e-05,1.0
0.115448,1.0,1.297605e-07,1.0,-17.943983999999997,1.0,1.3800000000000002e-05,1.0
0.11581400000000001,1.0,1.285705e-07,1.0,-17.37378,1.0,1.39e-05,1.0
0.11624100000000001,1.0,1.26648e-07,1.0,-17.802252,1.0,1.4000000000000001e-05,1.0
0.116577,1.0,1.24893e-07,1.0,-19.039319999999996,1.0,1.42e-05,1.0
0.116974,1.0,1.244355e-07,1.0,-21.052008,1.0,1.4300000000000002e-05,1.0
0.117432,1.0,1.24542e-07,1.0,-22.8186,1.0,1.4099999999999999e-05,1.0
0.117798,1.0,1.25595e-07,1.0,-24.00624,1.0,1.4300000000000002e-05,1.0
0.118164,1.0,1.27365e-07,1.0,-24.267708,1.0,1.4400000000000001e-05,1.0
0.11856099999999999,1.0,1.295625e-07,1.0,-23.516243999999997,1.0,1.4599999999999999e-05,1.0
0.11898800000000001,1.0,1.321715e-07,1.0,-22.002336000000003,1.0,1.4599999999999999e-05,1.0
0.119324,1.0,1.33713e-07,1.0,-20.363148000000002,1.0,1.47e-05,1.0
0.119751,1.0,1.344145e-07,1.0,-18.754776,1.0,1.49e-05,1.0
0.120148,1.0,1.336825e-07,1.0,-17.439695999999998,1.0,1.49e-05,1.0
0.12051400000000001,1.0,1.3237000000000001e-07,1.0,-16.615727999999997,1.0,1.4800000000000002e-05,1.0
0.12088,1.0,1.30844e-07,1.0,-16.802495999999998,1.0,1.4999999999999999e-05,1.0
0.12133800000000002,1.0,1.295625e-07,1.0,-17.680284,1.0,1.52e-05,1.0
0.121735,1.0,1.294555e-07,1.0,-19.126116,1.0,1.5399999999999998e-05,1.0
0.122101,1.0,1.3021849999999997e-07,1.0,-20.697156,1.0,1.51e-05,1.0
0.122528,1.0,1.321565e-07,1.0,-22.127580000000002,1.0,1.5399999999999998e-05,1.0
0.122894,1.0,1.345675e-07,1.0,-22.438476,1.0,1.55e-05,1.0
0.123322,1.0,1.37375e-07,1.0,-21.752928,1.0,1.56e-05,1.0
0.12365699999999999,1.0,1.3951099999999998e-07,1.0,-20.193984,1.0,1.56e-05,1.0
0.124115,1.0,1.4128099999999998e-07,1.0,-18.410904000000002,1.0,1.58e-05,1.0
0.12451199999999998,1.0,1.42151e-07,1.0,-16.57836,1.0,1.59e-05,1.0
0.124847,1.0,1.4212049999999997e-07,1.0,-15.15564,1.0,1.6e-05,1.0
0.12521400000000002,1.0,1.4152549999999998e-07,1.0,-14.588747999999999,1.0,1.6100000000000002e-05,1.0
0.12558,1.0,1.3993849999999998e-07,1.0,-14.722776,1.0,1.6e-05,1.0
0.126099,1.0,1.3890099999999998e-07,1.0,-15.762095999999996,1.0,1.62e-05,1.0
0.126343,1.0,1.37787e-07,1.0,-17.76708,1.0,1.62e-05,1.0
0.126862,1.0,1.3734449999999998e-07,1.0,-20.365344,1.0,1.63e-05,1.0
0.127167,1.0,1.37802e-07,1.0,-22.602168,1.0,1.63e-05,1.0
0.127625,1.0,1.3908399999999998e-07,1.0,-24.17652,1.0,1.67e-05,1.0
0.128021,1.0,1.410675e-07,1.0,-24.63354,1.0,1.66e-05,1.0
0.128387,1.0,1.437835e-07,1.0,-23.842512,1.0,1.7e-05,1.0
0.12878399999999998,1.0,1.46179e-07,1.0,-22.316544,1.0,1.7e-05,1.0
0.129211,1.0,1.4756749999999997e-07,1.0,-20.570796,1.0,1.7100000000000002e-05,1.0
0.129547,1.0,1.4773549999999998e-07,1.0,-18.899784,1.0,1.7100000000000002e-05,1.0
0.129974,1.0,1.47125e-07,1.0,-17.864856,1.0,1.73e-05,1.0
0.130402,1.0,1.4601149999999998e-07,1.0,-17.740727999999997,1.0,1.73e-05,1.0
0.130829,1.0,1.4549249999999998e-07,1.0,-18.303227999999997,1.0,1.74e-05,1.0
0.131195,1.0,1.45569e-07,1.0,-19.694088,1.0,1.77e-05,1.0
0.13153099999999998,1.0,1.4640799999999997e-07,1.0,-21.477168,1.0,1.76e-05,1.0
0.13189700000000001,1.0,1.477205e-07,1.0,-23.323968,1.0,1.7800000000000002e-05,1.0
0.132355,1.0,1.498565e-07,1.0,-24.790644,1.0,1.76e-05,1.0
0.132751,1.0,1.522825e-07,1.0,-25.255367999999997,1.0,1.7899999999999998e-05,1.0
0.133148,1.0,1.5509049999999998e-07,1.0,-24.946668,1.0,1.8e-05,1.0
0.13351400000000002,1.0,1.570435e-07,1.0,-23.578848,1.0,1.83e-05,1.0
0.133911,1.0,1.57776e-07,1.0,-21.673836,1.0,1.84e-05,1.0
0.134277,1.0,1.5756249999999998e-07,1.0,-19.913832000000003,1.0,1.84e-05,1.0
0.134705,1.0,1.56555e-07,1.0,-18.607536,1.0,1.86e-05,1.0
0.13504000000000002,1.0,1.5531900000000002e-07,1.0,-17.924183999999997,1.0,1.87e-05,1.0
0.135468,1.0,1.5402199999999997e-07,1.0,-18.174672000000005,1.0,1.88e-05,1.0
0.13589500000000002,1.0,1.53549e-07,1.0,-19.193112,1.0,1.88e-05,1.0
0.136261,1.0,1.53763e-07,1.0,-20.968488,1.0,1.9e-05,1.0
0.136749,1.0,1.5509049999999998e-07,1.0,-22.908707999999997,1.0,1.92e-05,1.0
0.13711500000000001,1.0,1.56357e-07,1.0,-24.379776,1.0,1.92e-05,1.0
0.137482,1.0,1.579285e-07,1.0,-24.8445,1.0,1.92e-05,1.0
0.137878,1.0,1.5995799999999998e-07,1.0,-24.686280000000004,1.0,1.93e-05,1.0
0.138275,1.0,1.61667e-07,1.0,-23.60304,1.0,1.95e-05,1.0
0.138763,1.0,1.6358949999999998e-07,1.0,-22.191300000000002,1.0,1.9600000000000002e-05,1.0
0.139008,1.0,1.6506949999999997e-07,1.0,-20.602656000000003,1.0,1.95e-05,1.0
0.139465,1.0,1.657105e-07,1.0,-19.321668,1.0,1.9600000000000002e-05,1.0
0.139862,1.0,1.65024e-07,1.0,-18.7119,1.0,1.9699999999999998e-05,1.0
0.140228,1.0,1.636505e-07,1.0,-18.617436,1.0,1.98e-05,1.0
0.140656,1.0,1.620635e-07,1.0,-19.133784,1.0,1.99e-05,1.0
0.140991,1.0,1.617125e-07,1.0,-20.009412,1.0,1.99e-05,1.0
0.141388,1.0,1.617125e-07,1.0,-21.147588,1.0,2e-05,1.0
0.141724,1.0,1.6299449999999997e-07,1.0,-22.251708,1.0,1.99e-05,1.0
0.142151,1.0,1.6548149999999999e-07,1.0,-22.854852,1.0,2.02e-05,1.0
0.142578,1.0,1.685335e-07,1.0,-22.869144,1.0,2.02e-05,1.0
0.14294400000000002,1.0,1.7166149999999998e-07,1.0,-22.283568,1.0,2.0399999999999998e-05,1.0
0.143311,1.0,1.7381300000000002e-07,1.0,-20.923451999999997,1.0,2.05e-05,1.0
0.143768,1.0,1.744535e-07,1.0,-19.246932,1.0,2.0399999999999998e-05,1.0
0.144104,1.0,1.73767e-07,1.0,-18.05382,1.0,2.05e-05,1.0
0.144531,1.0,1.722565e-07,1.0,-17.517708,1.0,2.09e-05,1.0
0.144928,1.0,1.7028800000000002e-07,1.0,-17.615484,1.0,2.0399999999999998e-05,1.0
0.145264,1.0,1.6900649999999999e-07,1.0,-18.188964,1.0,2.08e-05,1.0
0.14569100000000001,1.0,1.6784649999999997e-07,1.0,-19.40184,1.0,2.08e-05,1.0
0.14599600000000001,1.0,1.6838050000000002e-07,1.0,-20.570796,1.0,2.1e-05,1.0
0.146454,1.0,1.6981500000000002e-07,1.0,-21.503556,1.0,2.09e-05,1.0
0.146851,1.0,1.72302e-07,1.0,-22.191300000000002,1.0,2.11e-05,1.0
0.14721700000000001,1.0,1.75766e-07,1.0,-22.443984,1.0,2.13e-05,1.0
0.147644,1.0,1.78787e-07,1.0,-22.077036,1.0,2.15e-05,1.0
0.147949,1.0,1.809845e-07,1.0,-21.164075999999998,1.0,2.17e-05,1.0
0.148346,1.0,1.825255e-07,1.0,-20.18736,1.0,2.1600000000000003e-05,1.0
0.14868199999999998,1.0,1.8290699999999998e-07,1.0,-19.206288,1.0,2.17e-05,1.0
0.14917,1.0,1.8251049999999997e-07,1.0,-18.363636,1.0,2.2100000000000002e-05,1.0
0.149536,1.0,1.80969e-07,1.0,-17.898912000000003,1.0,2.22e-05,1.0
0.149963,1.0,1.7965699999999998e-07,1.0,-18.101088,1.0,2.2100000000000002e-05,1.0
0.15033,1.0,1.788175e-07,1.0,-18.804204,1.0,2.24e-05,1.0
0.150726,1.0,1.7858899999999999e-07,1.0,-19.879776,1.0,2.24e-05,1.0
0.151062,1.0,1.796265e-07,1.0,-21.12012,1.0,2.23e-05,1.0
0.15152000000000002,1.0,1.81839e-07,1.0,-22.125384,1.0,2.25e-05,1.0
0.151917,1.0,1.8464649999999999e-07,1.0,-22.599972,1.0,2.3e-05,1.0
0.152283,1.0,1.8779000000000002e-07,1.0,-22.346207999999997,1.0,2.2899999999999998e-05,1.0
0.152679,1.0,1.9062799999999998e-07,1.0,-21.429936,1.0,2.3199999999999998e-05,1.0
0.153076,1.0,1.925505e-07,1.0,-20.354363999999997,1.0,2.33e-05,1.0
0.153534,1.0,1.9319149999999999e-07,1.0,-19.192032,1.0,2.33e-05,1.0
0.15387,1.0,1.9270299999999998e-07,1.0,-18.251604,1.0,2.35e-05,1.0
0.15423599999999998,1.0,1.9168099999999998e-07,1.0,-17.897832,1.0,2.35e-05,1.0
0.154541,1.0,1.8971249999999999e-07,1.0,-18.045036,1.0,2.35e-05,1.0
0.155029,1.0,1.882325e-07,1.0,-18.767952,1.0,2.3800000000000003e-05,1.0
0.155334,1.0,1.875915e-07,1.0,-19.881972,1.0,2.36e-05,1.0
0.155823,1.0,1.875305e-07,1.0,-20.965212,1.0,2.4e-05,1.0
0.156158,1.0,1.889345e-07,1.0,-21.922127999999997,1.0,2.3899999999999998e-05,1.0
0.156555,1.0,1.9110099999999999e-07,1.0,-22.639536,1.0,2.4299999999999998e-05,1.0
0.156952,1.0,1.941985e-07,1.0,-23.172372000000003,1.0,2.44e-05,1.0
0.157349,1.0,1.968535e-07,1.0,-23.253660000000004,1.0,2.44e-05,1.0
0.157654,1.0,1.99356e-07,1.0,-22.740588,1.0,2.46e-05,1.0
0.158081,1.0,2.0085150000000002e-07,1.0,-21.647448,1.0,2.47e-05,1.0
0.15856900000000002,1.0,2.01294e-07,1.0,-20.63124,1.0,2.49e-05,1.0
0.158905,1.0,2.01294e-07,1.0,-19.798451999999997,1.0,2.5e-05,1.0
0.15924100000000002,1.0,2.006835e-07,1.0,-19.297476,1.0,2.52e-05,1.0
0.159729,1.0,1.9956949999999997e-07,1.0,-19.390860000000004,1.0,2.52e-05,1.0
0.16003399999999998,1.0,1.9821150000000001e-07,1.0,-19.972044,1.0,2.55e-05,1.0
0.160461,1.0,1.97815e-07,1.0,-20.845476,1.0,2.55e-05,1.0
0.160889,1.0,1.99188e-07,1.0,-22.015512,1.0,2.57e-05,1.0
0.16128499999999998,1.0,2.011415e-07,1.0,-23.18994,1.0,2.59e-05,1.0
0.161652,1.0,2.0414749999999997e-07,1.0,-24.174324000000002,1.0,2.62e-05,1.0
0.162048,1.0,2.07321e-07,1.0,-24.599484,1.0,2.62e-05,1.0
0.162476,1.0,2.1041849999999999e-07,1.0,-24.45228,1.0,2.64e-05,1.0
0.16284200000000001,1.0,2.1286e-07,1.0,-23.830452,1.0,2.65e-05,1.0
0.163208,1.0,2.138215e-07,1.0,-22.75488,1.0,2.65e-05,1.0
0.163635,1.0,2.133025e-07,1.0,-21.440916,1.0,2.6700000000000002e-05,1.0
0.164001,1.0,2.119445e-07,1.0,-20.264292,1.0,2.6899999999999997e-05,1.0
0.164429,1.0,2.1025100000000002e-07,1.0,-19.706184,1.0,2.7000000000000002e-05,1.0
0.16476400000000002,1.0,2.088625e-07,1.0,-19.818251999999998,1.0,2.7300000000000003e-05,1.0
0.165222,1.0,2.0823649999999997e-07,1.0,-20.601575999999998,1.0,2.7399999999999995e-05,1.0
0.16561900000000002,1.0,2.084505e-07,1.0,-22.047372000000003,1.0,2.75e-05,1.0
0.165894,1.0,2.0956399999999998e-07,1.0,-23.456916000000003,1.0,2.7600000000000003e-05,1.0
0.166351,1.0,2.1189899999999996e-07,1.0,-24.48522,1.0,2.7899999999999997e-05,1.0
0.166718,1.0,2.1505749999999998e-07,1.0,-24.742296,1.0,2.78e-05,1.0
0.167114,1.0,2.18048e-07,1.0,-24.379776,1.0,2.78e-05,1.0
0.167572,1.0,2.2106950000000002e-07,1.0,-23.254776,1.0,2.8100000000000002e-05,1.0
0.167938,1.0,2.2302249999999998e-07,1.0,-21.763908,1.0,2.8100000000000002e-05,1.0
0.168304,1.0,2.2361750000000002e-07,1.0,-20.231316,1.0,2.8199999999999998e-05,1.0
0.168732,1.0,2.22595e-07,1.0,-19.057968,1.0,2.84e-05,1.0
0.169128,1.0,2.2091649999999998e-07,1.0,-18.617436,1.0,2.8699999999999996e-05,1.0
0.169525,1.0,2.1826149999999996e-07,1.0,-18.897588,1.0,2.8699999999999996e-05,1.0
0.16989100000000001,1.0,2.163545e-07,1.0,-19.766592,1.0,2.8999999999999997e-05,1.0
0.170349,1.0,2.15454e-07,1.0,-21.235464,1.0,2.8899999999999998e-05,1.0
0.170685,1.0,2.1606449999999998e-07,1.0,-22.941648,1.0,2.9299999999999997e-05,1.0
0.171051,1.0,2.1807849999999996e-07,1.0,-24.221556,1.0,2.9100000000000003e-05,1.0
0.171478,1.0,2.2129799999999997e-07,1.0,-24.821424,1.0,2.9299999999999997e-05,1.0
0.171875,1.0,2.254485e-07,1.0,-24.691788,1.0,2.9600000000000005e-05,1.0
0.172241,1.0,2.2985849999999998e-07,1.0,-23.849136,1.0,2.97e-05,1.0
0.17266800000000002,1.0,2.3266599999999997e-07,1.0,-22.423104000000002,1.0,2.99e-05,1.0
0.173004,1.0,2.33902e-07,1.0,-20.602656000000003,1.0,3.01e-05,1.0
0.173431,1.0,2.33551e-07,1.0,-18.771228,1.0,3.02e-05,1.0
0.173737,1.0,2.31354e-07,1.0,-17.292492000000003,1.0,3.0299999999999998e-05,1.0
0.174225,1.0,2.2921750000000002e-07,1.0,-16.720092,1.0,3.04e-05,1.0
0.174622,1.0,2.27173e-07,1.0,-17.433107999999997,1.0,3.04e-05,1.0
0.174988,1.0,2.27051e-07,1.0,-19.126116,1.0,3.06e-05,1.0
0.175446,1.0,2.2834799999999997e-07,1.0,-21.009168,1.0,3.09e-05,1.0
0.175751,1.0,2.31369e-07,1.0,-22.708728,1.0,3.11e-05,1.0
0.176208,1.0,2.3503099999999998e-07,1.0,-23.818356,1.0,3.12e-05,1.0
0.176575,1.0,2.38785e-07,1.0,-24.169931999999996,1.0,3.15e-05,1.0
0.17697100000000002,1.0,2.416685e-07,1.0,-23.895251999999996,1.0,3.14e-05,1.0
0.177368,1.0,2.4359149999999996e-07,1.0,-22.614264,1.0,3.17e-05,1.0
0.177765,1.0,2.436065e-07,1.0,-20.726819999999996,1.0,3.18e-05,1.0
0.17819200000000002,1.0,2.42935e-07,1.0,-18.770148,1.0,3.19e-05,1.0
0.178558,1.0,2.416535e-07,1.0,-17.627580000000002,1.0,3.2e-05,1.0
0.178894,1.0,2.39792e-07,1.0,-17.495712,1.0,3.229999999999999e-05,1.0
0.17938199999999999,1.0,2.37915e-07,1.0,-18.30762,1.0,3.26e-05,1.0
0.17971800000000002,1.0,2.3637399999999997e-07,1.0,-19.768788,1.0,3.26e-05,1.0
0.180115,1.0,2.36389e-07,1.0,-21.5244,1.0,3.289999999999999e-05,1.0
0.180542,1.0,2.38495e-07,1.0,-23.081184,1.0,3.28e-05,1.0
0.18093900000000002,1.0,2.423095e-07,1.0,-24.300648000000002,1.0,3.3100000000000005e-05,1.0
0.181274,1.0,2.4737549999999996e-07,1.0,-24.731316,1.0,3.3100000000000005e-05,1.0
0.18161,1.0,2.524415e-07,1.0,-24.174324000000002,1.0,3.3299999999999996e-05,1.0
0.182068,1.0,2.56302e-07,1.0,-22.590072,1.0,3.34e-05,1.0
0.18243399999999999,1.0,2.58255e-07,1.0,-20.698236,1.0,3.37e-05,1.0
0.182831,1.0,2.5802600000000004e-07,1.0,-18.899784,1.0,3.3799999999999995e-05,1.0
0.183197,1.0,2.554015e-07,1.0,-17.68248,1.0,3.3799999999999995e-05,1.0
0.183624,1.0,2.50656e-07,1.0,-17.352899999999998,1.0,3.41e-05,1.0
0.18399000000000001,1.0,2.463835e-07,1.0,-18.220824,1.0,3.41e-05,1.0
0.184387,1.0,2.43988e-07,1.0,-20.086307999999995,1.0,3.4399999999999996e-05,1.0
0.184814,1.0,2.4424749999999996e-07,1.0,-22.421988,1.0,3.46e-05,1.0
0.18518099999999998,1.0,2.46353e-07,1.0,-24.443496,1.0,3.48e-05,1.0
0.185638,1.0,2.5100700000000005e-07,1.0,-25.683839999999996,1.0,3.5e-05,1.0
0.185974,1.0,2.573855e-07,1.0,-25.835436000000005,1.0,3.5e-05,1.0
0.186371,1.0,2.6338199999999997e-07,1.0,-25.160904000000002,1.0,3.53e-05,1.0
0.18676800000000002,1.0,2.6824949999999997e-07,1.0,-23.917248000000004,1.0,3.52e-05,1.0
0.187134,1.0,2.711485e-07,1.0,-22.339584,1.0,3.5600000000000005e-05,1.0
0.187531,1.0,2.71103e-07,1.0,-20.587284,1.0,3.570000000000001e-05,1.0
0.187927,1.0,2.6826500000000003e-07,1.0,-18.972288,1.0,3.5799999999999996e-05,1.0
0.18829300000000002,1.0,2.631835e-07,1.0,-18.029663999999997,1.0,3.59e-05,1.0
0.18869,1.0,2.58301e-07,1.0,-18.153792000000003,1.0,3.59e-05,1.0
0.18908699999999998,1.0,2.544555e-07,1.0,-19.286496,1.0,3.64e-05,1.0
0.189423,1.0,2.53296e-07,1.0,-21.320064,1.0,3.6200000000000006e-05,1.0
0.18988,1.0,2.55249e-07,1.0,-23.625,1.0,3.66e-05,1.0
0.190277,1.0,2.5930799999999996e-07,1.0,-25.477308,1.0,3.68e-05,1.0
0.190643,1.0,2.64755e-07,1.0,-26.513316000000003,1.0,3.68e-05,1.0
0.191071,1.0,2.706755e-07,1.0,-26.2683,1.0,3.69e-05,1.0
0.191406,1.0,2.764585e-07,1.0,-24.800544,1.0,3.69e-05,1.0
0.191772,1.0,2.8039550000000003e-07,1.0,-22.447260000000004,1.0,3.72e-05,1.0
0.1922,1.0,2.8125e-07,1.0,-20.003904000000002,1.0,3.74e-05,1.0
0.192627,1.0,2.797395e-07,1.0,-18.076895999999998,1.0,3.76e-05,1.0
0.192993,1.0,2.76291e-07,1.0,-17.100216,1.0,3.77e-05,1.0
0.193359,1.0,2.71759e-07,1.0,-17.619875999999998,1.0,3.81e-05,1.0
0.19375599999999998,1.0,2.682955e-07,1.0,-19.172232,1.0,3.81e-05,1.0
0.194153,1.0,2.675325e-07,1.0,-21.578256000000003,1.0,3.82e-05,1.0
0.19455,1.0,2.6953149999999994e-07,1.0,-24.175404,1.0,3.84e-05,1.0
0.194946,1.0,2.740935e-07,1.0,-26.239752,1.0,3.84e-05,1.0
0.19531300000000001,1.0,2.8067e-07,1.0,-27.279036,1.0,3.85e-05,1.0
0.195709,1.0,2.8718549999999995e-07,1.0,-27.191160000000004,1.0,3.9e-05,1.0
0.196106,1.0,2.92557e-07,1.0,-26.068356,1.0,3.929999999999999e-05,1.0
0.196503,1.0,2.958525e-07,1.0,-23.907348000000002,1.0,3.929999999999999e-05,1.0
0.19693,1.0,2.96356e-07,1.0,-21.320064,1.0,3.929999999999999e-05,1.0
0.197327,1.0,2.953645e-07,1.0,-19.01844,1.0,3.97e-05,1.0
0.19766199999999998,1.0,2.92328e-07,1.0,-17.717651999999998,1.0,3.9500000000000005e-05,1.0
0.19805899999999999,1.0,2.8863549999999995e-07,1.0,-17.865972000000003,1.0,4e-05,1.0
0.198456,1.0,2.8547649999999994e-07,1.0,-19.324944,1.0,4.01e-05,1.0
0.198822,1.0,2.84149e-07,1.0,-21.644172000000005,1.0,4.03e-05,1.0
0.199188,1.0,2.85904e-07,1.0,-24.233652,1.0,4.02e-05,1.0
0.19961500000000001,1.0,2.9106149999999995e-07,1.0,-26.187012,1.0,4.02e-05,1.0
0.200012,1.0,2.9789749999999997e-07,1.0,-26.993412,1.0,4.0600000000000004e-05,1.0
0.200439,1.0,3.0390949999999996e-07,1.0,-26.726436,1.0,4.07e-05,1.0
0.20080599999999998,1.0,3.0830400000000003e-07,1.0,-25.469604,1.0,4.0799999999999996e-05,1.0
0.201202,1.0,3.103945e-07,1.0,-23.485464,1.0,4.1e-05,1.0
0.201599,1.0,3.088835e-07,1.0,-21.145392,1.0,4.09e-05,1.0
0.201965,1.0,3.05786e-07,1.0,-19.067867999999997,1.0,4.14e-05,1.0
0.20239300000000002,1.0,3.01483e-07,1.0,-17.628660000000004,1.0,4.15e-05,1.0
0.202789,1.0,2.9708850000000003e-07,1.0,-17.29908,1.0,4.1700000000000004e-05,1.0
0.20318599999999998,1.0,2.93564e-07,1.0,-18.293327999999995,1.0,4.210000000000001e-05,1.0
0.203552,1.0,2.91992e-07,1.0,-20.329092,1.0,4.210000000000001e-05,1.0
0.203979,1.0,2.94281e-07,1.0,-22.908707999999997,1.0,4.23e-05,1.0
0.204346,1.0,2.9882800000000003e-07,1.0,-25.223508,1.0,4.24e-05,1.0
0.204773,1.0,3.051145e-07,1.0,-26.486928,1.0,4.270000000000001e-05,1.0
0.205078,1.0,3.12073e-07,1.0,-26.615484,1.0,4.28e-05,1.0
0.20550500000000002,1.0,3.1808449999999997e-07,1.0,-25.649784,1.0,4.29e-05,1.0
0.205933,1.0,3.220825e-07,1.0,-23.832648,1.0,4.3e-05,1.0
0.20632899999999998,1.0,3.2333349999999996e-07,1.0,-21.453012,1.0,4.3200000000000007e-05,1.0
0.20672600000000002,1.0,3.2157899999999997e-07,1.0,-19.157976,1.0,4.35e-05,1.0
0.207092,1.0,3.17322e-07,1.0,-17.674812,1.0,4.36e-05,1.0
0.20755,1.0,3.11798e-07,1.0,-17.239752,1.0,4.3700000000000005e-05,1.0
0.20788600000000002,1.0,3.07297e-07,1.0,-18.052739999999996,1.0,4.4200000000000004e-05,1.0
0.208252,1.0,3.0509949999999993e-07,1.0,-19.8567,1.0,4.39e-05,1.0
0.20874,1.0,3.065035e-07,1.0,-22.246199999999998,1.0,4.45e-05,1.0
0.209137,1.0,3.111725e-07,1.0,-24.455555999999998,1.0,4.47e-05,1.0
0.20950300000000002,1.0,3.18573e-07,1.0,-25.856316000000003,1.0,4.48e-05,1.0
0.209961,1.0,3.2688899999999996e-07,1.0,-25.89696,1.0,4.52e-05,1.0
0.21026599999999998,1.0,3.3409099999999997e-07,1.0,-24.8247,1.0,4.5299999999999997e-05,1.0
0.21066300000000002,1.0,3.37555e-07,1.0,-22.852656000000003,1.0,4.54e-05,1.0
0.211029,1.0,3.375245e-07,1.0,-20.512583999999997,1.0,4.57e-05,1.0
0.211456,1.0,3.347015e-07,1.0,-18.61632,1.0,4.59e-05,1.0
0.211853,1.0,3.29544e-07,1.0,-17.54406,1.0,4.6200000000000005e-05,1.0
0.21225,1.0,3.235625e-07,1.0,-17.597916,1.0,4.6500000000000005e-05,1.0
0.212585,1.0,3.176725e-07,1.0,-18.568008,1.0,4.68e-05,1.0
0.21304299999999998,1.0,3.145295e-07,1.0,-20.442276,1.0,4.6899999999999995e-05,1.0
0.21337899999999999,1.0,3.144685e-07,1.0,-22.740588,1.0,4.7e-05,1.0
0.213745,1.0,3.175355e-07,1.0,-24.77196,1.0,4.72e-05,1.0
0.21417199999999997,1.0,3.224945e-07,1.0,-25.664076,1.0,4.74e-05,1.0
0.214569,1.0,3.2864399999999996e-07,1.0,-25.505856,1.0,4.7499999999999996e-05,1.0
0.214966,1.0,3.3535749999999994e-07,1.0,-24.395148,1.0,4.77e-05,1.0
0.215271,1.0,3.40866e-07,1.0,-22.550544,1.0,4.7799999999999996e-05,1.0
0.21566799999999997,1.0,3.434295e-07,1.0,-20.382948000000003,1.0,4.79e-05,1.0
0.21606399999999998,1.0,3.4271249999999994e-07,1.0,-18.411984,1.0,4.8100000000000004e-05,1.0
0.21646100000000001,1.0,3.39264e-07,1.0,-17.233164,1.0,4.8200000000000006e-05,1.0
0.216919,1.0,3.34976e-07,1.0,-17.110116,1.0,4.84e-05,1.0
0.217194,1.0,3.3122249999999993e-07,1.0,-17.895636000000003,1.0,4.8599999999999995e-05,1.0
0.217651,1.0,3.2929999999999996e-07,1.0,-19.487556,1.0,4.9e-05,1.0
0.218079,1.0,3.2995599999999997e-07,1.0,-21.644172000000005,1.0,4.9e-05,1.0
0.218414,1.0,3.3299250000000004e-07,1.0,-23.567867999999997,1.0,4.91e-05,1.0
0.218781,1.0,3.3830249999999997e-07,1.0,-24.800544,1.0,4.92e-05,1.0
0.219177,1.0,3.447265e-07,1.0,-25.178472000000003,1.0,4.95e-05,1.0
0.219574,1.0,3.5154699999999996e-07,1.0,-24.697260000000004,1.0,4.98e-05,1.0
0.220032,1.0,3.56781e-07,1.0,-23.483268000000002,1.0,4.98e-05,1.0
0.220398,1.0,3.5960399999999997e-07,1.0,-21.924324000000002,1.0,5.01e-05,1.0
0.220825,1.0,3.5902399999999995e-07,1.0,-20.301624,1.0,5.02e-05,1.0
0.22113000000000002,1.0,3.559875e-07,1.0,-19.028304,1.0,5.03e-05,1.0
0.221588,1.0,3.5159299999999996e-07,1.0,-18.333972000000003,1.0,5.0600000000000003e-05,1.0
0.22195399999999998,1.0,3.466645e-07,1.0,-18.542735999999998,1.0,5.0600000000000003e-05,1.0
0.22238200000000002,1.0,3.42636e-07,1.0,-19.756728000000003,1.0,5.12e-05,1.0
0.222717,1.0,3.406065e-07,1.0,-21.718871999999998,1.0,5.11e-05,1.0
0.22314499999999998,1.0,3.41919e-07,1.0,-23.939208,1.0,5.14e-05,1.0
0.22351100000000002,1.0,3.4669499999999997e-07,1.0,-25.678332,1.0,5.17e-05,1.0
0.22390700000000002,1.0,3.5310349999999994e-07,1.0,-26.407836000000003,1.0,5.2000000000000004e-05,1.0
0.22427399999999997,1.0,3.60153e-07,1.0,-26.112312000000003,1.0,5.2000000000000004e-05,1.0
0.224701,1.0,3.6730949999999996e-07,1.0,-25.081775999999998,1.0,5.24e-05,1.0
0.22506700000000002,1.0,3.7205500000000003e-07,1.0,-23.422860000000004,1.0,5.2600000000000005e-05,1.0
0.225433,1.0,3.7347399999999997e-07,1.0,-21.537612,1.0,5.2300000000000004e-05,1.0
0.225861,1.0,3.7156699999999995e-07,1.0,-20.002823999999997,1.0,5.27e-05,1.0
0.226257,1.0,3.67401e-07,1.0,-19.176624,1.0,5.2900000000000005e-05,1.0
0.22662399999999996,1.0,3.61618e-07,1.0,-19.141488,1.0,5.31e-05,1.0
0.227081,1.0,3.5672e-07,1.0,-20.066544,1.0,5.31e-05,1.0
0.227386,1.0,3.5386649999999993e-07,1.0,-21.894660000000002,1.0,5.3700000000000004e-05,1.0
0.227814,1.0,3.5476699999999996e-07,1.0,-24.175404,1.0,5.36e-05,1.0
0.22821,1.0,3.599245e-07,1.0,-26.158464,1.0,5.4000000000000005e-05,1.0
0.228577,1.0,3.679045e-07,1.0,-27.224136000000005,1.0,5.41e-05,1.0
0.228973,1.0,3.75824e-07,1.0,-27.191160000000004,1.0,5.4000000000000005e-05,1.0
0.22937,1.0,3.82538e-07,1.0,-26.282592,1.0,5.45e-05,1.0
0.22979699999999997,1.0,3.8742049999999997e-07,1.0,-24.758784,1.0,5.4600000000000006e-05,1.0
0.230225,1.0,3.889465e-07,1.0,-23.09436,1.0,5.489999999999999e-05,1.0
0.230591,1.0,3.8711549999999997e-07,1.0,-21.635388,1.0,5.5100000000000004e-05,1.0
0.230927,1.0,3.834535e-07,1.0,-20.761956,1.0,5.520000000000001e-05,1.0
0.231384,1.0,3.7841799999999997e-07,1.0,-20.622419999999998,1.0,5.539999999999999e-05,1.0
0.23175,1.0,3.7420649999999997e-07,1.0,-21.399155999999998,1.0,5.550000000000001e-05,1.0
0.23211700000000002,1.0,3.707125e-07,1.0,-22.68018,1.0,5.5799999999999994e-05,1.0
0.232483,1.0,3.69858e-07,1.0,-24.083136000000003,1.0,5.6200000000000004e-05,1.0
0.23294099999999998,1.0,3.720095e-07,1.0,-25.276248000000002,1.0,5.6399999999999995e-05,1.0
0.233276,1.0,3.76892e-07,1.0,-25.776108,1.0,5.660000000000001e-05,1.0
0.23373400000000003,1.0,3.8238549999999995e-07,1.0,-25.320204,1.0,5.67e-05,1.0
0.234131,1.0,3.8711549999999997e-07,1.0,-24.171012,1.0,5.7100000000000006e-05,1.0
0.234467,1.0,3.90167e-07,1.0,-22.481316,1.0,5.739999999999999e-05,1.0
0.23486300000000002,1.0,3.9062499999999997e-07,1.0,-20.742192,1.0,5.739999999999999e-05,1.0
0.23526,1.0,3.889465e-07,1.0,-19.206288,1.0,5.79e-05,1.0
0.23562600000000003,1.0,3.8558949999999993e-07,1.0,-18.193356,1.0,5.79e-05,1.0
0.23608400000000002,1.0,3.8162249999999996e-07,1.0,-17.716535999999998,1.0,5.8299999999999994e-05,1.0
0.23642,1.0,3.7872299999999997e-07,1.0,-18.152712,1.0,5.8399999999999997e-05,1.0
0.23675500000000002,1.0,3.7735000000000003e-07,1.0,-19.326060000000002,1.0,5.8399999999999997e-05,1.0
0.237183,1.0,3.782655e-07,1.0,-20.752092,1.0,5.88e-05,1.0
0.23757899999999998,1.0,3.81317e-07,1.0,-22.074840000000002,1.0,5.88e-05,1.0
0.23800700000000002,1.0,3.86963e-07,1.0,-23.007564,1.0,5.920000000000001e-05,1.0
0.238434,1.0,3.933715e-07,1.0,-23.51952,1.0,5.96e-05,1.0
0.2388,1.0,3.996275e-07,1.0,-23.436036,1.0,5.9699999999999994e-05,1.0
0.23913600000000002,1.0,4.0420549999999997e-07,1.0,-22.578012,1.0,5.9999999999999995e-05,1.0
0.239563,1.0,4.0557849999999997e-07,1.0,-21.158568,1.0,5.99e-05,1.0
0.239929,1.0,4.048155e-07,1.0,-19.543572000000005,1.0,6.02e-05,1.0
0.24029499999999998,1.0,4.0206899999999997e-07,1.0,-18.203256000000003,1.0,6.05e-05,1.0
0.240723,1.0,3.988645e-07,1.0,-17.391348,1.0,6.04e-05,1.0
0.241119,1.0,3.947449999999999e-07,1.0,-17.188128,1.0,6.1e-05,1.0
0.24151599999999998,1.0,3.912355e-07,1.0,-17.822016,1.0,6.1e-05,1.0
0.24191300000000002,1.0,3.904725e-07,1.0,-18.94374,1.0,6.13e-05,1.0
0.242279,1.0,3.9169299999999996e-07,1.0,-20.189592,1.0,6.17e-05,1.0
0.242615,1.0,3.967285e-07,1.0,-21.144275999999998,1.0,6.159999999999999e-05,1.0
0.243042,1.0,4.0344250000000003e-07,1.0,-21.5244,1.0,6.21e-05,1.0
0.243439,1.0,4.1015649999999997e-07,1.0,-21.350844000000002,1.0,6.22e-05,1.0
0.243835,1.0,4.167175e-07,1.0,-20.836655999999998,1.0,6.25e-05,1.0
0.244141,1.0,4.216005e-07,1.0,-20.193984,1.0,6.28e-05,1.0
0.244598,1.0,4.2419449999999995e-07,1.0,-19.58094,1.0,6.28e-05,1.0
0.244934,1.0,4.23889e-07,1.0,-19.235951999999997,1.0,6.31e-05,1.0
0.245331,1.0,4.2098999999999996e-07,1.0,-19.282104,1.0,6.31e-05,1.0
0.24572800000000003,1.0,4.164125e-07,1.0,-19.767708,1.0,6.35e-05,1.0
0.24612399999999998,1.0,4.1213999999999993e-07,1.0,-20.553227999999997,1.0,6.36e-05,1.0
0.246521,1.0,4.0908799999999996e-07,1.0,-21.702384,1.0,6.4e-05,1.0
0.246887,1.0,4.06952e-07,1.0,-23.111928,1.0,6.409999999999999e-05,1.0
0.24734499999999998,1.0,4.0725700000000003e-07,1.0,-24.31494,1.0,6.43e-05,1.0
0.24768099999999998,1.0,4.10309e-07,1.0,-25.022448,1.0,6.459999999999998e-05,1.0
0.248108,1.0,4.148865e-07,1.0,-25.03566,1.0,6.49e-05,1.0
0.248444,1.0,4.2007449999999994e-07,1.0,-24.475355999999998,1.0,6.47e-05,1.0
0.24881,1.0,4.248045e-07,1.0,-23.175648000000002,1.0,6.53e-05,1.0
0.249268,1.0,4.267885e-07,1.0,-21.303576,1.0,6.52e-05,1.0
0.24963400000000002,1.0,4.2755150000000003e-07,1.0,-19.083239999999996,1.0,6.57e-05,1.0
0.250031,1.0,4.2633050000000005e-07,1.0,-17.141976,1.0,6.579999999999999e-05,1.0
0.250397,1.0,4.2373649999999996e-07,1.0,-16.003800000000002,1.0,6.57e-05,1.0
0.250824,1.0,4.214479999999999e-07,1.0,-15.780744000000002,1.0,6.61e-05,1.0
0.251129,1.0,4.1900649999999995e-07,1.0,-16.33446,1.0,6.64e-05,1.0
0.251587,1.0,4.19159e-07,1.0,-17.346312,1.0,6.659999999999999e-05,1.0
0.25195300000000004,1.0,4.211425e-07,1.0,-18.62514,1.0,6.670000000000001e-05,1.0
0.25235,1.0,4.2495749999999995e-07,1.0,-20.170908,1.0,6.68e-05,1.0
0.252777,1.0,4.301455e-07,1.0,-21.68262,1.0,6.720000000000001e-05,1.0
0.253143,1.0,4.36249e-07,1.0,-22.691160000000004,1.0,6.73e-05,1.0
0.25354,1.0,4.4235249999999995e-07,1.0,-22.960332,1.0,6.759999999999999e-05,1.0
0.253906,1.0,4.4723500000000005e-07,1.0,-22.543956,1.0,6.790000000000001e-05,1.0
0.254272,1.0,4.50897e-07,1.0,-21.426624,1.0,6.8e-05,1.0
0.25473,1.0,4.51355e-07,1.0,-20.130263999999997,1.0,6.829999999999999e-05,1.0
0.255157,1.0,4.4982899999999997e-07,1.0,-19.082160000000002,1.0,6.850000000000001e-05,1.0
0.255524,1.0,4.4708249999999997e-07,1.0,-18.518544,1.0,6.86e-05,1.0
0.25589,1.0,4.4403100000000007e-07,1.0,-18.635004000000002,1.0,6.91e-05,1.0
0.256317,1.0,4.4250500000000003e-07,1.0,-19.349136,1.0,6.91e-05,1.0
0.256653,1.0,4.4281000000000003e-07,1.0,-20.503800000000002,1.0,6.94e-05,1.0
0.25705,1.0,4.4555649999999993e-07,1.0,-21.624372,1.0,6.94e-05,1.0
0.257416,1.0,4.5043950000000004e-07,1.0,-22.549428,1.0,6.979999999999999e-05,1.0
0.257843,1.0,4.5669549999999994e-07,1.0,-23.233896,1.0,7e-05,1.0
0.258209,1.0,4.641725e-07,1.0,-23.469012,1.0,7.020000000000001e-05,1.0
0.258606,1.0,4.7012349999999997e-07,1.0,-23.028444,1.0,7.049999999999999e-05,1.0
0.25906399999999996,1.0,4.74701e-07,1.0,-22.067136,1.0,7.070000000000001e-05,1.0
0.259399,1.0,4.759215e-07,1.0,-20.602656000000003,1.0,7.08e-05,1.0
0.259766,1.0,4.73175e-07,1.0,-19.172232,1.0,7.120000000000001e-05,1.0
0.260193,1.0,4.673765e-07,1.0,-18.098892,1.0,7.120000000000001e-05,1.0
0.26055900000000004,1.0,4.60205e-07,1.0,-17.63964,1.0,7.18e-05,1.0
0.260956,1.0,4.5349099999999994e-07,1.0,-17.848404000000002,1.0,7.190000000000001e-05,1.0
0.261414,1.0,4.496765e-07,1.0,-18.977796,1.0,7.23e-05,1.0
0.26174899999999995,1.0,4.4982899999999997e-07,1.0,-20.849868,1.0,7.240000000000001e-05,1.0
0.262146,1.0,4.5364399999999993e-07,1.0,-22.883436000000003,1.0,7.25e-05,1.0
0.26254299999999997,1.0,4.60663e-07,1.0,-24.190812,1.0,7.290000000000001e-05,1.0
0.262878,1.0,4.6874999999999996e-07,1.0,-24.518195999999996,1.0,7.290000000000001e-05,1.0
0.263306,1.0,4.7668449999999997e-07,1.0,-23.957892,1.0,7.329999999999999e-05,1.0
0.263702,1.0,4.82025e-07,1.0,-22.76478,1.0,7.37e-05,1.0
0.264099,1.0,4.837035e-07,1.0,-21.097044,1.0,7.38e-05,1.0
0.264496,1.0,4.821774999999999e-07,1.0,-19.18764,1.0,7.43e-05,1.0
0.264862,1.0,4.771425e-07,1.0,-17.526492,1.0,7.42e-05,1.0
0.265289,1.0,4.70276e-07,1.0,-16.684919999999998,1.0,7.47e-05,1.0
0.265717,1.0,4.6279899999999996e-07,1.0,-16.778304,1.0,7.49e-05,1.0
0.266052,1.0,4.5761099999999995e-07,1.0,-17.689104,1.0,7.509999999999998e-05,1.0
0.266479,1.0,4.5562749999999994e-07,1.0,-18.927251999999996,1.0,7.53e-05,1.0
0.266846,1.0,4.585265e-07,1.0,-20.236824000000002,1.0,7.56e-05,1.0
0.267242,1.0,4.65851e-07,1.0,-21.361824000000002,1.0,7.57e-05,1.0
0.26757800000000004,1.0,4.7622700000000005e-07,1.0,-22.014395999999998,1.0,7.58e-05,1.0
0.268036,1.0,4.866029999999999e-07,1.0,-21.984732,1.0,7.64e-05,1.0
0.268372,1.0,4.94385e-07,1.0,-21.229992000000003,1.0,7.64e-05,1.0
0.268829,1.0,4.989624999999999e-07,1.0,-19.879776,1.0,7.670000000000001e-05,1.0
0.269257,1.0,4.981994999999999e-07,1.0,-18.1494,1.0,7.709999999999999e-05,1.0
0.26950100000000005,1.0,4.927064999999999e-07,1.0,-16.543224000000002,1.0,7.730000000000001e-05,1.0
0.269958,1.0,4.823305e-07,1.0,-15.408324000000002,1.0,7.75e-05,1.0
0.270386,1.0,4.70581e-07,1.0,-15.160031999999998,1.0,7.79e-05,1.0
0.270721,1.0,4.63104e-07,1.0,-16.115832,1.0,7.79e-05,1.0
0.27111799999999997,1.0,4.615785e-07,1.0,-18.333972000000003,1.0,7.840000000000001e-05,1.0
0.271545,1.0,4.65851e-07,1.0,-20.977308,1.0,7.87e-05,1.0
0.271942,1.0,4.751585e-07,1.0,-23.329476,1.0,7.900000000000001e-05,1.0
0.272308,1.0,4.8645e-07,1.0,-24.743412,1.0,7.94e-05,1.0
0.27270500000000003,1.0,4.96826e-07,1.0,-24.985116,1.0,7.97e-05,1.0
0.273071,1.0,5.0644e-07,1.0,-24.267708,1.0,7.97e-05,1.0
0.273499,1.0,5.1285e-07,1.0,-22.85046,1.0,8e-05,1.0
0.273865,1.0,5.152899999999999e-07,1.0,-20.957507999999997,1.0,8.03e-05,1.0
0.27426100000000003,1.0,5.122399999999999e-07,1.0,-18.9558,1.0,8.070000000000001e-05,1.0
0.27468899999999996,1.0,5.044549999999999e-07,1.0,-17.292492000000003,1.0,8.1e-05,1.0
0.275055,1.0,4.945375e-07,1.0,-16.85412,1.0,8.109999999999999e-05,1.0
0.275482,1.0,4.855345e-07,1.0,-17.984627999999997,1.0,8.13e-05,1.0
0.275848,1.0,4.795835e-07,1.0,-20.379636,1.0,8.159999999999999e-05,1.0
0.27624499999999996,1.0,4.78363e-07,1.0,-23.425056,1.0,8.190000000000001e-05,1.0
0.276611,1.0,4.838560000000001e-07,1.0,-26.155151999999998,1.0,8.22e-05,1.0
0.277008,1.0,4.940795e-07,1.0,-27.707507999999997,1.0,8.26e-05,1.0
0.277435,1.0,5.0644e-07,1.0,-27.696527999999994,1.0,8.290000000000001e-05,1.0
0.277802,1.0,5.168149999999999e-07,1.0,-26.312256,1.0,8.31e-05,1.0
0.278198,1.0,5.23985e-07,1.0,-23.986439999999998,1.0,8.329999999999999e-05,1.0
0.278595,1.0,5.25515e-07,1.0,-21.488148000000002,1.0,8.35e-05,1.0
0.278992,1.0,5.212399999999999e-07,1.0,-19.279908,1.0,8.4e-05,1.0
0.279388,1.0,5.1285e-07,1.0,-17.527572000000003,1.0,8.41e-05,1.0
0.27975500000000003,1.0,5.027749999999999e-07,1.0,-16.580556,1.0,8.44e-05,1.0
0.28018200000000004,1.0,4.93622e-07,1.0,-16.920036,1.0,8.48e-05,1.0
0.280609,1.0,4.89502e-07,1.0,-18.66906,1.0,8.499999999999999e-05,1.0
0.281036,1.0,4.91791e-07,1.0,-21.259656,1.0,8.52e-05,1.0
0.28137199999999996,1.0,5.00335e-07,1.0,-24.015024,1.0,8.540000000000002e-05,1.0
0.281738,1.0,5.13e-07,1.0,-26.16066,1.0,8.57e-05,1.0
0.28213499999999997,1.0,5.28105e-07,1.0,-26.941788000000003,1.0,8.590000000000001e-05,1.0
0.282532,1.0,5.421449999999999e-07,1.0,-26.281512,1.0,8.6e-05,1.0
0.282898,1.0,5.5191e-07,1.0,-24.32592,1.0,8.640000000000001e-05,1.0
0.28329499999999996,1.0,5.55265e-07,1.0,-21.61998,1.0,8.669999999999999e-05,1.0
0.283722,1.0,5.50995e-07,1.0,-18.926136,1.0,8.7e-05,1.0
0.284088,1.0,5.404649999999999e-07,1.0,-16.967268,1.0,8.75e-05,1.0
0.284454,1.0,5.273449999999999e-07,1.0,-16.159788,1.0,8.75e-05,1.0
0.284912,1.0,5.1468e-07,1.0,-16.655256,1.0,8.77e-05,1.0
0.285217,1.0,5.0461e-07,1.0,-18.404280000000004,1.0,8.79e-05,1.0
0.285675,1.0,4.992675e-07,1.0,-20.881728000000003,1.0,8.85e-05,1.0
0.286072,1.0,5.00335e-07,1.0,-23.372316,1.0,8.88e-05,1.0
0.286438,1.0,5.0705e-07,1.0,-25.149888,1.0,8.88e-05,1.0
0.286896,1.0,5.183399999999999e-07,1.0,-25.515756000000003,1.0,8.909999999999998e-05,1.0
0.287231,1.0,5.3009e-07,1.0,-24.217163999999997,1.0,8.94e-05,1.0
0.287659,1.0,5.409249999999999e-07,1.0,-21.43764,1.0,8.98e-05,1.0
0.288025,1.0,5.47485e-07,1.0,-17.929692,1.0,9.01e-05,1.0
0.288452,1.0,5.4901e-07,1.0,-14.467896000000001,1.0,9.02e-05,1.0
0.28875700000000004,1.0,5.44585e-07,1.0,-12.166272,1.0,9.070000000000001e-05,1.0
0.289154,1.0,5.3482e-07,1.0,-11.68506,1.0,9.09e-05,1.0
0.289612,1.0,5.20935e-07,1.0,-12.952872,1.0,9.120000000000001e-05,1.0
0.289948,1.0,5.10255e-07,1.0,-15.81372,1.0,9.159999999999999e-05,1.0
0.29031399999999996,1.0,5.06135e-07,1.0,-19.452384,1.0,9.17e-05,1.0
0.290802,1.0,5.1071e-07,1.0,-22.929551999999997,1.0,9.23e-05,1.0
0.291168,1.0,5.2185e-07,1.0,-25.324596,1.0,9.23e-05,1.0
0.291534,1.0,5.36955e-07,1.0,-26.201304000000004,1.0,9.27e-05,1.0
0.291931,1.0,5.50995e-07,1.0,-25.264152000000003,1.0,9.300000000000001e-05,1.0
0.29232800000000003,1.0,5.610649999999999e-07,1.0,-23.047127999999997,1.0,9.31e-05,1.0
0.292725,1.0,5.648800000000001e-07,1.0,-20.147832,1.0,9.340000000000001e-05,1.0
0.293152,1.0,5.6183e-07,1.0,-17.401248000000002,1.0,9.36e-05,1.0
0.293518,1.0,5.542e-07,1.0,-15.447888,1.0,9.41e-05,1.0
0.293854,1.0,5.4291e-07,1.0,-14.727168,1.0,9.449999999999999e-05,1.0
0.29431199999999996,1.0,5.3116e-07,1.0,-15.477552,1.0,9.44e-05,1.0
0.29470799999999997,1.0,5.212399999999999e-07,1.0,-17.542980000000004,1.0,9.51e-05,1.0
0.29504400000000003,1.0,5.172750000000001e-07,1.0,-20.198376,1.0,9.51e-05,1.0
0.295532,1.0,5.2017e-07,1.0,-22.532976,1.0,9.549999999999999e-05,1.0
0.295837,1.0,5.3009e-07,1.0,-23.68764,1.0,9.6e-05,1.0
0.296265,1.0,5.4535e-07,1.0,-23.662368,1.0,9.58e-05,1.0
0.29657,1.0,5.6061e-07,1.0,-22.625244000000002,1.0,9.640000000000001e-05,1.0
0.296967,1.0,5.714399999999999e-07,1.0,-20.882808,1.0,9.67e-05,1.0
0.29742399999999997,1.0,5.7419e-07,1.0,-18.705312,1.0,9.67e-05,1.0
0.297791,1.0,5.705249999999999e-07,1.0,-16.46082,1.0,9.719999999999999e-05,1.0
0.298187,1.0,5.610649999999999e-07,1.0,-14.654664,1.0,9.740000000000001e-05,1.0
