Potential,potstdev,Photocurrent (nA),pcstdev,Phase (°),phstdev,DC Current (µA),dcCurrstdev
0.000836182,1.0,5.8441000000000005e-09,1.0,111.753,1.0,-1.3e-06,1.0
0.000854492,1.0,5.8013999999999994e-09,1.0,113.07131999999999,1.0,-8.47e-07,1.0
0.000839233,1.0,5.5023e-09,1.0,112.20336,1.0,-1.01e-06,1.0
0.0008636469999999999,1.0,5.8075e-09,1.0,110.86308000000001,1.0,-8.790000000000001e-07,1.0
0.000894165,1.0,5.606100000000001e-09,1.0,108.6768,1.0,-5.660000000000001e-07,1.0
0.00088501,1.0,6.0211e-09,1.0,108.30312,1.0,-7.68e-07,1.0
0.000888062,1.0,6.0257e-09,1.0,107.05068000000001,1.0,-8.12e-07,1.0
0.00090332,1.0,6.44075e-09,1.0,107.64395999999999,1.0,-5.12e-07,1.0
0.000897217,1.0,6.4682e-09,1.0,108.47915999999998,1.0,-8.790000000000001e-07,1.0
0.00088501,1.0,6.7047e-09,1.0,109.34675999999999,1.0,-8.35e-07,1.0
0.000906372,1.0,6.692499999999999e-09,1.0,111.36852000000002,1.0,-9.53e-07,1.0
0.0009277339999999999,1.0,6.4316e-09,1.0,111.77496,1.0,-5.26e-07,1.0
0.00126953,1.0,6.2042e-09,1.0,115.75187999999999,1.0,-7.84e-07,1.0
0.0016510000000000001,1.0,4.725645e-09,1.0,146.01924000000002,1.0,-9.88e-07,1.0
0.0020751999999999997,1.0,3.808595e-09,1.0,192.66732,1.0,-8.4e-07,1.0
0.00247803,1.0,4.2953500000000005e-09,1.0,227.13119999999998,1.0,-2.88e-07,1.0
0.00287781,1.0,4.74396e-09,1.0,242.10576,1.0,-2.84e-07,1.0
0.00325623,1.0,3.785704999999999e-09,1.0,238.59,1.0,-2.16e-07,1.0
0.00365601,1.0,2.745055e-09,1.0,227.03255999999996,1.0,-3.2799999999999997e-07,1.0
0.00404663,1.0,2.0874e-09,1.0,214.2774,1.0,-3.07e-07,1.0
0.00444031,1.0,1.167295e-09,1.0,202.67568,1.0,2.96e-07,1.0
0.00484314,1.0,5.31005e-10,1.0,196.22664000000003,1.0,2.01e-07,1.0
0.00520325,1.0,-8.39235e-11,1.0,188.58024,1.0,5.33e-07,1.0
0.00556641,1.0,-7.6294e-10,1.0,186.30612,1.0,6.29e-07,1.0
0.00594788,1.0,-1.423645e-09,1.0,183.39479999999998,1.0,-6.99e-08,1.0
0.0063384999999999995,1.0,-2.49481e-09,1.0,179.53848,1.0,-5.68e-08,1.0
0.00671082,1.0,-3.5140999999999997e-09,1.0,179.54964,1.0,-2.2000000000000002e-08,1.0
0.00710754,1.0,-4.374694999999999e-09,1.0,179.54964,1.0,5.21e-07,1.0
0.00748901,1.0,-5.22155e-09,1.0,179.56044000000003,1.0,-3.16e-07,1.0
0.00787659,1.0,-5.68085e-09,1.0,179.57160000000002,1.0,4.9400000000000006e-08,1.0
0.00827026,1.0,-5.9585499999999994e-09,1.0,179.56044000000003,1.0,6.41e-08,1.0
0.00865784,1.0,-6.1615e-09,1.0,179.54964,1.0,-1.5199999999999998e-07,1.0
0.00906067,1.0,-6.347649999999999e-09,1.0,-0.42506279999999996,1.0,-3.29e-07,1.0
0.00944824,1.0,-6.3675e-09,1.0,-0.4303332,1.0,-2.0899999999999998e-07,1.0
0.00984497,1.0,-6.3751000000000005e-09,1.0,-0.42648839999999993,1.0,1.6100000000000003e-07,1.0
0.010220299999999998,1.0,-6.3507e-09,1.0,-0.432972,1.0,-1.56e-08,1.0
0.0106079,1.0,-6.338499999999999e-09,1.0,-0.4296744,1.0,-6.13e-07,1.0
0.0110077,1.0,-6.236249999999999e-09,1.0,-0.42638039999999994,1.0,-5.36e-07,1.0
0.011395299999999999,1.0,-6.304949999999999e-09,1.0,-0.42561,1.0,-3.7700000000000005e-07,1.0
0.0117859,1.0,-6.368999999999999e-09,1.0,-0.424512,1.0,1.3e-07,1.0
0.0121857,1.0,-6.28965e-09,1.0,-0.4273668,1.0,-3.7e-07,1.0
0.0125854,1.0,-6.2958e-09,1.0,-0.4281372,1.0,-7.75e-07,1.0
0.012969999999999999,1.0,-6.31255e-09,1.0,-0.425502,1.0,-5.560000000000001e-07,1.0
0.013351400000000001,1.0,-6.309499999999999e-09,1.0,-0.43121160000000003,1.0,-2.15e-07,1.0
0.013778700000000001,1.0,-6.394949999999999e-09,1.0,-0.4284684,1.0,3.55e-07,1.0
0.014147899999999998,1.0,-6.401050000000001e-09,1.0,-0.43319159999999995,1.0,1.4599999999999998e-07,1.0
0.0145355,1.0,-6.401050000000001e-09,1.0,-0.43714440000000004,1.0,-2.68e-07,1.0
0.0149139,1.0,-6.4392e-09,1.0,-0.4328603999999999,1.0,-4.32e-07,1.0
0.015319799999999998,1.0,-6.39345e-09,1.0,-0.432972,1.0,-8.33e-08,1.0
0.0157104,1.0,-6.454449999999999e-09,1.0,-0.4328603999999999,1.0,-5.15e-07,1.0
0.016113299999999997,1.0,-6.41175e-09,1.0,-0.43440120000000004,1.0,-4.24e-07,1.0
0.0164856,1.0,-6.390399999999999e-09,1.0,-0.43593839999999995,1.0,-3.95e-07,1.0
0.0169098,1.0,-6.384300000000001e-09,1.0,-0.43121160000000003,1.0,4.3e-08,1.0
0.0172882,1.0,-6.3156e-09,1.0,-0.4314347999999999,1.0,-2.4e-07,1.0
0.017694099999999997,1.0,-6.3964999999999996e-09,1.0,-0.43077240000000006,1.0,6.58e-07,1.0
0.018093900000000003,1.0,-6.39345e-09,1.0,-0.431982,1.0,7.26e-08,1.0
0.0184753,1.0,-6.402600000000001e-09,1.0,-0.4336308,1.0,-3.17e-07,1.0
0.0188995,1.0,-6.3827500000000005e-09,1.0,-0.43165440000000005,1.0,-4.61e-08,1.0
0.0192749,1.0,-6.39955e-09,1.0,-0.4283568,1.0,-4.3299999999999997e-07,1.0
0.019668599999999998,1.0,-6.36595e-09,1.0,-0.43329960000000006,1.0,-6.59e-08,1.0
0.020065299999999998,1.0,-6.3491999999999995e-09,1.0,-0.43110360000000003,1.0,5.27e-07,1.0
0.020437599999999997,1.0,-6.33545e-09,1.0,-0.42912720000000004,1.0,1.74e-07,1.0
0.0208435,1.0,-6.338499999999999e-09,1.0,-0.427698,1.0,5.4e-07,1.0
0.021225,1.0,-6.347649999999999e-09,1.0,-0.4282488,1.0,5e-07,1.0
0.0216125,1.0,-6.35985e-09,1.0,-0.43121160000000003,1.0,4.38e-07,1.0
0.0220062,1.0,-6.3583500000000005e-09,1.0,-0.4313232,1.0,4.02e-07,1.0
0.022399900000000004,1.0,-6.3919e-09,1.0,-0.42857639999999997,1.0,3.0399999999999997e-07,1.0
0.022778299999999998,1.0,-6.4040999999999994e-09,1.0,-0.43077240000000006,1.0,5.970000000000001e-07,1.0
0.023171999999999998,1.0,-6.32475e-09,1.0,-0.43121160000000003,1.0,4.0799999999999995e-07,1.0
0.023544299999999997,1.0,-6.379699999999999e-09,1.0,-0.43329960000000006,1.0,3.4500000000000005e-08,1.0
0.023928799999999997,1.0,-6.3553e-09,1.0,-0.43176239999999994,1.0,2.67e-07,1.0
0.0243042,1.0,-6.372049999999999e-09,1.0,-0.43110360000000003,1.0,2.62e-07,1.0
0.024704,1.0,-6.378149999999999e-09,1.0,-0.4315428,1.0,7.92e-07,1.0
0.0250702,1.0,-6.361399999999999e-09,1.0,-0.4324212,1.0,8.98e-07,1.0
0.0254547,1.0,-6.3507e-09,1.0,-0.43077240000000006,1.0,1.69e-07,1.0
0.025836200000000004,1.0,-6.4269999999999994e-09,1.0,-0.4339584,1.0,3.5700000000000003e-07,1.0
0.0262512,1.0,-6.3919e-09,1.0,-0.431874,1.0,4.39e-07,1.0
0.026617400000000003,1.0,-6.3964999999999996e-09,1.0,-0.4301136,1.0,3.08e-07,1.0
0.027020299999999997,1.0,-6.333899999999999e-09,1.0,-0.42539039999999995,1.0,1.98e-07,1.0
0.027395599999999996,1.0,-6.35225e-09,1.0,-0.42945479999999997,1.0,4.99e-07,1.0
0.027810700000000004,1.0,-6.32935e-09,1.0,-0.4313232,1.0,3.9e-07,1.0
0.0281952,1.0,-6.378149999999999e-09,1.0,-0.429894,1.0,6.409999999999999e-09,1.0
0.0285828,1.0,-6.33545e-09,1.0,-0.42956639999999996,1.0,4.43e-08,1.0
0.028982499999999998,1.0,-6.3507e-09,1.0,-0.4292352000000001,1.0,-1.47e-07,1.0
0.0294067,1.0,-5.8853e-09,1.0,-0.43055279999999996,1.0,6.590000000000001e-07,1.0
0.029797399999999998,1.0,-4.87671e-09,1.0,-0.4336308,1.0,8.61e-08,1.0
0.030224599999999997,1.0,-3.77655e-09,1.0,-0.429894,1.0,4.1299999999999995e-07,1.0
0.030618299999999998,1.0,-2.4871849999999996e-09,1.0,-0.429786,1.0,2.56e-08,1.0
0.0310028,1.0,-1.6143799999999998e-09,1.0,-0.4325328,1.0,-3.2299999999999997e-07,1.0
0.0314056,1.0,-4.821774999999999e-10,1.0,-0.4270392,1.0,4.15e-08,1.0
0.0318115,1.0,5.5237e-10,1.0,-0.43044479999999996,1.0,6.530000000000001e-08,1.0
0.0321991,1.0,1.2588499999999998e-09,1.0,-0.43022520000000003,1.0,5.16e-07,1.0
0.032608,1.0,1.8341049999999998e-09,1.0,-0.43077240000000006,1.0,6.9e-07,1.0
0.03299559999999999,1.0,2.0538349999999997e-09,1.0,-0.4284684,1.0,2.87e-07,1.0
0.0334167,1.0,2.5009149999999997e-09,1.0,-0.431874,1.0,1.27e-06,1.0
0.03377380000000001,1.0,2.4856549999999995e-09,1.0,1.7303472,1.0,-4.5199999999999994e-08,1.0
0.034182699999999996,1.0,2.290345e-09,1.0,-0.4337388,1.0,7.070000000000001e-07,1.0
0.034558099999999994,1.0,2.0416249999999998e-09,1.0,-0.4338504,1.0,7.68e-07,1.0
0.0349304,1.0,2.293395e-09,1.0,-0.42791760000000006,1.0,1.55e-07,1.0
0.0353424,1.0,2.46887e-09,1.0,1.7300160000000002,1.0,2.74e-07,1.0
0.035739099999999996,1.0,2.8961199999999997e-09,1.0,9.756972000000001,1.0,9.67e-07,1.0
0.03613280000000001,1.0,3.541565e-09,1.0,22.578012,1.0,4.91e-07,1.0
0.0365082,1.0,4.663085e-09,1.0,31.442867999999997,1.0,6.88e-07,1.0
0.0368988,1.0,5.54045e-09,1.0,39.00132000000001,1.0,3.47e-07,1.0
0.0372894,1.0,6.288149999999999e-09,1.0,43.16544,1.0,8.51e-07,1.0
0.0376923,1.0,6.686399999999998e-09,1.0,48.087,1.0,7.31e-07,1.0
0.0380707,1.0,7.096850000000001e-09,1.0,52.05312,1.0,-5.489999999999999e-09,1.0
0.0384735,1.0,7.733149999999999e-09,1.0,53.29476,1.0,2.5399999999999997e-07,1.0
0.0389069,1.0,8.218399999999998e-09,1.0,54.47016,1.0,8.84e-07,1.0
0.0392731,1.0,8.480850000000002e-09,1.0,55.04148,1.0,8.690000000000001e-07,1.0
0.0396454,1.0,8.695999999999999e-09,1.0,54.9756,1.0,5.34e-07,1.0
0.0400574,1.0,9.117149999999998e-09,1.0,56.61252,1.0,1.16e-06,1.0
0.040460199999999995,1.0,9.376549999999999e-09,1.0,58.13964,1.0,5.38e-07,1.0
0.0408234,1.0,9.8175e-09,1.0,59.65560000000001,1.0,5.070000000000001e-07,1.0
0.041214,1.0,9.7809e-09,1.0,60.6996,1.0,3.43e-07,1.0
0.0416168,1.0,1.0024999999999999e-08,1.0,63.33624000000001,1.0,1.14e-06,1.0
0.04201969999999999,1.0,1.004335e-08,1.0,63.33624000000001,1.0,1.07e-06,1.0
0.0424103,1.0,1.0038750000000001e-08,1.0,63.32507999999999,1.0,1.21e-06,1.0
0.0427734,1.0,9.805299999999999e-09,1.0,62.32535999999999,1.0,1.59e-06,1.0
0.043179300000000004,1.0,1.001435e-08,1.0,61.677359999999986,1.0,1.59e-06,1.0
0.0435455,1.0,9.568799999999999e-09,1.0,57.53556000000001,1.0,9.87e-07,1.0
0.043948400000000006,1.0,9.121700000000001e-09,1.0,51.04260000000001,1.0,7.979999999999999e-07,1.0
0.0443329,1.0,8.848549999999998e-09,1.0,45.933840000000004,1.0,4.89e-07,1.0
0.0447327,1.0,9.318549999999998e-09,1.0,43.84656,1.0,2.68e-07,1.0
0.0451416,1.0,9.46045e-09,1.0,42.94547999999999,1.0,8.140000000000001e-07,1.0
0.045547500000000005,1.0,9.701549999999997e-09,1.0,40.967999999999996,1.0,5.660000000000001e-07,1.0
0.045950300000000006,1.0,9.94265e-09,1.0,40.122,1.0,8.22e-07,1.0
0.0463348,1.0,9.996049999999998e-09,1.0,39.04523999999999,1.0,8.690000000000001e-07,1.0
0.0467346,1.0,9.9167e-09,1.0,37.54044,1.0,8.39e-07,1.0
0.04712519999999999,1.0,9.9121e-09,1.0,36.419760000000004,1.0,1.2e-06,1.0
0.0475098,1.0,9.90295e-09,1.0,36.80424,1.0,1.43e-06,1.0
0.0479095,1.0,9.9167e-09,1.0,36.793079999999996,1.0,8.720000000000001e-07,1.0
0.0483154,1.0,9.968549999999999e-09,1.0,39.41892,1.0,1.08e-06,1.0
0.048718300000000006,1.0,9.703049999999999e-09,1.0,39.81456,1.0,3.16e-07,1.0
0.049118,1.0,9.284949999999999e-09,1.0,39.517920000000004,1.0,9.91e-07,1.0
0.049527,1.0,9.228499999999999e-09,1.0,38.37528,1.0,1.13e-06,1.0
0.0499573,1.0,9.2499e-09,1.0,36.815039999999996,1.0,6.709999999999999e-07,1.0
0.050414999999999995,1.0,9.266649999999999e-09,1.0,33.299568,1.0,5.73e-07,1.0
0.050811800000000004,1.0,9.02405e-09,1.0,30.948479999999996,1.0,7.37e-07,1.0
0.051208500000000004,1.0,9.2499e-09,1.0,29.102796,1.0,7.729999999999999e-07,1.0
0.051574699999999994,1.0,9.680199999999999e-09,1.0,28.520495999999998,1.0,8.4e-07,1.0
0.0520325,1.0,9.9289e-09,1.0,27.059328,1.0,1.11e-06,1.0
0.0523376,1.0,1.0145549999999997e-08,1.0,26.534195999999998,1.0,1.81e-06,1.0
0.0527039,1.0,1.0318e-08,1.0,24.896124,1.0,1.2e-06,1.0
0.0531311,1.0,1.058655e-08,1.0,23.537124,1.0,1.48e-06,1.0
0.0535278,1.0,1.0575849999999998e-08,1.0,23.538204,1.0,1.35e-06,1.0
0.0538635,1.0,1.0775749999999998e-08,1.0,23.305284,1.0,2.31e-06,1.0
0.0542908,1.0,1.0791e-08,1.0,23.305284,1.0,1.86e-06,1.0
0.054657000000000004,1.0,1.0800149999999999e-08,1.0,23.303088,1.0,1.43e-06,1.0
0.055023199999999994,1.0,1.080475e-08,1.0,21.093767999999997,1.0,1.73e-06,1.0
0.05541990000000001,1.0,1.07971e-08,1.0,19.986336,1.0,1.39e-06,1.0
0.05581669999999999,1.0,1.0841349999999998e-08,1.0,19.983024,1.0,1.28e-06,1.0
0.056213400000000004,1.0,1.0827649999999999e-08,1.0,21.097044,1.0,1.31e-06,1.0
0.0565491,1.0,1.07559e-08,1.0,19.980827999999995,1.0,1.21e-06,1.0
0.0569153,1.0,1.058805e-08,1.0,18.887687999999997,1.0,1.6e-06,1.0
0.057373,1.0,1.0614e-08,1.0,16.648668,1.0,1.66e-06,1.0
0.05767819999999999,1.0,1.060945e-08,1.0,15.518196,1.0,1.01e-06,1.0
0.058136,1.0,1.0836799999999999e-08,1.0,13.119876,1.0,1.33e-06,1.0
0.0585327,1.0,1.0584999999999998e-08,1.0,10.87866,1.0,1.06e-06,1.0
0.058868399999999994,1.0,1.08307e-08,1.0,9.661392,1.0,1.5e-06,1.0
0.059326199999999996,1.0,1.083985e-08,1.0,7.420176,1.0,1.28e-06,1.0
0.0596313,1.0,1.09604e-08,1.0,5.197644,1.0,1.27e-06,1.0
0.0600891,1.0,1.091615e-08,1.0,4.028688,1.0,1.57e-06,1.0
0.0605164,1.0,1.1073299999999999e-08,1.0,3.977064,1.0,1.03e-06,1.0
0.0608826,1.0,1.12793e-08,1.0,5.0174639999999995,1.0,1.52e-06,1.0
0.061309800000000005,1.0,1.143035e-08,1.0,6.042492,1.0,9.7e-07,1.0
0.061706500000000004,1.0,1.12213e-08,1.0,7.209216,1.0,1.63e-06,1.0
0.062072800000000004,1.0,1.128695e-08,1.0,8.291376,1.0,1.32e-06,1.0
0.0625,1.0,1.12549e-08,1.0,9.380124000000002,1.0,1.93e-06,1.0
0.0628357,1.0,1.141665e-08,1.0,10.353528,1.0,2.45e-06,1.0
0.0631714,1.0,1.181945e-08,1.0,11.212632000000001,1.0,1.29e-06,1.0
0.0636292,1.0,1.207125e-08,1.0,10.998396000000001,1.0,1.24e-06,1.0
0.0640259,1.0,1.2036149999999998e-08,1.0,11.001708,1.0,1.66e-06,1.0
0.0643921,1.0,1.1857600000000001e-08,1.0,11.20824,1.0,1.88e-06,1.0
0.0647278,1.0,1.12274e-08,1.0,10.455696,1.0,1.47e-06,1.0
0.06515499999999999,1.0,1.125335e-08,1.0,10.460087999999999,1.0,1.82e-06,1.0
0.0656128,1.0,1.1433399999999999e-08,1.0,8.132076,1.0,1.77e-06,1.0
0.0660095,1.0,1.2042249999999998e-08,1.0,6.790644,1.0,2.05e-06,1.0
0.0663757,1.0,1.2669349999999998e-08,1.0,4.583484,1.0,1.08e-06,1.0
0.06674189999999999,1.0,1.265715e-08,1.0,2.5905744,1.0,1.76e-06,1.0
0.0671692,1.0,1.2684649999999998e-08,1.0,0.5863392000000001,1.0,1.67e-06,1.0
0.0675354,1.0,1.268005e-08,1.0,-0.43220159999999996,1.0,1.4e-06,1.0
0.06793210000000001,1.0,1.2887549999999998e-08,1.0,0.5681016000000001,1.0,1.57e-06,1.0
0.06842039999999999,1.0,1.3323950000000003e-08,1.0,1.5100704,1.0,1.49e-06,1.0
0.0687866,1.0,1.380155e-08,1.0,4.296744,1.0,1.81e-06,1.0
0.0691528,1.0,1.44409e-08,1.0,5.979852,1.0,1.92e-06,1.0
0.0694885,1.0,1.51062e-08,1.0,7.5663,1.0,1.84e-06,1.0
0.0699158,1.0,1.572725e-08,1.0,6.480828,1.0,1.98e-06,1.0
0.0702515,1.0,1.578675e-08,1.0,5.5909439999999995,1.0,2.13e-06,1.0
0.0706482,1.0,1.57852e-08,1.0,3.897936,1.0,2.29e-06,1.0
0.07110599999999999,1.0,1.53427e-08,1.0,3.1113288,1.0,2.05e-06,1.0
0.0714417,1.0,1.490785e-08,1.0,4.082508,1.0,1.7e-06,1.0
0.0718384,1.0,1.44409e-08,1.0,4.15944,1.0,1.87e-06,1.0
0.0721436,1.0,1.44684e-08,1.0,4.1583239999999995,1.0,2.25e-06,1.0
0.0725708,1.0,1.4660649999999999e-08,1.0,3.22119,1.0,2.85e-06,1.0
0.0730286,1.0,1.4640799999999998e-08,1.0,3.2222916000000006,1.0,2.02e-06,1.0
0.0733032,1.0,1.5069599999999997e-08,1.0,1.3518684,1.0,1.72e-06,1.0
0.07376100000000001,1.0,1.537935e-08,1.0,-0.4266,1.0,1.86e-06,1.0
0.07412719999999999,1.0,1.575625e-08,1.0,-1.2869388000000002,1.0,1.87e-06,1.0
0.07452389999999999,1.0,1.61972e-08,1.0,-1.2704579999999999,1.0,1.98e-06,1.0
0.07492069999999999,1.0,1.66153e-08,1.0,-1.2573864,1.0,2.01e-06,1.0
0.0753479,1.0,1.66229e-08,1.0,-1.2404664,1.0,1.73e-06,1.0
0.07574460000000001,1.0,1.68503e-08,1.0,-0.4293468,1.0,2.16e-06,1.0
0.0761108,1.0,1.7062400000000003e-08,1.0,-0.43022520000000003,1.0,1.52e-06,1.0
0.07650760000000001,1.0,1.72699e-08,1.0,-0.427698,1.0,1.67e-06,1.0
0.07693480000000001,1.0,1.70349e-08,1.0,-0.42791760000000006,1.0,1.26e-06,1.0
0.077301,1.0,1.7065450000000002e-08,1.0,0.38836799999999994,1.0,1.15e-06,1.0
0.0777588,1.0,1.7039500000000002e-08,1.0,1.2070691999999998,1.0,2.07e-06,1.0
0.078125,1.0,1.687775e-08,1.0,1.2245364,1.0,1.92e-06,1.0
0.07855219999999999,1.0,1.66092e-08,1.0,1.2214584000000002,1.0,2.46e-06,1.0
0.0788879,1.0,1.6587849999999998e-08,1.0,1.223658,1.0,2.24e-06,1.0
0.0792847,1.0,1.6618349999999996e-08,1.0,1.2239856,1.0,2.4e-06,1.0
0.07974239999999999,1.0,1.6584799999999995e-08,1.0,0.4017708,1.0,1.94e-06,1.0
0.08007810000000001,1.0,1.65985e-08,1.0,-0.43044479999999996,1.0,2.22e-06,1.0
0.0805664,1.0,1.664125e-08,1.0,-0.4325328,1.0,2e-06,1.0
0.0809021,1.0,1.6595450000000002e-08,1.0,-0.42956639999999996,1.0,2.64e-06,1.0
0.0812683,1.0,1.6658000000000003e-08,1.0,-0.4303332,1.0,2.81e-06,1.0
0.081665,1.0,1.6540549999999998e-08,1.0,-0.43066439999999995,1.0,2.33e-06,1.0
0.0820618,1.0,1.6749549999999997e-08,1.0,-0.434178,1.0,1.67e-06,1.0
0.08248899999999999,1.0,1.7169199999999997e-08,1.0,-0.44132039999999995,1.0,1.99e-06,1.0
0.0828552,1.0,1.747285e-08,1.0,0.3844116000000001,1.0,2.59e-06,1.0
0.0832214,1.0,1.77994e-08,1.0,1.9335924000000002,1.0,2.52e-06,1.0
0.08364869999999999,1.0,1.78665e-08,1.0,1.143018,1.0,2.39e-06,1.0
0.08404539999999999,1.0,1.7869549999999996e-08,1.0,1.9094256,1.0,2.18e-06,1.0
0.0844727,1.0,1.7944349999999997e-08,1.0,3.4903548,1.0,1.92e-06,1.0
0.0848083,1.0,1.7915349999999994e-08,1.0,5.048208,1.0,1.96e-06,1.0
0.08523560000000001,1.0,1.7962650000000004e-08,1.0,6.681887999999999,1.0,2.55e-06,1.0
0.0856323,1.0,1.795805e-08,1.0,5.1031439999999995,1.0,3.05e-06,1.0
0.0859985,1.0,1.79611e-08,1.0,1.9478772,1.0,2.54e-06,1.0
0.0863953,1.0,1.7776499999999997e-08,1.0,-1.209924,1.0,3.02e-06,1.0
0.086792,1.0,1.75644e-08,1.0,-3.638664,1.0,2.28e-06,1.0
0.08712769999999999,1.0,1.7352300000000002e-08,1.0,-5.293224,1.0,2.99e-06,1.0
0.0875854,1.0,1.716615e-08,1.0,-7.7925960000000005,1.0,3.05e-06,1.0
0.0879822,1.0,1.731415e-08,1.0,-10.165644,1.0,2.95e-06,1.0
0.08831789999999999,1.0,1.754e-08,1.0,-12.501360000000002,1.0,2.41e-06,1.0
0.08874510000000001,1.0,1.80069e-08,1.0,-13.903199999999998,1.0,2.66e-06,1.0
0.0891113,1.0,1.828615e-08,1.0,-13.612068000000002,1.0,2.77e-06,1.0
0.08953860000000001,1.0,1.911775e-08,1.0,-12.468383999999999,1.0,2.75e-06,1.0
0.08993530000000001,1.0,2.017975e-08,1.0,-9.810792,1.0,3e-06,1.0
0.0902405,1.0,2.104645e-08,1.0,-7.371828000000001,1.0,2.57e-06,1.0
0.0906372,1.0,2.2084049999999997e-08,1.0,-5.79528,1.0,2.41e-06,1.0
0.09109500000000001,1.0,2.2734049999999996e-08,1.0,-5.674428000000001,1.0,2.66e-06,1.0
0.0915222,1.0,2.29904e-08,1.0,-5.534928,1.0,1.86e-06,1.0
0.0919189,1.0,2.301485e-08,1.0,-5.644764,1.0,2.05e-06,1.0
0.0922241,1.0,2.277525e-08,1.0,-5.6755439999999995,1.0,2.14e-06,1.0
0.0926819,1.0,2.2769150000000002e-08,1.0,-5.6700360000000005,1.0,2.57e-06,1.0
0.0931396,1.0,2.2995e-08,1.0,-5.6480760000000005,1.0,2.69e-06,1.0
0.0935059,1.0,2.30194e-08,1.0,-4.993271999999999,1.0,2.36e-06,1.0
0.093811,1.0,2.3268150000000002e-08,1.0,-5.5843560000000005,1.0,2.19e-06,1.0
0.0942688,1.0,2.34543e-08,1.0,-5.536008,1.0,2.46e-06,1.0
0.094635,1.0,2.36725e-08,1.0,-5.522831999999999,1.0,2.63e-06,1.0
0.0950317,1.0,2.363585e-08,1.0,-6.172127999999999,1.0,2.36e-06,1.0
0.0954285,1.0,2.364805e-08,1.0,-6.8016239999999994,1.0,2.62e-06,1.0
0.0958252,1.0,2.3609900000000002e-08,1.0,-6.8005439999999995,1.0,2.5e-06,1.0
0.09625239999999999,1.0,2.3632799999999996e-08,1.0,-6.756587999999999,1.0,2.96e-06,1.0
0.09664919999999999,1.0,2.4266049999999996e-08,1.0,-7.2674639999999995,1.0,2.54e-06,1.0
0.0970154,1.0,2.44507e-08,1.0,-7.816788,1.0,3.52e-06,1.0
0.09747310000000001,1.0,2.5146499999999996e-08,1.0,-9.55152,1.0,2.73e-06,1.0
0.0978699,1.0,2.5604250000000002e-08,1.0,-10.62378,1.0,3.25e-06,1.0
0.0982971,1.0,2.59552e-08,1.0,-11.056644,1.0,3.31e-06,1.0
0.0986023,1.0,2.6641849999999996e-08,1.0,-10.884167999999999,1.0,2.57e-06,1.0
0.098999,1.0,2.6702899999999996e-08,1.0,-10.266732,1.0,3.12e-06,1.0
0.09936519999999999,1.0,2.693175e-08,1.0,-10.217268,1.0,3.81e-06,1.0
0.099762,1.0,2.734375e-08,1.0,-10.111824000000002,1.0,2.93e-06,1.0
0.100159,1.0,2.7282699999999997e-08,1.0,-8.961552000000001,1.0,3.14e-06,1.0
0.10055499999999999,1.0,2.7069099999999998e-08,1.0,-7.8508439999999995,1.0,3.42e-06,1.0
0.100922,1.0,2.6824949999999998e-08,1.0,-6.172127999999999,1.0,3.57e-06,1.0
0.101257,1.0,2.679445e-08,1.0,-6.172127999999999,1.0,3.5e-06,1.0
0.101654,1.0,2.6870749999999996e-08,1.0,-6.743412000000001,1.0,3.55e-06,1.0
0.102051,1.0,2.7038549999999997e-08,1.0,-7.8453360000000005,1.0,3.22e-06,1.0
0.102448,1.0,2.7069099999999998e-08,1.0,-8.410032,1.0,3.04e-06,1.0
0.102844,1.0,2.708435e-08,1.0,-8.403444,1.0,3.73e-06,1.0
0.10324100000000001,1.0,2.726745e-08,1.0,-8.928576,1.0,3.07e-06,1.0
0.10363800000000001,1.0,2.7328500000000002e-08,1.0,-9.486684,1.0,3.81e-06,1.0
0.10403399999999999,1.0,2.7481099999999995e-08,1.0,-9.447156000000001,1.0,3.72e-06,1.0
0.104401,1.0,2.7923599999999997e-08,1.0,-9.36144,1.0,3.32e-06,1.0
0.104797,1.0,2.819825e-08,1.0,-9.831672000000001,1.0,3.02e-06,1.0
0.10519400000000001,1.0,2.8656e-08,1.0,-10.275516,1.0,3.04e-06,1.0
0.10555999999999999,1.0,2.8823849999999996e-08,1.0,-10.1997,1.0,3.14e-06,1.0
0.105957,1.0,2.905275e-08,1.0,-9.592164,1.0,3.72e-06,1.0
0.10635399999999999,1.0,2.9495249999999997e-08,1.0,-9.516347999999999,1.0,3.03e-06,1.0
0.10675,1.0,2.9693599999999996e-08,1.0,-9.9756,1.0,3.45e-06,1.0
0.107147,1.0,3.0151349999999996e-08,1.0,-9.343872000000001,1.0,3.63e-06,1.0
0.107544,1.0,3.0105599999999997e-08,1.0,-9.313127999999999,1.0,3.8e-06,1.0
0.10790999999999999,1.0,3.030395e-08,1.0,-8.237556,1.0,3.47e-06,1.0
0.108307,1.0,3.0120849999999994e-08,1.0,-7.724484000000001,1.0,3.13e-06,1.0
0.108704,1.0,3.0105599999999997e-08,1.0,-8.295767999999999,1.0,3.43e-06,1.0
0.1091,1.0,2.98004e-08,1.0,-9.931644,1.0,3.12e-06,1.0
0.10955799999999999,1.0,2.96173e-08,1.0,-12.602412000000001,1.0,3.56e-06,1.0
0.109894,1.0,2.9632549999999997e-08,1.0,-15.288587999999999,1.0,3.93e-06,1.0
0.110229,1.0,2.98767e-08,1.0,-17.28918,1.0,3.43e-06,1.0
0.11071800000000001,1.0,3.009035e-08,1.0,-19.896228,1.0,3.62e-06,1.0
0.111053,1.0,3.053285e-08,1.0,-21.746339999999996,1.0,3.72e-06,1.0
0.11145,1.0,3.1356799999999997e-08,1.0,-22.768055999999998,1.0,4.07e-06,1.0
0.111877,1.0,3.289794999999999e-08,1.0,-24.030396,1.0,3.74e-06,1.0
0.11218299999999999,1.0,3.39813e-08,1.0,-24.376464,1.0,3.31e-06,1.0
0.11260999999999999,1.0,3.482055000000001e-08,1.0,-23.798592,1.0,3.35e-06,1.0
0.11303699999999998,1.0,3.544615e-08,1.0,-23.418468,1.0,3.6e-06,1.0
0.113495,1.0,3.6178599999999994e-08,1.0,-22.268195999999996,1.0,3.9e-06,1.0
0.11386099999999999,1.0,3.630065e-08,1.0,-21.125628,1.0,3.99e-06,1.0
0.114227,1.0,3.678895e-08,1.0,-20.032488,1.0,3.87e-06,1.0
0.11465499999999999,1.0,3.73993e-08,1.0,-19.810548,1.0,4.03e-06,1.0
0.11495999999999999,1.0,3.76587e-08,1.0,-19.732536,1.0,4.38e-06,1.0
0.115356,1.0,3.7918099999999995e-08,1.0,-20.011608,1.0,4.34e-06,1.0
0.115784,1.0,3.8101199999999996e-08,1.0,-20.37636,1.0,4.33e-06,1.0
0.11617999999999999,1.0,3.8070699999999994e-08,1.0,-20.785032,1.0,4.08e-06,1.0
0.116547,1.0,3.8101199999999996e-08,1.0,-20.782836000000003,1.0,4.24e-06,1.0
0.116943,1.0,3.8101199999999996e-08,1.0,-20.787227999999995,1.0,3.83e-06,1.0
0.11731,1.0,3.82843e-08,1.0,-21.547476,1.0,4.5e-06,1.0
0.117676,1.0,3.852845e-08,1.0,-22.317624000000002,1.0,4.04e-06,1.0
0.118103,1.0,3.9123549999999996e-08,1.0,-22.416516,1.0,3.99e-06,1.0
0.118469,1.0,3.9840699999999996e-08,1.0,-21.696912,1.0,4.42e-06,1.0
0.118835,1.0,4.045105e-08,1.0,-21.454092,1.0,4.36e-06,1.0
0.119202,1.0,4.049685e-08,1.0,-21.375,1.0,4.88e-06,1.0
0.119629,1.0,4.037475e-08,1.0,-21.793572000000005,1.0,4.1e-06,1.0
0.120026,1.0,4.04358e-08,1.0,-22.195692,1.0,4.63e-06,1.0
0.12039200000000001,1.0,4.063415e-08,1.0,-22.114368000000002,1.0,4.26e-06,1.0
0.12081900000000001,1.0,4.10614e-08,1.0,-21.154176,1.0,4.16e-06,1.0
0.121155,1.0,4.0893550000000004e-08,1.0,-19.96326,1.0,4.52e-06,1.0
0.121521,1.0,4.066465e-08,1.0,-18.829476,1.0,4.22e-06,1.0
0.12197899999999999,1.0,4.0222149999999996e-08,1.0,-17.760492000000003,1.0,4.21e-06,1.0
0.122375,1.0,3.9810199999999995e-08,1.0,-16.235604000000002,1.0,4.11e-06,1.0
0.122803,1.0,3.95355e-08,1.0,-15.054552000000001,1.0,4.19e-06,1.0
0.123169,1.0,3.91388e-08,1.0,-14.327279999999998,1.0,3.83e-06,1.0
0.12356600000000001,1.0,3.9016699999999995e-08,1.0,-14.439347999999999,1.0,4.54e-06,1.0
0.123993,1.0,3.86963e-08,1.0,-14.904036,1.0,3.9e-06,1.0
0.12442,1.0,3.83148e-08,1.0,-15.869736,1.0,4.09e-06,1.0
0.12481700000000001,1.0,3.8467400000000005e-08,1.0,-16.285031999999998,1.0,4.21e-06,1.0
0.125153,1.0,3.8711550000000005e-08,1.0,-16.634412,1.0,4.09e-06,1.0
0.125549,1.0,3.894045e-08,1.0,-16.995852,1.0,4.94e-06,1.0
0.12600699999999998,1.0,3.892515e-08,1.0,-17.853876,1.0,5.14e-06,1.0
0.126373,1.0,3.91388e-08,1.0,-18.615239999999996,1.0,4.38e-06,1.0
0.12677,1.0,3.952025e-08,1.0,-18.891000000000002,1.0,4.83e-06,1.0
0.127167,1.0,4.019165e-08,1.0,-19.032732000000003,1.0,4.83e-06,1.0
0.12753299999999998,1.0,4.08783e-08,1.0,-18.309816,1.0,5.16e-06,1.0
0.12793,1.0,4.1732799999999996e-08,1.0,-17.588016000000003,1.0,4.39e-06,1.0
0.128387,1.0,4.260255e-08,1.0,-16.537716,1.0,4.6e-06,1.0
0.128815,1.0,4.2633050000000005e-08,1.0,-15.269904000000002,1.0,4.73e-06,1.0
0.12915,1.0,4.275515e-08,1.0,-14.460191999999997,1.0,5e-06,1.0
0.129547,1.0,4.301455e-08,1.0,-13.624127999999999,1.0,4.36e-06,1.0
0.129944,1.0,4.3228149999999997e-08,1.0,-12.824352,1.0,5.15e-06,1.0
0.130341,1.0,4.348755000000001e-08,1.0,-12.774888,1.0,4.77e-06,1.0
0.130707,1.0,4.3670649999999995e-08,1.0,-13.071527999999997,1.0,4.72e-06,1.0
0.131073,1.0,4.3655400000000005e-08,1.0,-14.226191999999998,1.0,5.18e-06,1.0
0.1315,1.0,4.41284e-08,1.0,-16.049916000000003,1.0,4.71e-06,1.0
0.13189700000000001,1.0,4.414369999999999e-08,1.0,-18.320796,1.0,4.73e-06,1.0
0.13226300000000002,1.0,4.4509899999999994e-08,1.0,-20.390616,1.0,4.81e-06,1.0
0.132751,1.0,4.48303e-08,1.0,-21.900132,1.0,5.33e-06,1.0
0.13308699999999998,1.0,4.533385e-08,1.0,-23.204231999999998,1.0,5.94e-06,1.0
0.133423,1.0,4.589844999999999e-08,1.0,-24.428088,1.0,5.42e-06,1.0
0.13385,1.0,4.6386699999999994e-08,1.0,-24.830208,1.0,5.06e-06,1.0
0.134216,1.0,4.71039e-08,1.0,-25.226819999999996,1.0,5.34e-06,1.0
0.134644,1.0,4.7943099999999993e-08,1.0,-25.620120000000004,1.0,5.44e-06,1.0
0.13501,1.0,4.853819999999999e-08,1.0,-26.00136,1.0,5.17e-06,1.0
0.135437,1.0,4.90265e-08,1.0,-26.525376,1.0,5.38e-06,1.0
0.135803,1.0,4.945375e-08,1.0,-26.293572,1.0,5.86e-06,1.0
0.1362,1.0,4.9911499999999997e-08,1.0,-25.807968,1.0,5.27e-06,1.0
0.13656600000000002,1.0,5.0079499999999995e-08,1.0,-25.65306,1.0,5.88e-06,1.0
0.136963,1.0,5.03235e-08,1.0,-24.908219999999996,1.0,5.72e-06,1.0
0.137299,1.0,5.0277499999999995e-08,1.0,-24.19848,1.0,5.59e-06,1.0
0.137756,1.0,4.9789449999999995e-08,1.0,-24.324840000000002,1.0,5.38e-06,1.0
0.138123,1.0,4.9667349999999996e-08,1.0,-24.87636,1.0,5.26e-06,1.0
0.138519,1.0,4.896545e-08,1.0,-26.106804000000004,1.0,5.49e-06,1.0
0.13888499999999998,1.0,4.8736550000000004e-08,1.0,-27.333972000000006,1.0,5.33e-06,1.0
0.139282,1.0,4.85077e-08,1.0,-28.520495999999998,1.0,5.5e-06,1.0
0.139679,1.0,4.870605e-08,1.0,-29.0808,1.0,5.67e-06,1.0
0.14013699999999998,1.0,4.8995949999999995e-08,1.0,-29.69604,1.0,5.74e-06,1.0
0.140442,1.0,4.9881e-08,1.0,-30.014639999999996,1.0,5.76e-06,1.0
0.140869,1.0,5.1117e-08,1.0,-30.377196000000005,1.0,5.62e-06,1.0
0.141296,1.0,5.2246e-08,1.0,-30.102551999999996,1.0,6.08e-06,1.0
0.141663,1.0,5.3237999999999997e-08,1.0,-28.916027999999994,1.0,5.22e-06,1.0
0.14212,1.0,5.4076999999999995e-08,1.0,-27.79542,1.0,5.87e-06,1.0
0.142426,1.0,5.4962e-08,1.0,-26.424324000000002,1.0,5.88e-06,1.0
0.14288299999999998,1.0,5.5649000000000004e-08,1.0,-24.941160000000004,1.0,5.64e-06,1.0
0.14325,1.0,5.63355e-08,1.0,-23.482188,1.0,6.04e-06,1.0
0.143707,1.0,5.6595000000000005e-08,1.0,-22.42638,1.0,6.22e-06,1.0
0.144104,1.0,5.6762499999999996e-08,1.0,-21.402468,1.0,6.25e-06,1.0
0.14447000000000002,1.0,5.6976499999999994e-08,1.0,-20.400516,1.0,5.68e-06,1.0
0.144897,1.0,5.7007e-08,1.0,-19.467756,1.0,5.76e-06,1.0
0.145264,1.0,5.7144000000000005e-08,1.0,-19.122804000000002,1.0,6.16e-06,1.0
0.14572100000000002,1.0,5.746449999999999e-08,1.0,-19.371095999999998,1.0,6.44e-06,1.0
0.146057,1.0,5.789199999999999e-08,1.0,-19.923696,1.0,6.44e-06,1.0
0.146454,1.0,5.7876499999999996e-08,1.0,-20.783952,1.0,6.78e-06,1.0
0.14688099999999998,1.0,5.7876499999999996e-08,1.0,-21.962772000000005,1.0,6.43e-06,1.0
0.147247,1.0,5.79985e-08,1.0,-23.124024,1.0,6.76e-06,1.0
0.147644,1.0,5.8242999999999994e-08,1.0,-24.217163999999997,1.0,6.67e-06,1.0
0.14801,1.0,5.84715e-08,1.0,-25.676136000000003,1.0,6.54e-06,1.0
0.14843800000000001,1.0,5.892949999999999e-08,1.0,-26.675891999999997,1.0,7.2e-06,1.0
0.148834,1.0,5.932599999999999e-08,1.0,-27.114264000000002,1.0,6.91e-06,1.0
0.14917,1.0,5.98145e-08,1.0,-27.553716,1.0,7.17e-06,1.0
0.149536,1.0,6.0074e-08,1.0,-27.465804000000002,1.0,7.43e-06,1.0
0.149902,1.0,6.0211e-08,1.0,-27.355968,1.0,7.46e-06,1.0
0.150299,1.0,6.0684e-08,1.0,-27.213120000000004,1.0,6.76e-06,1.0
0.150726,1.0,6.07145e-08,1.0,-26.864855999999996,1.0,7.05e-06,1.0
0.151093,1.0,6.0669e-08,1.0,-26.594604000000004,1.0,7.17e-06,1.0
0.15145899999999998,1.0,6.094349999999999e-08,1.0,-26.182620000000004,1.0,7.44e-06,1.0
0.151825,1.0,6.1432e-08,1.0,-25.799183999999997,1.0,7e-06,1.0
0.152313,1.0,6.147749999999999e-08,1.0,-25.796988,1.0,6.7e-06,1.0
0.152679,1.0,6.121849999999999e-08,1.0,-25.840944,1.0,7.34e-06,1.0
0.153015,1.0,6.118749999999999e-08,1.0,-26.408952,1.0,6.63e-06,1.0
0.153381,1.0,6.1371e-08,1.0,-26.93736,1.0,6.79e-06,1.0
0.153809,1.0,6.13555e-08,1.0,-27.707507999999997,1.0,7.6e-06,1.0
0.154175,1.0,6.1844e-08,1.0,-28.168956,1.0,7.16e-06,1.0
0.15457200000000001,1.0,6.219500000000001e-08,1.0,-28.575432,1.0,7.65e-06,1.0
0.154968,1.0,6.26375e-08,1.0,-29.267568,1.0,7.24e-06,1.0
0.155396,1.0,6.352249999999999e-08,1.0,-29.794932,1.0,7.19e-06,1.0
0.15576199999999998,1.0,6.45445e-08,1.0,-29.904767999999997,1.0,7.2e-06,1.0
0.156097,1.0,6.584149999999999e-08,1.0,-29.915784000000002,1.0,7.28e-06,1.0
0.156494,1.0,6.6849e-08,1.0,-29.729015999999994,1.0,7.59e-06,1.0
0.156952,1.0,6.7703e-08,1.0,-29.36646,1.0,7.36e-06,1.0
0.157318,1.0,6.80845e-08,1.0,-29.190672,1.0,7.84e-06,1.0
0.15771500000000002,1.0,6.8802e-08,1.0,-28.685304000000002,1.0,7.31e-06,1.0
0.158081,1.0,6.938149999999999e-08,1.0,-28.190915999999998,1.0,7.44e-06,1.0
0.158539,1.0,6.96105e-08,1.0,-27.333972000000006,1.0,7.83e-06,1.0
0.158905,1.0,6.98855e-08,1.0,-26.276004,1.0,8.01e-06,1.0
0.159271,1.0,6.9641e-08,1.0,-25.793712,1.0,8.22e-06,1.0
0.159637,1.0,6.9397e-08,1.0,-25.641000000000002,1.0,7.62e-06,1.0
0.160126,1.0,6.87105e-08,1.0,-25.565184,1.0,7.66e-06,1.0
0.160461,1.0,6.86495e-08,1.0,-25.8849,1.0,7.39e-06,1.0
0.160858,1.0,6.8405e-08,1.0,-26.725355999999998,1.0,8.13e-06,1.0
0.16125499999999998,1.0,6.82985e-08,1.0,-27.50976,1.0,8.16e-06,1.0
0.161652,1.0,6.869500000000001e-08,1.0,-28.7622,1.0,8.32e-06,1.0
0.162048,1.0,6.872549999999999e-08,1.0,-30.003660000000004,1.0,7.91e-06,1.0
0.162476,1.0,6.962599999999999e-08,1.0,-31.179204,1.0,8.36e-06,1.0
0.16284200000000001,1.0,7.08925e-08,1.0,-31.728527999999994,1.0,8.05e-06,1.0
0.16323900000000002,1.0,7.21895e-08,1.0,-31.992191999999996,1.0,8.19e-06,1.0
0.163605,1.0,7.3242e-08,1.0,-31.783464,1.0,8.27e-06,1.0
0.16403199999999998,1.0,7.4219e-08,1.0,-31.311036,1.0,7.76e-06,1.0
0.164398,1.0,7.531749999999999e-08,1.0,-30.65184,1.0,8.24e-06,1.0
0.164795,1.0,7.612599999999999e-08,1.0,-30.146472000000006,1.0,8.39e-06,1.0
0.165131,1.0,7.656849999999999e-08,1.0,-29.69604,1.0,8.13e-06,1.0
0.16555799999999998,1.0,7.725499999999999e-08,1.0,-29.06982,1.0,8.26e-06,1.0
0.165924,1.0,7.731649999999999e-08,1.0,-28.564452,1.0,8.24e-06,1.0
0.166321,1.0,7.724e-08,1.0,-28.070063999999995,1.0,8.58e-06,1.0
0.166748,1.0,7.7484e-08,1.0,-27.751464,1.0,9.09e-06,1.0
0.16714500000000002,1.0,7.774349999999998e-08,1.0,-27.454824000000002,1.0,8.29e-06,1.0
0.167542,1.0,7.75145e-08,1.0,-27.290051999999996,1.0,8.78e-06,1.0
0.167938,1.0,7.685850000000001e-08,1.0,-27.015372000000003,1.0,8.91e-06,1.0
0.16833499999999998,1.0,7.6416e-08,1.0,-27.1692,1.0,8.91e-06,1.0
0.168701,1.0,7.6233e-08,1.0,-28.245851999999996,1.0,8.66e-06,1.0
0.169098,1.0,7.638549999999999e-08,1.0,-30.31128,1.0,9.29e-06,1.0
0.169495,1.0,7.68435e-08,1.0,-32.025132,1.0,9.28e-06,1.0
0.16989100000000001,1.0,7.731649999999999e-08,1.0,-33.782976000000005,1.0,9.34e-06,1.0
0.170319,1.0,7.8003e-08,1.0,-35.123292,1.0,9.28e-06,1.0
0.170654,1.0,7.8766e-08,1.0,-35.980236,1.0,9.52e-06,1.0
0.171051,1.0,7.9712e-08,1.0,-36.47448,1.0,9.32e-06,1.0
0.17138699999999998,1.0,8.11615e-08,1.0,-36.35388,1.0,8.69e-06,1.0
0.171753,1.0,8.216849999999999e-08,1.0,-35.694576,1.0,9.05e-06,1.0
0.17215,1.0,8.312999999999999e-08,1.0,-34.67286,1.0,9.68e-06,1.0
0.172546,1.0,8.3359e-08,1.0,-33.629148,1.0,9.45e-06,1.0
0.172943,1.0,8.37555e-08,1.0,-31.970232000000003,1.0,9.49e-06,1.0
0.173279,1.0,8.39995e-08,1.0,-30.574944000000006,1.0,9.51e-06,1.0
0.173706,1.0,8.42745e-08,1.0,-29.630124000000002,1.0,9.36e-06,1.0
0.174103,1.0,8.401499999999999e-08,1.0,-29.432375999999998,1.0,9.89e-06,1.0
0.174438,1.0,8.4259e-08,1.0,-29.849867999999997,1.0,9.34e-06,1.0
0.17486600000000002,1.0,8.378599999999999e-08,1.0,-30.355235999999998,1.0,1.0199999999999999e-05,1.0
0.175262,1.0,8.3603e-08,1.0,-30.926520000000004,1.0,9.53e-06,1.0
0.17565899999999998,1.0,8.311449999999999e-08,1.0,-31.508784000000002,1.0,9.91e-06,1.0
0.175995,1.0,8.3069e-08,1.0,-32.409684000000006,1.0,9.42e-06,1.0
0.176483,1.0,8.32825e-08,1.0,-33.42042,1.0,9.6e-06,1.0
0.176849,1.0,8.39995e-08,1.0,-34.310303999999995,1.0,9.73e-06,1.0
0.177307,1.0,8.4564e-08,1.0,-35.540784,1.0,9.09e-06,1.0
0.177643,1.0,8.5907e-08,1.0,-36.38664,1.0,9.32e-06,1.0
0.17807,1.0,8.695999999999999e-08,1.0,-36.969120000000004,1.0,9.62e-06,1.0
0.17846700000000001,1.0,8.8333e-08,1.0,-37.02384,1.0,9.76e-06,1.0
0.178894,1.0,8.914199999999999e-08,1.0,-36.84816,1.0,9.51e-06,1.0
0.17926,1.0,9.00575e-08,1.0,-36.13392,1.0,9.88e-06,1.0
0.179626,1.0,9.07135e-08,1.0,-35.441891999999996,1.0,1.01e-05,1.0
0.17999300000000001,1.0,9.141549999999999e-08,1.0,-34.826652,1.0,1.04e-05,1.0
0.180481,1.0,9.141549999999999e-08,1.0,-34.156512,1.0,9.89e-06,1.0
0.180847,1.0,9.1797e-08,1.0,-33.409440000000004,1.0,1.04e-05,1.0
0.181213,1.0,9.2041e-08,1.0,-32.761224,1.0,1.0300000000000001e-05,1.0
0.18161,1.0,9.2041e-08,1.0,-32.750244,1.0,1.0300000000000001e-05,1.0
0.182068,1.0,9.2331e-08,1.0,-32.882076,1.0,1.09e-05,1.0
0.18240399999999998,1.0,9.225449999999999e-08,1.0,-33.255612,1.0,1.07e-05,1.0
0.1828,1.0,9.27275e-08,1.0,-33.58519199999999,1.0,1.0300000000000001e-05,1.0
0.183228,1.0,9.28955e-08,1.0,-34.07958,1.0,1.09e-05,1.0
0.183594,1.0,9.3338e-08,1.0,-34.760735999999994,1.0,1.07e-05,1.0
0.18395999999999998,1.0,9.3445e-08,1.0,-35.441891999999996,1.0,1.09e-05,1.0
0.184357,1.0,9.3933e-08,1.0,-36.507600000000004,1.0,1.05e-05,1.0
0.184814,1.0,9.48945e-08,1.0,-37.562400000000004,1.0,1.11e-05,1.0
0.18515,1.0,9.5627e-08,1.0,-38.42999999999999,1.0,1.15e-05,1.0
0.185608,1.0,9.626749999999999e-08,1.0,-38.71584,1.0,1.13e-05,1.0
0.185974,1.0,9.719850000000001e-08,1.0,-38.594879999999996,1.0,1.11e-05,1.0
0.18631,1.0,9.8053e-08,1.0,-38.05667999999999,1.0,1.1400000000000001e-05,1.0
0.186676,1.0,9.93195e-08,1.0,-37.23264,1.0,1.1e-05,1.0
0.187134,1.0,1.004945e-07,1.0,-36.27684,1.0,1.1e-05,1.0
0.1875,1.0,1.0140999999999999e-07,1.0,-35.211168,1.0,1.0800000000000002e-05,1.0
0.187897,1.0,1.0165399999999999e-07,1.0,-34.36524,1.0,1.13e-05,1.0
0.18829300000000002,1.0,1.01959e-07,1.0,-33.72804,1.0,1.17e-05,1.0
0.18869,1.0,1.01898e-07,1.0,-33.387444,1.0,1.15e-05,1.0
0.18908699999999998,1.0,1.0150149999999999e-07,1.0,-33.310548,1.0,1.1900000000000001e-05,1.0
0.18948399999999999,1.0,1.0134899999999999e-07,1.0,-33.574212,1.0,1.1900000000000001e-05,1.0
0.18981900000000002,1.0,1.009215e-07,1.0,-33.870852,1.0,1.17e-05,1.0
0.190247,1.0,1.009675e-07,1.0,-34.299324,1.0,1.1400000000000001e-05,1.0
0.190613,1.0,1.009675e-07,1.0,-35.035416,1.0,1.2e-05,1.0
0.19100999999999999,1.0,1.0140999999999999e-07,1.0,-36.02412,1.0,1.23e-05,1.0
0.191437,1.0,1.0169999999999999e-07,1.0,-36.95796,1.0,1.21e-05,1.0
0.191833,1.0,1.02188e-07,1.0,-37.694160000000004,1.0,1.22e-05,1.0
0.192169,1.0,1.0327149999999999e-07,1.0,-38.28744,1.0,1.28e-05,1.0
0.19259600000000002,1.0,1.0424800000000001e-07,1.0,-38.75976,1.0,1.22e-05,1.0
0.192993,1.0,1.056365e-07,1.0,-39.06756,1.0,1.2e-05,1.0
0.19342,1.0,1.0646049999999999e-07,1.0,-39.078359999999996,1.0,1.1900000000000001e-05,1.0
0.19381700000000002,1.0,1.0748299999999998e-07,1.0,-39.254039999999996,1.0,1.23e-05,1.0
0.194153,1.0,1.083525e-07,1.0,-38.91348,1.0,1.26e-05,1.0
0.19448900000000002,1.0,1.0940549999999999e-07,1.0,-38.46312,1.0,1.24e-05,1.0
0.19500699999999999,1.0,1.10092e-07,1.0,-37.82592,1.0,1.24e-05,1.0
0.195404,1.0,1.1070250000000001e-07,1.0,-37.23264,1.0,1.26e-05,1.0
0.19577,1.0,1.113435e-07,1.0,-36.45252,1.0,1.27e-05,1.0
0.196106,1.0,1.1155699999999998e-07,1.0,-36.002159999999996,1.0,1.27e-05,1.0
0.19653299999999999,1.0,1.115875e-07,1.0,-35.61767999999999,1.0,1.24e-05,1.0
0.19693,1.0,1.1154149999999999e-07,1.0,-35.661636,1.0,1.24e-05,1.0
0.197327,1.0,1.115875e-07,1.0,-35.903304,1.0,1.23e-05,1.0
0.197784,1.0,1.1088549999999999e-07,1.0,-36.177839999999996,1.0,1.34e-05,1.0
0.198151,1.0,1.1071800000000001e-07,1.0,-36.78228,1.0,1.34e-05,1.0
0.198547,1.0,1.1050399999999998e-07,1.0,-37.869839999999996,1.0,1.29e-05,1.0
0.198914,1.0,1.106565e-07,1.0,-38.95739999999999,1.0,1.36e-05,1.0
0.199371,1.0,1.113585e-07,1.0,-39.649680000000004,1.0,1.31e-05,1.0
0.199738,1.0,1.12015e-07,1.0,-40.32000000000001,1.0,1.3000000000000001e-05,1.0
0.200195,1.0,1.1294549999999998e-07,1.0,-40.506479999999996,1.0,1.34e-05,1.0
0.200531,1.0,1.137545e-07,1.0,-40.34196000000001,1.0,1.3500000000000001e-05,1.0
0.200928,1.0,1.1526500000000001e-07,1.0,-40.242960000000004,1.0,1.34e-05,1.0
0.201263,1.0,1.16806e-07,1.0,-40.133160000000004,1.0,1.4499999999999998e-05,1.0
0.20165999999999998,1.0,1.187285e-07,1.0,-39.72672,1.0,1.4099999999999999e-05,1.0
0.202026,1.0,1.20285e-07,1.0,-39.078359999999996,1.0,1.39e-05,1.0
0.20239300000000002,1.0,1.211855e-07,1.0,-38.243520000000004,1.0,1.4400000000000001e-05,1.0
0.202759,1.0,1.2181099999999998e-07,1.0,-37.430279999999996,1.0,1.4000000000000001e-05,1.0
0.203156,1.0,1.220095e-07,1.0,-36.58464,1.0,1.4499999999999998e-05,1.0
0.203552,1.0,1.2179549999999997e-07,1.0,-35.903304,1.0,1.42e-05,1.0
0.20391800000000002,1.0,1.2120050000000001e-07,1.0,-35.892324,1.0,1.42e-05,1.0
0.204285,1.0,1.20575e-07,1.0,-36.12312,1.0,1.4400000000000001e-05,1.0
0.20471199999999998,1.0,1.1976600000000002e-07,1.0,-36.69444,1.0,1.4400000000000001e-05,1.0
0.205139,1.0,1.1897299999999999e-07,1.0,-37.68300000000001,1.0,1.4800000000000002e-05,1.0
0.205475,1.0,1.1883549999999999e-07,1.0,-38.71584,1.0,1.42e-05,1.0
0.205902,1.0,1.1889649999999998e-07,1.0,-39.81456,1.0,1.4000000000000001e-05,1.0
0.20629899999999998,1.0,1.19461e-07,1.0,-40.75920000000001,1.0,1.4599999999999999e-05,1.0
0.20666500000000002,1.0,1.203615e-07,1.0,-41.75892,1.0,1.49e-05,1.0
0.207062,1.0,1.2162799999999998e-07,1.0,-42.572160000000004,1.0,1.4599999999999999e-05,1.0
0.20748899999999998,1.0,1.2319949999999998e-07,1.0,-43.17624,1.0,1.47e-05,1.0
0.207825,1.0,1.24649e-07,1.0,-43.57188,1.0,1.4800000000000002e-05,1.0
0.208191,1.0,1.268005e-07,1.0,-43.53876,1.0,1.47e-05,1.0
0.20864899999999997,1.0,1.283265e-07,1.0,-43.26407999999999,1.0,1.5399999999999998e-05,1.0
0.209015,1.0,1.294405e-07,1.0,-42.561,1.0,1.47e-05,1.0
0.209412,1.0,1.3075250000000002e-07,1.0,-41.714999999999996,1.0,1.55e-05,1.0
0.209808,1.0,1.3186649999999999e-07,1.0,-40.6494,1.0,1.52e-05,1.0
0.210144,1.0,1.32553e-07,1.0,-39.57264,1.0,1.57e-05,1.0
0.210571,1.0,1.3278199999999998e-07,1.0,-38.35332000000001,1.0,1.52e-05,1.0
0.21099899999999996,1.0,1.326905e-07,1.0,-37.430279999999996,1.0,1.5399999999999998e-05,1.0
0.211365,1.0,1.320345e-07,1.0,-37.035000000000004,1.0,1.56e-05,1.0
0.211761,1.0,1.316375e-07,1.0,-37.33163999999999,1.0,1.51e-05,1.0
0.21215799999999999,1.0,1.30783e-07,1.0,-38.27628,1.0,1.57e-05,1.0
0.212585,1.0,1.30295e-07,1.0,-39.52872,1.0,1.55e-05,1.0
0.212921,1.0,1.3030999999999998e-07,1.0,-40.78116000000001,1.0,1.6100000000000002e-05,1.0
0.21328699999999998,1.0,1.30356e-07,1.0,-41.94576,1.0,1.63e-05,1.0
0.21377600000000002,1.0,1.3095100000000002e-07,1.0,-42.91272,1.0,1.58e-05,1.0
0.214142,1.0,1.3182049999999999e-07,1.0,-43.85736000000001,1.0,1.62e-05,1.0
0.214508,1.0,1.329195e-07,1.0,-44.41788,1.0,1.63e-05,1.0
0.214905,1.0,1.33972e-07,1.0,-44.725319999999996,1.0,1.63e-05,1.0
0.21533200000000002,1.0,1.35849e-07,1.0,-44.900999999999996,1.0,1.63e-05,1.0
0.215729,1.0,1.37787e-07,1.0,-44.725319999999996,1.0,1.66e-05,1.0
0.21609499999999998,1.0,1.3977049999999997e-07,1.0,-44.253,1.0,1.62e-05,1.0
0.21646100000000001,1.0,1.4122000000000002e-07,1.0,-44.00028,1.0,1.63e-05,1.0
0.216888,1.0,1.4269999999999997e-07,1.0,-43.74756000000001,1.0,1.66e-05,1.0
0.21722399999999997,1.0,1.43509e-07,1.0,-43.341120000000004,1.0,1.67e-05,1.0
0.21768200000000001,1.0,1.4422599999999998e-07,1.0,-42.80256,1.0,1.67e-05,1.0
0.218018,1.0,1.441345e-07,1.0,-42.12144,1.0,1.6899999999999997e-05,1.0
0.21844499999999997,1.0,1.4353949999999999e-07,1.0,-41.45148,1.0,1.7100000000000002e-05,1.0
0.218811,1.0,1.43097e-07,1.0,-40.86900000000001,1.0,1.6800000000000002e-05,1.0
0.219177,1.0,1.4268499999999998e-07,1.0,-40.682520000000004,1.0,1.76e-05,1.0
0.219574,1.0,1.4221199999999998e-07,1.0,-40.9572,1.0,1.67e-05,1.0
0.219971,1.0,1.4199849999999999e-07,1.0,-41.5944,1.0,1.8e-05,1.0
0.22033699999999998,1.0,1.4202899999999998e-07,1.0,-42.27552,1.0,1.7199999999999998e-05,1.0
0.220825,1.0,1.42456e-07,1.0,-43.11036,1.0,1.7100000000000002e-05,1.0
0.22113000000000002,1.0,1.4353949999999999e-07,1.0,-43.98912,1.0,1.77e-05,1.0
0.22149699999999997,1.0,1.445465e-07,1.0,-44.95608,1.0,1.75e-05,1.0
0.221863,1.0,1.46103e-07,1.0,-45.61524,1.0,1.73e-05,1.0
0.222321,1.0,1.479185e-07,1.0,-45.98892,1.0,1.74e-05,1.0
0.22262600000000002,1.0,1.493835e-07,1.0,-46.10952,1.0,1.75e-05,1.0
0.22302199999999997,1.0,1.5040599999999998e-07,1.0,-45.98892,1.0,1.7899999999999998e-05,1.0
0.22345,1.0,1.5152e-07,1.0,-45.933840000000004,1.0,1.7100000000000002e-05,1.0
0.22378499999999998,1.0,1.52359e-07,1.0,-45.626400000000004,1.0,1.82e-05,1.0
0.22421300000000002,1.0,1.5298449999999998e-07,1.0,-45.186840000000004,1.0,1.8e-05,1.0
0.224609,1.0,1.5324400000000002e-07,1.0,-44.51652000000001,1.0,1.7800000000000002e-05,1.0
0.22500599999999998,1.0,1.535185e-07,1.0,-43.52796000000001,1.0,1.75e-05,1.0
0.225433,1.0,1.532135e-07,1.0,-42.95663999999999,1.0,1.82e-05,1.0
0.22583000000000003,1.0,1.52817e-07,1.0,-42.440039999999996,1.0,1.82e-05,1.0
0.226227,1.0,1.52359e-07,1.0,-41.9238,1.0,1.8100000000000003e-05,1.0
0.226654,1.0,1.51932e-07,1.0,-41.67108,1.0,1.8e-05,1.0
0.22701999999999997,1.0,1.5150450000000002e-07,1.0,-41.85792,1.0,1.76e-05,1.0
0.227448,1.0,1.5165699999999997e-07,1.0,-42.48396,1.0,1.85e-05,1.0
0.22784400000000002,1.0,1.52466e-07,1.0,-43.25328,1.0,1.91e-05,1.0
0.22821,1.0,1.5299999999999998e-07,1.0,-44.17596,1.0,1.83e-05,1.0
0.228546,1.0,1.541445e-07,1.0,-45.142920000000004,1.0,1.87e-05,1.0
0.228973,1.0,1.5563949999999997e-07,1.0,-46.2744,1.0,1.93e-05,1.0
0.229431,1.0,1.570435e-07,1.0,-46.95552000000001,1.0,1.91e-05,1.0
0.22979699999999997,1.0,1.58554e-07,1.0,-47.38392,1.0,1.92e-05,1.0
0.230225,1.0,1.60019e-07,1.0,-47.47176,1.0,1.9600000000000002e-05,1.0
0.230621,1.0,1.6137699999999998e-07,1.0,-47.13119999999999,1.0,1.99e-05,1.0
0.230988,1.0,1.6270449999999999e-07,1.0,-46.60415999999999,1.0,1.89e-05,1.0
0.231415,1.0,1.638185e-07,1.0,-45.9558,1.0,1.9699999999999998e-05,1.0
0.231812,1.0,1.646425e-07,1.0,-45.230760000000004,1.0,1.9399999999999997e-05,1.0
0.23211700000000002,1.0,1.652375e-07,1.0,-44.69256,1.0,1.9399999999999997e-05,1.0
0.23257399999999998,1.0,1.65619e-07,1.0,-44.110079999999996,1.0,1.9600000000000002e-05,1.0
0.23288000000000003,1.0,1.65863e-07,1.0,-43.582679999999996,1.0,1.99e-05,1.0
0.23330700000000001,1.0,1.6546649999999997e-07,1.0,-43.11036,1.0,1.95e-05,1.0
0.233765,1.0,1.6477949999999998e-07,1.0,-42.91272,1.0,1.98e-05,1.0
0.2341,1.0,1.643525e-07,1.0,-43.055279999999996,1.0,2.05e-05,1.0
0.234558,1.0,1.637575e-07,1.0,-43.50599999999999,1.0,1.99e-05,1.0
0.234894,1.0,1.6374199999999998e-07,1.0,-43.96716000000001,1.0,2e-05,1.0
0.23529099999999997,1.0,1.6374199999999998e-07,1.0,-44.41788,1.0,2.0300000000000002e-05,1.0
0.23568699999999998,1.0,1.636505e-07,1.0,-44.988839999999996,1.0,1.99e-05,1.0
0.23608400000000002,1.0,1.644285e-07,1.0,-45.80208,1.0,2.08e-05,1.0
0.236481,1.0,1.652985e-07,1.0,-46.74672,1.0,2.0399999999999998e-05,1.0
0.23690799999999998,1.0,1.6682449999999997e-07,1.0,-47.57076,1.0,2.11e-05,1.0
0.237244,1.0,1.6835e-07,1.0,-48.03228,1.0,2.11e-05,1.0
0.23757899999999998,1.0,1.7053199999999998e-07,1.0,-48.186,1.0,2.09e-05,1.0
0.23800700000000002,1.0,1.7266849999999998e-07,1.0,-47.87856,1.0,2.09e-05,1.0
0.238373,1.0,1.7489599999999998e-07,1.0,-47.427839999999996,1.0,2.12e-05,1.0
0.238831,1.0,1.766665e-07,1.0,-46.92276,1.0,2.13e-05,1.0
0.239166,1.0,1.77902e-07,1.0,-46.46124,1.0,2.11e-05,1.0
0.239594,1.0,1.78772e-07,1.0,-46.21932,1.0,2.09e-05,1.0
0.239929,1.0,1.79199e-07,1.0,-45.85680000000001,1.0,2.17e-05,1.0
0.240387,1.0,1.793975e-07,1.0,-45.516239999999996,1.0,2.12e-05,1.0
0.240814,1.0,1.7918399999999997e-07,1.0,-45.28548,1.0,2.23e-05,1.0
0.24115,1.0,1.787565e-07,1.0,-45.06588,1.0,2.18e-05,1.0
0.24151599999999998,1.0,1.779175e-07,1.0,-44.966879999999996,1.0,2.15e-05,1.0
0.24191300000000002,1.0,1.770475e-07,1.0,-45.142920000000004,1.0,2.23e-05,1.0
0.24231,1.0,1.759795e-07,1.0,-45.626400000000004,1.0,2.22e-05,1.0
0.242706,1.0,1.755065e-07,1.0,-46.45008,1.0,2.2100000000000002e-05,1.0
0.243103,1.0,1.755065e-07,1.0,-47.318039999999996,1.0,2.23e-05,1.0
0.24346900000000002,1.0,1.7634599999999998e-07,1.0,-48.22992,1.0,2.2e-05,1.0
0.24386599999999997,1.0,1.776125e-07,1.0,-48.922200000000004,1.0,2.2100000000000002e-05,1.0
0.244263,1.0,1.79138e-07,1.0,-49.39452000000001,1.0,2.23e-05,1.0
0.24465900000000002,1.0,1.8061849999999997e-07,1.0,-49.74624,1.0,2.23e-05,1.0
0.245087,1.0,1.826325e-07,1.0,-49.844879999999996,1.0,2.22e-05,1.0
0.24545300000000003,1.0,1.8411250000000001e-07,1.0,-49.72428,1.0,2.3e-05,1.0
0.245941,1.0,1.855165e-07,1.0,-49.52628,1.0,2.3100000000000002e-05,1.0
0.246277,1.0,1.8652349999999997e-07,1.0,-49.16376,1.0,2.33e-05,1.0
0.24664299999999997,1.0,1.877135e-07,1.0,-48.76848,1.0,2.2800000000000002e-05,1.0
0.24706999999999998,1.0,1.88629e-07,1.0,-48.20796,1.0,2.3100000000000002e-05,1.0
0.247437,1.0,1.8919349999999998e-07,1.0,-47.30724,1.0,2.3100000000000002e-05,1.0
0.247833,1.0,1.89148e-07,1.0,-46.67004,1.0,2.3e-05,1.0
0.24829099999999998,1.0,1.8920899999999998e-07,1.0,-46.18656,1.0,2.3899999999999998e-05,1.0
0.248627,1.0,1.8855299999999998e-07,1.0,-46.10952,1.0,2.3199999999999998e-05,1.0
0.249054,1.0,1.878815e-07,1.0,-46.2744,1.0,2.35e-05,1.0
0.24939,1.0,1.872405e-07,1.0,-46.63692,1.0,2.3199999999999998e-05,1.0
0.24984699999999999,1.0,1.86966e-07,1.0,-46.9116,1.0,2.34e-05,1.0
0.250244,1.0,1.8699649999999998e-07,1.0,-47.427839999999996,1.0,2.33e-05,1.0
0.25058,1.0,1.874085e-07,1.0,-48.10896,1.0,2.4299999999999998e-05,1.0
0.250977,1.0,1.8832399999999999e-07,1.0,-48.812400000000004,1.0,2.46e-05,1.0
0.251434,1.0,1.896515e-07,1.0,-49.62528,1.0,2.4299999999999998e-05,1.0
0.25174,1.0,1.91391e-07,1.0,-50.284440000000004,1.0,2.4100000000000003e-05,1.0
0.252228,1.0,1.9352699999999998e-07,1.0,-50.636160000000004,1.0,2.4100000000000003e-05,1.0
0.25256300000000004,1.0,1.961515e-07,1.0,-50.767920000000004,1.0,2.4299999999999998e-05,1.0
0.25296,1.0,1.9897449999999998e-07,1.0,-50.60304,1.0,2.5e-05,1.0
0.253387,1.0,2.0117199999999997e-07,1.0,-50.14152000000001,1.0,2.5e-05,1.0
0.253784,1.0,2.029265e-07,1.0,-49.65803999999999,1.0,2.49e-05,1.0
0.254181,1.0,2.0400999999999999e-07,1.0,-48.90024,1.0,2.49e-05,1.0
0.254578,1.0,2.0509349999999998e-07,1.0,-48.197160000000004,1.0,2.5300000000000002e-05,1.0
0.254913,1.0,2.05261e-07,1.0,-47.63664,1.0,2.54e-05,1.0
0.25528,1.0,2.053375e-07,1.0,-47.08728,1.0,2.62e-05,1.0
0.255707,1.0,2.042085e-07,1.0,-46.571039999999996,1.0,2.59e-05,1.0
0.256042,1.0,2.0248399999999998e-07,1.0,-46.131479999999996,1.0,2.55e-05,1.0
0.256439,1.0,2.00989e-07,1.0,-46.09872,1.0,2.59e-05,1.0
0.256805,1.0,1.9985949999999998e-07,1.0,-46.36224,1.0,2.58e-05,1.0
0.257202,1.0,1.9970699999999998e-07,1.0,-46.9008,1.0,2.57e-05,1.0
0.25759899999999997,1.0,1.99692e-07,1.0,-47.79036,1.0,2.56e-05,1.0
0.257965,1.0,2.00302e-07,1.0,-48.74616,1.0,2.64e-05,1.0
0.258362,1.0,2.018585e-07,1.0,-49.691159999999996,1.0,2.65e-05,1.0
0.258759,1.0,2.040255e-07,1.0,-50.26248,1.0,2.6300000000000002e-05,1.0
0.259155,1.0,2.0639050000000002e-07,1.0,-50.75676,1.0,2.64e-05,1.0
0.25949099999999997,1.0,2.0899949999999997e-07,1.0,-51.053399999999996,1.0,2.64e-05,1.0
0.259949,1.0,2.1205149999999996e-07,1.0,-51.053399999999996,1.0,2.68e-05,1.0
0.260254,1.0,2.144775e-07,1.0,-50.87772,1.0,2.6300000000000002e-05,1.0
0.260712,1.0,2.16858e-07,1.0,-50.416199999999996,1.0,2.6600000000000003e-05,1.0
0.261108,1.0,2.185975e-07,1.0,-49.878,1.0,2.6600000000000003e-05,1.0
0.261475,1.0,2.196505e-07,1.0,-49.32863999999999,1.0,2.68e-05,1.0
0.261871,1.0,2.1961999999999998e-07,1.0,-48.65832,1.0,2.6700000000000002e-05,1.0
0.262329,1.0,2.19452e-07,1.0,-47.99916,1.0,2.7300000000000003e-05,1.0
0.26269499999999996,1.0,2.19101e-07,1.0,-47.69172,1.0,2.7600000000000003e-05,1.0
0.26306199999999996,1.0,2.1864299999999995e-07,1.0,-47.82348,1.0,2.7000000000000002e-05,1.0
0.263489,1.0,2.1754450000000002e-07,1.0,-48.219120000000004,1.0,2.78e-05,1.0
0.263824,1.0,2.163545e-07,1.0,-48.812400000000004,1.0,2.8000000000000003e-05,1.0
0.264282,1.0,2.1548449999999996e-07,1.0,-49.53744,1.0,2.7899999999999997e-05,1.0
0.264648,1.0,2.15454e-07,1.0,-50.06484,1.0,2.75e-05,1.0
0.265015,1.0,2.16507e-07,1.0,-50.75676,1.0,2.7399999999999995e-05,1.0
0.265411,1.0,2.1844499999999997e-07,1.0,-51.31728,1.0,2.78e-05,1.0
0.265778,1.0,2.2055050000000001e-07,1.0,-51.8994,1.0,2.84e-05,1.0
0.266235,1.0,2.226715e-07,1.0,-52.58052,1.0,2.8499999999999998e-05,1.0
0.266571,1.0,2.248385e-07,1.0,-53.29476,1.0,2.8100000000000002e-05,1.0
0.267029,1.0,2.2659299999999997e-07,1.0,-53.78904,1.0,2.8699999999999996e-05,1.0
0.267365,1.0,2.28592e-07,1.0,-53.5914,1.0,2.84e-05,1.0
0.267761,1.0,2.299345e-07,1.0,-52.7562,1.0,2.8800000000000002e-05,1.0
0.268158,1.0,2.31415e-07,1.0,-51.71256000000001,1.0,2.8899999999999998e-05,1.0
0.26855500000000004,1.0,2.32239e-07,1.0,-50.47128,1.0,2.9100000000000003e-05,1.0
0.268921,1.0,2.3266599999999997e-07,1.0,-49.32863999999999,1.0,2.8300000000000003e-05,1.0
0.269318,1.0,2.3289499999999997e-07,1.0,-48.6036,1.0,2.8999999999999997e-05,1.0
0.26968400000000003,1.0,2.3210149999999998e-07,1.0,-48.14208,1.0,2.94e-05,1.0
0.270111,1.0,2.302855e-07,1.0,-47.9664,1.0,2.9100000000000003e-05,1.0
0.27050799999999997,1.0,2.2814949999999997e-07,1.0,-47.977199999999996,1.0,2.97e-05,1.0
0.270813,1.0,2.2596750000000001e-07,1.0,-48.12012,1.0,2.9100000000000003e-05,1.0
0.271332,1.0,2.2399899999999997e-07,1.0,-48.6036,1.0,2.94e-05,1.0
0.271729,1.0,2.2309899999999998e-07,1.0,-49.4496,1.0,2.97e-05,1.0
0.272095,1.0,2.2343449999999997e-07,1.0,-50.55912,1.0,3.02e-05,1.0
0.272461,1.0,2.24228e-07,1.0,-51.74567999999999,1.0,2.97e-05,1.0
0.272858,1.0,2.2625749999999997e-07,1.0,-53.064,1.0,2.98e-05,1.0
0.273285,1.0,2.281645e-07,1.0,-54.217439999999996,1.0,3.06e-05,1.0
0.273621,1.0,2.307585e-07,1.0,-55.118520000000004,1.0,3.07e-05,1.0
0.274017,1.0,2.3336799999999998e-07,1.0,-55.67868,1.0,3.0299999999999998e-05,1.0
0.274384,1.0,2.3530599999999998e-07,1.0,-55.85436,1.0,3.0299999999999998e-05,1.0
0.274811,1.0,2.379455e-07,1.0,-55.623599999999996,1.0,3.04e-05,1.0
0.275208,1.0,2.401735e-07,1.0,-55.04148,1.0,3.05e-05,1.0
0.275604,1.0,2.4212649999999997e-07,1.0,-53.87688000000001,1.0,3.12e-05,1.0
0.276001,1.0,2.434385e-07,1.0,-52.48152,1.0,3.09e-05,1.0
0.276398,1.0,2.4385049999999996e-07,1.0,-51.17436,1.0,3.14e-05,1.0
0.276794,1.0,2.430265e-07,1.0,-50.20739999999999,1.0,3.07e-05,1.0
0.27719099999999997,1.0,2.41272e-07,1.0,-49.53744,1.0,3.17e-05,1.0
0.277588,1.0,2.397005e-07,1.0,-49.19688,1.0,3.19e-05,1.0
0.278015,1.0,2.383425e-07,1.0,-49.17492,1.0,3.24e-05,1.0
0.278351,1.0,2.3727399999999998e-07,1.0,-49.63608,1.0,3.13e-05,1.0
0.278748,1.0,2.3666399999999998e-07,1.0,-50.49324,1.0,3.2500000000000004e-05,1.0
0.279053,1.0,2.3634349999999997e-07,1.0,-51.39396000000001,1.0,3.229999999999999e-05,1.0
0.27951,1.0,2.3684699999999998e-07,1.0,-52.40484,1.0,3.26e-05,1.0
0.279907,1.0,2.382505e-07,1.0,-53.470439999999996,1.0,3.27e-05,1.0
0.280273,1.0,2.40219e-07,1.0,-54.32724,1.0,3.3e-05,1.0
0.280731,1.0,2.4235549999999994e-07,1.0,-54.93167999999999,1.0,3.26e-05,1.0
0.281067,1.0,2.4450700000000003e-07,1.0,-55.360079999999996,1.0,3.26e-05,1.0
0.281494,1.0,2.465365e-07,1.0,-55.546920000000014,1.0,3.28e-05,1.0
0.28186,1.0,2.487945e-07,1.0,-55.1952,1.0,3.37e-05,1.0
0.282227,1.0,2.510225e-07,1.0,-54.722879999999996,1.0,3.35e-05,1.0
0.282623,1.0,2.5296e-07,1.0,-53.96472,1.0,3.32e-05,1.0
0.28302,1.0,2.5440999999999996e-07,1.0,-53.02007999999999,1.0,3.3600000000000004e-05,1.0
0.283386,1.0,2.55188e-07,1.0,-52.1082,1.0,3.3600000000000004e-05,1.0
0.283783,1.0,2.555235e-07,1.0,-51.44903999999999,1.0,3.4399999999999996e-05,1.0
0.284149,1.0,2.5498949999999997e-07,1.0,-51.06456,1.0,3.3600000000000004e-05,1.0
0.284576,1.0,2.539065e-07,1.0,-50.71284,1.0,3.4399999999999996e-05,1.0
0.284943,1.0,2.526705e-07,1.0,-50.54796,1.0,3.43e-05,1.0
0.28530900000000003,1.0,2.51404e-07,1.0,-50.569919999999996,1.0,3.4399999999999996e-05,1.0
0.285706,1.0,2.503355e-07,1.0,-50.75676,1.0,3.45e-05,1.0
0.286072,1.0,2.4980149999999996e-07,1.0,-51.07536,1.0,3.46e-05,1.0
0.286499,1.0,2.49649e-07,1.0,-51.64667999999999,1.0,3.47e-05,1.0
0.286804,1.0,2.5054949999999996e-07,1.0,-52.54776,1.0,3.46e-05,1.0
0.287292,1.0,2.5201399999999994e-07,1.0,-53.55828,1.0,3.45e-05,1.0
0.287659,1.0,2.545625e-07,1.0,-54.52524,1.0,3.5e-05,1.0
0.288025,1.0,2.57019e-07,1.0,-55.33812,1.0,3.47e-05,1.0
0.288483,1.0,2.598265e-07,1.0,-55.83239999999999,1.0,3.570000000000001e-05,1.0
0.288788,1.0,2.6155100000000004e-07,1.0,-56.00843999999999,1.0,3.48e-05,1.0
0.289154,1.0,2.6348899999999996e-07,1.0,-55.975319999999996,1.0,3.4899999999999995e-05,1.0
0.289551,1.0,2.64969e-07,1.0,-55.61279999999999,1.0,3.5600000000000005e-05,1.0
0.290009,1.0,2.662965e-07,1.0,-55.118520000000004,1.0,3.53e-05,1.0
0.290344,1.0,2.6727299999999996e-07,1.0,-54.63503999999999,1.0,3.6099999999999997e-05,1.0
0.29074099999999997,1.0,2.6806649999999995e-07,1.0,-54.08567999999999,1.0,3.66e-05,1.0
0.291168,1.0,2.6872249999999995e-07,1.0,-53.56944,1.0,3.570000000000001e-05,1.0
0.291595,1.0,2.69623e-07,1.0,-52.9542,1.0,3.52e-05,1.0
0.291962,1.0,2.699125e-07,1.0,-52.49267999999999,1.0,3.6200000000000006e-05,1.0
0.292358,1.0,2.698975e-07,1.0,-52.09703999999999,1.0,3.6e-05,1.0
0.29275500000000004,1.0,2.6921100000000004e-07,1.0,-52.03116,1.0,3.68e-05,1.0
0.293091,1.0,2.67685e-07,1.0,-52.18488,1.0,3.63e-05,1.0
0.293549,1.0,2.660215e-07,1.0,-52.58052,1.0,3.64e-05,1.0
0.29388400000000003,1.0,2.64755e-07,1.0,-53.08596,1.0,3.6099999999999997e-05,1.0
0.294342,1.0,2.642975e-07,1.0,-53.63532,1.0,3.7e-05,1.0
0.294769,1.0,2.645265e-07,1.0,-54.26136,1.0,3.7e-05,1.0
0.295135,1.0,2.656095e-07,1.0,-55.08539999999999,1.0,3.77e-05,1.0
0.295502,1.0,2.6724249999999997e-07,1.0,-55.689840000000004,1.0,3.73e-05,1.0
