Potential,potstdev,Photocurrent (nA),pcstdev,Phase (°),phstdev,DC Current (µA),dcCurrstdev
-0.117126,1.0,3.271485e-09,1.0,-322.29504,1.0,-2.65e-05,1.0
-0.11673,1.0,2.68402e-09,1.0,-307.28772,1.0,-2.57e-05,1.0
-0.116302,1.0,2.1957399999999997e-09,1.0,-289.34676,1.0,-2.51e-05,1.0
-0.115967,1.0,2.0629899999999997e-09,1.0,-278.45964,1.0,-2.55e-05,1.0
-0.11550899999999999,1.0,1.361085e-09,1.0,-272.10924,1.0,-2.55e-05,1.0
-0.115173,1.0,8.804299999999999e-10,1.0,-270.4176,1.0,-2.45e-05,1.0
-0.114777,1.0,-4.13513e-10,1.0,-279.2394,1.0,-2.51e-05,1.0
-0.11438,1.0,-1.667785e-09,1.0,-298.49868,1.0,-2.47e-05,1.0
-0.114014,1.0,-2.331545e-09,1.0,-332.35848,1.0,-2.46e-05,1.0
-0.11358599999999999,1.0,-1.94397e-09,1.0,351.03528,1.0,-2.2800000000000002e-05,1.0
-0.11322,1.0,-8.117699999999999e-10,1.0,335.55528000000004,1.0,-2.3e-05,1.0
-0.112793,1.0,4.5928949999999997e-10,1.0,334.75356,1.0,-2.22e-05,1.0
-0.11239600000000001,1.0,1.33972e-09,1.0,334.97316,1.0,-2.1899999999999997e-05,1.0
-0.11202999999999999,1.0,2.2003149999999998e-09,1.0,339.49943999999994,1.0,-2.25e-05,1.0
-0.111633,1.0,2.461245e-09,1.0,350.79336,1.0,-2.17e-05,1.0
-0.111176,1.0,2.6000999999999997e-09,1.0,-358.28603999999996,1.0,-2.2899999999999998e-05,1.0
-0.11080899999999999,1.0,2.612305e-09,1.0,-345.90456000000006,1.0,-2.18e-05,1.0
-0.110382,1.0,2.84424e-09,1.0,-333.34704,1.0,-2.24e-05,1.0
-0.10998499999999999,1.0,2.41852e-09,1.0,-318.79044,1.0,-2.1899999999999997e-05,1.0
-0.10961900000000001,1.0,1.72577e-09,1.0,-304.12368,1.0,-2.23e-05,1.0
-0.10919200000000001,1.0,2.4719249999999997e-10,1.0,-293.0382,1.0,-2.11e-05,1.0
-0.108795,1.0,-1.45569e-09,1.0,-295.20252,1.0,-2.17e-05,1.0
-0.10839800000000001,1.0,-2.575685e-09,1.0,-314.02224,1.0,-2.14e-05,1.0
-0.10803199999999999,1.0,-3.41034e-09,1.0,-341.48807999999997,1.0,-2.14e-05,1.0
-0.107635,1.0,-3.396605e-09,1.0,353.13372,1.0,-2e-05,1.0
-0.107269,1.0,-3.160095e-09,1.0,324.4482,1.0,-1.99e-05,1.0
-0.10681199999999999,1.0,-2.14844e-09,1.0,304.3872,1.0,-1.87e-05,1.0
-0.106476,1.0,-1.11389e-09,1.0,294.04908,1.0,-1.87e-05,1.0
-0.106049,1.0,2.1667499999999998e-10,1.0,292.15944,1.0,-1.86e-05,1.0
-0.105621,1.0,6.68335e-10,1.0,300.3444,1.0,-1.86e-05,1.0
-0.105316,1.0,8.544899999999999e-10,1.0,311.067,1.0,-1.86e-05,1.0
-0.10488900000000001,1.0,1.09558e-09,1.0,328.31532000000004,1.0,-1.83e-05,1.0
-0.10446199999999999,1.0,9.170549999999999e-10,1.0,343.971,1.0,-1.83e-05,1.0
-0.10409500000000001,1.0,1.3229349999999998e-09,1.0,359.50572,1.0,-1.84e-05,1.0
-0.10366800000000001,1.0,1.57013e-09,1.0,-348.5412,1.0,-1.91e-05,1.0
-0.103333,1.0,1.9943249999999997e-09,1.0,-342.24623999999994,1.0,-1.89e-05,1.0
-0.102905,1.0,2.03247e-09,1.0,-335.61036,1.0,-1.85e-05,1.0
-0.102539,1.0,1.53961e-09,1.0,-324.29447999999996,1.0,-1.84e-05,1.0
-0.102112,1.0,4.4860849999999995e-10,1.0,-314.75844,1.0,-1.85e-05,1.0
-0.101746,1.0,-1.0314949999999999e-09,1.0,-305.71668,1.0,-1.8100000000000003e-05,1.0
-0.10144,1.0,-2.101135e-09,1.0,-299.26764,1.0,-1.8e-05,1.0
-0.101013,1.0,-3.207395e-09,1.0,-291.42323999999996,1.0,-1.8e-05,1.0
-0.100586,1.0,-4.281615e-09,1.0,-295.46639999999996,1.0,-1.7800000000000002e-05,1.0
-0.10022,1.0,-4.6798699999999995e-09,1.0,-337.8186,1.0,-1.77e-05,1.0
-0.099823,1.0,-4.5471199999999995e-09,1.0,340.56503999999995,1.0,-1.7100000000000002e-05,1.0
-0.0994873,1.0,-3.17688e-09,1.0,328.45824,1.0,-1.6899999999999997e-05,1.0
-0.0990906,1.0,-1.924135e-09,1.0,325.33812,1.0,-1.66e-05,1.0
-0.09866330000000001,1.0,-6.1493e-10,1.0,326.74428,1.0,-1.64e-05,1.0
-0.09826660000000001,1.0,4.3792699999999993e-10,1.0,334.17107999999996,1.0,-1.63e-05,1.0
-0.0979309,1.0,8.89585e-10,1.0,341.02656,1.0,-1.64e-05,1.0
-0.09747310000000001,1.0,1.1215199999999999e-09,1.0,351.89207999999996,1.0,-1.62e-05,1.0
-0.0971069,1.0,9.15525e-10,1.0,-352.61712,1.0,-1.65e-05,1.0
-0.0967102,1.0,4.68445e-10,1.0,-335.64348,1.0,-1.7100000000000002e-05,1.0
-0.0963135,1.0,3.067015e-10,1.0,-318.95496,1.0,-1.66e-05,1.0
-0.09594730000000001,1.0,-4.211425e-10,1.0,-308.69388000000004,1.0,-1.7e-05,1.0
-0.0956116,1.0,-8.0261e-10,1.0,-296.78472,1.0,-1.66e-05,1.0
-0.0951538,1.0,-1.46637e-09,1.0,-286.6662,1.0,-1.66e-05,1.0
-0.09478760000000001,1.0,-2.2979749999999996e-09,1.0,-286.67736,1.0,-1.56e-05,1.0
-0.0943909,1.0,-3.152465e-09,1.0,-294.60923999999994,1.0,-1.55e-05,1.0
-0.09396360000000001,1.0,-3.6132799999999997e-09,1.0,-310.36391999999995,1.0,-1.59e-05,1.0
-0.0935974,1.0,-4.067995e-09,1.0,-351.96912000000003,1.0,-1.56e-05,1.0
-0.0932312,1.0,-4.18091e-09,1.0,322.63559999999995,1.0,-1.53e-05,1.0
-0.09277339999999999,1.0,-3.91083e-09,1.0,287.47908,1.0,-1.4499999999999998e-05,1.0
-0.0924988,1.0,-3.741455e-09,1.0,284.38128,1.0,-1.49e-05,1.0
-0.092041,1.0,-3.137205e-09,1.0,290.48940000000005,1.0,-1.53e-05,1.0
-0.0916748,1.0,-2.48108e-09,1.0,308.58408,1.0,-1.3800000000000002e-05,1.0
-0.0911865,1.0,-1.86615e-09,1.0,319.94388000000004,1.0,-1.4400000000000001e-05,1.0
-0.09085080000000001,1.0,-1.4205949999999999e-09,1.0,332.32536000000005,1.0,-1.4300000000000002e-05,1.0
-0.0905151,1.0,-9.9182e-10,1.0,345.31128,1.0,-1.39e-05,1.0
-0.09008789999999998,1.0,-7.751449999999999e-10,1.0,356.14368,1.0,-1.39e-05,1.0
-0.0896301,1.0,-3.356935e-10,1.0,-357.29748,1.0,-1.4800000000000002e-05,1.0
-0.0892639,1.0,5.950949999999999e-11,1.0,-351.60659999999996,1.0,-1.4800000000000002e-05,1.0
-0.08886720000000001,1.0,4.821774999999999e-10,1.0,-343.77336,1.0,-1.4599999999999999e-05,1.0
-0.08843989999999999,1.0,5.5237e-10,1.0,-335.63232,1.0,-1.47e-05,1.0
-0.08807369999999999,1.0,2.67029e-10,1.0,-322.63559999999995,1.0,-1.39e-05,1.0
-0.08770750000000001,1.0,-5.35585e-10,1.0,-310.17708000000005,1.0,-1.39e-05,1.0
-0.0872498,1.0,-1.39923e-09,1.0,-305.59572000000003,1.0,-1.4000000000000001e-05,1.0
-0.086853,1.0,-2.28882e-09,1.0,-303.18983999999995,1.0,-1.3800000000000002e-05,1.0
-0.0864868,1.0,-2.9434199999999997e-09,1.0,-302.31072,1.0,-1.4000000000000001e-05,1.0
-0.0861206,1.0,-3.648375e-09,1.0,-298.47672,1.0,-1.42e-05,1.0
-0.08572389999999999,1.0,-3.874205e-09,1.0,-303.81588,1.0,-1.4099999999999999e-05,1.0
-0.0853271,1.0,-4.257199999999999e-09,1.0,-315.17568,1.0,-1.32e-05,1.0
-0.0849304,1.0,-4.426575e-09,1.0,-350.90316,1.0,-1.29e-05,1.0
-0.0845337,1.0,-4.3151849999999995e-09,1.0,342.00431999999995,1.0,-1.1900000000000001e-05,1.0
-0.084198,1.0,-3.37219e-09,1.0,320.61384,1.0,-1.24e-05,1.0
-0.08380130000000001,1.0,-2.55127e-09,1.0,319.5594,1.0,-1.17e-05,1.0
-0.08340449999999999,1.0,-1.698305e-09,1.0,326.49156,1.0,-1.23e-05,1.0
-0.08300779999999999,1.0,-1.0269149999999999e-09,1.0,334.84139999999996,1.0,-1.22e-05,1.0
-0.08264160000000001,1.0,-3.723144999999999e-10,1.0,346.8384,1.0,-1.1400000000000001e-05,1.0
-0.0821838,1.0,-3.87573e-10,1.0,356.38559999999995,1.0,-1.18e-05,1.0
-0.0818176,1.0,-6.21035e-10,1.0,-350.62883999999997,1.0,-1.3500000000000001e-05,1.0
-0.0813904,1.0,-1.3229349999999998e-09,1.0,-342.0702,1.0,-1.25e-05,1.0
-0.08102419999999999,1.0,-2.2567749999999998e-09,1.0,-332.35848,1.0,-1.29e-05,1.0
-0.0805969,1.0,-3.1585699999999998e-09,1.0,-319.96583999999996,1.0,-1.25e-05,1.0
-0.0802002,1.0,-3.6254899999999996e-09,1.0,-310.38588000000004,1.0,-1.29e-05,1.0
-0.0798035,1.0,-3.80249e-09,1.0,-303.79391999999996,1.0,-1.28e-05,1.0
-0.0794067,1.0,-4.0222149999999994e-09,1.0,-310.88016,1.0,-1.26e-05,1.0
-0.0789795,1.0,-4.185485e-09,1.0,-315.17568,1.0,-1.25e-05,1.0
-0.0785828,1.0,-4.4143699999999995e-09,1.0,-332.35848,1.0,-1.23e-05,1.0
-0.0782471,1.0,-4.69818e-09,1.0,-327.15072,1.0,-1.24e-05,1.0
-0.0778198,1.0,-4.667664999999999e-09,1.0,-350.02439999999996,1.0,-1.24e-05,1.0
-0.0774841,1.0,-3.977965e-09,1.0,343.25676,1.0,-1.09e-05,1.0
-0.07708739999999999,1.0,-3.1692499999999996e-09,1.0,330.02927999999997,1.0,-1.0199999999999999e-05,1.0
-0.07669069999999999,1.0,-2.27661e-09,1.0,327.00816,1.0,-1.04e-05,1.0
-0.0762939,1.0,-1.45111e-09,1.0,325.04148000000004,1.0,-1.1400000000000001e-05,1.0
-0.0758972,1.0,-4.2419449999999995e-10,1.0,333.76464,1.0,-1.0199999999999999e-05,1.0
-0.075531,1.0,2.74658e-10,1.0,345.26736000000005,1.0,-1.0300000000000001e-05,1.0
-0.0751343,1.0,7.5226e-10,1.0,356.85792000000004,1.0,-1.01e-05,1.0
-0.07470700000000001,1.0,7.415749999999999e-10,1.0,-357.70392000000004,1.0,-1.15e-05,1.0
-0.07431030000000001,1.0,5.020149999999999e-10,1.0,-354.82536000000005,1.0,-1.1e-05,1.0
-0.0739441,1.0,-4.2419449999999995e-10,1.0,-351.16704,1.0,-1.1e-05,1.0
-0.07351680000000001,1.0,-9.79615e-10,1.0,-342.65268000000003,1.0,-1.12e-05,1.0
-0.0731812,1.0,-1.6067499999999999e-09,1.0,-332.34731999999997,1.0,-1.0800000000000002e-05,1.0
-0.0727844,1.0,-1.8280049999999998e-09,1.0,-320.81183999999996,1.0,-1.06e-05,1.0
-0.0723877,1.0,-2.46582e-09,1.0,-320.48208000000005,1.0,-1.1400000000000001e-05,1.0
-0.07192989999999999,1.0,-3.1219499999999995e-09,1.0,-319.96583999999996,1.0,-1.04e-05,1.0
-0.0716248,1.0,-3.378295e-09,1.0,-335.35763999999995,1.0,-1.05e-05,1.0
-0.071167,1.0,-3.588865e-09,1.0,352.74888000000004,1.0,-9.09e-06,1.0
-0.0708618,1.0,-3.3844e-09,1.0,314.74728000000005,1.0,-9.57e-06,1.0
-0.0704346,1.0,-2.71759e-09,1.0,292.12632,1.0,-9.33e-06,1.0
-0.07003780000000001,1.0,-2.5589e-09,1.0,282.92004,1.0,-9.43e-06,1.0
-0.0697021,1.0,-2.116395e-09,1.0,294.57648,1.0,-9.29e-06,1.0
-0.0693054,1.0,-1.6754149999999998e-09,1.0,306.39779999999996,1.0,-9.08e-06,1.0
-0.06887819999999999,1.0,-7.827749999999999e-10,1.0,318.41676,1.0,-9.72e-06,1.0
-0.0684814,1.0,4.7299999999999994e-11,1.0,332.84196000000003,1.0,-9.29e-06,1.0
-0.06811519999999999,1.0,7.125849999999999e-10,1.0,337.96151999999995,1.0,-9.16e-06,1.0
-0.06765750000000001,1.0,1.109315e-09,1.0,339.36768,1.0,-8.95e-06,1.0
-0.06726069999999999,1.0,1.119995e-09,1.0,339.35652,1.0,-8.72e-06,1.0
-0.06689450000000001,1.0,7.5836e-10,1.0,346.26707999999996,1.0,-9.12e-06,1.0
-0.0665283,1.0,-1.8615699999999998e-10,1.0,353.49623999999994,1.0,-9.02e-06,1.0
-0.0661926,1.0,-1.049805e-09,1.0,359.51652,1.0,-8.15e-06,1.0
-0.06579589999999999,1.0,-1.905825e-09,1.0,-351.93600000000004,1.0,-9.63e-06,1.0
-0.0653381,1.0,-2.511595e-09,1.0,-345.56399999999996,1.0,-9.12e-06,1.0
-0.0649414,1.0,-3.1219499999999995e-09,1.0,-336.8628,1.0,-8.89e-06,1.0
-0.0645447,1.0,-3.823855e-09,1.0,-332.34731999999997,1.0,-8.97e-06,1.0
-0.064209,1.0,-4.33197e-09,1.0,-333.21528,1.0,-8.77e-06,1.0
-0.0637512,1.0,-4.663085e-09,1.0,-339.80724,1.0,-9.99e-06,1.0
-0.063385,1.0,-4.689025e-09,1.0,358.04447999999996,1.0,-7.35e-06,1.0
-0.0630493,1.0,-4.66614e-09,1.0,359.49456,1.0,-8.46e-06,1.0
-0.0625916,1.0,-4.6783450000000006e-09,1.0,359.50572,1.0,-7.35e-06,1.0
-0.062255899999999996,1.0,-4.2388900000000004e-09,1.0,359.51652,1.0,-7.66e-06,1.0
-0.061889599999999996,1.0,-3.80249e-09,1.0,359.51652,1.0,-8.22e-06,1.0
-0.061492899999999996,1.0,-3.14026e-09,1.0,359.52768000000003,1.0,-8.01e-06,1.0
-0.061096199999999996,1.0,-2.49481e-09,1.0,359.51652,1.0,-7.56e-06,1.0
-0.0606689,1.0,-1.84784e-09,1.0,-347.71716000000004,1.0,-8.71e-06,1.0
-0.060333300000000006,1.0,-1.664735e-09,1.0,-328.53528,1.0,-9.07e-06,1.0
-0.059845,1.0,-1.426695e-09,1.0,-314.02224,1.0,-8.11e-06,1.0
-0.0594788,1.0,-1.4251699999999997e-09,1.0,-300.44304,1.0,-8.47e-06,1.0
-0.0591125,1.0,-1.193235e-09,1.0,-297.23508,1.0,-8.96e-06,1.0
-0.0587158,1.0,-1.24817e-09,1.0,-297.21312,1.0,-8.75e-06,1.0
-0.0583496,1.0,-1.6540549999999998e-09,1.0,-301.91544,1.0,-8.23e-06,1.0
-0.0578918,1.0,-2.31323e-09,1.0,-309.30912,1.0,-8.18e-06,1.0
-0.0574951,1.0,-2.7481099999999995e-09,1.0,-323.54748,1.0,-8.71e-06,1.0
-0.0570984,1.0,-3.182985e-09,1.0,-342.4878,1.0,-8.45e-06,1.0
-0.0567932,1.0,-3.3981299999999997e-09,1.0,359.4726,1.0,-7.28e-06,1.0
-0.0563965,1.0,-3.344725e-09,1.0,353.15567999999996,1.0,-7.59e-06,1.0
-0.055938699999999994,1.0,-3.35388e-09,1.0,335.63232,1.0,-7.1e-06,1.0
-0.055572500000000004,1.0,-3.115845e-09,1.0,328.45824,1.0,-6.88e-06,1.0
-0.055145299999999994,1.0,-3.1448349999999997e-09,1.0,324.45936,1.0,-7.47e-06,1.0
-0.0547485,1.0,-2.949525e-09,1.0,331.47936,1.0,-7.59e-06,1.0
-0.054412800000000004,1.0,-2.716065e-09,1.0,338.89536,1.0,-7.23e-06,1.0
-0.0540161,1.0,-2.5726299999999996e-09,1.0,349.58484,1.0,-7.35e-06,1.0
-0.0535889,1.0,-2.7236949999999997e-09,1.0,359.52768000000003,1.0,-7.35e-06,1.0
-0.053161599999999996,1.0,-2.713015e-09,1.0,-355.19904,1.0,-8.07e-06,1.0
-0.05273440000000001,1.0,-2.9434199999999997e-09,1.0,-354.96828,1.0,-8.18e-06,1.0
-0.0523987,1.0,-3.1692499999999996e-09,1.0,-354.6936,1.0,-7.77e-06,1.0
-0.0519409,1.0,-3.1875599999999997e-09,1.0,-354.38616,1.0,-7.25e-06,1.0
-0.051605200000000004,1.0,-3.1738299999999996e-09,1.0,-354.40811999999994,1.0,-7.18e-06,1.0
-0.051086400000000004,1.0,-3.125e-09,1.0,-354.41891999999996,1.0,-7.45e-06,1.0
-0.0507202,1.0,-3.1570449999999996e-09,1.0,-354.68244,1.0,-7.1e-06,1.0
-0.050384500000000006,1.0,-2.970885e-09,1.0,359.50572,1.0,-6.06e-06,1.0
-0.0500183,1.0,-2.568055e-09,1.0,359.49456,1.0,-5.79e-06,1.0
-0.0495758,1.0,-2.5589e-09,1.0,359.51652,1.0,-5.73e-06,1.0
-0.049188199999999994,1.0,-2.28424e-09,1.0,359.51652,1.0,-5.83e-06,1.0
-0.048800699999999995,1.0,-1.901245e-09,1.0,-355.16592,1.0,-7.19e-06,1.0
-0.0484131,1.0,-1.69983e-09,1.0,359.50572,1.0,-6.37e-06,1.0
-0.0479889,1.0,-1.890565e-09,1.0,359.52768000000003,1.0,-5.81e-06,1.0
-0.0476074,1.0,-2.116395e-09,1.0,359.50572,1.0,-5.3e-06,1.0
-0.0472168,1.0,-2.5436399999999997e-09,1.0,359.51652,1.0,-6e-06,1.0
-0.046817000000000004,1.0,-2.713015e-09,1.0,359.51652,1.0,-5.42e-06,1.0
-0.046420300000000005,1.0,-2.783205e-09,1.0,359.50572,1.0,-6.01e-06,1.0
-0.046038800000000005,1.0,-2.757265e-09,1.0,359.49456,1.0,-6.07e-06,1.0
-0.0456207,1.0,-2.6931749999999996e-09,1.0,-355.19904,1.0,-6.16e-06,1.0
-0.0452332,1.0,-2.9815649999999997e-09,1.0,-349.55208000000005,1.0,-6.88e-06,1.0
-0.0448486,1.0,-2.7465800000000002e-09,1.0,-333.64368,1.0,-6.83e-06,1.0
-0.0444763,1.0,-2.7420049999999998e-09,1.0,-318.7134,1.0,-6.49e-06,1.0
-0.0440735,1.0,-2.76184e-09,1.0,-307.32048,1.0,-6.61e-06,1.0
-0.0436676,1.0,-2.9846199999999996e-09,1.0,-297.56483999999995,1.0,-5.81e-06,1.0
-0.04326169999999999,1.0,-3.227235e-09,1.0,-287.90783999999996,1.0,-6.26e-06,1.0
-0.0429077,1.0,-3.88031e-09,1.0,-285.3039600000001,1.0,-6.15e-06,1.0
-0.0424957,1.0,-3.82538e-09,1.0,-297.21312,1.0,-6.54e-06,1.0
-0.042111199999999994,1.0,-3.840635e-09,1.0,-303.79391999999996,1.0,-5.74e-06,1.0
-0.0417267,1.0,-4.084779999999999e-09,1.0,-318.36168,1.0,-6.2e-06,1.0
-0.0413177,1.0,-4.28467e-09,1.0,-334.43496000000005,1.0,-6.08e-06,1.0
-0.0409454,1.0,-4.133605e-09,1.0,-344.15783999999996,1.0,-6.27e-06,1.0
-0.0405731,1.0,-3.84979e-09,1.0,359.4618,1.0,-5.27e-06,1.0
-0.040158099999999995,1.0,-3.4484849999999996e-09,1.0,359.50572,1.0,-4.44e-06,1.0
-0.039776599999999995,1.0,-2.7969349999999997e-09,1.0,354.30912,1.0,-4.72e-06,1.0
-0.0393799,1.0,-2.375795e-09,1.0,345.83868,1.0,-4.16e-06,1.0
-0.038989300000000005,1.0,-1.882935e-09,1.0,342.67463999999995,1.0,-4.62e-06,1.0
-0.0386108,1.0,-1.6693099999999999e-09,1.0,343.26791999999995,1.0,-5.1e-06,1.0
-0.038208,1.0,-1.62506e-09,1.0,343.24596,1.0,-4.7e-06,1.0
-0.0378265,1.0,-1.664735e-09,1.0,343.24596,1.0,-5.35e-06,1.0
-0.037405400000000005,1.0,-1.860045e-09,1.0,346.81643999999994,1.0,-4.2e-06,1.0
-0.037011699999999995,1.0,-2.142335e-09,1.0,350.70552000000004,1.0,-4.66e-06,1.0
-0.0366272,1.0,-2.53296e-09,1.0,359.50572,1.0,-4.97e-06,1.0
-0.036187699999999996,1.0,-3.04718e-09,1.0,-354.36384,1.0,-4.68e-06,1.0
-0.0358032,1.0,-3.7567149999999995e-09,1.0,-352.80396,1.0,-4.63e-06,1.0
-0.0354462,1.0,-4.174805e-09,1.0,-342.94932,1.0,-4.92e-06,1.0
-0.0350525,1.0,-4.59137e-09,1.0,-329.90832,1.0,-4.97e-06,1.0
-0.034677099999999995,1.0,-4.7348e-09,1.0,-327.01896000000005,1.0,-5.01e-06,1.0
-0.034256,1.0,-4.6875e-09,1.0,-329.91947999999996,1.0,-5.26e-06,1.0
-0.0338684,1.0,-4.595944999999999e-09,1.0,-329.90832,1.0,-4.64e-06,1.0
-0.0334656,1.0,-4.37927e-09,1.0,-341.47691999999995,1.0,-4.78e-06,1.0
-0.033093300000000006,1.0,-3.9917e-09,1.0,-352.24379999999996,1.0,-4.96e-06,1.0
-0.032696499999999996,1.0,-3.78418e-09,1.0,-346.17924,1.0,-5.15e-06,1.0
-0.0323151,1.0,-3.274535e-09,1.0,-354.06756,1.0,-4.56e-06,1.0
-0.0319611,1.0,-3.160095e-09,1.0,359.50572,1.0,-4.18e-06,1.0
-0.03155209999999999,1.0,-2.9434199999999997e-09,1.0,354.06756,1.0,-4.67e-06,1.0
-0.0311615,1.0,-2.94647e-09,1.0,359.50572,1.0,-4.03e-06,1.0
-0.030761700000000003,1.0,-2.9388449999999997e-09,1.0,359.50572,1.0,-3.49e-06,1.0
-0.030334500000000004,1.0,-2.9312149999999998e-09,1.0,-354.9243600000001,1.0,-4.41e-06,1.0
-0.0299622,1.0,-3.152465e-09,1.0,-348.40944,1.0,-4.72e-06,1.0
-0.029556299999999997,1.0,-3.297425e-09,1.0,-335.35763999999995,1.0,-4.12e-06,1.0
-0.0291962,1.0,-3.311155e-09,1.0,-335.35763999999995,1.0,-4.38e-06,1.0
-0.0287903,1.0,-3.736875e-09,1.0,-337.80744,1.0,-3.85e-06,1.0
-0.028411900000000004,1.0,-4.223635e-09,1.0,-351.62856,1.0,-4.45e-06,1.0
-0.0280334,1.0,-4.403685e-09,1.0,350.00244,1.0,-3.45e-06,1.0
-0.0276367,1.0,-4.41742e-09,1.0,349.96932000000004,1.0,-3.5e-06,1.0
-0.0272675,1.0,-4.4845600000000005e-09,1.0,349.98048000000006,1.0,-3.52e-06,1.0
-0.026876799999999996,1.0,-4.44031e-09,1.0,340.59816,1.0,-3.32e-06,1.0
-0.0264618,1.0,-4.20532e-09,1.0,333.53388,1.0,-3.12e-06,1.0
-0.026077299999999998,1.0,-3.7994399999999994e-09,1.0,327.6234,1.0,-2.95e-06,1.0
-0.025686599999999997,1.0,-3.3325199999999996e-09,1.0,334.47888,1.0,-3.44e-06,1.0
-0.025302099999999998,1.0,-3.15094e-09,1.0,340.76303999999993,1.0,-3.79e-06,1.0
-0.0248962,1.0,-3.0151349999999996e-09,1.0,348.6402,1.0,-3.26e-06,1.0
-0.024527,1.0,-3.15552e-09,1.0,353.49623999999994,1.0,-3.43e-06,1.0
-0.024108900000000003,1.0,-3.62091e-09,1.0,359.51652,1.0,-3.11e-06,1.0
-0.023712200000000003,1.0,-4.05426e-09,1.0,-352.23263999999995,1.0,-4.04e-06,1.0
-0.023324599999999997,1.0,-4.534909999999999e-09,1.0,-341.48807999999997,1.0,-4.24e-06,1.0
-0.0229095,1.0,-4.460145000000001e-09,1.0,-320.49324,1.0,-3.83e-06,1.0
-0.0225189,1.0,-4.7225949999999994e-09,1.0,-307.29852,1.0,-3.84e-06,1.0
-0.022109999999999998,1.0,-4.695129999999999e-09,1.0,-307.29852,1.0,-3.71e-06,1.0
-0.021713299999999998,1.0,-4.695129999999999e-09,1.0,-327.03012,1.0,-3.65e-06,1.0
-0.021347,1.0,-4.945375e-09,1.0,-347.28876,1.0,-4.15e-06,1.0
-0.0209595,1.0,-4.904175e-09,1.0,359.51652,1.0,-3.35e-06,1.0
-0.0205627,1.0,-4.859925e-09,1.0,346.82723999999996,1.0,-2.82e-06,1.0
-0.0201721,1.0,-5.1132e-09,1.0,359.52768000000003,1.0,-3.13e-06,1.0
-0.0197906,1.0,-5.307e-09,1.0,359.50572,1.0,-3.2e-06,1.0
-0.019397,1.0,-5.1299999999999994e-09,1.0,359.51652,1.0,-2.96e-06,1.0
-0.019003299999999997,1.0,-5.1376499999999995e-09,1.0,359.48376,1.0,-2.57e-06,1.0
-0.018597400000000004,1.0,-4.899594999999999e-09,1.0,359.51652,1.0,-2.73e-06,1.0
-0.0182037,1.0,-4.69055e-09,1.0,359.50572,1.0,-3.08e-06,1.0
-0.0177826,1.0,-4.473875e-09,1.0,-350.90316,1.0,-3.77e-06,1.0
-0.0174133,1.0,-4.2343149999999996e-09,1.0,-334.43496000000005,1.0,-3.98e-06,1.0
-0.0169922,1.0,-3.828429999999999e-09,1.0,-323.56944,1.0,-3.54e-06,1.0
-0.016598500000000002,1.0,-3.614805e-09,1.0,-325.7118,1.0,-3.49e-06,1.0
-0.0162109,1.0,-3.3752449999999995e-09,1.0,-321.53688,1.0,-3.45e-06,1.0
-0.015799,1.0,-3.4347549999999995e-09,1.0,-327.6234,1.0,-3.26e-06,1.0
-0.015396100000000001,1.0,-3.125e-09,1.0,-329.38128,1.0,-3.31e-06,1.0
-0.0150024,1.0,-3.3798199999999996e-09,1.0,-335.39076000000006,1.0,-2.95e-06,1.0
-0.014605700000000001,1.0,-3.604125e-09,1.0,-340.42248,1.0,-2.85e-06,1.0
-0.014224200000000001,1.0,-3.6254899999999996e-09,1.0,-340.41132,1.0,-2.77e-06,1.0
-0.0138123,1.0,-3.8558949999999995e-09,1.0,-323.55828,1.0,-2.48e-06,1.0
-0.013418600000000001,1.0,-3.614805e-09,1.0,-310.36391999999995,1.0,-2.69e-06,1.0
-0.0130219,1.0,-3.35846e-09,1.0,-307.29852,1.0,-3.11e-06,1.0
-0.012637299999999999,1.0,-3.3767699999999997e-09,1.0,-315.64836,1.0,-2.59e-06,1.0
-0.012243700000000001,1.0,-3.1921399999999997e-09,1.0,-330.72156,1.0,-2.83e-06,1.0
-0.011837799999999999,1.0,-3.17688e-09,1.0,-343.36656,1.0,-2.97e-06,1.0
-0.011453200000000002,1.0,-2.5772099999999996e-09,1.0,-346.17924,1.0,-2.71e-06,1.0
-0.0110565,1.0,-2.130125e-09,1.0,-342.96011999999996,1.0,-2.87e-06,1.0
-0.010668899999999999,1.0,-1.919555e-09,1.0,-339.44471999999996,1.0,-2.86e-06,1.0
-0.0102661,1.0,-2.1667499999999998e-09,1.0,-338.64264,1.0,-2.28e-06,1.0
-0.00988464,1.0,-2.40631e-09,1.0,-342.24623999999994,1.0,-1.96e-06,1.0
-0.00947266,1.0,-3.0090350000000002e-09,1.0,-338.88419999999996,1.0,-1.81e-06,1.0
-0.00909729,1.0,-3.6239599999999996e-09,1.0,-347.02524,1.0,-1.53e-06,1.0
-0.00869141,1.0,-4.281615e-09,1.0,-342.93816000000004,1.0,-1.78e-06,1.0
-0.00831299,1.0,-4.47998e-09,1.0,-350.89236000000005,1.0,-1.27e-06,1.0
-0.00792847,1.0,-4.6783450000000006e-09,1.0,-350.02439999999996,1.0,-1.45e-06,1.0
-0.00755005,1.0,-4.62799e-09,1.0,-349.00271999999995,1.0,-1.72e-06,1.0
-0.00718079,1.0,-4.708859999999999e-09,1.0,-348.99156,1.0,-2.27e-06,1.0
-0.00677795,1.0,-4.660035e-09,1.0,-349.01352,1.0,-1.8e-06,1.0
-0.00638733,1.0,-4.71344e-09,1.0,359.49456,1.0,-5.7e-07,1.0
-0.00602417,1.0,-4.707335e-09,1.0,359.51652,1.0,-1.41e-06,1.0
-0.0056427,1.0,-4.70581e-09,1.0,359.50572,1.0,-1.12e-06,1.0
-0.00527344,1.0,-4.66919e-09,1.0,359.53848000000005,1.0,-9.359999999999999e-07,1.0
-0.00490112,1.0,-4.685975e-09,1.0,359.51652,1.0,-1.01e-06,1.0
-0.00447388,1.0,-4.695129999999999e-09,1.0,-349.00271999999995,1.0,-1.65e-06,1.0
-0.00408325,1.0,-4.71344e-09,1.0,-349.00271999999995,1.0,-1.54e-06,1.0
-0.00369568,1.0,-4.673765e-09,1.0,-350.02439999999996,1.0,-1.13e-06,1.0
-0.00331421,1.0,-4.673765e-09,1.0,-339.79607999999996,1.0,-1.68e-06,1.0
-0.00293274,1.0,-4.66919e-09,1.0,-339.78528,1.0,-2.04e-06,1.0
-0.00252686,1.0,-4.748535e-09,1.0,-327.01896000000005,1.0,-1.82e-06,1.0
-0.00212402,1.0,-4.609679999999999e-09,1.0,-316.8126,1.0,-1.2e-06,1.0
-0.00172424,1.0,-4.649355e-09,1.0,-312.49512,1.0,-1.3e-06,1.0
-0.00135498,1.0,-5.08575e-09,1.0,-300.91536,1.0,-1.62e-06,1.0
-0.000952148,1.0,-5.291749999999999e-09,1.0,-293.0382,1.0,-1.43e-06,1.0
-0.000585937,1.0,-5.334449999999999e-09,1.0,-283.12883999999997,1.0,-6.9e-07,1.0
-0.000164795,1.0,-5.241399999999999e-09,1.0,-270.4176,1.0,-1.11e-06,1.0
0.000222778,1.0,-5.1895e-09,1.0,-270.40644,1.0,-7.77e-07,1.0
0.000604248,1.0,-5.493149999999999e-09,1.0,-286.68816000000004,1.0,-1.6e-06,1.0
0.000994873,1.0,-5.4611000000000005e-09,1.0,-286.6662,1.0,-9.770000000000001e-07,1.0
0.0013915999999999998,1.0,-5.5176e-09,1.0,-286.68816000000004,1.0,-1.34e-06,1.0
0.00176392,1.0,-5.253599999999999e-09,1.0,-307.30967999999996,1.0,-1.37e-06,1.0
0.00219116,1.0,-4.856875e-09,1.0,-307.29852,1.0,-9.98e-07,1.0
0.00258179,1.0,-4.63562e-09,1.0,-307.30967999999996,1.0,-6.690000000000001e-07,1.0
0.00295105,1.0,-4.402159999999999e-09,1.0,-298.48751999999996,1.0,-1.52e-06,1.0
0.00334778,1.0,-4.190065e-09,1.0,-303.2006399999999,1.0,-1.2e-06,1.0
0.0037323,1.0,-4.200745e-09,1.0,-307.27656,1.0,-1.1e-06,1.0
0.00414734,1.0,-3.5751349999999998e-09,1.0,-304.2882,1.0,-8.41e-07,1.0
0.00452576,1.0,-2.807615e-09,1.0,-307.32048,1.0,-1.17e-06,1.0
0.00491333,1.0,-1.6220099999999999e-09,1.0,-299.89368,1.0,-6.77e-07,1.0
0.00531311,1.0,-1.43738e-09,1.0,-295.18056,1.0,-8.77e-07,1.0
0.00569763,1.0,-1.7181399999999998e-09,1.0,-290.77524,1.0,-6.979999999999999e-07,1.0
0.00608215,1.0,-2.79541e-09,1.0,-293.0274,1.0,-7.93e-07,1.0
0.00646973,1.0,-4.1061400000000005e-09,1.0,-293.0382,1.0,-7.079999999999999e-07,1.0
0.0068634,1.0,-5.01405e-09,1.0,-296.41103999999996,1.0,-5.8e-07,1.0
0.00725708,1.0,-5.4336499999999985e-09,1.0,-298.47672,1.0,-4.7299999999999996e-07,1.0
0.00766602,1.0,-5.7784999999999994e-09,1.0,-293.06016000000005,1.0,-1.0900000000000001e-07,1.0
0.00805359,1.0,-6.28965e-09,1.0,-270.4284,1.0,-9.33e-07,1.0
0.0084198,1.0,-6.4789e-09,1.0,-0.4296744,1.0,-5.389999999999999e-07,1.0
0.00881348,1.0,-6.4728e-09,1.0,-0.43582679999999996,1.0,-5.55e-07,1.0
0.0092041,1.0,-6.4438000000000004e-09,1.0,-0.43604639999999995,1.0,-8.76e-08,1.0
0.00960693,1.0,-6.4971999999999994e-09,1.0,-0.437364,1.0,-1.68e-07,1.0
0.0100067,1.0,-6.44835e-09,1.0,-0.43440120000000004,1.0,-8.4e-07,1.0
0.010391200000000001,1.0,-6.4926e-09,1.0,-0.43912439999999997,1.0,-1.56e-08,1.0
0.0107819,1.0,-6.4789e-09,1.0,-0.43989120000000004,1.0,-3.9e-07,1.0
0.0111847,1.0,-6.4728e-09,1.0,-0.4367052,1.0,-3.41e-07,1.0
0.0115509,1.0,-6.456e-09,1.0,-0.4378068,1.0,-7.909999999999999e-07,1.0
0.011984299999999998,1.0,-6.4316e-09,1.0,-0.43648560000000003,1.0,-2.1300000000000001e-07,1.0
0.012384000000000001,1.0,-6.423949999999999e-09,1.0,-0.4409927999999999,1.0,-3.93e-07,1.0
0.0127899,1.0,-6.4163e-09,1.0,-0.432972,1.0,6.51e-07,1.0
0.013168299999999999,1.0,-6.466649999999999e-09,1.0,-0.4365972,1.0,-5.04e-07,1.0
0.0135529,1.0,-6.372049999999999e-09,1.0,-0.4313232,1.0,4.39e-07,1.0
0.013928200000000002,1.0,-6.34155e-09,1.0,-0.42890760000000006,1.0,2.1300000000000001e-07,1.0
0.0143524,1.0,-6.333899999999999e-09,1.0,-0.43165440000000005,1.0,3.61e-07,1.0
0.014724700000000002,1.0,-6.384300000000001e-09,1.0,-0.4315428,1.0,8.729999999999999e-07,1.0
0.015097,1.0,-6.4102e-09,1.0,-0.435168,1.0,2.9899999999999996e-07,1.0
0.015490700000000001,1.0,-6.372049999999999e-09,1.0,-0.431982,1.0,3.06e-07,1.0
0.015881299999999998,1.0,-6.4163e-09,1.0,-0.43428960000000005,1.0,3.42e-07,1.0
0.0162689,1.0,-6.4102e-09,1.0,-0.4356072,1.0,8.540000000000001e-07,1.0
0.0166656,1.0,-6.45905e-09,1.0,-0.4325328,1.0,8.070000000000001e-07,1.0
0.017044099999999996,1.0,-6.44225e-09,1.0,-0.437256,1.0,1.02e-06,1.0
0.0174133,1.0,-6.5155000000000005e-09,1.0,-0.43846560000000007,1.0,-4.96e-07,1.0
0.0178162,1.0,-6.449899999999999e-09,1.0,-0.4376952,1.0,7.75e-07,1.0
0.0182007,1.0,-6.402600000000001e-09,1.0,-0.43604639999999995,1.0,5.2e-07,1.0
0.0185852,1.0,-6.4209e-09,1.0,-0.435168,1.0,9.47e-07,1.0
0.0189575,1.0,-6.4392e-09,1.0,-0.4378068,1.0,3.06e-07,1.0
0.019341999999999998,1.0,-6.456e-09,1.0,-0.4369248,1.0,7.45e-07,1.0
0.0197296,1.0,-6.42855e-09,1.0,-0.432972,1.0,1.54e-06,1.0
0.0201538,1.0,-6.39955e-09,1.0,-0.436158,1.0,9.48e-07,1.0
0.020516999999999997,1.0,-6.23475e-09,1.0,359.50572,1.0,1.4e-06,1.0
0.0208801,1.0,-5.728149999999999e-09,1.0,359.48376,1.0,5.75e-07,1.0
0.0212952,1.0,-4.689025e-09,1.0,336.88476,1.0,1.01e-06,1.0
0.0216888,1.0,-3.1188949999999997e-09,1.0,316.76868,1.0,1.16e-06,1.0
0.0220703,1.0,-1.85089e-09,1.0,315.90072,1.0,1.79e-06,1.0
0.0224548,1.0,-1.0482799999999998e-09,1.0,334.85220000000004,1.0,7.9e-07,1.0
0.022830200000000002,1.0,-3.6926249999999994e-10,1.0,350.2332,1.0,1.14e-06,1.0
0.0232635,1.0,-3.6773699999999994e-10,1.0,-357.19848,1.0,5.46e-07,1.0
0.0236572,1.0,-1.0467549999999999e-09,1.0,-346.16808000000003,1.0,6.440000000000001e-07,1.0
0.0240387,1.0,-1.69983e-09,1.0,-340.18056,1.0,6.900000000000001e-08,1.0
0.0244507,1.0,-2.2979749999999996e-09,1.0,-332.34731999999997,1.0,3.13e-07,1.0
0.0248322,1.0,-2.513125e-09,1.0,-320.49324,1.0,4.01e-07,1.0
0.0252533,1.0,-2.70233e-09,1.0,-316.8126,1.0,9.109999999999999e-07,1.0
0.0256439,1.0,-3.1265249999999996e-09,1.0,-312.48396,1.0,1.15e-06,1.0
0.026046800000000002,1.0,-3.5202050000000003e-09,1.0,-310.36391999999995,1.0,4.77e-07,1.0
0.026464799999999997,1.0,-3.78113e-09,1.0,-307.29852,1.0,1.22e-06,1.0
0.026858499999999997,1.0,-3.797915e-09,1.0,-303.80508000000003,1.0,3.46e-07,1.0
0.0272614,1.0,-3.76587e-09,1.0,-303.80508000000003,1.0,1.22e-06,1.0
0.0276367,1.0,-4.008485e-09,1.0,-299.89368,1.0,4.870000000000001e-07,1.0
0.0280457,1.0,-4.478455e-09,1.0,-311.52816,1.0,1.02e-06,1.0
0.028424099999999997,1.0,-4.6783450000000006e-09,1.0,-312.50628,1.0,7.06e-07,1.0
0.028842200000000002,1.0,-4.87976e-09,1.0,-319.33944,1.0,7.1e-07,1.0
0.0292297,1.0,-4.922484999999999e-09,1.0,-323.54748,1.0,8.94e-07,1.0
0.029635599999999998,1.0,-4.71344e-09,1.0,-327.04092,1.0,1.41e-06,1.0
0.0300079,1.0,-4.7317499999999995e-09,1.0,-337.8186,1.0,1.22e-06,1.0
0.030398599999999998,1.0,-4.8690799999999995e-09,1.0,-347.73911999999996,1.0,6.609999999999999e-07,1.0
0.030816700000000002,1.0,-4.898069999999999e-09,1.0,-347.73911999999996,1.0,2.13e-06,1.0
0.031192,1.0,-4.888914999999999e-09,1.0,-347.75028,1.0,8.05e-07,1.0
0.0315918,1.0,-4.87671e-09,1.0,-347.72832,1.0,1.07e-06,1.0
0.031979400000000005,1.0,-4.85382e-09,1.0,-335.36879999999996,1.0,1.34e-06,1.0
0.032379200000000004,1.0,-5.1193e-09,1.0,-332.34731999999997,1.0,1.2e-06,1.0
0.0327667,1.0,-5.169699999999999e-09,1.0,-346.19003999999995,1.0,2.01e-06,1.0
0.0331421,1.0,-5.3649999999999996e-09,1.0,-344.16864,1.0,1.31e-06,1.0
0.033551,1.0,-5.334449999999999e-09,1.0,-344.15783999999996,1.0,1.54e-06,1.0
0.0339325,1.0,-5.59235e-09,1.0,336.88476,1.0,2.1e-06,1.0
0.034314,1.0,-5.6366e-09,1.0,315.90072,1.0,2.67e-06,1.0
0.0346954,1.0,-5.7266000000000005e-09,1.0,292.13748000000004,1.0,1.95e-06,1.0
0.0351013,1.0,-6.0425e-09,1.0,322.66836,1.0,2.25e-06,1.0
0.0354828,1.0,-6.0272e-09,1.0,359.50572,1.0,1.98e-06,1.0
0.0358551,1.0,-5.82735e-09,1.0,359.50572,1.0,2.24e-06,1.0
0.036261,1.0,-5.57405e-09,1.0,359.53848000000005,1.0,2.08e-06,1.0
0.0366699,1.0,-5.509949999999999e-09,1.0,-337.80744,1.0,7.459999999999999e-07,1.0
0.0370941,1.0,-5.485549999999999e-09,1.0,-337.80744,1.0,8.78e-07,1.0
0.0374786,1.0,-5.432149999999999e-09,1.0,-316.8126,1.0,1.74e-06,1.0
0.0378601,1.0,-5.44435e-09,1.0,-316.8018,1.0,1.75e-06,1.0
0.0382446,1.0,-5.455e-09,1.0,-316.8126,1.0,1.97e-06,1.0
0.03863219999999999,1.0,-5.46875e-09,1.0,-316.8018,1.0,1.56e-06,1.0
0.0390411,1.0,-5.23985e-09,1.0,-270.4176,1.0,2.42e-06,1.0
0.039425699999999994,1.0,-4.40979e-09,1.0,-250.43328000000002,1.0,2e-06,1.0
0.0398102,1.0,-3.0883799999999996e-09,1.0,-249.47748,1.0,2.03e-06,1.0
0.0401978,1.0,-2.29187e-09,1.0,-247.8186,1.0,2.46e-06,1.0
0.0405975,1.0,-1.59912e-09,1.0,-250.07076,1.0,2.19e-06,1.0
0.041009500000000004,1.0,-1.58539e-09,1.0,-259.01352,1.0,2.52e-06,1.0
0.0413818,1.0,-2.02179e-09,1.0,-279.69012,1.0,2.59e-06,1.0
0.0417847,1.0,-2.50702e-09,1.0,-294.36768,1.0,2.57e-06,1.0
0.042163099999999995,1.0,-2.871705e-09,1.0,-304.90344,1.0,2.81e-06,1.0
0.0425476,1.0,-3.0593849999999998e-09,1.0,-307.29852,1.0,2.26e-06,1.0
0.042953500000000006,1.0,-3.007505e-09,1.0,-310.0122,1.0,2.5e-06,1.0
0.043338,1.0,-3.52478e-09,1.0,-304.25544,1.0,2.65e-06,1.0
0.043722500000000004,1.0,-3.733825e-09,1.0,-303.79391999999996,1.0,2.73e-06,1.0
0.0441101,1.0,-3.93219e-09,1.0,-310.86899999999997,1.0,2.77e-06,1.0
0.0444733,1.0,-4.052735e-09,1.0,-318.33972,1.0,2.58e-06,1.0
0.0448975,1.0,-3.770445e-09,1.0,-321.10848,1.0,2.45e-06,1.0
0.045297199999999996,1.0,-3.767395e-09,1.0,-328.53528,1.0,2.69e-06,1.0
0.045663499999999996,1.0,-4.014585e-09,1.0,-318.36168,1.0,2.12e-06,1.0
0.04606319999999999,1.0,-4.02527e-09,1.0,-318.35088,1.0,2.03e-06,1.0
0.0464783,1.0,-4.223635e-09,1.0,-315.18683999999996,1.0,2.55e-06,1.0
0.0468658,1.0,-4.68292e-09,1.0,-307.29852,1.0,2.56e-06,1.0
0.0472412,1.0,-4.704284999999999e-09,1.0,-302.32188,1.0,2.55e-06,1.0
0.047656300000000006,1.0,-4.901125e-09,1.0,-292.10436,1.0,2.64e-06,1.0
0.0480347,1.0,-5.27955e-09,1.0,-283.13964,1.0,2.11e-06,1.0
0.048446699999999995,1.0,-5.30855e-09,1.0,-270.4284,1.0,2.54e-06,1.0
0.0488495,1.0,-5.314649999999999e-09,1.0,-270.4284,1.0,3.14e-06,1.0
0.049231,1.0,-5.297850000000001e-09,1.0,-298.49868,1.0,3.09e-06,1.0
0.0496246,1.0,-5.3191999999999996e-09,1.0,-323.55828,1.0,2.21e-06,1.0
0.050048800000000004,1.0,-5.307e-09,1.0,-344.14668,1.0,2.74e-06,1.0
0.050476099999999996,1.0,-5.2994e-09,1.0,-344.15783999999996,1.0,2.8e-06,1.0
0.0508728,1.0,-5.2826e-09,1.0,-344.15783999999996,1.0,2.7e-06,1.0
0.0512695,1.0,-5.3665e-09,1.0,359.50572,1.0,3.24e-06,1.0
0.051605200000000004,1.0,-5.2856499999999994e-09,1.0,-344.15783999999996,1.0,2.37e-06,1.0
0.052093499999999994,1.0,-5.3176999999999995e-09,1.0,-341.49888000000004,1.0,2.89e-06,1.0
0.0524597,1.0,-5.5176e-09,1.0,-316.83456,1.0,2.76e-06,1.0
0.0528564,1.0,-5.277999999999999e-09,1.0,-270.4176,1.0,2.8e-06,1.0
0.05319209999999999,1.0,-5.2902e-09,1.0,-247.79663999999997,1.0,2.88e-06,1.0
0.053710900000000006,1.0,-5.314649999999999e-09,1.0,-247.8186,1.0,3.2e-06,1.0
0.0540466,1.0,-5.03385e-09,1.0,-239.94143999999997,1.0,3.02e-06,1.0
0.054473900000000006,1.0,-5.07965e-09,1.0,-226.86768,1.0,3.83e-06,1.0
0.054901099999999994,1.0,-5.3176999999999995e-09,1.0,-212.34384,1.0,3.5e-06,1.0
0.0552673,1.0,-5.2643000000000005e-09,1.0,-196.69932,1.0,3.11e-06,1.0
0.055694600000000004,1.0,-5.29635e-09,1.0,-199.39104,1.0,3.49e-06,1.0
0.0560303,1.0,-5.7434e-09,1.0,-180.43955999999997,1.0,3.93e-06,1.0
0.0563965,1.0,-6.0211e-09,1.0,-217.32048,1.0,3.77e-06,1.0
0.0568237,1.0,-5.973799999999999e-09,1.0,-233.58024,1.0,2.97e-06,1.0
0.057159400000000006,1.0,-5.9768500000000005e-09,1.0,-323.56944,1.0,3e-06,1.0
0.0576172,1.0,-5.352799999999999e-09,1.0,-344.14668,1.0,3.76e-06,1.0
0.058044399999999996,1.0,-4.501345e-09,1.0,-341.48807999999997,1.0,3.68e-06,1.0
0.0584106,1.0,-3.823855e-09,1.0,-339.192,1.0,4.19e-06,1.0
0.0587769,1.0,-3.18451e-09,1.0,-342.4878,1.0,3.16e-06,1.0
0.059143100000000004,1.0,-2.983095e-09,1.0,-338.8734,1.0,3.64e-06,1.0
0.0595703,1.0,-2.9388449999999997e-09,1.0,-327.04092,1.0,4.23e-06,1.0
0.059936500000000004,1.0,-3.39508e-09,1.0,-315.6372,1.0,3.7e-06,1.0
0.0603638,1.0,-3.5781849999999997e-09,1.0,-298.46556,1.0,4.02e-06,1.0
0.0606995,1.0,-3.5827649999999997e-09,1.0,-289.34676,1.0,3.97e-06,1.0
0.061065699999999994,1.0,-3.76587e-09,1.0,-291.0168,1.0,4.8e-06,1.0
0.061523400000000006,1.0,-3.7735e-09,1.0,-297.21312,1.0,4.42e-06,1.0
0.0618286,1.0,-3.970335e-09,1.0,-293.0274,1.0,3.95e-06,1.0
0.062255899999999996,1.0,-4.66461e-09,1.0,-284.67756,1.0,4.86e-06,1.0
0.06265259999999999,1.0,-4.8309349999999995e-09,1.0,-261.91404,1.0,4.34e-06,1.0
0.0630493,1.0,-5.0826999999999994e-09,1.0,-260.03556000000003,1.0,3.86e-06,1.0
0.063446,1.0,-5.35585e-09,1.0,-242.36928000000003,1.0,4.15e-06,1.0
0.0637817,1.0,-5.7831e-09,1.0,-247.8186,1.0,4.01e-06,1.0
0.064209,1.0,-5.9601e-09,1.0,-270.4176,1.0,3.8e-06,1.0
0.0646057,1.0,-5.699149999999999e-09,1.0,-332.35848,1.0,4.19e-06,1.0
0.0650024,1.0,-5.5602999999999995e-09,1.0,359.51652,1.0,4.86e-06,1.0
0.0653381,1.0,-5.2703999999999995e-09,1.0,-341.51004,1.0,4.25e-06,1.0
0.06570430000000001,1.0,-5.3116000000000006e-09,1.0,-341.48807999999997,1.0,4.18e-06,1.0
0.06610110000000001,1.0,-5.3406e-09,1.0,-323.56944,1.0,3.95e-06,1.0
0.06649780000000001,1.0,-4.86603e-09,1.0,-289.36872,1.0,4.6e-06,1.0
0.066925,1.0,-4.67224e-09,1.0,-278.06399999999996,1.0,4.49e-06,1.0
0.06726069999999999,1.0,-4.4143699999999995e-09,1.0,-263.67192,1.0,4.14e-06,1.0
0.067688,1.0,-4.426575e-09,1.0,-250.43328000000002,1.0,3.46e-06,1.0
0.0680542,1.0,-4.557799999999999e-09,1.0,-247.82976000000002,1.0,4.37e-06,1.0
0.0684509,1.0,-4.63562e-09,1.0,-228.38364,1.0,4.1e-06,1.0
0.06893919999999999,1.0,-5.0659e-09,1.0,-239.91948000000002,1.0,4.32e-06,1.0
0.06927489999999999,1.0,-5.26735e-09,1.0,-247.80743999999996,1.0,4.85e-06,1.0
0.06964110000000001,1.0,-5.302449999999999e-09,1.0,-257.73912,1.0,4.42e-06,1.0
0.0700684,1.0,-5.43975e-09,1.0,-254.16863999999995,1.0,4.52e-06,1.0
0.0704346,1.0,-5.7434e-09,1.0,-233.58024,1.0,4.74e-06,1.0
0.0708008,1.0,-5.51455e-09,1.0,-254.16863999999995,1.0,4.48e-06,1.0
0.0712585,1.0,-5.525199999999999e-09,1.0,-286.6662,1.0,4.39e-06,1.0
0.0716248,1.0,-5.53435e-09,1.0,-337.79663999999997,1.0,4.45e-06,1.0
0.0719604,1.0,-5.4886e-09,1.0,-337.80744,1.0,5.15e-06,1.0
0.0723572,1.0,-5.5373999999999995e-09,1.0,-316.83456,1.0,4.84e-06,1.0
0.07281489999999999,1.0,-5.50385e-09,1.0,-316.82376000000005,1.0,4.85e-06,1.0
0.07321169999999999,1.0,-5.25665e-09,1.0,-307.29852,1.0,5.22e-06,1.0
0.07360839999999999,1.0,-5.244449999999999e-09,1.0,-293.0493600000001,1.0,5.11e-06,1.0
0.07391360000000001,1.0,-5.2597e-09,1.0,-293.0274,1.0,5e-06,1.0
0.07440189999999999,1.0,-5.10255e-09,1.0,-280.79963999999995,1.0,5.59e-06,1.0
0.0747375,1.0,-5.274949999999999e-09,1.0,-293.0493600000001,1.0,4.91e-06,1.0
0.0751648,1.0,-5.375649999999999e-09,1.0,-270.40644,1.0,4.61e-06,1.0
0.075531,1.0,-5.1162499999999996e-09,1.0,-270.40644,1.0,4.75e-06,1.0
0.0759583,1.0,-4.95758e-09,1.0,-251.5428,1.0,5.23e-06,1.0
0.0763245,1.0,-4.948425e-09,1.0,-217.30968000000001,1.0,4.97e-06,1.0
0.0767212,1.0,-4.6844499999999995e-09,1.0,-159.84,1.0,5.12e-06,1.0
0.0771179,1.0,-4.04358e-09,1.0,-130.90212,1.0,5.46e-06,1.0
0.0775146,1.0,-3.822325e-09,1.0,-127.29851999999998,1.0,4.96e-06,1.0
0.07785030000000001,1.0,-3.83911e-09,1.0,-123.83784,1.0,5.22e-06,1.0
0.0783081,1.0,-4.2343149999999996e-09,1.0,-127.29851999999998,1.0,5.45e-06,1.0
0.0787048,1.0,-4.6707149999999994e-09,1.0,-136.82376,1.0,4.92e-06,1.0
0.07910160000000001,1.0,-4.8584e-09,1.0,-155.40156,1.0,5.17e-06,1.0
0.07949830000000001,1.0,-5.314649999999999e-09,1.0,-196.67736,1.0,5.27e-06,1.0
0.0798645,1.0,-5.30395e-09,1.0,-217.32048,1.0,4.8e-06,1.0
0.08026119999999999,1.0,-5.5481e-09,1.0,-254.17980000000003,1.0,5.37e-06,1.0
0.0806885,1.0,-5.509949999999999e-09,1.0,-286.6554,1.0,5.75e-06,1.0
0.0810852,1.0,-5.54655e-09,1.0,-254.17980000000003,1.0,4.93e-06,1.0
0.0813904,1.0,-5.5771e-09,1.0,-224.055,1.0,4.37e-06,1.0
0.08184810000000001,1.0,-5.2246e-09,1.0,-180.43955999999997,1.0,5.43e-06,1.0
0.08227539999999998,1.0,-5.101e-09,1.0,-152.35848000000001,1.0,6.24e-06,1.0
0.0826111,1.0,-4.595944999999999e-09,1.0,-122.32188000000001,1.0,5.74e-06,1.0
0.08300779999999999,1.0,-4.656979999999999e-09,1.0,-104.67756,1.0,5.43e-06,1.0
0.083374,1.0,-4.159544999999999e-09,1.0,-90.43956,1.0,5.88e-06,1.0
0.0838623,1.0,-4.133605e-09,1.0,-90.41760000000001,1.0,6.95e-06,1.0
0.08416749999999999,1.0,-4.165649999999999e-09,1.0,-90.45035999999999,1.0,6.09e-06,1.0
0.08456419999999999,1.0,-4.18854e-09,1.0,-96.45984,1.0,5.67e-06,1.0
0.08496089999999999,1.0,-4.641725e-09,1.0,-104.66676,1.0,6.19e-06,1.0
0.0853271,1.0,-4.58069e-09,1.0,-122.33268000000001,1.0,5.81e-06,1.0
0.08572389999999999,1.0,-4.814149999999999e-09,1.0,-139.31748,1.0,6.27e-06,1.0
0.0860901,1.0,-5.5313e-09,1.0,-136.82376,1.0,6.15e-06,1.0
0.0864868,1.0,-5.949399999999999e-09,1.0,-180.42839999999998,1.0,7.06e-06,1.0
0.08697510000000001,1.0,-5.9555e-09,1.0,-307.29852,1.0,6.2e-06,1.0
0.0872803,1.0,-6.0028e-09,1.0,-307.28772,1.0,5.29e-06,1.0
0.08770750000000001,1.0,-6.236249999999999e-09,1.0,-270.4176,1.0,6.43e-06,1.0
0.08807369999999999,1.0,-5.964649999999999e-09,1.0,-217.34244000000004,1.0,6.19e-06,1.0
0.08843989999999999,1.0,-5.775449999999999e-09,1.0,-208.52064000000001,1.0,6.43e-06,1.0
0.08883669999999999,1.0,-5.513e-09,1.0,-203.09328000000002,1.0,5.65e-06,1.0
0.0891724,1.0,-5.61065e-09,1.0,-203.07132,1.0,5.88e-06,1.0
0.0896301,1.0,-5.54045e-09,1.0,-203.08211999999997,1.0,6.43e-06,1.0
0.0899963,1.0,-5.5358999999999995e-09,1.0,-203.07132,1.0,6.43e-06,1.0
0.0904236,1.0,-5.3116000000000006e-09,1.0,-180.43955999999997,1.0,6.46e-06,1.0
0.0907593,1.0,-5.276499999999999e-09,1.0,-161.51004,1.0,6.59e-06,1.0
0.0911865,1.0,-4.8492450000000005e-09,1.0,-139.3506,1.0,7.31e-06,1.0
0.0914917,1.0,-4.644775e-09,1.0,-98.09675999999999,1.0,6.99e-06,1.0
0.0919189,1.0,-4.26941e-09,1.0,-77.76107999999999,1.0,6.95e-06,1.0
0.0922852,1.0,-4.22516e-09,1.0,-57.70007999999999,1.0,6.72e-06,1.0
0.0927429,1.0,-4.435729999999999e-09,1.0,-49.32863999999999,1.0,7.06e-06,1.0
0.0931396,1.0,-4.67682e-09,1.0,-67.80744000000001,1.0,6.64e-06,1.0
0.0935059,1.0,-4.8736549999999995e-09,1.0,-71.52083999999999,1.0,7.31e-06,1.0
0.0938721,1.0,-5.2703999999999995e-09,1.0,-67.84056,1.0,6.4e-06,1.0
0.0943604,1.0,-5.5542000000000005e-09,1.0,-74.20176,1.0,6.42e-06,1.0
0.09472660000000001,1.0,-5.90515e-09,1.0,-90.45035999999999,1.0,6.59e-06,1.0
0.0950623,1.0,-6.1691499999999995e-09,1.0,-90.43956,1.0,6.38e-06,1.0
0.09552000000000001,1.0,-6.17525e-09,1.0,-270.40644,1.0,6.51e-06,1.0
0.0959167,1.0,-5.76935e-09,1.0,-293.0382,1.0,6.09e-06,1.0
0.09625239999999999,1.0,-5.343649999999999e-09,1.0,-283.11768,1.0,6.81e-06,1.0
0.0967102,1.0,-4.98657e-09,1.0,-260.0244,1.0,6.76e-06,1.0
0.0970764,1.0,-5.047600000000001e-09,1.0,-260.00244,1.0,6.28e-06,1.0
0.0975342,1.0,-5.291749999999999e-09,1.0,-242.35848000000001,1.0,7.06e-06,1.0
0.09790039999999998,1.0,-5.5725e-09,1.0,-180.43955999999997,1.0,7.07e-06,1.0
0.0982971,1.0,-5.7174499999999995e-09,1.0,-127.32048000000002,1.0,6.72e-06,1.0
0.0986938,1.0,-5.274949999999999e-09,1.0,-90.46152000000001,1.0,7.34e-06,1.0
0.0990906,1.0,-5.32685e-09,1.0,-90.46152000000001,1.0,7.86e-06,1.0
0.0995178,1.0,-5.018600000000001e-09,1.0,-90.42839999999998,1.0,7.19e-06,1.0
0.0998535,1.0,-4.8492450000000005e-09,1.0,-71.51004,1.0,7.6e-06,1.0
0.100311,1.0,-4.718019999999999e-09,1.0,-58.568039999999996,1.0,7.58e-06,1.0
0.100616,1.0,-4.68292e-09,1.0,-48.372840000000004,1.0,7.17e-06,1.0
0.10104400000000001,1.0,-4.933165e-09,1.0,-37.29852,1.0,7.7e-06,1.0
0.101471,1.0,-4.899594999999999e-09,1.0,-37.29852,1.0,7.35e-06,1.0
0.101837,1.0,-5.5542000000000005e-09,1.0,-44.07732000000001,1.0,8.15e-06,1.0
0.102173,1.0,-5.9265e-09,1.0,-37.30968,1.0,7.83e-06,1.0
0.10257000000000001,1.0,-5.9601e-09,1.0,-127.33164000000002,1.0,7.96e-06,1.0
0.102997,1.0,-5.969250000000001e-09,1.0,-143.56944000000001,1.0,7.6e-06,1.0
0.103394,1.0,-5.63965e-09,1.0,-157.82976,1.0,7.34e-06,1.0
0.10379000000000001,1.0,-5.39855e-09,1.0,-161.55396000000002,1.0,7.36e-06,1.0
0.104218,1.0,-5.6473e-09,1.0,-157.84055999999998,1.0,8.26e-06,1.0
0.104553,1.0,-5.6259e-09,1.0,-157.8186,1.0,8.51e-06,1.0
0.10497999999999999,1.0,-5.36955e-09,1.0,-143.58024,1.0,8.09e-06,1.0
0.105377,1.0,-5.16665e-09,1.0,-134.0442,1.0,8.42e-06,1.0
0.10571300000000002,1.0,-4.728699999999999e-09,1.0,-105.44688,1.0,8.27e-06,1.0
0.10614000000000001,1.0,-4.35486e-09,1.0,-96.45984,1.0,7.93e-06,1.0
0.10653699999999999,1.0,-4.0359499999999995e-09,1.0,-90.46152000000001,1.0,8.18e-06,1.0
0.106964,1.0,-3.80554e-09,1.0,-95.88852,1.0,8.18e-06,1.0
0.10736099999999998,1.0,-4.263305e-09,1.0,-96.44904000000001,1.0,8.6e-06,1.0
0.107727,1.0,-4.696655e-09,1.0,-104.66676,1.0,7.84e-06,1.0
0.108154,1.0,-4.89044e-09,1.0,-99.2394,1.0,8.21e-06,1.0
0.10849,1.0,-5.253599999999999e-09,1.0,-77.77224000000001,1.0,8.17e-06,1.0
0.108948,1.0,-5.748e-09,1.0,-67.82976,1.0,8.72e-06,1.0
0.10934400000000001,1.0,-6.14015e-09,1.0,-90.42839999999998,1.0,9.22e-06,1.0
0.10971099999999999,1.0,-5.9661999999999995e-09,1.0,-270.43956000000003,1.0,8.6e-06,1.0
0.110107,1.0,-5.741899999999999e-09,1.0,-307.27656,1.0,8.54e-06,1.0
0.11050399999999999,1.0,-5.2597e-09,1.0,-270.4176,1.0,8.59e-06,1.0
0.11087000000000001,1.0,-5.2947999999999995e-09,1.0,-233.56944,1.0,8.63e-06,1.0
0.11123699999999999,1.0,-5.12545e-09,1.0,-194.69988,1.0,8.85e-06,1.0
0.111633,1.0,-4.861449999999999e-09,1.0,-167.76108,1.0,8.57e-06,1.0
0.112061,1.0,-4.644775e-09,1.0,-136.83455999999998,1.0,8.63e-06,1.0
0.11239600000000001,1.0,-4.396055e-09,1.0,-118.49868000000001,1.0,8.56e-06,1.0
0.11276199999999999,1.0,-4.196165e-09,1.0,-103.12884,1.0,9.08e-06,1.0
0.11322,1.0,-4.0405249999999995e-09,1.0,-101.86524,1.0,1.01e-05,1.0
0.11361700000000001,1.0,-3.944395e-09,1.0,-108.38016,1.0,9.07e-06,1.0
0.11398299999999999,1.0,-4.177855e-09,1.0,-103.11768,1.0,9.42e-06,1.0
0.11444100000000001,1.0,-4.1259749999999995e-09,1.0,-103.12884,1.0,9.31e-06,1.0
0.114777,1.0,-4.374694999999999e-09,1.0,-97.18487999999999,1.0,9.89e-06,1.0
0.115204,1.0,-4.609679999999999e-09,1.0,-98.09675999999999,1.0,9.54e-06,1.0
0.11554,1.0,-4.742429999999999e-09,1.0,-83.39724000000001,1.0,9.2e-06,1.0
0.115906,1.0,-5.07965e-09,1.0,-59.94144,1.0,9.42e-06,1.0
0.116302,1.0,-5.297850000000001e-09,1.0,-53.58024,1.0,9.03e-06,1.0
0.11673,1.0,-5.56945e-09,1.0,-74.20176,1.0,9.21e-06,1.0
0.117096,1.0,-5.5496e-09,1.0,-106.69931999999999,1.0,9.45e-06,1.0
0.11746199999999998,1.0,-4.9102800000000005e-09,1.0,-180.4176,1.0,9.5e-06,1.0
0.11785899999999999,1.0,-3.8421649999999994e-09,1.0,-203.07132,1.0,9.45e-06,1.0
0.118256,1.0,-2.9953e-09,1.0,-214.09056,1.0,9.24e-06,1.0
0.118683,1.0,-2.5726299999999996e-09,1.0,-220.39668,1.0,9e-06,1.0
0.11911,1.0,-2.593995e-09,1.0,-220.42980000000003,1.0,9.6e-06,1.0
0.119476,1.0,-2.555845e-09,1.0,-215.74944,1.0,8.91e-06,1.0
0.119843,1.0,-2.964785e-09,1.0,-202.00571999999997,1.0,9.62e-06,1.0
0.12027,1.0,-3.08075e-09,1.0,-197.51219999999998,1.0,1.01e-05,1.0
0.12066700000000001,1.0,-3.15399e-09,1.0,-180.4176,1.0,9.57e-06,1.0
0.121124,1.0,-3.45154e-09,1.0,-167.76108,1.0,1.0199999999999999e-05,1.0
0.121429,1.0,-3.622435e-09,1.0,-160.42248,1.0,9.68e-06,1.0
0.121826,1.0,-3.808595e-09,1.0,-152.36928000000003,1.0,9.87e-06,1.0
0.122253,1.0,-3.80707e-09,1.0,-148.54608000000002,1.0,1.05e-05,1.0
0.12265,1.0,-4.2526250000000005e-09,1.0,-154.46771999999999,1.0,1.01e-05,1.0
0.123047,1.0,-4.4387799999999994e-09,1.0,-140.49324,1.0,1.05e-05,1.0
0.12344400000000001,1.0,-4.956055e-09,1.0,-127.30968,1.0,1.0199999999999999e-05,1.0
0.12380999999999999,1.0,-5.343649999999999e-09,1.0,-127.32048000000002,1.0,9.81e-06,1.0
0.124207,1.0,-5.56185e-09,1.0,-106.71012,1.0,1.0199999999999999e-05,1.0
0.12460299999999999,1.0,-5.8334499999999995e-09,1.0,-90.45035999999999,1.0,1.04e-05,1.0
0.125,1.0,-5.8013999999999994e-09,1.0,-127.32048000000002,1.0,1.07e-05,1.0
0.125397,1.0,-5.642699999999999e-09,1.0,-157.85171999999997,1.0,1.1e-05,1.0
0.125763,1.0,-5.386349999999999e-09,1.0,-164.19060000000002,1.0,1.04e-05,1.0
0.12619,1.0,-4.73633e-09,1.0,-169.02468000000005,1.0,9.75e-06,1.0
0.12658699999999998,1.0,-4.48303e-09,1.0,-170.89236,1.0,1.04e-05,1.0
0.12698399999999999,1.0,-4.30908e-09,1.0,-154.45692,1.0,1.11e-05,1.0
0.12738,1.0,-3.59802e-09,1.0,-130.41864,1.0,1.0800000000000002e-05,1.0
0.127777,1.0,-3.1494149999999997e-09,1.0,-114.66432,1.0,1.09e-05,1.0
0.128174,1.0,-2.40326e-09,1.0,-100.23911999999999,1.0,1.05e-05,1.0
0.128571,1.0,-1.6967749999999999e-09,1.0,-90.45035999999999,1.0,1.1e-05,1.0
0.128998,1.0,-1.5274049999999999e-09,1.0,-84.97907999999998,1.0,1.12e-05,1.0
0.129395,1.0,-1.730345e-09,1.0,-75.82752,1.0,1.09e-05,1.0
0.12972999999999998,1.0,-2.36511e-09,1.0,-67.84056,1.0,1.17e-05,1.0
0.130127,1.0,-2.801515e-09,1.0,-67.84056,1.0,1.15e-05,1.0
0.130554,1.0,-3.401185e-09,1.0,-81.66132,1.0,1.17e-05,1.0
0.13092,1.0,-3.834535e-09,1.0,-100.82160000000002,1.0,1.2e-05,1.0
0.13131700000000002,1.0,-4.281615e-09,1.0,-127.29851999999998,1.0,1.11e-05,1.0
0.131653,1.0,-4.675295e-09,1.0,-157.82976,1.0,1.1599999999999999e-05,1.0
0.13211099999999998,1.0,-4.919435e-09,1.0,-180.42839999999998,1.0,1.1599999999999999e-05,1.0
0.132477,1.0,-4.759215e-09,1.0,-180.42839999999998,1.0,1.21e-05,1.0
0.132874,1.0,-4.695129999999999e-09,1.0,-180.4176,1.0,1.24e-05,1.0
0.133209,1.0,-4.333495e-09,1.0,-180.4176,1.0,1.18e-05,1.0
0.13363599999999998,1.0,-3.894045e-09,1.0,-180.42839999999998,1.0,1.21e-05,1.0
0.134003,1.0,-3.874205e-09,1.0,-159.21396,1.0,1.23e-05,1.0
0.134338,1.0,-3.196715e-09,1.0,-130.05612,1.0,1.2e-05,1.0
0.134766,1.0,-3.1738299999999996e-09,1.0,-106.78716,1.0,1.26e-05,1.0
0.13516199999999998,1.0,-3.178405e-09,1.0,-90.45035999999999,1.0,1.25e-05,1.0
0.135498,1.0,-3.14026e-09,1.0,-74.20176,1.0,1.28e-05,1.0
0.135925,1.0,-3.41339e-09,1.0,-59.15052000000001,1.0,1.26e-05,1.0
0.136292,1.0,-3.5751349999999998e-09,1.0,-47.70252,1.0,1.24e-05,1.0
0.136719,1.0,-3.892515e-09,1.0,-37.29852,1.0,1.26e-05,1.0
0.13711500000000001,1.0,-4.1870099999999996e-09,1.0,-25.809084000000002,1.0,1.23e-05,1.0
0.137482,1.0,-4.4708250000000004e-09,1.0,-19.383192,1.0,1.34e-05,1.0
0.137848,1.0,-4.66156e-09,1.0,-0.43593839999999995,1.0,1.27e-05,1.0
0.138275,1.0,-4.83856e-09,1.0,12.253068,1.0,1.31e-05,1.0
0.13861099999999998,1.0,-5.35125e-09,1.0,15.838992000000001,1.0,1.27e-05,1.0
0.13903800000000002,1.0,-5.696100000000001e-09,1.0,-28.520495999999998,1.0,1.27e-05,1.0
0.139435,1.0,-5.9845e-09,1.0,-143.55828000000002,1.0,1.3000000000000001e-05,1.0
0.13983199999999998,1.0,-5.56945e-09,1.0,-224.0442,1.0,1.23e-05,1.0
0.140228,1.0,-4.862975e-09,1.0,-244.45692,1.0,1.24e-05,1.0
0.140594,1.0,-4.20227e-09,1.0,-225.69228000000004,1.0,1.32e-05,1.0
0.141052,1.0,-3.485105e-09,1.0,-206.92763999999997,1.0,1.28e-05,1.0
0.14135699999999998,1.0,-2.8961199999999997e-09,1.0,-185.87772,1.0,1.32e-05,1.0
0.141754,1.0,-2.52838e-09,1.0,-165.5748,1.0,1.26e-05,1.0
0.142151,1.0,-2.28424e-09,1.0,-143.58024,1.0,1.3000000000000001e-05,1.0
0.142578,1.0,-2.1285999999999995e-09,1.0,-126.28800000000001,1.0,1.27e-05,1.0
0.142975,1.0,-2.246095e-09,1.0,-106.71012,1.0,1.32e-05,1.0
0.143341,1.0,-2.539065e-09,1.0,-83.74860000000001,1.0,1.28e-05,1.0
0.143768,1.0,-2.6687599999999998e-09,1.0,-72.12527999999999,1.0,1.4300000000000002e-05,1.0
0.14416500000000002,1.0,-2.90985e-09,1.0,-58.546079999999996,1.0,1.34e-05,1.0
0.144531,1.0,-3.4057599999999996e-09,1.0,-45.19764,1.0,1.4099999999999999e-05,1.0
0.144897,1.0,-3.822325e-09,1.0,-32.343768,1.0,1.34e-05,1.0
0.145294,1.0,-4.696655e-09,1.0,-33.870852,1.0,1.4099999999999999e-05,1.0
0.145752,1.0,-5.314649999999999e-09,1.0,-37.29852,1.0,1.4800000000000002e-05,1.0
0.14608800000000002,1.0,-5.98755e-09,1.0,-90.41760000000001,1.0,1.3300000000000001e-05,1.0
0.146576,1.0,-6.022649999999999e-09,1.0,-217.30968000000001,1.0,1.3800000000000002e-05,1.0
0.146912,1.0,-4.98657e-09,1.0,-233.59139999999996,1.0,1.3300000000000001e-05,1.0
0.147278,1.0,-3.8467399999999995e-09,1.0,-226.86768,1.0,1.3000000000000001e-05,1.0
0.147705,1.0,-3.64685e-09,1.0,-221.58324000000002,1.0,1.4800000000000002e-05,1.0
0.148071,1.0,-3.416445e-09,1.0,-213.25571999999997,1.0,1.4300000000000002e-05,1.0
0.148499,1.0,-3.4652699999999996e-09,1.0,-199.36872,1.0,1.47e-05,1.0
0.148834,1.0,-3.382875e-09,1.0,-180.43955999999997,1.0,1.4599999999999999e-05,1.0
0.149231,1.0,-3.18146e-09,1.0,-156.66516,1.0,1.4099999999999999e-05,1.0
0.149597,1.0,-3.001405e-09,1.0,-134.76924000000002,1.0,1.4400000000000001e-05,1.0
0.150024,1.0,-2.98004e-09,1.0,-117.59759999999999,1.0,1.4400000000000001e-05,1.0
0.150421,1.0,-2.74048e-09,1.0,-101.49156,1.0,1.4800000000000002e-05,1.0
0.150848,1.0,-2.745055e-09,1.0,-86.78088,1.0,1.4599999999999999e-05,1.0
0.15118399999999999,1.0,-3.17688e-09,1.0,-61.39152,1.0,1.47e-05,1.0
0.151611,1.0,-3.41797e-09,1.0,-39.33108,1.0,1.52e-05,1.0
0.152008,1.0,-3.68347e-09,1.0,-20.48292,1.0,1.4999999999999999e-05,1.0
0.152344,1.0,-3.83911e-09,1.0,-7.58934,1.0,1.4999999999999999e-05,1.0
0.15270999999999998,1.0,-4.26941e-09,1.0,8.369387999999999,1.0,1.49e-05,1.0
0.153168,1.0,-4.728699999999999e-09,1.0,-0.4365972,1.0,1.51e-05,1.0
0.153595,1.0,-5.374149999999999e-09,1.0,-19.380996,1.0,1.59e-05,1.0
0.15399200000000002,1.0,-5.78005e-09,1.0,-90.46152000000001,1.0,1.55e-05,1.0
0.154358,1.0,-5.33905e-09,1.0,-196.69932,1.0,1.55e-05,1.0
0.154755,1.0,-4.19922e-09,1.0,-225.69228000000004,1.0,1.6e-05,1.0
0.155182,1.0,-3.533935e-09,1.0,-227.71368,1.0,1.55e-05,1.0
0.155579,1.0,-2.885435e-09,1.0,-219.03444,1.0,1.57e-05,1.0
0.155914,1.0,-2.49939e-09,1.0,-194.67756,1.0,1.6100000000000002e-05,1.0
0.15631099999999998,1.0,-2.5054949999999997e-09,1.0,-166.17924,1.0,1.6100000000000002e-05,1.0
0.156677,1.0,-2.508545e-09,1.0,-135.9558,1.0,1.59e-05,1.0
0.157104,1.0,-2.70996e-09,1.0,-108.7758,1.0,1.6100000000000002e-05,1.0
0.157501,1.0,-2.71454e-09,1.0,-86.75892,1.0,1.66e-05,1.0
0.15783699999999998,1.0,-2.68402e-09,1.0,-72.11411999999999,1.0,1.66e-05,1.0
0.158203,1.0,-2.677915e-09,1.0,-67.8186,1.0,1.65e-05,1.0
0.15863,1.0,-3.14789e-09,1.0,-61.39152,1.0,1.64e-05,1.0
0.159027,1.0,-3.604125e-09,1.0,-47.71368,1.0,1.74e-05,1.0
0.159393,1.0,-4.078675e-09,1.0,-42.51708,1.0,1.66e-05,1.0
0.159821,1.0,-4.704284999999999e-09,1.0,-30.948479999999996,1.0,1.6800000000000002e-05,1.0
0.160156,1.0,-4.937745e-09,1.0,-41.58324,1.0,1.7199999999999998e-05,1.0
0.160583,1.0,-5.1788500000000006e-09,1.0,-59.95224,1.0,1.66e-05,1.0
0.160889,1.0,-5.3421e-09,1.0,-90.47232000000001,1.0,1.67e-05,1.0
0.16134600000000002,1.0,-5.3589e-09,1.0,-113.06016,1.0,1.7e-05,1.0
0.161743,1.0,-4.898069999999999e-09,1.0,-143.56944000000001,1.0,1.7800000000000002e-05,1.0
0.162079,1.0,-3.967285e-09,1.0,-172.26575999999997,1.0,1.67e-05,1.0
0.16250599999999998,1.0,-3.4057599999999996e-09,1.0,-174.07836,1.0,1.73e-05,1.0
0.162933,1.0,-2.9663100000000003e-09,1.0,-164.16864,1.0,1.73e-05,1.0
0.1633,1.0,-2.513125e-09,1.0,-149.9634,1.0,1.74e-05,1.0
0.163666,1.0,-2.542115e-09,1.0,-131.58324,1.0,1.6899999999999997e-05,1.0
0.16406300000000001,1.0,-2.085875e-09,1.0,-119.2896,1.0,1.77e-05,1.0
0.164398,1.0,-2.36511e-09,1.0,-100.26107999999999,1.0,1.73e-05,1.0
0.164795,1.0,-2.31323e-09,1.0,-80.6508,1.0,1.76e-05,1.0
0.165253,1.0,-2.1255500000000004e-09,1.0,-61.62228,1.0,1.83e-05,1.0
0.165588,1.0,-1.860045e-09,1.0,-44.066159999999996,1.0,1.77e-05,1.0
0.166016,1.0,-2.0874e-09,1.0,-31.739508,1.0,1.75e-05,1.0
0.16641199999999998,1.0,-2.5482199999999997e-09,1.0,-24.980724000000002,1.0,1.82e-05,1.0
0.166748,1.0,-3.14789e-09,1.0,-0.43714440000000004,1.0,1.74e-05,1.0
0.167114,1.0,-3.8040149999999995e-09,1.0,29.410415999999998,1.0,1.8100000000000003e-05,1.0
0.167511,1.0,-4.699705e-09,1.0,52.66836000000001,1.0,1.7800000000000002e-05,1.0
0.167908,1.0,-5.3116000000000006e-09,1.0,76.86035999999999,1.0,1.82e-05,1.0
0.16833499999999998,1.0,-5.996699999999999e-09,1.0,36.419760000000004,1.0,1.8100000000000003e-05,1.0
0.168701,1.0,-6.0058499999999995e-09,1.0,-127.30968,1.0,1.8100000000000003e-05,1.0
0.169128,1.0,-5.3787e-09,1.0,-180.42839999999998,1.0,1.8100000000000003e-05,1.0
0.16955599999999998,1.0,-4.296875e-09,1.0,-189.25055999999998,1.0,1.83e-05,1.0
0.170013,1.0,-3.1265249999999996e-09,1.0,-180.42839999999998,1.0,1.84e-05,1.0
0.17040999999999998,1.0,-2.090455e-09,1.0,-153.48996,1.0,1.8100000000000003e-05,1.0
0.170776,1.0,-1.24817e-09,1.0,-130.6386,1.0,1.86e-05,1.0
0.17114300000000002,1.0,-8.377099999999999e-10,1.0,-107.39124000000001,1.0,1.88e-05,1.0
0.171539,1.0,-6.3324e-10,1.0,-92.79035999999999,1.0,1.93e-05,1.0
0.171967,1.0,-9.6588e-10,1.0,-83.14452,1.0,1.88e-05,1.0
0.172333,1.0,-1.2786850000000001e-09,1.0,-77.17895999999999,1.0,1.91e-05,1.0
0.172729,1.0,-1.6906749999999999e-09,1.0,-67.82976,1.0,1.9e-05,1.0
0.173126,1.0,-2.375795e-09,1.0,-51.57000000000001,1.0,1.89e-05,1.0
0.173492,1.0,-2.734375e-09,1.0,-32.343768,1.0,1.95e-05,1.0
0.17392,1.0,-3.816225e-09,1.0,-21.708972000000003,1.0,1.9600000000000002e-05,1.0
0.174286,1.0,-4.489135e-09,1.0,-28.531512,1.0,1.93e-05,1.0
0.174744,1.0,-4.89044e-09,1.0,-41.56128,1.0,1.98e-05,1.0
0.17511,1.0,-5.3329499999999995e-09,1.0,-77.77224000000001,1.0,1.99e-05,1.0
0.175476,1.0,-5.35735e-09,1.0,-127.33164000000002,1.0,1.9699999999999998e-05,1.0
0.175873,1.0,-5.335999999999999e-09,1.0,-148.53528,1.0,1.9600000000000002e-05,1.0
0.17627,1.0,-4.69818e-09,1.0,-157.77468000000005,1.0,2.1e-05,1.0
0.17666600000000002,1.0,-4.052735e-09,1.0,-146.23884,1.0,2.02e-05,1.0
0.177094,1.0,-3.3874499999999995e-09,1.0,-141.5808,1.0,1.98e-05,1.0
0.17745999999999998,1.0,-2.8213499999999996e-09,1.0,-143.58024,1.0,2.0399999999999998e-05,1.0
0.177887,1.0,-1.919555e-09,1.0,-146.26116,1.0,2.09e-05,1.0
0.17819200000000002,1.0,-1.79901e-09,1.0,-144.79992,1.0,2.05e-05,1.0
0.17865,1.0,-1.28784e-09,1.0,-138.88908,1.0,2.02e-05,1.0
0.179016,1.0,-1.101685e-09,1.0,-133.58268,1.0,2.09e-05,1.0
0.179474,1.0,-1.33972e-09,1.0,-127.33164000000002,1.0,2.1e-05,1.0
0.17981,1.0,-1.6906749999999999e-09,1.0,-116.43299999999999,1.0,2.09e-05,1.0
0.180176,1.0,-2.571105e-09,1.0,-103.86467999999999,1.0,2.09e-05,1.0
0.18060299999999999,1.0,-2.978515e-09,1.0,-82.82592000000001,1.0,2.14e-05,1.0
0.18096900000000002,1.0,-3.1692499999999996e-09,1.0,-53.6022,1.0,2.11e-05,1.0
0.181366,1.0,-3.190615e-09,1.0,-37.29852,1.0,2.15e-05,1.0
0.181732,1.0,-3.614805e-09,1.0,-20.468628000000002,1.0,2.05e-05,1.0
0.18222,1.0,-4.2205799999999995e-09,1.0,-17.957160000000002,1.0,2.12e-05,1.0
0.182556,1.0,-5.0521999999999996e-09,1.0,-28.498536,1.0,2.22e-05,1.0
0.182953,1.0,-5.5663999999999985e-09,1.0,-106.72128000000001,1.0,2.2100000000000002e-05,1.0
0.183319,1.0,-5.27345e-09,1.0,-196.69932,1.0,2.11e-05,1.0
0.18371600000000002,1.0,-4.469300000000001e-09,1.0,-220.40784,1.0,2.1600000000000003e-05,1.0
0.184113,1.0,-3.796385e-09,1.0,-217.30968000000001,1.0,2.2100000000000002e-05,1.0
0.18457,1.0,-3.1219499999999995e-09,1.0,-203.07132,1.0,2.24e-05,1.0
0.184875,1.0,-2.508545e-09,1.0,-189.9864,1.0,2.2100000000000002e-05,1.0
0.185303,1.0,-2.323915e-09,1.0,-166.75055999999998,1.0,2.18e-05,1.0
0.185669,1.0,-2.082825e-09,1.0,-131.19876,1.0,2.2100000000000002e-05,1.0
0.186096,1.0,-1.626585e-09,1.0,-101.86524,1.0,2.25e-05,1.0
0.186401,1.0,-1.4099099999999997e-09,1.0,-82.4742,1.0,2.27e-05,1.0
0.186859,1.0,-1.008605e-09,1.0,-69.85116,1.0,2.23e-05,1.0
0.187195,1.0,-1.171875e-09,1.0,-53.58024,1.0,2.3e-05,1.0
0.187622,1.0,-1.441955e-09,1.0,-39.77064,1.0,2.2899999999999998e-05,1.0
0.187958,1.0,-1.6922e-09,1.0,-25.500384,1.0,2.2800000000000002e-05,1.0
0.188385,1.0,-2.5726299999999996e-09,1.0,-14.68872,1.0,2.26e-05,1.0
0.188721,1.0,-2.993775e-09,1.0,-5.8919760000000005,1.0,2.27e-05,1.0
0.18924000000000002,1.0,-3.19519e-09,1.0,-0.437256,1.0,2.34e-05,1.0
0.189545,1.0,-3.829955e-09,1.0,6.7269239999999995,1.0,2.35e-05,1.0
0.189911,1.0,-4.0771500000000005e-09,1.0,-0.43549920000000003,1.0,2.36e-05,1.0
0.190308,1.0,-4.725645e-09,1.0,-23.072400000000002,1.0,2.36e-05,1.0
0.19076500000000002,1.0,-4.9255349999999996e-09,1.0,-116.41104,1.0,2.2899999999999998e-05,1.0
0.191101,1.0,-3.863525e-09,1.0,-165.26736,1.0,2.33e-05,1.0
0.191528,1.0,-2.7374249999999998e-09,1.0,-175.24296,1.0,2.3100000000000002e-05,1.0
0.191956,1.0,-1.70746e-09,1.0,-168.62904,1.0,2.35e-05,1.0
0.19229100000000002,1.0,-6.50025e-10,1.0,-153.96228000000002,1.0,2.36e-05,1.0
0.192719,1.0,-3.9649999999999994e-11,1.0,-141.75648,1.0,2.42e-05,1.0
0.193115,1.0,1.61743e-10,1.0,-127.33164000000002,1.0,2.4100000000000003e-05,1.0
0.193512,1.0,2.105715e-10,1.0,-114.66432,1.0,2.48e-05,1.0
0.193909,1.0,-2.1350000000000003e-11,1.0,-100.82160000000002,1.0,2.37e-05,1.0
0.19433599999999998,1.0,-1.8157949999999998e-10,1.0,-83.97936,1.0,2.4e-05,1.0
0.194702,1.0,-4.3640149999999997e-10,1.0,-74.81700000000001,1.0,2.45e-05,1.0
0.19516,1.0,-4.0130599999999995e-10,1.0,-70.41132,1.0,2.48e-05,1.0
0.195526,1.0,-6.34765e-10,1.0,-62.39124,1.0,2.46e-05,1.0
0.195892,1.0,-1.24054e-09,1.0,-50.27328,1.0,2.47e-05,1.0
0.19632,1.0,-2.1194450000000002e-09,1.0,-35.95824,1.0,2.51e-05,1.0
0.196686,1.0,-3.1570449999999996e-09,1.0,-23.065812,1.0,2.45e-05,1.0
0.197144,1.0,-4.341125e-09,1.0,-26.461655999999998,1.0,2.51e-05,1.0
0.197479,1.0,-5.1528999999999994e-09,1.0,-59.94144,1.0,2.48e-05,1.0
0.197906,1.0,-5.1132e-09,1.0,-134.0442,1.0,2.56e-05,1.0
0.198273,1.0,-4.304505e-09,1.0,-180.43955999999997,1.0,2.48e-05,1.0
0.198669,1.0,-3.2913199999999998e-09,1.0,-186.50376,1.0,2.56e-05,1.0
0.19906600000000002,1.0,-2.37274e-09,1.0,-185.04288000000003,1.0,2.45e-05,1.0
0.199463,1.0,-1.5136699999999998e-09,1.0,-184.27356,1.0,2.56e-05,1.0
0.19989,1.0,-8.361799999999999e-10,1.0,-177.07752,1.0,2.59e-05,1.0
0.200287,1.0,1.83e-11,1.0,-156.66516,1.0,2.59e-05,1.0
0.200684,1.0,4.714965e-10,1.0,-132.23160000000001,1.0,2.58e-05,1.0
0.20108,1.0,1.1215199999999999e-09,1.0,-106.71012,1.0,2.6300000000000002e-05,1.0
0.201416,1.0,1.560975e-09,1.0,-83.80368,1.0,2.62e-05,1.0
0.201752,1.0,1.8127449999999998e-09,1.0,-67.19255999999999,1.0,2.7000000000000002e-05,1.0
0.202209,1.0,1.33667e-09,1.0,-55.7226,1.0,2.7000000000000002e-05,1.0
0.20263699999999998,1.0,9.521499999999999e-10,1.0,-40.616279999999996,1.0,2.8100000000000002e-05,1.0
0.20291099999999998,1.0,-3.40271e-10,1.0,-25.311384,1.0,2.75e-05,1.0
0.203308,1.0,-1.449585e-09,1.0,-19.382075999999998,1.0,2.71e-05,1.0
0.203705,1.0,-2.6000999999999997e-09,1.0,-15.311627999999999,1.0,2.7899999999999997e-05,1.0
0.204071,1.0,-3.6010749999999998e-09,1.0,-20.474136,1.0,2.7399999999999995e-05,1.0
0.204468,1.0,-4.72107e-09,1.0,-33.859872,1.0,2.7300000000000003e-05,1.0
0.20486500000000002,1.0,-5.32075e-09,1.0,-103.12884,1.0,2.72e-05,1.0
0.205231,1.0,-5.108649999999999e-09,1.0,-180.42839999999998,1.0,2.72e-05,1.0
0.205627,1.0,-3.83301e-09,1.0,-188.0748,1.0,2.75e-05,1.0
0.20605500000000002,1.0,-2.71454e-09,1.0,-175.23179999999996,1.0,2.8100000000000002e-05,1.0
0.20645100000000002,1.0,-1.75781e-09,1.0,-160.87284000000002,1.0,2.7899999999999997e-05,1.0
0.20681799999999997,1.0,-5.4474e-10,1.0,-140.44932,1.0,2.68e-05,1.0
0.207184,1.0,2.853395e-10,1.0,-123.46452,1.0,2.8300000000000003e-05,1.0
0.207581,1.0,4.791259999999999e-10,1.0,-109.99512000000001,1.0,2.7899999999999997e-05,1.0
0.207947,1.0,7.3395e-10,1.0,-99.79992,1.0,2.7899999999999997e-05,1.0
0.208405,1.0,4.65393e-10,1.0,-88.49484,1.0,2.8100000000000002e-05,1.0
0.208771,1.0,3.0365e-10,1.0,-78.23375999999999,1.0,2.84e-05,1.0
0.20916700000000002,1.0,-3.845215e-10,1.0,-61.83108,1.0,2.8300000000000003e-05,1.0
0.20953400000000003,1.0,-9.551999999999998e-10,1.0,-42.75864,1.0,2.84e-05,1.0
0.2099,1.0,-1.4312750000000001e-09,1.0,-23.831532,1.0,2.8499999999999998e-05,1.0
0.210358,1.0,-2.5772099999999996e-09,1.0,-9.982188,1.0,2.8699999999999996e-05,1.0
0.210693,1.0,-3.082275e-09,1.0,-0.4346208,1.0,2.9199999999999998e-05,1.0
0.21109,1.0,-4.333495e-09,1.0,9.002196000000001,1.0,2.9299999999999997e-05,1.0
0.21148699999999998,1.0,-5.3191999999999996e-09,1.0,-0.4314347999999999,1.0,2.94e-05,1.0
0.211914,1.0,-5.751049999999999e-09,1.0,-127.30968,1.0,2.9100000000000003e-05,1.0
0.21225,1.0,-4.231259999999999e-09,1.0,-180.4176,1.0,2.9299999999999997e-05,1.0
0.21270799999999998,1.0,-2.3101799999999996e-09,1.0,-180.4176,1.0,2.8800000000000002e-05,1.0
0.21307399999999999,1.0,-5.783099999999999e-10,1.0,-177.17652,1.0,2.8899999999999998e-05,1.0
0.213531,1.0,4.959105000000001e-10,1.0,-169.31016,1.0,2.9600000000000005e-05,1.0
0.213867,1.0,1.1703499999999998e-09,1.0,-155.40156,1.0,2.9600000000000005e-05,1.0
0.21423299999999998,1.0,1.805115e-09,1.0,-139.89996,1.0,2.99e-05,1.0
0.21463000000000002,1.0,2.04773e-09,1.0,-129.33108000000001,1.0,2.97e-05,1.0
0.215088,1.0,2.24762e-09,1.0,-117.38880000000002,1.0,3.11e-05,1.0
0.21542399999999998,1.0,1.53961e-09,1.0,-100.52496,1.0,3.06e-05,1.0
0.215759,1.0,1.0696399999999998e-09,1.0,-77.77224000000001,1.0,2.95e-05,1.0
0.216248,1.0,5.9662e-10,1.0,-59.61168,1.0,3.0799999999999996e-05,1.0
0.216583,1.0,3.6926249999999994e-10,1.0,-45.033120000000004,1.0,3.11e-05,1.0
0.21698,1.0,3.25012e-10,1.0,-33.859872,1.0,3.14e-05,1.0
0.217377,1.0,-1.9683849999999998e-10,1.0,-21.895739999999996,1.0,3.05e-05,1.0
0.217804,1.0,-1.28784e-09,1.0,-18.766836,1.0,3.13e-05,1.0
0.21814,1.0,-2.5649999999999997e-09,1.0,-29.68506,1.0,3.09e-05,1.0
0.21859699999999999,1.0,-3.60565e-09,1.0,-62.38044,1.0,3.13e-05,1.0
0.218994,1.0,-3.800965e-09,1.0,-105.31512000000001,1.0,3.1e-05,1.0
0.21933000000000002,1.0,-2.9418949999999996e-09,1.0,-134.76924000000002,1.0,3.1e-05,1.0
0.219727,1.0,-2.1362299999999998e-09,1.0,-149.17248,1.0,3.18e-05,1.0
0.22006199999999998,1.0,-1.05591e-09,1.0,-155.77524,1.0,3.2e-05,1.0
0.22052,1.0,3.9649999999999994e-11,1.0,-165.80556,1.0,3.2e-05,1.0
0.220886,1.0,8.83485e-10,1.0,-164.90483999999998,1.0,3.19e-05,1.0
0.221313,1.0,1.504515e-09,1.0,-163.50948000000002,1.0,3.17e-05,1.0
0.22168000000000002,1.0,1.50604e-09,1.0,-156.42324,1.0,3.2200000000000003e-05,1.0
0.22207600000000002,1.0,1.2863149999999998e-09,1.0,-143.67924,1.0,3.19e-05,1.0
0.22244299999999997,1.0,6.713850000000001e-10,1.0,-128.49624,1.0,3.16e-05,1.0
0.22283899999999998,1.0,2.6092549999999996e-10,1.0,-110.6982,1.0,3.15e-05,1.0
0.22332800000000003,1.0,-3.9215099999999994e-10,1.0,-94.82292000000001,1.0,3.229999999999999e-05,1.0
0.223663,1.0,-1.0299700000000001e-09,1.0,-80.51867999999999,1.0,3.26e-05,1.0
0.22399899999999998,1.0,-1.931765e-09,1.0,-68.97204,1.0,3.289999999999999e-05,1.0
0.22442600000000001,1.0,-2.7328499999999997e-09,1.0,-48.88907999999999,1.0,3.35e-05,1.0
0.224854,1.0,-3.6010749999999998e-09,1.0,-35.167248,1.0,3.3600000000000004e-05,1.0
0.22521999999999998,1.0,-4.643249999999999e-09,1.0,-33.848892,1.0,3.3299999999999996e-05,1.0
0.225677,1.0,-5.757149999999999e-09,1.0,-53.58024,1.0,3.37e-05,1.0
0.225983,1.0,-6.02875e-09,1.0,-233.55828000000002,1.0,3.34e-05,1.0
0.226379,1.0,-5.352799999999999e-09,1.0,-298.49868,1.0,3.32e-05,1.0
0.22683699999999998,1.0,-4.71344e-09,1.0,-256.19003999999995,1.0,3.37e-05,1.0
0.227173,1.0,-3.861999999999999e-09,1.0,-224.06616,1.0,3.3799999999999995e-05,1.0
0.227539,1.0,-2.738955e-09,1.0,-180.43955999999997,1.0,3.4399999999999996e-05,1.0
0.22790500000000002,1.0,-1.6815199999999998e-09,1.0,-143.58024,1.0,3.47e-05,1.0
0.22833299999999998,1.0,-4.5471199999999994e-10,1.0,-114.82920000000001,1.0,3.3799999999999995e-05,1.0
0.22869899999999999,1.0,8.316049999999999e-10,1.0,-105.13907999999999,1.0,3.41e-05,1.0
0.22912600000000002,1.0,1.9470199999999998e-09,1.0,-100.23911999999999,1.0,3.39e-05,1.0
0.229462,1.0,2.1499650000000002e-09,1.0,-99.72288,1.0,3.48e-05,1.0
0.22988899999999998,1.0,2.426145e-09,1.0,-98.08595999999999,1.0,3.48e-05,1.0
0.23025500000000002,1.0,2.201845e-09,1.0,-95.18544,1.0,3.4899999999999995e-05,1.0
0.230621,1.0,1.55792e-09,1.0,-87.07752,1.0,3.48e-05,1.0
0.23101799999999997,1.0,4.211425e-10,1.0,-76.92624,1.0,3.52e-05,1.0
0.231415,1.0,-3.9215099999999994e-10,1.0,-65.11608,1.0,3.5499999999999996e-05,1.0
0.231812,1.0,-1.4953599999999999e-09,1.0,-51.8886,1.0,3.5499999999999996e-05,1.0
0.23211700000000002,1.0,-2.555845e-09,1.0,-40.40783999999999,1.0,3.6e-05,1.0
0.23257399999999998,1.0,-3.12958e-09,1.0,-42.94547999999999,1.0,3.59e-05,1.0
0.23294099999999998,1.0,-3.8421649999999994e-09,1.0,-63.6768,1.0,3.59e-05,1.0
0.233368,1.0,-4.26483e-09,1.0,-115.52112,1.0,3.54e-05,1.0
0.23379499999999998,1.0,-3.84369e-09,1.0,-165.24540000000002,1.0,3.59e-05,1.0
0.234161,1.0,-3.1753549999999997e-09,1.0,-180.43955999999997,1.0,3.6e-05,1.0
0.234467,1.0,-2.77405e-09,1.0,-195.97428000000002,1.0,3.6e-05,1.0
0.23492399999999997,1.0,-2.56195e-09,1.0,-194.69988,1.0,3.6099999999999997e-05,1.0
0.23529099999999997,1.0,-2.10266e-09,1.0,-176.03388,1.0,3.6099999999999997e-05,1.0
0.23571799999999998,1.0,-1.29242e-09,1.0,-142.41564,1.0,3.5499999999999996e-05,1.0
0.23608400000000002,1.0,-3.9215099999999994e-10,1.0,-113.04936000000001,1.0,3.6e-05,1.0
0.236481,1.0,7.2632e-10,1.0,-88.57188,1.0,3.59e-05,1.0
0.236938,1.0,1.779175e-09,1.0,-70.44444000000001,1.0,3.6200000000000006e-05,1.0
0.23727399999999998,1.0,2.6748649999999995e-09,1.0,-52.62443999999999,1.0,3.6200000000000006e-05,1.0
0.237671,1.0,3.32489e-09,1.0,-41.077799999999996,1.0,3.71e-05,1.0
0.238037,1.0,3.382875e-09,1.0,-34.782732,1.0,3.66e-05,1.0
0.23846399999999998,1.0,2.6687599999999998e-09,1.0,-30.058596,1.0,3.69e-05,1.0
0.238831,1.0,1.826475e-09,1.0,-29.0808,1.0,3.71e-05,1.0
0.239227,1.0,2.838135e-10,1.0,-26.457264000000002,1.0,3.73e-05,1.0
0.23962399999999998,1.0,-1.33362e-09,1.0,-23.270148,1.0,3.76e-05,1.0
0.24005100000000001,1.0,-2.7465800000000002e-09,1.0,-21.078360000000004,1.0,3.81e-05,1.0
0.24050900000000003,1.0,-3.65143e-09,1.0,-13.875732,1.0,3.79e-05,1.0
0.240814,1.0,-4.3060299999999994e-09,1.0,-26.461655999999998,1.0,3.77e-05,1.0
0.24124099999999998,1.0,-4.714965e-09,1.0,-76.2012,1.0,3.81e-05,1.0
0.24163800000000002,1.0,-3.814694999999999e-09,1.0,-127.32048000000002,1.0,3.82e-05,1.0
0.242096,1.0,-2.6214599999999998e-09,1.0,-151.20468000000002,1.0,3.82e-05,1.0
0.24240100000000003,1.0,-6.1493e-10,1.0,-153.98424000000003,1.0,3.86e-05,1.0
0.242889,1.0,1.130675e-09,1.0,-145.15127999999999,1.0,3.87e-05,1.0
0.243225,1.0,2.63672e-09,1.0,-130.15511999999998,1.0,3.98e-05,1.0
0.24359099999999997,1.0,3.341675e-09,1.0,-112.51115999999999,1.0,3.8799999999999994e-05,1.0
0.244019,1.0,4.16107e-09,1.0,-95.53716,1.0,3.9e-05,1.0
0.24441500000000002,1.0,4.833985e-09,1.0,-78.51924,1.0,3.87e-05,1.0
0.244781,1.0,4.8965450000000005e-09,1.0,-62.67707999999999,1.0,3.91e-05,1.0
0.245209,1.0,4.6798699999999995e-09,1.0,-46.64808,1.0,3.9899999999999994e-05,1.0
0.245544,1.0,4.1397099999999996e-09,1.0,-29.443356,1.0,3.98e-05,1.0
0.245941,1.0,3.237915e-09,1.0,-12.267324,1.0,3.9399999999999995e-05,1.0
0.246338,1.0,1.911925e-09,1.0,6.309432,1.0,4.02e-05,1.0
0.24664299999999997,1.0,6.11875e-10,1.0,23.762340000000002,1.0,3.96e-05,1.0
0.247131,1.0,-1.08795e-09,1.0,35.2881,1.0,4.02e-05,1.0
0.247559,1.0,-3.0166649999999997e-09,1.0,38.12256000000001,1.0,3.98e-05,1.0
0.247925,1.0,-4.707335e-09,1.0,-0.436158,1.0,4.0799999999999996e-05,1.0
0.248322,1.0,-4.89044e-09,1.0,-109.36872000000001,1.0,4.1e-05,1.0
0.248718,1.0,-3.820799999999999e-09,1.0,-173.29824,1.0,4.01e-05,1.0
0.24908400000000003,1.0,-2.539065e-09,1.0,-185.21856,1.0,4.05e-05,1.0
0.249481,1.0,-9.735099999999999e-10,1.0,-183.90024,1.0,4.04e-05,1.0
0.24987800000000002,1.0,4.623415e-10,1.0,-172.34244,1.0,4.0600000000000004e-05,1.0
0.250275,1.0,1.364135e-09,1.0,-153.56699999999998,1.0,4.13e-05,1.0
0.250641,1.0,2.571105e-09,1.0,-129.2652,1.0,4.14e-05,1.0
0.25106799999999996,1.0,3.4194949999999997e-09,1.0,-108.6768,1.0,4.13e-05,1.0
0.251434,1.0,4.00543e-09,1.0,-91.24127999999999,1.0,4.22e-05,1.0
0.251862,1.0,4.206849999999999e-09,1.0,-74.9268,1.0,4.1700000000000004e-05,1.0
0.252228,1.0,3.7124649999999998e-09,1.0,-59.44716,1.0,4.29e-05,1.0
0.252625,1.0,3.137205e-09,1.0,-43.68167999999999,1.0,4.24e-05,1.0
0.253052,1.0,2.23236e-09,1.0,-26.941788000000003,1.0,4.210000000000001e-05,1.0
0.253387,1.0,9.521499999999999e-10,1.0,-6.12486,1.0,4.270000000000001e-05,1.0
0.253815,1.0,-6.1798e-10,1.0,15.840072000000003,1.0,4.28e-05,1.0
0.25411999999999996,1.0,-1.91498e-09,1.0,39.1554,1.0,4.26e-05,1.0
0.25454699999999997,1.0,-3.51715e-09,1.0,61.490520000000004,1.0,4.29e-05,1.0
0.254913,1.0,-4.83246e-09,1.0,98.34948,1.0,4.36e-05,1.0
0.255341,1.0,-5.7129e-09,1.0,207.60876000000002,1.0,4.35e-05,1.0
0.255737,1.0,-5.5313e-09,1.0,-337.78548,1.0,4.3200000000000007e-05,1.0
0.25613400000000003,1.0,-4.643249999999999e-09,1.0,-247.78548,1.0,4.3200000000000007e-05,1.0
0.2565,1.0,-2.667235e-09,1.0,-207.24624000000003,1.0,4.36e-05,1.0
0.256897,1.0,-1.0757449999999998e-09,1.0,-187.66835999999998,1.0,4.3e-05,1.0
0.257263,1.0,2.2899999999999997e-11,1.0,-168.76116,1.0,4.34e-05,1.0
0.257721,1.0,1.1337299999999998e-09,1.0,-152.35848000000001,1.0,4.31e-05,1.0
0.25811799999999996,1.0,1.97296e-09,1.0,-134.32968,1.0,4.33e-05,1.0
0.25851399999999997,1.0,2.8183e-09,1.0,-113.63147999999998,1.0,4.39e-05,1.0
0.25882,1.0,3.971865e-09,1.0,-94.38372000000001,1.0,4.429999999999999e-05,1.0
0.259277,1.0,4.388429999999999e-09,1.0,-74.20176,1.0,4.39e-05,1.0
0.259705,1.0,4.426575e-09,1.0,-53.931960000000004,1.0,4.48e-05,1.0
0.260101,1.0,3.75824e-09,1.0,-34.947503999999995,1.0,4.46e-05,1.0
0.260468,1.0,2.697755e-09,1.0,-19.724868,1.0,4.4e-05,1.0
0.260895,1.0,1.14441e-09,1.0,-8.071668,1.0,4.51e-05,1.0
0.261261,1.0,-4.5013449999999996e-10,1.0,5.759028,1.0,4.46e-05,1.0
0.261627,1.0,-1.88904e-09,1.0,16.434431999999997,1.0,4.5299999999999997e-05,1.0
0.261993,1.0,-3.886415e-09,1.0,20.818008,1.0,4.55e-05,1.0
0.26245100000000005,1.0,-5.192549999999999e-09,1.0,-44.45064,1.0,4.5e-05,1.0
0.262848,1.0,-4.316709999999999e-09,1.0,-171.63936,1.0,4.59e-05,1.0
0.263214,1.0,-2.61841e-09,1.0,-199.37988,1.0,4.6299999999999994e-05,1.0
0.26367199999999996,1.0,-4.30298e-10,1.0,-206.2134,1.0,4.5600000000000004e-05,1.0
0.264038,1.0,1.115415e-09,1.0,-198.1386,1.0,4.55e-05,1.0
0.264435,1.0,2.15912e-09,1.0,-191.43684,1.0,4.6e-05,1.0
0.264862,1.0,3.2959e-09,1.0,-176.47344,1.0,4.5799999999999995e-05,1.0
0.265259,1.0,4.403685e-09,1.0,-159.19199999999998,1.0,4.6399999999999996e-05,1.0
0.265625,1.0,5.51455e-09,1.0,-137.46096,1.0,4.6299999999999994e-05,1.0
0.265991,1.0,5.924999999999999e-09,1.0,-116.91648,1.0,4.66e-05,1.0
0.266418,1.0,6.32935e-09,1.0,-95.80068,1.0,4.7499999999999996e-05,1.0
0.266815,1.0,6.12795e-09,1.0,-74.20176,1.0,4.71e-05,1.0
0.267212,1.0,5.51605e-09,1.0,-53.56944,1.0,4.7499999999999996e-05,1.0
0.267548,1.0,4.388429999999999e-09,1.0,-36.22176,1.0,4.74e-05,1.0
0.267975,1.0,3.3340449999999997e-09,1.0,-18.406512,1.0,4.7499999999999996e-05,1.0
0.268311,1.0,1.96533e-09,1.0,-2.7301031999999994,1.0,4.8200000000000006e-05,1.0
0.268646,1.0,4.66919e-10,1.0,13.473648,1.0,4.9e-05,1.0
0.269043,1.0,-1.034545e-09,1.0,24.255612,1.0,4.85e-05,1.0
0.269379,1.0,-2.99225e-09,1.0,15.83568,1.0,4.85e-05,1.0
0.269836,1.0,-4.72412e-09,1.0,-23.071284,1.0,4.94e-05,1.0
0.270264,1.0,-4.708859999999999e-09,1.0,-190.8324,1.0,4.8599999999999995e-05,1.0
0.27063000000000004,1.0,-2.5100699999999998e-09,1.0,-210.94848000000002,1.0,4.85e-05,1.0
0.271027,1.0,-4.470825e-10,1.0,-206.2134,1.0,4.8200000000000006e-05,1.0
0.271423,1.0,1.1520399999999999e-09,1.0,-193.12884000000003,1.0,4.88e-05,1.0
0.271851,1.0,2.441405e-09,1.0,-173.96856,1.0,4.970000000000001e-05,1.0
0.272217,1.0,3.0776999999999994e-09,1.0,-154.30284,1.0,4.91e-05,1.0
0.272583,1.0,3.5812399999999995e-09,1.0,-135.05508,1.0,4.95e-05,1.0
0.272949,1.0,4.19464e-09,1.0,-115.07075999999999,1.0,4.93e-05,1.0
0.27331500000000003,1.0,4.8400899999999996e-09,1.0,-94.0428,1.0,4.95e-05,1.0
0.273712,1.0,5.2627499999999994e-09,1.0,-76.50864000000001,1.0,4.970000000000001e-05,1.0
0.27407800000000004,1.0,4.789734999999999e-09,1.0,-57.40344,1.0,4.970000000000001e-05,1.0
0.274445,1.0,4.17938e-09,1.0,-33.870852,1.0,5e-05,1.0
0.274902,1.0,2.8655999999999997e-09,1.0,-8.623152000000001,1.0,5.02e-05,1.0
0.275208,1.0,1.774595e-09,1.0,4.227552,1.0,5.08e-05,1.0
0.275665,1.0,5.1422e-10,1.0,13.158324000000002,1.0,5.0900000000000004e-05,1.0
0.27603099999999997,1.0,-1.0040299999999999e-09,1.0,13.371444,1.0,5.16e-05,1.0
0.276459,1.0,-2.5344849999999996e-09,1.0,4.546152,1.0,5.07e-05,1.0
0.276825,1.0,-3.98712e-09,1.0,-34.639884,1.0,5.11e-05,1.0
0.27722199999999997,1.0,-4.156494999999999e-09,1.0,-127.29851999999998,1.0,5.0600000000000003e-05,1.0
0.277649,1.0,-2.5604249999999997e-09,1.0,-175.67136,1.0,5.16e-05,1.0
0.27807600000000005,1.0,-3.662109999999999e-10,1.0,-180.43955999999997,1.0,5.13e-05,1.0
0.278473,1.0,1.820375e-09,1.0,-180.43955999999997,1.0,5.2000000000000004e-05,1.0
0.27880900000000003,1.0,3.105165e-09,1.0,-174.38616,1.0,5.17e-05,1.0
0.27920500000000004,1.0,3.997805e-09,1.0,-165.50892,1.0,5.24e-05,1.0
0.279602,1.0,4.1671750000000006e-09,1.0,-152.80884,1.0,5.15e-05,1.0
0.279938,1.0,4.1397099999999996e-09,1.0,-135.49428,1.0,5.19e-05,1.0
0.280396,1.0,4.144285e-09,1.0,-111.21444000000001,1.0,5.2300000000000004e-05,1.0
0.280792,1.0,4.6325699999999994e-09,1.0,-90.47232000000001,1.0,5.22e-05,1.0
0.28118899999999997,1.0,4.341125e-09,1.0,-74.19059999999999,1.0,5.31e-05,1.0
0.281586,1.0,4.148865e-09,1.0,-54.39348,1.0,5.28e-05,1.0
0.281982,1.0,3.982545e-09,1.0,-34.398179999999996,1.0,5.3e-05,1.0
0.282379,1.0,3.318785e-09,1.0,-14.207508,1.0,5.3299999999999995e-05,1.0
0.28274499999999997,1.0,2.15454e-09,1.0,1.7679204,1.0,5.44e-05,1.0
0.283142,1.0,1.0910049999999998e-09,1.0,9.726192,1.0,5.3500000000000006e-05,1.0
0.283508,1.0,-4.56238e-10,1.0,9.093383999999999,1.0,5.39e-05,1.0
0.283905,1.0,-2.1285999999999995e-09,1.0,-13.610952000000001,1.0,5.379999999999999e-05,1.0
0.284302,1.0,-3.1326299999999998e-09,1.0,-66.25872000000001,1.0,5.3700000000000004e-05,1.0
0.284668,1.0,-2.7420049999999998e-09,1.0,-120.30011999999999,1.0,5.39e-05,1.0
0.28512600000000005,1.0,-1.722715e-09,1.0,-152.38044000000002,1.0,5.45e-05,1.0
0.285522,1.0,-3.54004e-10,1.0,-165.0366,1.0,5.47e-05,1.0
0.285919,1.0,1.361085e-09,1.0,-165.91536000000002,1.0,5.4000000000000005e-05,1.0
0.286285,1.0,2.919005e-09,1.0,-159.82920000000001,1.0,5.47e-05,1.0
0.286621,1.0,4.1686999999999995e-09,1.0,-152.82,1.0,5.5e-05,1.0
0.287079,1.0,4.953005e-09,1.0,-144.62388,1.0,5.489999999999999e-05,1.0
0.287476,1.0,5.5481e-09,1.0,-131.57244,1.0,5.550000000000001e-05,1.0
0.287842,1.0,5.9845e-09,1.0,-118.28988000000001,1.0,5.550000000000001e-05,1.0
0.28823899999999997,1.0,6.18745e-09,1.0,-101.23884000000001,1.0,5.629999999999999e-05,1.0
0.288666,1.0,6.390399999999999e-09,1.0,-82.96884000000001,1.0,5.6200000000000004e-05,1.0
0.289032,1.0,5.9280500000000004e-09,1.0,-61.84188,1.0,5.5700000000000005e-05,1.0
0.28936799999999996,1.0,5.2627499999999994e-09,1.0,-44.05499999999999,1.0,5.6399999999999995e-05,1.0
0.28976399999999997,1.0,4.411314999999999e-09,1.0,-28.937988,1.0,5.67e-05,1.0
0.290131,1.0,2.9998799999999998e-09,1.0,-12.58812,1.0,5.720000000000001e-05,1.0
0.290558,1.0,1.55792e-09,1.0,1.940184,1.0,5.6899999999999994e-05,1.0
0.290894,1.0,-1.9226049999999997e-10,1.0,11.596068,1.0,5.67e-05,1.0
0.291229,1.0,-1.657105e-09,1.0,19.108512,1.0,5.8099999999999996e-05,1.0
0.291626,1.0,-2.9693599999999998e-09,1.0,27.619632000000003,1.0,5.7600000000000004e-05,1.0
0.292053,1.0,-4.673765e-09,1.0,-19.578743999999997,1.0,5.79e-05,1.0
0.29245,1.0,-4.0405249999999995e-09,1.0,-146.22804000000002,1.0,5.7700000000000007e-05,1.0
0.292877,1.0,-2.30713e-09,1.0,-194.13936,1.0,5.7700000000000007e-05,1.0
0.293243,1.0,-4.0740949999999994e-10,1.0,-198.87444000000002,1.0,5.870000000000001e-05,1.0
0.293549,1.0,1.130675e-09,1.0,-185.53716,1.0,5.8099999999999996e-05,1.0
0.294006,1.0,2.0202649999999997e-09,1.0,-164.78388,1.0,5.8099999999999996e-05,1.0
0.294373,1.0,3.5140999999999997e-09,1.0,-143.58024,1.0,5.8299999999999994e-05,1.0
0.2948,1.0,5.3375e-09,1.0,-125.84844000000001,1.0,5.9e-05,1.0
0.295227,1.0,6.4331e-09,1.0,-109.72044000000001,1.0,5.8200000000000005e-05,1.0
