Potential,potstdev,Photocurrent (nA),pcstdev,Phase (°),phstdev,DC Current (µA),dcCurrstdev
-0.117249,1.0,3.38745e-10,1.0,217.32048,1.0,-1.74927e-05,1.0
-0.11691300000000002,1.0,1.5075699999999998e-09,1.0,211.78332,1.0,-1.73401e-05,1.0
-0.11651600000000001,1.0,1.924135e-09,1.0,198.47915999999998,1.0,-1.70929e-05,1.0
-0.116119,1.0,1.65558e-09,1.0,186.72372000000001,1.0,-1.67206e-05,1.0
-0.115723,1.0,1.242065e-09,1.0,184.62528000000003,1.0,-1.71509e-05,1.0
-0.115356,1.0,7.782000000000001e-10,1.0,190.20636,1.0,-1.63147e-05,1.0
-0.114899,1.0,5.599999999999999e-10,1.0,201.64320000000004,1.0,-1.68396e-05,1.0
-0.114532,1.0,8.1024e-10,1.0,208.90511999999998,1.0,-1.61652e-05,1.0
-0.114197,1.0,1.2786850000000001e-09,1.0,218.0016,1.0,-1.62933e-05,1.0
-0.1138,1.0,1.213075e-09,1.0,217.19988000000004,1.0,-1.61194e-05,1.0
-0.113373,1.0,1.45874e-09,1.0,214.14564000000001,1.0,-1.60797e-05,1.0
-0.113007,1.0,1.393125e-09,1.0,209.42136,1.0,-1.59332e-05,1.0
-0.11260999999999999,1.0,1.202395e-09,1.0,204.59844,1.0,-1.53442e-05,1.0
-0.11221300000000001,1.0,1.25122e-09,1.0,207.01548000000003,1.0,-1.54999e-05,1.0
-0.11181600000000001,1.0,1.4312750000000001e-09,1.0,206.45496000000003,1.0,-1.55975e-05,1.0
-0.11142,1.0,1.8692e-09,1.0,212.71716,1.0,-1.53198e-05,1.0
-0.111053,1.0,2.0660399999999996e-09,1.0,218.56212,1.0,-1.52283e-05,1.0
-0.110687,1.0,2.304075e-09,1.0,229.73508,1.0,-1.54938e-05,1.0
-0.11029100000000001,1.0,2.467345e-09,1.0,235.57968,1.0,-1.4627100000000001e-05,1.0
-0.109894,1.0,2.090455e-09,1.0,241.88616000000002,1.0,-1.49109e-05,1.0
-0.10946700000000001,1.0,9.50625e-10,1.0,249.11496000000002,1.0,-1.47614e-05,1.0
-0.10913099999999999,1.0,-3.2806400000000004e-10,1.0,249.54336000000004,1.0,-1.39252e-05,1.0
-0.10876500000000001,1.0,-1.1856099999999998e-09,1.0,251.08163999999996,1.0,-1.4376800000000001e-05,1.0
-0.10833699999999999,1.0,-1.6174299999999999e-09,1.0,243.55583999999993,1.0,-1.43341e-05,1.0
-0.10787999999999999,1.0,-1.6067499999999999e-09,1.0,234.50328,1.0,-1.4205899999999999e-05,1.0
-0.107574,1.0,-1.3900749999999999e-09,1.0,227.50488,1.0,-1.4019800000000001e-05,1.0
-0.10723900000000001,1.0,-9.551999999999998e-10,1.0,227.84544,1.0,-1.3680999999999998e-05,1.0
-0.106781,1.0,-7.5531e-10,1.0,228.186,1.0,-1.39557e-05,1.0
-0.10635399999999999,1.0,-6.4087e-11,1.0,223.16544,1.0,-1.38519e-05,1.0
-0.105927,1.0,5.20325e-10,1.0,216.48564000000002,1.0,-1.40839e-05,1.0
-0.10555999999999999,1.0,5.5084e-10,1.0,213.77195999999998,1.0,-1.39984e-05,1.0
-0.105103,1.0,3.7689199999999994e-10,1.0,211.8384,1.0,-1.40686e-05,1.0
-0.10476700000000001,1.0,-3.7384050000000003e-10,1.0,215.42003999999997,1.0,-1.3967899999999999e-05,1.0
-0.10437,1.0,-1.223755e-09,1.0,217.61711999999997,1.0,-1.3766500000000001e-05,1.0
-0.10394300000000001,1.0,-1.670835e-09,1.0,217.74888,1.0,-1.30646e-05,1.0
-0.103546,1.0,-1.99127e-09,1.0,215.04636,1.0,-1.3406400000000001e-05,1.0
-0.103149,1.0,-1.815795e-09,1.0,209.68488000000002,1.0,-1.36688e-05,1.0
-0.102844,1.0,-1.5960699999999998e-09,1.0,207.63071999999997,1.0,-1.32202e-05,1.0
-0.10235599999999999,1.0,-1.3900749999999999e-09,1.0,210.41028,1.0,-1.3205e-05,1.0
-0.10195900000000001,1.0,-9.42995e-10,1.0,216.43056,1.0,-1.29852e-05,1.0
-0.101624,1.0,-3.64685e-10,1.0,225.53820000000002,1.0,-1.24603e-05,1.0
-0.10116599999999999,1.0,2.8076150000000003e-10,1.0,226.34027999999998,1.0,-1.27655e-05,1.0
-0.10076900000000001,1.0,1.205445e-09,1.0,228.25188000000003,1.0,-1.25671e-05,1.0
-0.100464,1.0,2.0980849999999998e-09,1.0,231.65784,1.0,-1.19812e-05,1.0
-0.09997560000000001,1.0,2.08893e-09,1.0,230.69088000000002,1.0,-1.1950699999999999e-05,1.0
-0.09960939999999999,1.0,1.919555e-09,1.0,225.34056,1.0,-1.2646500000000002e-05,1.0
-0.09918210000000001,1.0,1.223755e-09,1.0,217.19988000000004,1.0,-1.1788900000000002e-05,1.0
-0.0988159,1.0,4.89807e-10,1.0,209.58624,1.0,-1.16119e-05,1.0
-0.0984192,1.0,-1.3580299999999999e-10,1.0,203.97204,1.0,-1.19385e-05,1.0
-0.09799189999999999,1.0,-9.3994e-10,1.0,196.776,1.0,-1.1859100000000001e-05,1.0
-0.0976257,1.0,-1.2146e-09,1.0,197.90784000000002,1.0,-1.14227e-05,1.0
-0.0971375,1.0,-9.582499999999999e-10,1.0,201.46715999999998,1.0,-1.1483800000000002e-05,1.0
-0.0968628,1.0,-9.68935e-10,1.0,216.35387999999998,1.0,-1.0961900000000001e-05,1.0
-0.0964661,1.0,-1.023865e-09,1.0,221.90184,1.0,-1.0876500000000002e-05,1.0
-0.09603880000000001,1.0,-7.9193e-10,1.0,228.186,1.0,-1.0672e-05,1.0
-0.09567260000000001,1.0,-5.3253e-10,1.0,229.81212,1.0,-1.11694e-05,1.0
-0.0952759,1.0,-9.613049999999999e-11,1.0,228.70224000000002,1.0,-1.08246e-05,1.0
-0.0948486,1.0,5.0812e-10,1.0,233.89883999999998,1.0,-1.1025999999999999e-05,1.0
-0.0945129,1.0,7.064799999999999e-10,1.0,241.33679999999998,1.0,-1.0586500000000001e-05,1.0
-0.0940857,1.0,7.0038e-10,1.0,246.92868000000004,1.0,-1.09222e-05,1.0
-0.09371950000000001,1.0,7.17165e-10,1.0,244.68768000000006,1.0,-1.12396e-05,1.0
-0.0932922,1.0,2.6245099999999997e-10,1.0,242.95176,1.0,-1.0711700000000001e-05,1.0
-0.0928955,1.0,-8.621199999999999e-10,1.0,238.62311999999997,1.0,-1.0351600000000001e-05,1.0
-0.0924988,1.0,-1.756285e-09,1.0,232.65755999999996,1.0,-1.0305799999999999e-05,1.0
-0.0920715,1.0,-2.13318e-09,1.0,224.79120000000003,1.0,-1.00586e-05,1.0
-0.0917358,1.0,-2.5787349999999998e-09,1.0,217.89180000000002,1.0,-1.0223400000000001e-05,1.0
-0.0913391,1.0,-2.32239e-09,1.0,212.06916,1.0,-9.7229e-06,1.0
-0.09094239999999999,1.0,-2.1148699999999997e-09,1.0,210.83868,1.0,-1.02264e-05,1.0
-0.09054569999999999,1.0,-1.6357399999999998e-09,1.0,212.55263999999997,1.0,-1.0202e-05,1.0
-0.09014889999999999,1.0,-1.686095e-09,1.0,216.43056,1.0,-9.73816e-06,1.0
-0.08975219999999999,1.0,-1.670835e-09,1.0,216.41976,1.0,-9.64661e-06,1.0
-0.08935549999999999,1.0,-1.631165e-09,1.0,212.56343999999999,1.0,-9.27124e-06,1.0
-0.0889282,1.0,-1.678465e-09,1.0,208.63044,1.0,-9.57642e-06,1.0
-0.08859249999999999,1.0,-1.8066399999999999e-09,1.0,200.54448000000002,1.0,-1.00494e-05,1.0
-0.0881653,1.0,-1.71051e-09,1.0,187.74540000000002,1.0,-9.61304e-06,1.0
-0.087738,1.0,-1.6387949999999998e-09,1.0,179.54964,1.0,-9.60388e-06,1.0
-0.0873413,1.0,-7.827749999999999e-10,1.0,179.54964,1.0,-9.265139999999998e-06,1.0
-0.0870056,1.0,3.341675e-10,1.0,182.46096,1.0,-9.38721e-06,1.0
-0.08660889999999999,1.0,1.2466449999999999e-09,1.0,189.48132,1.0,-8.697510000000002e-06,1.0
-0.0862732,1.0,2.1148699999999997e-09,1.0,202.63176,1.0,-8.30078e-06,1.0
-0.0858154,1.0,2.55127e-09,1.0,214.42032,1.0,-8.926389999999999e-06,1.0
-0.0854187,1.0,2.793885e-09,1.0,223.16544,1.0,-8.602910000000001e-06,1.0
-0.085022,1.0,2.31781e-09,1.0,229.73508,1.0,-8.471680000000001e-06,1.0
-0.0845947,1.0,1.4846799999999999e-09,1.0,234.83267999999998,1.0,-8.999630000000001e-06,1.0
-0.084259,1.0,5.79835e-10,1.0,241.3476,1.0,-8.25195e-06,1.0
-0.0838623,1.0,-2.50244e-10,1.0,246.92868000000004,1.0,-8.767699999999999e-06,1.0
-0.08343510000000001,1.0,-1.11847e-09,1.0,242.78688000000002,1.0,-8.642580000000001e-06,1.0
-0.08309939999999999,1.0,-1.8127449999999998e-09,1.0,232.66835999999998,1.0,-8.41064e-06,1.0
-0.08264160000000001,1.0,-1.779175e-09,1.0,223.16544,1.0,-8.17871e-06,1.0
-0.08233639999999999,1.0,-1.6174299999999999e-09,1.0,216.44171999999998,1.0,-8.16345e-06,1.0
-0.08184810000000001,1.0,-8.880599999999999e-10,1.0,216.43056,1.0,-7.922360000000001e-06,1.0
-0.0815125,1.0,-6.957999999999998e-10,1.0,220.66055999999998,1.0,-8.18176e-06,1.0
-0.0810852,1.0,-2.685545e-10,1.0,225.54935999999998,1.0,-8.05359e-06,1.0
-0.080719,1.0,-3.02124e-10,1.0,227.18628000000004,1.0,-8.19092e-06,1.0
-0.0802917,1.0,-3.814695e-11,1.0,228.70224000000002,1.0,-7.86743e-06,1.0
-0.0799561,1.0,-5.79835e-11,1.0,229.97664000000003,1.0,-7.449339999999999e-06,1.0
-0.0796204,1.0,-2.7771e-10,1.0,225.56016,1.0,-7.5591999999999996e-06,1.0
-0.07916260000000001,1.0,-8.926399999999999e-10,1.0,219.84732,1.0,-7.29065e-06,1.0
-0.07879639999999999,1.0,-1.5655499999999998e-09,1.0,207.86147999999997,1.0,-7.45544e-06,1.0
-0.0783691,1.0,-1.5121449999999998e-09,1.0,199.81944,1.0,-7.71179e-06,1.0
-0.07803339999999999,1.0,-1.371765e-09,1.0,194.77656,1.0,-8.026119999999999e-06,1.0
-0.0776367,1.0,-7.797249999999999e-10,1.0,200.17079999999999,1.0,-7.8064e-06,1.0
-0.07724,1.0,-3.05176e-10,1.0,210.59676,1.0,-7.4585e-06,1.0
-0.0768127,1.0,5.27955e-10,1.0,222.64883999999998,1.0,-7.626339999999999e-06,1.0
-0.076416,1.0,5.35585e-10,1.0,227.74643999999998,1.0,-7.55005e-06,1.0
-0.0760193,1.0,-1.480105e-10,1.0,235.31616,1.0,-8.041380000000001e-06,1.0
-0.0756836,1.0,-9.7046e-10,1.0,244.99512,1.0,-7.53174e-06,1.0
-0.07528689999999999,1.0,-1.6174299999999999e-09,1.0,258.1128,1.0,-7.61414e-06,1.0
-0.07482910000000001,1.0,-2.2521949999999998e-09,1.0,272.80152,1.0,-6.90613e-06,1.0
-0.0744934,1.0,-2.8686500000000004e-09,1.0,277.16292,1.0,-7.17468e-06,1.0
-0.07403560000000001,1.0,-3.29895e-09,1.0,260.73864,1.0,-7.25403e-06,1.0
-0.0736389,1.0,-3.518675e-09,1.0,241.47935999999999,1.0,-7.09534e-06,1.0
-0.0733032,1.0,-3.30658e-09,1.0,224.32968,1.0,-7.46155e-06,1.0
-0.072876,1.0,-3.1112650000000002e-09,1.0,209.02572,1.0,-7.394410000000001e-06,1.0
-0.07244869999999999,1.0,-2.8793349999999998e-09,1.0,201.1266,1.0,-7.0159899999999996e-06,1.0
-0.072052,1.0,-2.2552499999999996e-09,1.0,203.06016,1.0,-7.13806e-06,1.0
-0.0716248,1.0,-1.6296399999999998e-09,1.0,216.44171999999998,1.0,-7.35168e-06,1.0
-0.0713196,1.0,-1.167295e-09,1.0,224.51651999999999,1.0,-6.76575e-06,1.0
-0.0708008,1.0,-7.980349999999999e-10,1.0,231.20711999999997,1.0,-6.393430000000001e-06,1.0
-0.0704956,1.0,-7.324199999999999e-10,1.0,232.67952,1.0,-7.22046e-06,1.0
-0.0700684,1.0,-9.582499999999999e-10,1.0,231.08651999999998,1.0,-6.90002e-06,1.0
-0.0697327,1.0,-1.2222299999999998e-09,1.0,229.3614,1.0,-7.15942e-06,1.0
-0.0693054,1.0,-1.620485e-09,1.0,223.89048000000003,1.0,-6.732180000000001e-06,1.0
-0.0689087,1.0,-1.6357399999999998e-09,1.0,208.21284,1.0,-6.71997e-06,1.0
-0.068512,1.0,-9.76565e-10,1.0,193.82076,1.0,-6.4514199999999995e-06,1.0
-0.06811519999999999,1.0,-2.1820049999999998e-10,1.0,185.64695999999998,1.0,-7.09534e-06,1.0
-0.06777949999999999,1.0,5.249e-10,1.0,185.13071999999997,1.0,-6.42395e-06,1.0
-0.0673523,1.0,9.79615e-10,1.0,198.06156000000001,1.0,-6.26221e-06,1.0
-0.066925,1.0,1.202395e-09,1.0,210.71771999999996,1.0,-6.05164e-06,1.0
-0.0665283,1.0,7.8583e-10,1.0,225.61524000000003,1.0,-6.26526e-06,1.0
-0.06607060000000001,1.0,1.174925e-10,1.0,237.95279999999997,1.0,-5.9570299999999994e-06,1.0
-0.0657349,1.0,-9.582499999999999e-10,1.0,246.91788000000003,1.0,-6.29272e-06,1.0
-0.06539919999999999,1.0,-1.81122e-09,1.0,251.57592,1.0,-6.04553e-06,1.0
-0.0650024,1.0,-2.478025e-09,1.0,248.31288,1.0,-5.804439999999999e-06,1.0
-0.0645752,1.0,-3.0883799999999996e-09,1.0,245.34684,1.0,-5.9845e-06,1.0
-0.06414790000000001,1.0,-3.559875e-09,1.0,241.46856000000002,1.0,-6.38428e-06,1.0
-0.0637512,1.0,-3.800965e-09,1.0,239.05151999999998,1.0,-5.6152300000000004e-06,1.0
-0.0633545,1.0,-3.7796e-09,1.0,236.16216000000003,1.0,-6.05774e-06,1.0
-0.0629883,1.0,-3.73993e-09,1.0,225.9558,1.0,-5.50842e-06,1.0
-0.0625,1.0,-3.6972049999999995e-09,1.0,218.86956,1.0,-5.804439999999999e-06,1.0
-0.062164300000000006,1.0,-3.749085e-09,1.0,225.9558,1.0,-5.151369999999999e-06,1.0
-0.061737099999999996,1.0,-3.78723e-09,1.0,223.17624,1.0,-5.8807400000000006e-06,1.0
-0.06137080000000001,1.0,-3.59802e-09,1.0,235.68984,1.0,-5.14221e-06,1.0
-0.061065699999999994,1.0,-3.559875e-09,1.0,241.49051999999998,1.0,-5.39856e-06,1.0
-0.060607900000000006,1.0,-3.11737e-09,1.0,252.04824,1.0,-5.133060000000001e-06,1.0
-0.060180700000000004,1.0,-3.318785e-09,1.0,255.86063999999996,1.0,-4.986569999999999e-06,1.0
-0.0598145,1.0,-3.826905e-09,1.0,254.64096000000004,1.0,-5.26306e-06,1.0
-0.059387199999999994,1.0,-3.78723e-09,1.0,239.02956000000003,1.0,-5.46082e-06,1.0
-0.058990499999999994,1.0,-3.80707e-09,1.0,223.17624,1.0,-4.74213e-06,1.0
-0.0585938,1.0,-3.36914e-09,1.0,212.34384,1.0,-5.34149e-06,1.0
-0.058197000000000006,1.0,-3.10974e-09,1.0,202.21452,1.0,-4.729e-06,1.0
-0.057861300000000004,1.0,-2.5009149999999997e-09,1.0,199.28088000000002,1.0,-5.05432e-06,1.0
-0.0574341,1.0,-1.657105e-09,1.0,199.12715999999998,1.0,-5.223690000000001e-06,1.0
-0.0570374,1.0,-5.17275e-10,1.0,212.34384,1.0,-4.960630000000001e-06,1.0
-0.0566711,1.0,5.41685e-10,1.0,225.23076,1.0,-4.56543e-06,1.0
-0.0562744,1.0,9.6588e-10,1.0,233.85492,1.0,-4.86328e-06,1.0
-0.05581669999999999,1.0,9.521499999999999e-10,1.0,236.16216000000003,1.0,-4.308169999999999e-06,1.0
-0.055480999999999996,1.0,5.05065e-10,1.0,235.19519999999997,1.0,-4.1570999999999996e-06,1.0
-0.0550842,1.0,-9.82665e-10,1.0,231.09732,1.0,-4.1958600000000005e-06,1.0
-0.054717999999999996,1.0,-2.3406999999999996e-09,1.0,222.30828000000002,1.0,-4.38202e-06,1.0
-0.05432130000000001,1.0,-3.341675e-09,1.0,204.58728000000002,1.0,-3.75519e-06,1.0
-0.05395509999999999,1.0,-3.797915e-09,1.0,193.80996,1.0,-4.3167099999999995e-06,1.0
-0.053497300000000005,1.0,-3.79181e-09,1.0,186.70176,1.0,-4.35944e-06,1.0
-0.053161599999999996,1.0,-3.3874499999999995e-09,1.0,179.52768,1.0,-3.83026e-06,1.0
-0.0528259,1.0,-3.1616199999999997e-09,1.0,179.52768,1.0,-4.41254e-06,1.0
-0.0523071,1.0,-3.10364e-09,1.0,185.59188,1.0,-3.9621e-06,1.0
-0.052002,1.0,-3.0639649999999998e-09,1.0,191.60171999999997,1.0,-4.06281e-06,1.0
-0.051574699999999994,1.0,-3.312685e-09,1.0,204.59844,1.0,-3.71857e-06,1.0
-0.051208500000000004,1.0,-3.285215e-09,1.0,212.32188000000002,1.0,-3.8913e-06,1.0
-0.0508728,1.0,-3.549195e-09,1.0,214.26623999999998,1.0,-4.44702e-06,1.0
-0.05044559999999999,1.0,-3.6880500000000003e-09,1.0,216.41976,1.0,-4.1638199999999995e-06,1.0
-0.050048800000000004,1.0,-4.2343149999999996e-09,1.0,205.55424,1.0,-3.9032e-06,1.0
-0.0496216,1.0,-4.24347e-09,1.0,188.36064,1.0,-3.58673e-06,1.0
-0.049243199999999994,1.0,-4.211425e-09,1.0,170.74944000000002,1.0,-3.80676e-06,1.0
-0.0488678,1.0,-4.211425e-09,1.0,162.04824,1.0,-3.79913e-06,1.0
-0.0484741,1.0,-4.193114999999999e-09,1.0,153.55584,1.0,-4.1391e-06,1.0
-0.048114,1.0,-3.98407e-09,1.0,145.32732,1.0,-4.07867e-06,1.0
-0.0476715,1.0,-4.26483e-09,1.0,153.55584,1.0,-3.46375e-06,1.0
-0.0473206,1.0,-4.217529999999999e-09,1.0,162.05939999999998,1.0,-3.86261e-06,1.0
-0.04692380000000001,1.0,-4.240415e-09,1.0,170.73864,1.0,-4.456180000000001e-06,1.0
-0.0465088,1.0,-4.1824349999999995e-09,1.0,179.54964,1.0,-3.55652e-06,1.0
-0.0460968,1.0,-4.62494e-09,1.0,200.18195999999998,1.0,-3.62793e-06,1.0
-0.0457031,1.0,-5.0537e-09,1.0,207.65268,1.0,-3.51624e-06,1.0
-0.0453278,1.0,-5.03845e-09,1.0,193.82076,1.0,-3.3548e-06,1.0
-0.0449677,1.0,-4.83551e-09,1.0,192.23892,1.0,-3.77594e-06,1.0
-0.044549599999999995,1.0,-4.393005e-09,1.0,179.52768,1.0,-3.396e-06,1.0
-0.044143699999999994,1.0,-3.73993e-09,1.0,158.31288,1.0,-3.8049300000000006e-06,1.0
-0.0437561,1.0,-2.7374249999999998e-09,1.0,152.78688000000002,1.0,-3.2727099999999995e-06,1.0
-0.0433716,1.0,-2.085875e-09,1.0,157.78548,1.0,-3.21259e-06,1.0
-0.0429901,1.0,-1.64795e-09,1.0,159.98291999999998,1.0,-3.5800199999999997e-06,1.0
-0.042584199999999996,1.0,-1.393125e-09,1.0,160.62012,1.0,-3.07983e-06,1.0
-0.0421875,1.0,-1.4053349999999999e-09,1.0,164.36628000000002,1.0,-3.6239599999999997e-06,1.0
-0.0417969,1.0,-2.0660399999999996e-09,1.0,170.73864,1.0,-2.77466e-06,1.0
-0.0414093,1.0,-2.90375e-09,1.0,179.53848,1.0,-3.06061e-06,1.0
-0.0410278,1.0,-3.782655e-09,1.0,193.80996,1.0,-2.7896100000000002e-06,1.0
-0.0406525,1.0,-4.1824349999999995e-09,1.0,216.43056,1.0,-3.2376099999999996e-06,1.0
-0.0402435,1.0,-4.7027600000000004e-09,1.0,232.70148,1.0,-3.1356799999999998e-06,1.0
-0.0398621,1.0,-4.61426e-09,1.0,246.93983999999995,1.0,-3.06061e-06,1.0
-0.0394836,1.0,-4.86603e-09,1.0,243.567,1.0,-3.3499099999999997e-06,1.0
-0.0390778,1.0,-4.673765e-09,1.0,227.50488,1.0,-3.4622199999999998e-06,1.0
-0.038674900000000005,1.0,-4.5516949999999996e-09,1.0,227.48291999999998,1.0,-3.2195999999999996e-06,1.0
-0.0382904,1.0,-4.383850000000001e-09,1.0,219.50675999999999,1.0,-2.90344e-06,1.0
-0.037899800000000004,1.0,-4.391479999999999e-09,1.0,219.51792,1.0,-3.16254e-06,1.0
-0.037484699999999996,1.0,-4.603575e-09,1.0,210.06971999999996,1.0,-2.9025299999999997e-06,1.0
-0.037115499999999996,1.0,-4.618834999999999e-09,1.0,189.96444000000002,1.0,-2.97882e-06,1.0
-0.0366913,1.0,-4.618834999999999e-09,1.0,190.98648,1.0,-2.57202e-06,1.0
-0.0363403,1.0,-4.6402e-09,1.0,189.9756,1.0,-2.3904400000000003e-06,1.0
-0.0359161,1.0,-4.634095e-09,1.0,190.98648,1.0,-2.9400599999999998e-06,1.0
-0.035540800000000004,1.0,-4.58832e-09,1.0,179.53848,1.0,-2.42096e-06,1.0
-0.0351379,1.0,-4.95453e-09,1.0,165.27815999999999,1.0,-3.06427e-06,1.0
-0.034787,1.0,-5.101e-09,1.0,163.30068,1.0,-3.0276499999999997e-06,1.0
-0.0343781,1.0,-5.19865e-09,1.0,160.64208000000002,1.0,-2.6528899999999998e-06,1.0
-0.033981300000000006,1.0,-5.169699999999999e-09,1.0,142.72344,1.0,-2.2143599999999997e-06,1.0
-0.033575400000000005,1.0,-5.19715e-09,1.0,126.43055999999999,1.0,-2.88147e-06,1.0
-0.033200099999999996,1.0,-4.714965e-09,1.0,115.53227999999999,1.0,-2.41608e-06,1.0
-0.032800300000000004,1.0,-4.54254e-09,1.0,112.19256,1.0,-2.77008e-06,1.0
-0.032366900000000004,1.0,-4.15802e-09,1.0,102.24972000000001,1.0,-2.75024e-06,1.0
-0.0320007,1.0,-3.741455e-09,1.0,104.41404,1.0,-3.0184899999999997e-06,1.0
-0.031616200000000004,1.0,-3.541565e-09,1.0,117.63072,1.0,-2.6168799999999998e-06,1.0
-0.0312195,1.0,-3.5140999999999997e-09,1.0,114.093,1.0,-2.18781e-06,1.0
-0.030819700000000002,1.0,-3.5140999999999997e-09,1.0,114.07104000000001,1.0,-2.53174e-06,1.0
-0.030401599999999997,1.0,-3.75366e-09,1.0,110.17079999999999,1.0,-2.22382e-06,1.0
-0.030041500000000002,1.0,-3.762815e-09,1.0,105.80940000000001,1.0,-2.15851e-06,1.0
-0.029647800000000002,1.0,-4.02832e-09,1.0,107.52336,1.0,-1.97449e-06,1.0
-0.0292694,1.0,-3.964235e-09,1.0,107.50139999999999,1.0,-1.50513e-06,1.0
-0.028894,1.0,-4.43268e-09,1.0,109.55555999999999,1.0,-2.0321700000000002e-06,1.0
-0.0285065,1.0,-4.203795e-09,1.0,114.62039999999999,1.0,-2.01202e-06,1.0
-0.0280975,1.0,-4.24347e-09,1.0,114.60924,1.0,-2.23755e-06,1.0
-0.0277161,1.0,-3.81012e-09,1.0,122.93711999999998,1.0,-2.6257299999999997e-06,1.0
-0.027310200000000003,1.0,-3.7994399999999994e-09,1.0,133.15428000000003,1.0,-2.7832e-06,1.0
-0.026928700000000003,1.0,-3.63312e-09,1.0,129.51792,1.0,-2.81525e-06,1.0
-0.026535000000000003,1.0,-3.85132e-09,1.0,126.43055999999999,1.0,-1.57196e-06,1.0
-0.0261536,1.0,-4.048155e-09,1.0,119.04768000000001,1.0,-2.6516700000000004e-06,1.0
-0.025738499999999997,1.0,-4.68292e-09,1.0,112.18140000000001,1.0,-1.4913900000000002e-06,1.0
-0.0253296,1.0,-4.83551e-09,1.0,108.48996,1.0,-2.17468e-06,1.0
-0.024942,1.0,-5.047600000000001e-09,1.0,99.95364000000001,1.0,-1.97571e-06,1.0
-0.0245422,1.0,-5.2871499999999995e-09,1.0,102.26088000000001,1.0,-1.67328e-06,1.0
-0.0241669,1.0,-5.2994e-09,1.0,102.26088000000001,1.0,-2.19086e-06,1.0
-0.0237793,1.0,-5.26885e-09,1.0,112.20336,1.0,-1.65863e-06,1.0
-0.0233551,1.0,-5.2856499999999994e-09,1.0,112.20336,1.0,-2.0706200000000003e-06,1.0
-0.0229889,1.0,-5.253599999999999e-09,1.0,102.26088000000001,1.0,-2.14569e-06,1.0
-0.0225555,1.0,-5.29635e-09,1.0,117.61956,1.0,-1.3925200000000001e-06,1.0
-0.022177099999999998,1.0,-5.230699999999999e-09,1.0,117.60875999999999,1.0,-1.7507900000000002e-06,1.0
-0.0218048,1.0,-5.2658e-09,1.0,117.63072,1.0,-1.8862900000000002e-06,1.0
-0.0213959,1.0,-5.493149999999999e-09,1.0,105.80940000000001,1.0,-1.7871099999999999e-06,1.0
-0.0210052,1.0,-5.276499999999999e-09,1.0,89.54964000000001,1.0,-1.7178299999999999e-06,1.0
-0.0205933,1.0,-5.316149999999999e-09,1.0,52.66836000000001,1.0,-8.94165e-07,1.0
-0.020208700000000003,1.0,-5.096449999999999e-09,1.0,27.641592000000003,1.0,-1.4675899999999999e-06,1.0
-0.019812,1.0,-4.83856e-09,1.0,-0.43110360000000003,1.0,-1.53778e-06,1.0
-0.0194336,1.0,-4.82025e-09,1.0,-13.120956000000001,1.0,-1.56586e-06,1.0
-0.019036900000000002,1.0,-4.795835e-09,1.0,-13.115484,1.0,-1.5274000000000002e-06,1.0
-0.0186584,1.0,-4.841614999999999e-09,1.0,-0.4313232,1.0,-1.20758e-06,1.0
-0.0182831,1.0,-5.070499999999999e-09,1.0,-0.4325328,1.0,-1.57227e-06,1.0
-0.0178345,1.0,-5.05675e-09,1.0,-0.43121160000000003,1.0,-9.30481e-07,1.0
-0.0174713,1.0,-5.22005e-09,1.0,-16.697016,1.0,-1.04492e-06,1.0
-0.0170715,1.0,-5.2947999999999995e-09,1.0,-16.701407999999997,1.0,-1.3619999999999998e-06,1.0
-0.016723599999999998,1.0,-5.274949999999999e-09,1.0,-16.702524,1.0,-8.89282e-07,1.0
-0.016311600000000002,1.0,-4.803464999999999e-09,1.0,-13.120956000000001,1.0,-1.08154e-06,1.0
-0.015927100000000003,1.0,-4.393005e-09,1.0,-9.974484,1.0,-1.18622e-06,1.0
-0.015518200000000001,1.0,-3.95355e-09,1.0,-8.611092,1.0,-4.28772e-07,1.0
-0.0151398,1.0,-3.75824e-09,1.0,-8.069472,1.0,-1.35193e-06,1.0
-0.014752200000000002,1.0,-3.9504999999999995e-09,1.0,-8.613288,1.0,-7.33643e-07,1.0
-0.014361600000000002,1.0,-4.1870099999999996e-09,1.0,-9.225216,1.0,-1.5588399999999998e-06,1.0
-0.0139709,1.0,-4.15802e-09,1.0,-9.220824,1.0,-9.45129e-07,1.0
-0.013562000000000001,1.0,-3.99475e-09,1.0,-0.43407,1.0,-3.78113e-07,1.0
-0.013208000000000001,1.0,-3.793335e-09,1.0,7.203744,1.0,-1.02631e-06,1.0
-0.012756299999999998,1.0,-3.79181e-09,1.0,6.724728000000001,1.0,-7.65991e-07,1.0
-0.0124329,1.0,-3.820799999999999e-09,1.0,6.721451999999999,1.0,-7.40967e-07,1.0
-0.0120331,1.0,-3.7567149999999995e-09,1.0,6.7258439999999995,1.0,-6.582640000000001e-07,1.0
-0.0116516,1.0,-3.274535e-09,1.0,-6.8016239999999994,1.0,-6.30798e-07,1.0
-0.0112366,1.0,-3.105165e-09,1.0,-23.061384,1.0,-1.37329e-07,1.0
-0.0108398,1.0,-2.441405e-09,1.0,-29.69604,1.0,-4.422e-07,1.0
-0.0104675,1.0,-1.168825e-09,1.0,-23.063616,1.0,-1.41602e-07,1.0
-0.0101044,1.0,-9.46045e-11,1.0,-18.4032,1.0,-1.13281e-06,1.0
-0.00970764,1.0,1.182555e-09,1.0,-28.520495999999998,1.0,-7.78503e-07,1.0
-0.00932922,1.0,2.05841e-09,1.0,-44.4726,1.0,-1.98364e-08,1.0
-0.00895386,1.0,2.49939e-09,1.0,-56.44764,1.0,-1.05621e-06,1.0
-0.00852661,1.0,2.69928e-09,1.0,-64.89612,1.0,-2.50549e-07,1.0
-0.00814209,1.0,2.5344849999999996e-09,1.0,-64.22616,1.0,-2.55432e-07,1.0
-0.00779419,1.0,1.87683e-09,1.0,-58.77684000000001,1.0,-9.8175e-07,1.0
-0.00738525,1.0,1.190185e-09,1.0,-47.84544,1.0,-9.378050000000001e-07,1.0
-0.00702209,1.0,5.75255e-10,1.0,-34.617924,1.0,-7.681270000000001e-07,1.0
-0.00660706,1.0,-3.87573e-10,1.0,-23.253660000000004,1.0,-1.0498e-06,1.0
-0.00622559,1.0,-1.8402099999999998e-09,1.0,-17.292492000000003,1.0,-9.49097e-07,1.0
-0.00578918,1.0,-3.315735e-09,1.0,-19.233756000000003,1.0,-1.7126499999999998e-06,1.0
-0.00537109,1.0,-4.48303e-09,1.0,-9.983268,1.0,-5.31311e-07,1.0
-0.00499268,1.0,-5.27345e-09,1.0,-0.43407,1.0,-5.57556e-07,1.0
-0.00459595,1.0,-5.697649999999999e-09,1.0,-0.43494839999999996,1.0,-7.806399999999999e-07,1.0
-0.00417175,1.0,-5.9188999999999995e-09,1.0,-0.4334112,1.0,-1.29761e-06,1.0
-0.00377502,1.0,-6.1629999999999995e-09,1.0,-0.4356072,1.0,-4.0863e-07,1.0
-0.00340881,1.0,-6.4087e-09,1.0,-0.43440120000000004,1.0,-1.34277e-07,1.0
-0.00297241,1.0,-6.4148e-09,1.0,-0.43648560000000003,1.0,-5.32532e-07,1.0
-0.00256348,1.0,-6.39345e-09,1.0,-0.43549920000000003,1.0,-6.884770000000001e-07,1.0
-0.00219727,1.0,-6.39345e-09,1.0,-0.4356072,1.0,-2.38953e-07,1.0
-0.00179443,1.0,-6.4163e-09,1.0,-0.43428960000000005,1.0,-6.11267e-07,1.0
-0.00137939,1.0,-6.469750000000001e-09,1.0,-0.43912439999999997,1.0,-3.3783e-07,1.0
-0.0009704589999999999,1.0,-6.4316e-09,1.0,-0.435168,1.0,-2.93579e-07,1.0
-0.000616455,1.0,-6.3735999999999996e-09,1.0,-0.432972,1.0,-5.20935e-07,1.0
-0.00021057099999999997,1.0,-6.422399999999999e-09,1.0,-0.43604639999999995,1.0,1.10474e-07,1.0
0.00018920900000000002,1.0,-6.4269999999999994e-09,1.0,-0.43165440000000005,1.0,-5.09644e-08,1.0
0.000564575,1.0,-6.3919e-09,1.0,-0.43527960000000004,1.0,3.04565e-07,1.0
0.000961304,1.0,-6.378149999999999e-09,1.0,-0.43044479999999996,1.0,2.5878900000000003e-07,1.0
0.00136414,1.0,-6.423949999999999e-09,1.0,-0.43637760000000003,1.0,-1.9928e-07,1.0
0.0017334,1.0,-6.423949999999999e-09,1.0,-0.43549920000000003,1.0,3.3783e-07,1.0
0.00215759,1.0,-6.384300000000001e-09,1.0,-0.4326408,1.0,3.00293e-07,1.0
0.00252991,1.0,-6.4513999999999995e-09,1.0,-0.43549920000000003,1.0,1.04065e-07,1.0
0.00289307,1.0,-6.425499999999999e-09,1.0,-0.43582679999999996,1.0,5.767819999999999e-08,1.0
0.00332947,1.0,-6.4269999999999994e-09,1.0,-0.442638,1.0,6.21338e-07,1.0
0.00372009,1.0,-6.46515e-09,1.0,-0.4418712,1.0,-1.27258e-07,1.0
0.00411072,1.0,-6.469750000000001e-09,1.0,-0.4392324,1.0,4.75464e-07,1.0
0.00446777,1.0,-6.4438000000000004e-09,1.0,-0.4403304,1.0,6.753539999999999e-07,1.0
0.00484619,1.0,-6.45295e-09,1.0,-0.4376952,1.0,5.91736e-07,1.0
0.00525208,1.0,-6.436149999999999e-09,1.0,-0.43549920000000003,1.0,2.62146e-07,1.0
0.00567322,1.0,-6.41785e-09,1.0,-0.4353876,1.0,4.4708300000000003e-07,1.0
0.00605164,1.0,-6.3583500000000005e-09,1.0,-0.4334112,1.0,-1.1322e-07,1.0
0.00644836,1.0,-6.434649999999999e-09,1.0,-0.4369248,1.0,-5.44434e-07,1.0
0.00689697,1.0,-6.3431000000000006e-09,1.0,-0.43494839999999996,1.0,7.38831e-07,1.0
0.00726013,1.0,-6.323249999999999e-09,1.0,-0.4337388,1.0,7.69653e-07,1.0
0.00765381,1.0,-6.29425e-09,1.0,-0.430992,1.0,1.0421799999999998e-06,1.0
0.00804138,1.0,-6.336999999999999e-09,1.0,-0.4271472,1.0,7.00684e-07,1.0
0.00843811,1.0,-6.344600000000001e-09,1.0,-0.42945479999999997,1.0,7.48291e-07,1.0
0.00885925,1.0,-5.860899999999999e-09,1.0,-0.4282488,1.0,4.876709999999999e-07,1.0
0.00921021,1.0,-5.23225e-09,1.0,-0.4339584,1.0,4.837039999999999e-07,1.0
0.00959167,1.0,-4.62799e-09,1.0,-0.43308,1.0,4.931640000000001e-07,1.0
0.00999756,1.0,-3.5446149999999998e-09,1.0,-0.42857639999999997,1.0,8.19092e-07,1.0
0.0103485,1.0,-2.5146499999999998e-09,1.0,-0.4328603999999999,1.0,9.15527e-07,1.0
0.0107361,1.0,-1.335145e-09,1.0,-4.249512,1.0,1.96838e-07,1.0
0.0111603,1.0,-2.944945e-10,1.0,-6.639048,1.0,6.77795e-07,1.0
0.0115509,1.0,7.644649999999999e-10,1.0,-22.0122,1.0,1.13586e-06,1.0
0.0119354,1.0,1.7761249999999998e-09,1.0,-38.770920000000004,1.0,8.55408e-07,1.0
0.012329099999999999,1.0,2.983095e-09,1.0,-53.55828,1.0,1.4645400000000002e-06,1.0
0.012686200000000002,1.0,4.2953500000000005e-09,1.0,-61.76520000000001,1.0,4.843139999999999e-07,1.0
0.013092,1.0,5.1849499999999996e-09,1.0,-67.8186,1.0,7.85217e-07,1.0
0.013476599999999998,1.0,5.596899999999999e-09,1.0,-71.34515999999999,1.0,4.79431e-07,1.0
0.013879399999999998,1.0,6.4789e-09,1.0,-73.59732000000001,1.0,9.338380000000001e-08,1.0
0.0142822,1.0,7.0221e-09,1.0,-74.20176,1.0,7.30286e-07,1.0
0.014669799999999998,1.0,7.531749999999999e-09,1.0,-75.81672,1.0,1.3028e-06,1.0
0.0150726,1.0,8.248899999999998e-09,1.0,-77.34384000000001,1.0,7.24792e-07,1.0
0.015451,1.0,8.6899e-09,1.0,-78.57432,1.0,3.3721899999999997e-07,1.0
0.0158875,1.0,9.043899999999998e-09,1.0,-78.93684,1.0,1.21735e-06,1.0
0.0162689,1.0,8.587649999999998e-09,1.0,-75.9924,1.0,1.20178e-06,1.0
0.016684,1.0,8.413699999999999e-09,1.0,-71.03772000000001,1.0,1.29364e-06,1.0
0.0170532,1.0,7.986449999999999e-09,1.0,-64.85220000000001,1.0,1.37543e-06,1.0
0.0174652,1.0,7.69655e-09,1.0,-60.282000000000004,1.0,8.56323e-07,1.0
0.017868000000000002,1.0,7.2571e-09,1.0,-57.3156,1.0,5.31311e-07,1.0
0.0182678,1.0,7.083149999999999e-09,1.0,-54.84384,1.0,9.35364e-07,1.0
0.018685900000000002,1.0,7.340999999999999e-09,1.0,-52.3278,1.0,8.093259999999999e-07,1.0
0.0190582,1.0,7.37305e-09,1.0,-51.07536,1.0,1.08826e-06,1.0
0.0194702,1.0,6.910699999999999e-09,1.0,-52.921079999999996,1.0,1.1016799999999998e-06,1.0
0.0198822,1.0,6.214899999999999e-09,1.0,-54.2394,1.0,7.8125e-07,1.0
0.020272799999999997,1.0,5.55575e-09,1.0,-55.05264,1.0,1.3330100000000003e-06,1.0
0.0207001,1.0,4.945375e-09,1.0,-58.062599999999996,1.0,1.2963900000000001e-06,1.0
0.021047999999999997,1.0,4.2205799999999995e-09,1.0,-59.930279999999996,1.0,1.0421799999999998e-06,1.0
0.0214569,1.0,3.7994399999999994e-09,1.0,-59.46912,1.0,8.46863e-07,1.0
0.0218414,1.0,3.09906e-09,1.0,-58.95252000000001,1.0,1.29578e-06,1.0
0.0222351,1.0,2.9266349999999998e-09,1.0,-58.1616,1.0,1.4910900000000002e-06,1.0
0.022613499999999998,1.0,2.648925e-09,1.0,-56.32704,1.0,1.3598599999999998e-06,1.0
0.0230377,1.0,2.66571e-09,1.0,-57.3156,1.0,1.93512e-06,1.0
0.023413099999999996,1.0,2.52533e-09,1.0,-56.4696,1.0,1.7959599999999998e-06,1.0
0.0237701,1.0,2.54059e-09,1.0,-54.52524,1.0,1.3028e-06,1.0
0.0241638,1.0,2.235415e-09,1.0,-52.60248,1.0,1.9671599999999997e-06,1.0
0.0245178,1.0,2.545165e-09,1.0,-49.70232000000001,1.0,2.20398e-06,1.0
0.0249359,1.0,2.5009149999999997e-09,1.0,-51.66864,1.0,1.68732e-06,1.0
0.0253296,1.0,2.493285e-09,1.0,-54.5472,1.0,1.90643e-06,1.0
0.025705000000000002,1.0,2.2674549999999996e-09,1.0,-57.821039999999996,1.0,1.90857e-06,1.0
0.026086400000000003,1.0,2.0492549999999997e-09,1.0,-61.61148000000001,1.0,2.03888e-06,1.0
0.0264923,1.0,2.0767200000000002e-09,1.0,-65.92895999999999,1.0,1.8731700000000001e-06,1.0
0.0268677,1.0,1.901245e-09,1.0,-67.17024,1.0,1.98914e-06,1.0
0.0272369,1.0,1.85089e-09,1.0,-65.19275999999999,1.0,1.33331e-06,1.0
0.0276245,1.0,1.445005e-09,1.0,-64.4238,1.0,1.4172399999999998e-06,1.0
0.0280243,1.0,1.1795049999999998e-09,1.0,-63.65484,1.0,2.23053e-06,1.0
0.0284637,1.0,7.644649999999999e-10,1.0,-61.91892,1.0,1.3284299999999998e-06,1.0
0.0288086,1.0,5.4779e-10,1.0,-63.28116,1.0,1.99921e-06,1.0
0.029214499999999997,1.0,5.3253e-10,1.0,-60.94116,1.0,1.85822e-06,1.0
0.0295471,1.0,5.67625e-10,1.0,-58.546079999999996,1.0,2.0355200000000004e-06,1.0
0.029983499999999996,1.0,5.9204e-10,1.0,-56.09628,1.0,1.6534400000000002e-06,1.0
0.030380200000000003,1.0,3.463745e-10,1.0,-53.58024,1.0,1.29364e-06,1.0
0.0307678,1.0,3.9672849999999997e-10,1.0,-53.55828,1.0,1.99554e-06,1.0
0.0311157,1.0,6.5155e-10,1.0,-49.81212000000001,1.0,1.5521200000000003e-06,1.0
0.0315186,1.0,5.813599999999999e-10,1.0,-51.13044000000001,1.0,2.81494e-06,1.0
0.0318878,1.0,1.53961e-09,1.0,-45.867960000000004,1.0,2.22473e-06,1.0
0.032309,1.0,2.575685e-09,1.0,-38.03472000000001,1.0,1.40106e-06,1.0
0.0327118,1.0,3.41797e-09,1.0,-34.793712,1.0,1.92139e-06,1.0
0.033126800000000005,1.0,4.2526250000000005e-09,1.0,-33.848892,1.0,2.58209e-06,1.0
0.0334991,1.0,4.9499499999999994e-09,1.0,-36.76032,1.0,2.36969e-06,1.0
0.0338776,1.0,5.661e-09,1.0,-41.94576,1.0,2.06299e-06,1.0
0.03427430000000001,1.0,5.57555e-09,1.0,-48.52656,1.0,1.93451e-06,1.0
0.0346832,1.0,5.596899999999999e-09,1.0,-56.392920000000004,1.0,2.10571e-06,1.0
0.035070800000000006,1.0,6.09285e-09,1.0,-60.50160000000001,1.0,2.2757e-06,1.0
0.035464499999999996,1.0,6.2561e-09,1.0,-63.16056,1.0,1.8859900000000002e-06,1.0
0.0358673,1.0,6.4331e-09,1.0,-66.17052,1.0,2.67822e-06,1.0
0.036224400000000004,1.0,7.356249999999999e-09,1.0,-68.60952,1.0,2.85034e-06,1.0
0.036614999999999995,1.0,7.7698e-09,1.0,-69.3126,1.0,2.2543299999999997e-06,1.0
0.037023900000000005,1.0,8.366399999999999e-09,1.0,-69.23592000000001,1.0,2.36328e-06,1.0
0.037405400000000005,1.0,8.63645e-09,1.0,-67.8186,1.0,2.32697e-06,1.0
0.0378052,1.0,8.590700000000001e-09,1.0,-66.753,1.0,2.2100799999999997e-06,1.0
0.038214099999999994,1.0,8.653249999999998e-09,1.0,-68.52167999999999,1.0,2.66418e-06,1.0
0.0385834,1.0,8.60595e-09,1.0,-69.57648,1.0,1.55487e-06,1.0
0.0389862,1.0,9.01795e-09,1.0,-71.96039999999999,1.0,2.35291e-06,1.0
0.0393921,1.0,9.233100000000001e-09,1.0,-74.9268,1.0,2.59308e-06,1.0
0.0397705,1.0,9.92125e-09,1.0,-76.31099999999999,1.0,2.5708e-06,1.0
0.040206900000000004,1.0,1.060485e-08,1.0,-76.00356,1.0,2.8482099999999995e-06,1.0
0.040567,1.0,1.10367e-08,1.0,-76.38804,1.0,2.15759e-06,1.0
0.0409515,1.0,1.12488e-08,1.0,-76.55256,1.0,2.69714e-06,1.0
0.041333,1.0,1.14685e-08,1.0,-77.42052,1.0,1.5686000000000001e-06,1.0
0.0417206,1.0,1.14197e-08,1.0,-79.10172,1.0,2.5827e-06,1.0
0.0421326,1.0,1.1471549999999999e-08,1.0,-79.07976,1.0,1.66473e-06,1.0
0.04252619999999999,1.0,1.1511249999999998e-08,1.0,-78.27767999999999,1.0,3.08411e-06,1.0
0.042919900000000004,1.0,1.13617e-08,1.0,-75.71772000000001,1.0,2.4884e-06,1.0
0.043313599999999994,1.0,1.0833750000000001e-08,1.0,-71.52083999999999,1.0,1.9812e-06,1.0
0.043722500000000004,1.0,1.0614e-08,1.0,-67.82976,1.0,2.677e-06,1.0
0.0440857,1.0,1.063385e-08,1.0,-63.72072000000001,1.0,2.72156e-06,1.0
0.044519,1.0,1.0594200000000001e-08,1.0,-62.17164000000001,1.0,2.7639799999999996e-06,1.0
0.0448853,1.0,1.04355e-08,1.0,-61.78715999999999,1.0,2.52197e-06,1.0
0.045285,1.0,1.02127e-08,1.0,-61.39152,1.0,2.70264e-06,1.0
0.045687900000000004,1.0,9.7458e-09,1.0,-62.16047999999999,1.0,3.15033e-06,1.0
0.0460541,1.0,9.091200000000001e-09,1.0,-61.93008,1.0,2.7475e-06,1.0
0.0464691,1.0,8.69905e-09,1.0,-62.13851999999999,1.0,2.4420199999999998e-06,1.0
0.0468445,1.0,8.71885e-09,1.0,-62.13851999999999,1.0,2.55402e-06,1.0
0.0472473,1.0,8.65935e-09,1.0,-62.79767999999999,1.0,3.00323e-06,1.0
0.04768680000000001,1.0,8.26265e-09,1.0,-62.39124,1.0,2.89948e-06,1.0
0.0480316,1.0,8.056649999999998e-09,1.0,-63.753840000000004,1.0,3.05695e-06,1.0
0.048416100000000004,1.0,7.814049999999999e-09,1.0,-62.13851999999999,1.0,3.0127e-06,1.0
0.0488159,1.0,7.1411e-09,1.0,-61.14996,1.0,2.9541000000000002e-06,1.0
0.049200400000000005,1.0,6.6803e-09,1.0,-60.12828,1.0,3.3178699999999996e-06,1.0
0.049594099999999995,1.0,6.28205e-09,1.0,-59.7546,1.0,3.7820400000000002e-06,1.0
0.0500793,1.0,5.836500000000001e-09,1.0,-63.41292000000001,1.0,3.27637e-06,1.0
0.05044559999999999,1.0,5.65185e-09,1.0,-62.91864,1.0,3.2058699999999997e-06,1.0
0.050811800000000004,1.0,5.64575e-09,1.0,-62.91864,1.0,3.14911e-06,1.0
0.051208500000000004,1.0,5.860899999999999e-09,1.0,-59.13935999999999,1.0,3.97552e-06,1.0
0.0516357,1.0,6.70775e-09,1.0,-53.56944,1.0,3.4906e-06,1.0
0.052002,1.0,7.3471e-09,1.0,-47.92248,1.0,3.44086e-06,1.0
0.0523987,1.0,7.7667e-09,1.0,-45.033120000000004,1.0,3.08624e-06,1.0
0.052795400000000006,1.0,8.215350000000002e-09,1.0,-45.24156,1.0,3.12622e-06,1.0
0.0531311,1.0,8.398450000000001e-09,1.0,-45.98892,1.0,3.6172500000000004e-06,1.0
0.05355830000000001,1.0,8.63645e-09,1.0,-49.01004,1.0,3.31055e-06,1.0
0.053924599999999996,1.0,9.281900000000001e-09,1.0,-53.00892,1.0,3.25226e-06,1.0
0.05432130000000001,1.0,9.55505e-09,1.0,-56.7774,1.0,3.74023e-06,1.0
0.0547485,1.0,1.0406499999999998e-08,1.0,-60.216120000000004,1.0,3.3727999999999997e-06,1.0
0.055145299999999994,1.0,1.085205e-08,1.0,-62.55612,1.0,3.79333e-06,1.0
0.055480999999999996,1.0,1.14929e-08,1.0,-63.65484,1.0,4.15955e-06,1.0
0.05581669999999999,1.0,1.18286e-08,1.0,-63.44604,1.0,4.026180000000001e-06,1.0
0.0562744,1.0,1.190645e-08,1.0,-63.43488,1.0,3.6752300000000004e-06,1.0
0.0566101,1.0,1.1854549999999998e-08,1.0,-63.44604,1.0,3.88214e-06,1.0
0.057006799999999996,1.0,1.1895749999999999e-08,1.0,-63.43488,1.0,3.10486e-06,1.0
0.0574341,1.0,1.169435e-08,1.0,-63.08352,1.0,4.10126e-06,1.0
0.057800300000000006,1.0,1.1708049999999999e-08,1.0,-63.08352,1.0,4.526369999999999e-06,1.0
0.058166499999999996,1.0,1.192625e-08,1.0,-62.545320000000004,1.0,4.38629e-06,1.0
0.058624300000000004,1.0,1.19049e-08,1.0,-63.47916,1.0,3.69171e-06,1.0
0.059021000000000004,1.0,1.20758e-08,1.0,-62.90784,1.0,4.039e-06,1.0
0.0593567,1.0,1.2332149999999999e-08,1.0,-61.84188,1.0,3.9260900000000006e-06,1.0
0.0598145,1.0,1.2760950000000002e-08,1.0,-63.907560000000004,1.0,3.87329e-06,1.0
0.0601196,1.0,1.3201900000000001e-08,1.0,-65.9178,1.0,3.7637300000000005e-06,1.0
0.0605774,1.0,1.317595e-08,1.0,-68.88419999999999,1.0,3.92853e-06,1.0
0.0609436,1.0,1.343535e-08,1.0,-70.51032000000001,1.0,3.92242e-06,1.0
0.061309800000000005,1.0,1.3450599999999999e-08,1.0,-70.51032000000001,1.0,3.40149e-06,1.0
0.061737099999999996,1.0,1.3610849999999999e-08,1.0,-69.9498,1.0,3.74115e-06,1.0
0.06213380000000001,1.0,1.3584899999999998e-08,1.0,-69.96095999999999,1.0,4.33807e-06,1.0
0.06253049999999999,1.0,1.3649e-08,1.0,-70.72992,1.0,3.7914999999999996e-06,1.0
0.06292719999999999,1.0,1.360015e-08,1.0,-70.70795999999999,1.0,3.4512300000000005e-06,1.0
0.06323240000000001,1.0,1.4086899999999999e-08,1.0,-72.47664,1.0,3.77289e-06,1.0
0.0636597,1.0,1.4486700000000001e-08,1.0,-73.45476,1.0,3.6514300000000003e-06,1.0
0.0640259,1.0,1.47232e-08,1.0,-74.9268,1.0,3.7899800000000004e-06,1.0
0.0645142,1.0,1.5187049999999998e-08,1.0,-75.81672,1.0,3.2824699999999995e-06,1.0
0.06488039999999999,1.0,1.51352e-08,1.0,-75.23424,1.0,3.3819599999999997e-06,1.0
0.0652466,1.0,1.5180950000000003e-08,1.0,-76.47588,1.0,3.7335199999999996e-06,1.0
0.0656128,1.0,1.5156549999999997e-08,1.0,-75.80555999999999,1.0,4.0548699999999995e-06,1.0
0.06604,1.0,1.518555e-08,1.0,-74.53115999999999,1.0,4.5581099999999995e-06,1.0
0.0664673,1.0,1.47537e-08,1.0,-72.34488,1.0,4.267580000000001e-06,1.0
0.066925,1.0,1.4471450000000002e-08,1.0,-70.13664000000001,1.0,3.6621100000000003e-06,1.0
0.0672913,1.0,1.4262399999999999e-08,1.0,-66.82968,1.0,3.7225300000000003e-06,1.0
0.067688,1.0,1.401825e-08,1.0,-64.962,1.0,4.585569999999999e-06,1.0
0.0680542,1.0,1.35956e-08,1.0,-63.85248,1.0,4.2688e-06,1.0
0.0684509,1.0,1.3644399999999998e-08,1.0,-64.34675999999999,1.0,4.388119999999999e-06,1.0
0.0688477,1.0,1.365205e-08,1.0,-65.14884,1.0,4.47144e-06,1.0
0.06927489999999999,1.0,1.42975e-08,1.0,-63.17135999999999,1.0,4.42902e-06,1.0
0.0697021,1.0,1.472015e-08,1.0,-61.28172000000001,1.0,4.6884199999999996e-06,1.0
0.0700684,1.0,1.5164199999999997e-08,1.0,-59.58972,1.0,4.35455e-06,1.0
0.0704651,1.0,1.51764e-08,1.0,-58.71096,1.0,4.29108e-06,1.0
0.0708008,1.0,1.537935e-08,1.0,-57.5244,1.0,4.5248400000000005e-06,1.0
0.0711975,1.0,1.5576149999999998e-08,1.0,-55.140480000000004,1.0,4.02527e-06,1.0
0.07168580000000001,1.0,1.518555e-08,1.0,-52.38288,1.0,4.38293e-06,1.0
0.071991,1.0,1.450805e-08,1.0,-50.680080000000004,1.0,4.311219999999999e-06,1.0
0.0723877,1.0,1.3615399999999998e-08,1.0,-50.14152000000001,1.0,4.12598e-06,1.0
0.07284550000000001,1.0,1.31912e-08,1.0,-52.25112,1.0,4.66919e-06,1.0
0.07315060000000001,1.0,1.3374350000000002e-08,1.0,-54.87660000000001,1.0,5.081180000000001e-06,1.0
0.0735474,1.0,1.4060949999999998e-08,1.0,-58.194720000000004,1.0,3.87878e-06,1.0
0.07403560000000001,1.0,1.49475e-08,1.0,-60.787440000000004,1.0,5.32562e-06,1.0
0.07440189999999999,1.0,1.56189e-08,1.0,-61.76520000000001,1.0,4.66492e-06,1.0
0.07482910000000001,1.0,1.66397e-08,1.0,-61.07292000000001,1.0,4.73175e-06,1.0
0.07519529999999999,1.0,1.685945e-08,1.0,-59.820479999999996,1.0,4.65088e-06,1.0
0.075531,1.0,1.70807e-08,1.0,-56.4588,1.0,4.73022e-06,1.0
0.07592769999999999,1.0,1.7060849999999998e-08,1.0,-53.94276,1.0,5.436709999999999e-06,1.0
0.0762939,1.0,1.687315e-08,1.0,-54.29448,1.0,5.098569999999999e-06,1.0
0.0767212,1.0,1.6894549999999996e-08,1.0,-56.11824,1.0,5.05859e-06,1.0
0.07714839999999999,1.0,1.690065e-08,1.0,-59.820479999999996,1.0,4.92554e-06,1.0
0.0774841,1.0,1.690065e-08,1.0,-62.77572,1.0,5.580750000000001e-06,1.0
0.0779419,1.0,1.701965e-08,1.0,-65.32488,1.0,5.0827e-06,1.0
0.0782776,1.0,1.722715e-08,1.0,-67.85172,1.0,5.252080000000001e-06,1.0
0.0787659,1.0,1.7445349999999997e-08,1.0,-69.35652,1.0,5.08423e-06,1.0
0.0791321,1.0,1.7717e-08,1.0,-70.038,1.0,5.25818e-06,1.0
0.07949830000000001,1.0,1.7883300000000002e-08,1.0,-69.59844000000001,1.0,5.84106e-06,1.0
0.0798645,1.0,1.7887900000000002e-08,1.0,-69.13692,1.0,5.37415e-06,1.0
0.08026119999999999,1.0,1.7926049999999997e-08,1.0,-68.68656,1.0,5.606080000000001e-06,1.0
0.0806885,1.0,1.787415e-08,1.0,-67.599,1.0,5.19104e-06,1.0
0.08102419999999999,1.0,1.791075e-08,1.0,-67.599,1.0,6.25519e-06,1.0
0.0814819,1.0,1.7962650000000004e-08,1.0,-68.04936,1.0,5.22461e-06,1.0
0.08184810000000001,1.0,1.790465e-08,1.0,-68.4558,1.0,5.29114e-06,1.0
0.0821838,1.0,1.7700199999999997e-08,1.0,-70.038,1.0,4.99268e-06,1.0
0.0826721,1.0,1.77353e-08,1.0,-70.6752,1.0,5.35889e-06,1.0
0.08303830000000001,1.0,1.8000799999999996e-08,1.0,-70.86168,1.0,4.85229e-06,1.0
0.0834656,1.0,1.82297e-08,1.0,-70.00488,1.0,5.06287e-06,1.0
0.08380130000000001,1.0,1.854555e-08,1.0,-69.09299999999999,1.0,5.2948000000000005e-06,1.0
0.084259,1.0,1.87149e-08,1.0,-69.9498,1.0,5.850219999999999e-06,1.0
0.0846252,1.0,1.916045e-08,1.0,-68.65344,1.0,5.96313e-06,1.0
0.085022,1.0,1.9633500000000002e-08,1.0,-65.35764,1.0,5.606080000000001e-06,1.0
0.0853577,1.0,2.0176699999999996e-08,1.0,-60.24888,1.0,5.99365e-06,1.0
0.0857849,1.0,2.0481849999999996e-08,1.0,-56.107079999999996,1.0,5.633540000000001e-06,1.0
0.08615110000000001,1.0,2.0494099999999997e-08,1.0,-53.55828,1.0,6.45447e-06,1.0
0.0865479,1.0,2.066195e-08,1.0,-51.6798,1.0,5.902100000000001e-06,1.0
0.0869446,1.0,2.092285e-08,1.0,-51.98724,1.0,5.715940000000001e-06,1.0
0.0872803,1.0,2.1350099999999995e-08,1.0,-52.6356,1.0,6.39648e-06,1.0
0.087738,1.0,2.173615e-08,1.0,-54.47016,1.0,6.0913099999999995e-06,1.0
0.08807369999999999,1.0,2.25586e-08,1.0,-56.634479999999996,1.0,6.21643e-06,1.0
0.0885315,1.0,2.33261e-08,1.0,-57.62339999999999,1.0,5.94482e-06,1.0
0.08886720000000001,1.0,2.42157e-08,1.0,-58.0518,1.0,6.38123e-06,1.0
0.089325,1.0,2.50244e-08,1.0,-58.50216,1.0,6.53381e-06,1.0
0.0896912,1.0,2.545165e-08,1.0,-58.150800000000004,1.0,6.253049999999999e-06,1.0
0.09008789999999998,1.0,2.5604250000000002e-08,1.0,-57.55752,1.0,6.15845e-06,1.0
0.0904236,1.0,2.589415e-08,1.0,-55.92024,1.0,6.8512e-06,1.0
0.0908813,1.0,2.5649999999999998e-08,1.0,-54.36036,1.0,6.323240000000001e-06,1.0
0.0912781,1.0,2.5222799999999996e-08,1.0,-53.58024,1.0,6.81152e-06,1.0
0.09161380000000001,1.0,2.505495e-08,1.0,-53.54747999999999,1.0,6.82678e-06,1.0
0.0920105,1.0,2.436525e-08,1.0,-54.1296,1.0,6.796260000000001e-06,1.0
0.0924377,1.0,2.3724349999999997e-08,1.0,-55.27224,1.0,6.66809e-06,1.0
0.0928345,1.0,2.3336799999999998e-08,1.0,-57.62339999999999,1.0,6.79321e-06,1.0
0.0932312,1.0,2.306975e-08,1.0,-59.1066,1.0,5.920409999999999e-06,1.0
0.09353639999999999,1.0,2.27524e-08,1.0,-60.89724000000001,1.0,6.304930000000001e-06,1.0
0.09396360000000001,1.0,2.236635e-08,1.0,-62.457119999999996,1.0,6.28357e-06,1.0
0.0943604,1.0,2.2122200000000002e-08,1.0,-64.314,1.0,6.3995400000000006e-06,1.0
0.0947571,1.0,2.2116099999999996e-08,1.0,-65.7972,1.0,6.1828599999999994e-06,1.0
0.0950623,1.0,2.2186299999999997e-08,1.0,-66.74184,1.0,6.3415499999999994e-06,1.0
0.0955505,1.0,2.21527e-08,1.0,-66.71988,1.0,7.052610000000001e-06,1.0
0.0959167,1.0,2.209165e-08,1.0,-66.52224000000001,1.0,7.06177e-06,1.0
0.09628300000000001,1.0,2.2074900000000002e-08,1.0,-67.0716,1.0,6.28052e-06,1.0
0.0967407,1.0,2.229005e-08,1.0,-67.25844000000001,1.0,6.887819999999999e-06,1.0
0.0971375,1.0,2.2819499999999998e-08,1.0,-67.63176,1.0,6.6497800000000006e-06,1.0
0.09747310000000001,1.0,2.32315e-08,1.0,-67.46688,1.0,6.9274899999999995e-06,1.0
0.09790039999999998,1.0,2.36435e-08,1.0,-66.93984,1.0,7.04956e-06,1.0
0.09835819999999999,1.0,2.40494e-08,1.0,-66.78576,1.0,6.4697300000000005e-06,1.0
0.09866330000000001,1.0,2.45041e-08,1.0,-66.30264000000001,1.0,6.9458000000000005e-06,1.0
0.09906010000000001,1.0,2.5115950000000002e-08,1.0,-65.51136,1.0,7.69348e-06,1.0
0.0994873,1.0,2.545165e-08,1.0,-64.50084000000001,1.0,6.61316e-06,1.0
0.0999146,1.0,2.601625e-08,1.0,-63.56699999999999,1.0,6.57959e-06,1.0
0.100311,1.0,2.6641849999999996e-08,1.0,-63.16056,1.0,7.592769999999999e-06,1.0
0.100647,1.0,2.69165e-08,1.0,-62.55612,1.0,7.58057e-06,1.0
0.101135,1.0,2.7099599999999996e-08,1.0,-61.490520000000004,1.0,7.49207e-06,1.0
0.10141,1.0,2.726745e-08,1.0,-60.90804000000001,1.0,6.777949999999999e-06,1.0
0.101837,1.0,2.7282699999999997e-08,1.0,-60.88607999999999,1.0,6.60095e-06,1.0
0.102203,1.0,2.7313249999999998e-08,1.0,-60.62256,1.0,7.2143600000000005e-06,1.0
0.102631,1.0,2.77252e-08,1.0,-61.314840000000004,1.0,7.583619999999999e-06,1.0
0.103119,1.0,2.8106700000000002e-08,1.0,-62.457119999999996,1.0,7.3761e-06,1.0
0.103394,1.0,2.8793349999999998e-08,1.0,-63.28116,1.0,6.8328899999999996e-06,1.0
0.10388199999999999,1.0,2.900695e-08,1.0,-63.94032000000001,1.0,7.58057e-06,1.0
0.104218,1.0,2.9403700000000003e-08,1.0,-64.30284,1.0,7.4585e-06,1.0
0.10461400000000001,1.0,2.993775e-08,1.0,-64.17107999999999,1.0,7.53784e-06,1.0
0.105011,1.0,3.009035e-08,1.0,-63.61092000000001,1.0,7.5775100000000006e-06,1.0
0.10540799999999999,1.0,3.009035e-08,1.0,-62.90784,1.0,7.5591999999999996e-06,1.0
0.10583499999999998,1.0,3.0151349999999996e-08,1.0,-61.732079999999996,1.0,7.278439999999999e-06,1.0
0.106232,1.0,2.983095e-08,1.0,-61.09488,1.0,7.43408e-06,1.0
0.106598,1.0,2.9373150000000003e-08,1.0,-60.457679999999996,1.0,8.66089e-06,1.0
0.10693399999999999,1.0,2.9068e-08,1.0,-60.79824000000001,1.0,7.35779e-06,1.0
0.107422,1.0,2.8823849999999996e-08,1.0,-61.3476,1.0,7.86133e-06,1.0
0.107727,1.0,2.8564449999999998e-08,1.0,-62.82000000000001,1.0,7.8949e-06,1.0
0.10824600000000001,1.0,2.874755e-08,1.0,-64.22616,1.0,8.346560000000001e-06,1.0
0.108582,1.0,2.9281599999999995e-08,1.0,-65.61035999999999,1.0,7.9834e-06,1.0
0.10891700000000001,1.0,2.95105e-08,1.0,-65.76407999999999,1.0,8.00781e-06,1.0
0.109375,1.0,2.98462e-08,1.0,-64.61064000000002,1.0,8.578489999999999e-06,1.0
0.10977200000000001,1.0,3.033445e-08,1.0,-63.07235999999999,1.0,8.56934e-06,1.0
0.11013800000000001,1.0,3.10211e-08,1.0,-60.87528,1.0,8.54492e-06,1.0
0.11050399999999999,1.0,3.097535e-08,1.0,-59.50188000000001,1.0,8.71887e-06,1.0
0.11099200000000001,1.0,3.11737e-08,1.0,-59.249159999999996,1.0,9.008789999999998e-06,1.0
0.11138900000000002,1.0,3.11737e-08,1.0,-59.238359999999986,1.0,8.59375e-06,1.0
0.111694,1.0,3.10211e-08,1.0,-59.49108,1.0,8.789060000000001e-06,1.0
0.112122,1.0,3.09601e-08,1.0,-59.7546,1.0,8.526610000000001e-06,1.0
0.112518,1.0,3.0746449999999994e-08,1.0,-60.68844,1.0,9.07288e-06,1.0
0.11291500000000002,1.0,3.097535e-08,1.0,-61.32564000000001,1.0,9.06677e-06,1.0
0.11334200000000001,1.0,3.182985e-08,1.0,-62.721000000000004,1.0,9.2926e-06,1.0
0.113739,1.0,3.289794999999999e-08,1.0,-64.05012,1.0,9.34143e-06,1.0
0.114075,1.0,3.34625e-08,1.0,-65.16,1.0,8.61511e-06,1.0
0.114471,1.0,3.39508e-08,1.0,-65.4786,1.0,9.805299999999999e-06,1.0
0.11483800000000001,1.0,3.416445e-08,1.0,-65.19275999999999,1.0,8.48083e-06,1.0
0.11529500000000001,1.0,3.408815e-08,1.0,-63.204480000000004,1.0,9.0332e-06,1.0
0.11566199999999999,1.0,3.39508e-08,1.0,-60.985079999999996,1.0,9.51233e-06,1.0
0.115997,1.0,3.39813e-08,1.0,-59.1066,1.0,9.19495e-06,1.0
0.11645499999999999,1.0,3.39813e-08,1.0,-59.1066,1.0,9.42993e-06,1.0
0.11682100000000001,1.0,3.39508e-08,1.0,-59.76576,1.0,9.921260000000002e-06,1.0
0.117249,1.0,3.3493050000000004e-08,1.0,-61.732079999999996,1.0,1.0516400000000001e-05,1.0
0.117584,1.0,3.373719999999999e-08,1.0,-63.87444000000001,1.0,1.00952e-05,1.0
0.11798099999999999,1.0,3.39203e-08,1.0,-66.04992000000001,1.0,9.9762e-06,1.0
0.118378,1.0,3.460695e-08,1.0,-67.44492,1.0,1.00922e-05,1.0
0.118683,1.0,3.546145e-08,1.0,-67.58784,1.0,1.07239e-05,1.0
0.119171,1.0,3.6148049999999997e-08,1.0,-65.85192,1.0,1.06018e-05,1.0
0.11953699999999999,1.0,3.746034999999999e-08,1.0,-62.97372,1.0,1.04004e-05,1.0
0.119965,1.0,3.83148e-08,1.0,-59.117399999999996,1.0,1.08337e-05,1.0
0.1203,1.0,3.87268e-08,1.0,-56.0304,1.0,1.06537e-05,1.0
0.12078900000000001,1.0,3.8543699999999995e-08,1.0,-53.96472,1.0,1.11572e-05,1.0
0.12106300000000002,1.0,3.7673949999999994e-08,1.0,-53.56944,1.0,1.04889e-05,1.0
0.121521,1.0,3.65906e-08,1.0,-53.56944,1.0,1.06232e-05,1.0
0.121826,1.0,3.5736099999999995e-08,1.0,-54.78876,1.0,1.06537e-05,1.0
0.122223,1.0,3.5491949999999995e-08,1.0,-56.436840000000004,1.0,1.05927e-05,1.0
0.12271099999999999,1.0,3.6102300000000004e-08,1.0,-60.22692000000001,1.0,1.0141e-05,1.0
0.123047,1.0,3.7200949999999994e-08,1.0,-64.413,1.0,1.0202e-05,1.0
0.123474,1.0,3.8070699999999994e-08,1.0,-67.12632,1.0,1.06903e-05,1.0
0.123779,1.0,3.874205e-08,1.0,-68.08212,1.0,1.0501099999999998e-05,1.0
0.124207,1.0,3.919984999999999e-08,1.0,-67.01652,1.0,1.05286e-05,1.0
0.124634,1.0,3.9154050000000004e-08,1.0,-64.66535999999999,1.0,1.04675e-05,1.0
0.12496900000000001,1.0,3.9413449999999995e-08,1.0,-62.00676,1.0,1.08398e-05,1.0
0.125336,1.0,3.918455e-08,1.0,-59.414040000000014,1.0,1.11176e-05,1.0
0.125763,1.0,3.895569999999999e-08,1.0,-57.37067999999999,1.0,1.14044e-05,1.0
0.126221,1.0,3.855895e-08,1.0,-56.7882,1.0,1.091e-05,1.0
0.126526,1.0,3.829955e-08,1.0,-57.601440000000004,1.0,1.09894e-05,1.0
0.126923,1.0,3.8070699999999994e-08,1.0,-58.96368,1.0,1.1087e-05,1.0
0.12731900000000002,1.0,3.834534999999999e-08,1.0,-61.28172000000001,1.0,1.11328e-05,1.0
0.127747,1.0,3.89862e-08,1.0,-63.01764000000001,1.0,1.20148e-05,1.0
0.128143,1.0,4.0023800000000004e-08,1.0,-63.72072000000001,1.0,1.12244e-05,1.0
0.128357,1.0,4.12903e-08,1.0,-63.12744,1.0,1.1785899999999998e-05,1.0
0.128906,1.0,4.203794999999999e-08,1.0,-61.88616,1.0,1.1123699999999998e-05,1.0
0.129272,1.0,4.2892449999999996e-08,1.0,-59.85360000000001,1.0,1.15631e-05,1.0
0.1297,1.0,4.356384999999999e-08,1.0,-57.37067999999999,1.0,1.138e-05,1.0
0.13003499999999998,1.0,4.351805e-08,1.0,-55.45907999999999,1.0,1.1569200000000001e-05,1.0
0.130493,1.0,4.3289199999999996e-08,1.0,-54.437400000000004,1.0,1.2106300000000001e-05,1.0
0.130859,1.0,4.2648299999999996e-08,1.0,-54.27252,1.0,1.11145e-05,1.0
0.13125599999999998,1.0,4.200744999999999e-08,1.0,-55.17324,1.0,1.16058e-05,1.0
0.131622,1.0,4.1366599999999994e-08,1.0,-57.68928,1.0,1.13342e-05,1.0
0.13205,1.0,4.12903e-08,1.0,-61.12800000000001,1.0,1.21338e-05,1.0
0.132385,1.0,4.156494999999999e-08,1.0,-63.929520000000004,1.0,1.15967e-05,1.0
0.13281300000000001,1.0,4.2648299999999996e-08,1.0,-66.19248,1.0,1.1682100000000001e-05,1.0
0.133148,1.0,4.351805e-08,1.0,-66.9726,1.0,1.16394e-05,1.0
0.133575,1.0,4.434205e-08,1.0,-67.08239999999999,1.0,1.21124e-05,1.0
0.134003,1.0,4.4967650000000004e-08,1.0,-66.07188,1.0,1.1752300000000001e-05,1.0
0.13443,1.0,4.566955e-08,1.0,-64.25892,1.0,1.1788900000000002e-05,1.0
0.134766,1.0,4.6005249999999994e-08,1.0,-62.0838,1.0,1.26526e-05,1.0
0.135101,1.0,4.56543e-08,1.0,-60.77628,1.0,1.24969e-05,1.0
0.13555899999999999,1.0,4.5028699999999996e-08,1.0,-60.87528,1.0,1.28845e-05,1.0
0.13589500000000002,1.0,4.4876099999999996e-08,1.0,-61.79795999999999,1.0,1.25946e-05,1.0
0.136261,1.0,4.49066e-08,1.0,-62.9298,1.0,1.1883499999999999e-05,1.0
0.136719,1.0,4.5288099999999994e-08,1.0,-63.709559999999996,1.0,1.26709e-05,1.0
0.13711500000000001,1.0,4.595945e-08,1.0,-63.3582,1.0,1.26648e-05,1.0
0.137512,1.0,4.7302249999999996e-08,1.0,-62.962559999999996,1.0,1.21826e-05,1.0
0.137848,1.0,4.84009e-08,1.0,-62.49024000000001,1.0,1.26953e-05,1.0
0.138245,1.0,4.927065e-08,1.0,-61.248599999999996,1.0,1.29974e-05,1.0
0.138672,1.0,5.0201499999999995e-08,1.0,-59.91948,1.0,1.27197e-05,1.0
0.139069,1.0,5.03235e-08,1.0,-57.842999999999996,1.0,1.3043199999999999e-05,1.0
0.139404,1.0,4.985045e-08,1.0,-56.14020000000001,1.0,1.29181e-05,1.0
0.13983199999999998,1.0,4.9682599999999994e-08,1.0,-55.40400000000001,1.0,1.28296e-05,1.0
0.140228,1.0,4.925534999999999e-08,1.0,-55.40400000000001,1.0,1.42548e-05,1.0
0.140656,1.0,4.8553449999999996e-08,1.0,-56.832119999999996,1.0,1.33331e-05,1.0
0.141022,1.0,4.8171999999999996e-08,1.0,-59.040359999999986,1.0,1.30859e-05,1.0
0.14141800000000002,1.0,4.7683699999999996e-08,1.0,-61.63344000000001,1.0,1.4025899999999999e-05,1.0
0.141815,1.0,4.76532e-08,1.0,-64.01736,1.0,1.40533e-05,1.0
0.142242,1.0,4.8370349999999995e-08,1.0,-65.61035999999999,1.0,1.41693e-05,1.0
0.142548,1.0,4.9484249999999995e-08,1.0,-66.3246,1.0,1.3931300000000002e-05,1.0
0.142975,1.0,5.0750499999999995e-08,1.0,-65.21472,1.0,1.4059400000000001e-05,1.0
0.143372,1.0,5.20325e-08,1.0,-63.643679999999996,1.0,1.4444000000000001e-05,1.0
0.143768,1.0,5.31005e-08,1.0,-62.1936,1.0,1.34369e-05,1.0
0.14413499999999999,1.0,5.3314e-08,1.0,-60.46884,1.0,1.3143900000000001e-05,1.0
0.144531,1.0,5.32075e-08,1.0,-59.30424000000001,1.0,1.36536e-05,1.0
0.144958,1.0,5.2612499999999995e-08,1.0,-58.788,1.0,1.4251700000000001e-05,1.0
0.145294,1.0,5.2185e-08,1.0,-58.98564000000001,1.0,1.42578e-05,1.0
0.14572100000000002,1.0,5.19715e-08,1.0,-59.293079999999996,1.0,1.41327e-05,1.0
0.146149,1.0,5.2002e-08,1.0,-59.8644,1.0,1.4251700000000001e-05,1.0
0.146545,1.0,5.2719000000000004e-08,1.0,-61.07292000000001,1.0,1.4736900000000001e-05,1.0
0.146912,1.0,5.3299e-08,1.0,-61.875,1.0,1.41785e-05,1.0
0.147308,1.0,5.39705e-08,1.0,-62.20476,1.0,1.48712e-05,1.0
0.147705,1.0,5.444349999999999e-08,1.0,-62.16047999999999,1.0,1.49261e-05,1.0
0.148071,1.0,5.484e-08,1.0,-61.40268,1.0,1.4382899999999999e-05,1.0
0.14846800000000002,1.0,5.5237e-08,1.0,-60.50160000000001,1.0,1.5060399999999999e-05,1.0
0.148804,1.0,5.56945e-08,1.0,-59.18328,1.0,1.46759e-05,1.0
0.14926099999999998,1.0,5.632e-08,1.0,-57.79907999999999,1.0,1.48193e-05,1.0
0.14968900000000002,1.0,5.719e-08,1.0,-57.05207999999999,1.0,1.4743e-05,1.0
0.14999400000000002,1.0,5.7220500000000006e-08,1.0,-57.28284,1.0,1.4758299999999999e-05,1.0
0.150482,1.0,5.74495e-08,1.0,-58.51332,1.0,1.49445e-05,1.0
0.150818,1.0,5.7403499999999995e-08,1.0,-59.8644,1.0,1.51611e-05,1.0
0.15118399999999999,1.0,5.7800499999999995e-08,1.0,-60.94116,1.0,1.54938e-05,1.0
0.151642,1.0,5.8136e-08,1.0,-61.248599999999996,1.0,1.5005499999999999e-05,1.0
0.152008,1.0,5.8975e-08,1.0,-61.160759999999996,1.0,1.62079e-05,1.0
0.152496,1.0,5.98145e-08,1.0,-61.30368,1.0,1.54724e-05,1.0
0.152832,1.0,6.0074e-08,1.0,-60.89724000000001,1.0,1.56097e-05,1.0
0.153229,1.0,6.05775e-08,1.0,-59.974199999999996,1.0,1.56769e-05,1.0
0.153595,1.0,6.07145e-08,1.0,-59.425200000000004,1.0,1.60278e-05,1.0
0.154053,1.0,6.072999999999999e-08,1.0,-59.85360000000001,1.0,1.66199e-05,1.0
0.154358,1.0,6.03945e-08,1.0,-60.106320000000004,1.0,1.6101099999999997e-05,1.0
0.154724,1.0,6.01805e-08,1.0,-60.87528,1.0,1.6101099999999997e-05,1.0
0.155151,1.0,6.008899999999999e-08,1.0,-61.28172000000001,1.0,1.6217e-05,1.0
0.155548,1.0,6.03025e-08,1.0,-61.39152,1.0,1.6275e-05,1.0
0.155914,1.0,6.0501e-08,1.0,-61.63344000000001,1.0,1.57166e-05,1.0
0.156342,1.0,6.0745e-08,1.0,-62.60004,1.0,1.6861e-05,1.0
0.15673800000000002,1.0,6.13555e-08,1.0,-63.0504,1.0,1.6805999999999998e-05,1.0
0.157074,1.0,6.228649999999999e-08,1.0,-63.56699999999999,1.0,1.65802e-05,1.0
0.157501,1.0,6.3095e-08,1.0,-63.39095999999999,1.0,1.66656e-05,1.0
0.157806,1.0,6.445299999999999e-08,1.0,-62.501400000000004,1.0,1.62231e-05,1.0
0.15823399999999999,1.0,6.5445e-08,1.0,-61.18272,1.0,1.75995e-05,1.0
0.158661,1.0,6.614699999999999e-08,1.0,-60.30396,1.0,1.763e-05,1.0
0.159058,1.0,6.629949999999999e-08,1.0,-59.2272,1.0,1.73279e-05,1.0
0.159424,1.0,6.6345e-08,1.0,-58.42512000000001,1.0,1.74591e-05,1.0
0.15979000000000002,1.0,6.5796e-08,1.0,-57.74400000000001,1.0,1.8103e-05,1.0
0.160248,1.0,6.4926e-08,1.0,-57.55752,1.0,1.82434e-05,1.0
0.160645,1.0,6.427e-08,1.0,-57.8322,1.0,1.74835e-05,1.0
0.16097999999999998,1.0,6.3797e-08,1.0,-59.06268,1.0,1.78711e-05,1.0
0.16134600000000002,1.0,6.42395e-08,1.0,-60.00732000000001,1.0,1.76178e-05,1.0
0.161774,1.0,6.491099999999999e-08,1.0,-60.88607999999999,1.0,1.83289e-05,1.0
0.162079,1.0,6.59485e-08,1.0,-61.13879999999999,1.0,1.77246e-05,1.0
0.162537,1.0,6.719949999999999e-08,1.0,-61.3368,1.0,1.85333e-05,1.0
0.16284200000000001,1.0,6.874099999999999e-08,1.0,-60.97428,1.0,1.89026e-05,1.0
0.163269,1.0,7.0053e-08,1.0,-60.72156,1.0,1.80878e-05,1.0
0.16375699999999999,1.0,7.07855e-08,1.0,-60.11712,1.0,1.83136e-05,1.0
0.16409300000000002,1.0,7.0938e-08,1.0,-59.31504000000001,1.0,1.9104000000000002e-05,1.0
0.164459,1.0,7.092299999999999e-08,1.0,-58.77684000000001,1.0,1.83624e-05,1.0
0.164825,1.0,7.092299999999999e-08,1.0,-57.87612,1.0,1.80939e-05,1.0
0.165253,1.0,7.09535e-08,1.0,-57.67812,1.0,1.81488e-05,1.0
0.165649,1.0,7.07855e-08,1.0,-58.43628,1.0,1.77551e-05,1.0
0.166016,1.0,7.0099e-08,1.0,-60.1722,1.0,1.84296e-05,1.0
0.166443,1.0,6.97935e-08,1.0,-62.0946,1.0,1.85944e-05,1.0
0.16680899999999999,1.0,6.98545e-08,1.0,-63.4572,1.0,1.83807e-05,1.0
0.167206,1.0,7.0694e-08,1.0,-63.69875999999999,1.0,1.87195e-05,1.0
0.167542,1.0,7.1762e-08,1.0,-63.07235999999999,1.0,1.85638e-05,1.0
0.16802999999999998,1.0,7.348649999999999e-08,1.0,-62.23752,1.0,1.86615e-05,1.0
0.168427,1.0,7.51345e-08,1.0,-61.45739999999999,1.0,1.89178e-05,1.0
0.168854,1.0,7.6233e-08,1.0,-60.6996,1.0,1.96869e-05,1.0
0.16925,1.0,7.687399999999999e-08,1.0,-59.930279999999996,1.0,1.9165e-05,1.0
0.169525,1.0,7.6645e-08,1.0,-59.20524,1.0,2.01569e-05,1.0
0.170074,1.0,7.59735e-08,1.0,-58.74372000000001,1.0,2.0163e-05,1.0
0.170441,1.0,7.51345e-08,1.0,-57.88692000000001,1.0,1.97083e-05,1.0
0.170807,1.0,7.42645e-08,1.0,-58.22748,1.0,1.94122e-05,1.0
0.171234,1.0,7.3822e-08,1.0,-59.842439999999996,1.0,2.03247e-05,1.0
0.171631,1.0,7.4524e-08,1.0,-62.44632,1.0,2.1472199999999997e-05,1.0
0.17193599999999998,1.0,7.55465e-08,1.0,-64.51164000000001,1.0,2.0342999999999998e-05,1.0
0.172424,1.0,7.7072e-08,1.0,-65.66544,1.0,2.09167e-05,1.0
0.17276,1.0,7.88725e-08,1.0,-65.52252,1.0,2.07642e-05,1.0
0.17318699999999998,1.0,8.010849999999999e-08,1.0,-64.16028,1.0,2.12921e-05,1.0
0.173645,1.0,8.090199999999999e-08,1.0,-62.10576,1.0,2.09717e-05,1.0
0.173981,1.0,8.154299999999999e-08,1.0,-59.89752,1.0,2.10052e-05,1.0
0.174377,1.0,8.15735e-08,1.0,-58.13964,1.0,2.07123e-05,1.0
0.174713,1.0,8.11155e-08,1.0,-56.96424,1.0,2.12891e-05,1.0
0.17514000000000002,1.0,8.04445e-08,1.0,-55.9314,1.0,2.1536300000000002e-05,1.0
0.17565899999999998,1.0,7.9895e-08,1.0,-56.150999999999996,1.0,2.09229e-05,1.0
0.175964,1.0,7.9483e-08,1.0,-57.3156,1.0,2.20245e-05,1.0
0.176331,1.0,8.035299999999999e-08,1.0,-59.1066,1.0,2.17712e-05,1.0
0.176758,1.0,8.154299999999999e-08,1.0,-60.84216,1.0,2.1804800000000002e-05,1.0
0.177155,1.0,8.378599999999999e-08,1.0,-61.83108,1.0,2.18109e-05,1.0
0.17745999999999998,1.0,8.5922e-08,1.0,-61.732079999999996,1.0,2.10052e-05,1.0
0.177887,1.0,8.8562e-08,1.0,-60.71039999999999,1.0,2.18689e-05,1.0
0.178284,1.0,8.992e-08,1.0,-59.414040000000014,1.0,2.17285e-05,1.0
0.17868,1.0,9.053049999999999e-08,1.0,-58.1616,1.0,2.16064e-05,1.0
0.179047,1.0,8.988949999999999e-08,1.0,-56.94228,1.0,2.24426e-05,1.0
0.179352,1.0,8.85775e-08,1.0,-56.392920000000004,1.0,2.2805799999999998e-05,1.0
0.179871,1.0,8.685299999999999e-08,1.0,-56.31588000000001,1.0,2.26746e-05,1.0
0.180267,1.0,8.519e-08,1.0,-56.90916,1.0,2.30835e-05,1.0
0.180634,1.0,8.4137e-08,1.0,-58.65588,1.0,2.29065e-05,1.0
0.18100000000000002,1.0,8.407599999999999e-08,1.0,-60.85332000000001,1.0,2.25098e-05,1.0
0.181366,1.0,8.52965e-08,1.0,-62.78688,1.0,2.38831e-05,1.0
0.181824,1.0,8.769249999999999e-08,1.0,-64.01736,1.0,2.3858600000000002e-05,1.0
0.18219000000000002,1.0,9.0515e-08,1.0,-64.35792000000001,1.0,2.3648099999999998e-05,1.0
0.182587,1.0,9.3155e-08,1.0,-63.55584,1.0,2.3001100000000002e-05,1.0
0.18298299999999998,1.0,9.515399999999999e-08,1.0,-61.91892,1.0,2.36023e-05,1.0
0.183411,1.0,9.68325e-08,1.0,-60.02927999999999,1.0,2.37946e-05,1.0
0.18371600000000002,1.0,9.703049999999999e-08,1.0,-57.9528,1.0,2.35352e-05,1.0
0.184174,1.0,9.59625e-08,1.0,-56.4696,1.0,2.42676e-05,1.0
0.18450899999999998,1.0,9.4177e-08,1.0,-55.61279999999999,1.0,2.41272e-05,1.0
0.184906,1.0,9.2331e-08,1.0,-56.33784000000001,1.0,2.4710100000000002e-05,1.0
0.185364,1.0,9.072899999999999e-08,1.0,-58.84272,1.0,2.38007e-05,1.0
0.185669,1.0,9.0332e-08,1.0,-62.33652000000001,1.0,2.37823e-05,1.0
0.186096,1.0,9.1461e-08,1.0,-65.33568,1.0,2.45148e-05,1.0
0.186462,1.0,9.335349999999999e-08,1.0,-67.32432,1.0,2.47894e-05,1.0
0.186859,1.0,9.565750000000001e-08,1.0,-67.35708,1.0,2.4353000000000002e-05,1.0
0.187256,1.0,9.7946e-08,1.0,-65.84112,1.0,2.36542e-05,1.0
0.187683,1.0,9.99605e-08,1.0,-63.21527999999999,1.0,2.5177e-05,1.0
0.188019,1.0,1.01288e-07,1.0,-60.347879999999996,1.0,2.46765e-05,1.0
0.188416,1.0,1.0159299999999999e-07,1.0,-57.6342,1.0,2.5012199999999997e-05,1.0
0.188782,1.0,1.01303e-07,1.0,-55.48103999999999,1.0,2.52686e-05,1.0
0.189148,1.0,1.002045e-07,1.0,-54.4482,1.0,2.5235e-05,1.0
0.189606,1.0,9.91515e-08,1.0,-54.87660000000001,1.0,2.55646e-05,1.0
0.190063,1.0,9.802249999999999e-08,1.0,-56.832119999999996,1.0,2.56104e-05,1.0
0.190369,1.0,9.829700000000001e-08,1.0,-59.28228,1.0,2.5274699999999997e-05,1.0
0.190826,1.0,9.918200000000001e-08,1.0,-61.54524,1.0,2.57782e-05,1.0
0.191132,1.0,1.006315e-07,1.0,-63.02844,1.0,2.6132199999999997e-05,1.0
0.191589,1.0,1.0246300000000001e-07,1.0,-63.226440000000004,1.0,2.5628699999999997e-05,1.0
0.191986,1.0,1.0426349999999999e-07,1.0,-62.435159999999996,1.0,2.6364099999999997e-05,1.0
0.192413,1.0,1.0597249999999999e-07,1.0,-60.633720000000004,1.0,2.60223e-05,1.0
0.19280999999999998,1.0,1.0708599999999998e-07,1.0,-58.699799999999996,1.0,2.61993e-05,1.0
0.193176,1.0,1.07025e-07,1.0,-57.205799999999996,1.0,2.70996e-05,1.0
0.193573,1.0,1.0565199999999999e-07,1.0,-56.085119999999996,1.0,2.64771e-05,1.0
0.19399999999999998,1.0,1.04019e-07,1.0,-56.261160000000004,1.0,2.60345e-05,1.0
0.19439700000000001,1.0,1.0249349999999999e-07,1.0,-57.3156,1.0,2.7005e-05,1.0
0.194824,1.0,1.010895e-07,1.0,-59.2272,1.0,2.70233e-05,1.0
0.19531300000000001,1.0,1.0087599999999998e-07,1.0,-61.90812,1.0,2.7175900000000002e-05,1.0
0.19555699999999998,1.0,1.015625e-07,1.0,-64.18224000000001,1.0,2.68097e-05,1.0
0.195953,1.0,1.0350050000000001e-07,1.0,-65.56644,1.0,2.70508e-05,1.0
0.19635,1.0,1.0646049999999999e-07,1.0,-65.96207999999999,1.0,2.76367e-05,1.0
0.196747,1.0,1.09421e-07,1.0,-64.92924000000001,1.0,2.78229e-05,1.0
0.197266,1.0,1.12213e-07,1.0,-63.0504,1.0,2.72797e-05,1.0
0.19754000000000002,1.0,1.13678e-07,1.0,-60.67764000000001,1.0,2.81006e-05,1.0
0.197906,1.0,1.1436449999999999e-07,1.0,-58.40316,1.0,2.8860500000000003e-05,1.0
0.198273,1.0,1.132355e-07,1.0,-56.5686,1.0,2.82867e-05,1.0
0.1987,1.0,1.1154149999999999e-07,1.0,-55.79964,1.0,2.85858e-05,1.0
0.199097,1.0,1.095885e-07,1.0,-56.28312,1.0,2.9110700000000002e-05,1.0
0.199524,1.0,1.0809349999999999e-07,1.0,-58.20552,1.0,2.90436e-05,1.0
0.199829,1.0,1.0829149999999999e-07,1.0,-61.25975999999999,1.0,2.94128e-05,1.0
0.200256,1.0,1.0940549999999999e-07,1.0,-64.34675999999999,1.0,2.9638699999999998e-05,1.0
0.200653,1.0,1.1225899999999999e-07,1.0,-66.68712000000001,1.0,2.97089e-05,1.0
0.200989,1.0,1.1590599999999999e-07,1.0,-67.88448,1.0,3.0014e-05,1.0
0.20138499999999998,1.0,1.19217e-07,1.0,-67.68684,1.0,3.0001799999999998e-05,1.0
0.201782,1.0,1.2181099999999998e-07,1.0,-66.2364,1.0,3.06183e-05,1.0
0.202148,1.0,1.231385e-07,1.0,-64.01736,1.0,2.97729e-05,1.0
0.202515,1.0,1.231385e-07,1.0,-61.84188,1.0,2.9779099999999998e-05,1.0
0.202942,1.0,1.2226849999999998e-07,1.0,-60.13907999999999,1.0,3.09845e-05,1.0
0.203369,1.0,1.2054449999999998e-07,1.0,-59.17247999999999,1.0,3.02979e-05,1.0
0.203766,1.0,1.1856099999999999e-07,1.0,-58.9086,1.0,3.0142199999999997e-05,1.0
0.204102,1.0,1.17264e-07,1.0,-58.88664,1.0,3.05267e-05,1.0
0.204498,1.0,1.1691300000000001e-07,1.0,-59.26032,1.0,3.12836e-05,1.0
0.204956,1.0,1.174315e-07,1.0,-60.062400000000004,1.0,3.11676e-05,1.0
0.205292,1.0,1.1828599999999998e-07,1.0,-61.314840000000004,1.0,3.04932e-05,1.0
0.205688,1.0,1.19919e-07,1.0,-62.435159999999996,1.0,3.06061e-05,1.0
0.206116,1.0,1.220245e-07,1.0,-63.27036,1.0,3.05756e-05,1.0
0.206421,1.0,1.24588e-07,1.0,-63.5778,1.0,3.10089e-05,1.0
0.206909,1.0,1.2677e-07,1.0,-62.622,1.0,3.08533e-05,1.0
0.20724499999999998,1.0,1.2744149999999997e-07,1.0,-61.21584,1.0,3.11707e-05,1.0
0.20764200000000002,1.0,1.2730399999999999e-07,1.0,-60.02927999999999,1.0,3.16681e-05,1.0
0.20809899999999998,1.0,1.26175e-07,1.0,-59.02955999999999,1.0,3.22876e-05,1.0
0.208405,1.0,1.25656e-07,1.0,-58.94172,1.0,3.16925e-05,1.0
0.208771,1.0,1.252135e-07,1.0,-59.61168,1.0,3.11707e-05,1.0
0.20916700000000002,1.0,1.25595e-07,1.0,-60.96312,1.0,3.2638499999999996e-05,1.0
0.20959499999999998,1.0,1.2669349999999997e-07,1.0,-62.70984,1.0,3.23547e-05,1.0
0.210022,1.0,1.2858599999999998e-07,1.0,-63.951480000000004,1.0,3.2428e-05,1.0
0.210358,1.0,1.3079849999999997e-07,1.0,-64.44575999999999,1.0,3.2687399999999995e-05,1.0
0.21066300000000002,1.0,1.33194e-07,1.0,-64.07244,1.0,3.32031e-05,1.0
0.21115100000000003,1.0,1.347045e-07,1.0,-63.03960000000001,1.0,3.30658e-05,1.0
0.21157800000000002,1.0,1.362915e-07,1.0,-61.96284000000001,1.0,3.34167e-05,1.0
0.211945,1.0,1.36841e-07,1.0,-61.07292000000001,1.0,3.3154299999999995e-05,1.0
0.21228000000000002,1.0,1.36627e-07,1.0,-60.44688,1.0,3.38715e-05,1.0
0.212677,1.0,1.362305e-07,1.0,-60.00732000000001,1.0,3.39447e-05,1.0
0.21307399999999999,1.0,1.361845e-07,1.0,-60.02927999999999,1.0,3.3370999999999996e-05,1.0
0.21347,1.0,1.36154e-07,1.0,-60.216120000000004,1.0,3.33008e-05,1.0
0.213898,1.0,1.361845e-07,1.0,-60.92999999999999,1.0,3.3853099999999996e-05,1.0
0.21423299999999998,1.0,1.3697799999999997e-07,1.0,-62.215559999999996,1.0,3.45581e-05,1.0
0.214752,1.0,1.38748e-07,1.0,-63.58896,1.0,3.4317e-05,1.0
0.215088,1.0,1.40732e-07,1.0,-64.62144,1.0,3.43262e-05,1.0
0.21548499999999998,1.0,1.427305e-07,1.0,-65.10492,1.0,3.4314000000000004e-05,1.0
0.215912,1.0,1.44455e-07,1.0,-65.14884,1.0,3.50037e-05,1.0
0.216248,1.0,1.45874e-07,1.0,-64.7424,1.0,3.52356e-05,1.0
0.216766,1.0,1.4654549999999998e-07,1.0,-64.13832,1.0,3.49701e-05,1.0
0.21704099999999998,1.0,1.4624e-07,1.0,-63.16056,1.0,3.53088e-05,1.0
0.217468,1.0,1.450045e-07,1.0,-61.875,1.0,3.51807e-05,1.0
0.21783400000000003,1.0,1.4392099999999998e-07,1.0,-60.6996,1.0,3.57483e-05,1.0
0.21820100000000003,1.0,1.42761e-07,1.0,-60.282000000000004,1.0,3.61084e-05,1.0
0.21859699999999999,1.0,1.4201349999999998e-07,1.0,-60.30396,1.0,3.51837e-05,1.0
0.218994,1.0,1.4186099999999998e-07,1.0,-60.743520000000004,1.0,3.62244e-05,1.0
0.219421,1.0,1.42517e-07,1.0,-61.36956,1.0,3.61664e-05,1.0
0.21981799999999999,1.0,1.43326e-07,1.0,-62.27064,1.0,3.6712600000000005e-05,1.0
0.220154,1.0,1.4511099999999998e-07,1.0,-63.30312,1.0,3.62152e-05,1.0
0.22049000000000002,1.0,1.4727799999999998e-07,1.0,-63.9954,1.0,3.63129e-05,1.0
0.220978,1.0,1.499635e-07,1.0,-64.19304000000001,1.0,3.7088e-05,1.0
0.22128299999999998,1.0,1.5240499999999997e-07,1.0,-63.76464000000001,1.0,3.76465e-05,1.0
0.221802,1.0,1.539915e-07,1.0,-63.1386,1.0,3.75641e-05,1.0
0.222137,1.0,1.552275e-07,1.0,-62.38044,1.0,3.76587e-05,1.0
0.22238200000000002,1.0,1.55899e-07,1.0,-61.36956,1.0,3.83636e-05,1.0
0.22286999999999998,1.0,1.560515e-07,1.0,-60.42492000000001,1.0,3.78204e-05,1.0
0.22332800000000003,1.0,1.5609749999999999e-07,1.0,-59.76576,1.0,3.84125e-05,1.0
0.223694,1.0,1.554415e-07,1.0,-59.47992000000001,1.0,3.8415500000000005e-05,1.0
0.22405999999999998,1.0,1.5478499999999997e-07,1.0,-59.776559999999996,1.0,3.85651e-05,1.0
0.224487,1.0,1.539155e-07,1.0,-60.23807999999999,1.0,3.95721e-05,1.0
0.22488400000000003,1.0,1.536715e-07,1.0,-61.13879999999999,1.0,3.87726e-05,1.0
0.22521999999999998,1.0,1.5478499999999997e-07,1.0,-61.974000000000004,1.0,3.974e-05,1.0
0.225647,1.0,1.5669249999999997e-07,1.0,-62.74296,1.0,3.9447e-05,1.0
0.22601300000000002,1.0,1.58951e-07,1.0,-63.24839999999999,1.0,3.93585e-05,1.0
0.226532,1.0,1.614075e-07,1.0,-63.10548,1.0,3.93219e-05,1.0
0.226807,1.0,1.631775e-07,1.0,-62.60004,1.0,3.97583e-05,1.0
0.227173,1.0,1.6462699999999998e-07,1.0,-61.84188,1.0,3.97125e-05,1.0
0.22750900000000002,1.0,1.649935e-07,1.0,-61.18272,1.0,3.98132e-05,1.0
0.22796599999999997,1.0,1.65024e-07,1.0,-60.31512,1.0,4.03931e-05,1.0
0.228394,1.0,1.6392499999999998e-07,1.0,-59.62284,1.0,3.97858e-05,1.0
0.228729,1.0,1.6271949999999998e-07,1.0,-59.38127999999999,1.0,4.0704299999999996e-05,1.0
0.229095,1.0,1.6162100000000002e-07,1.0,-59.414040000000014,1.0,4.03503e-05,1.0
0.229492,1.0,1.6120899999999997e-07,1.0,-59.820479999999996,1.0,4.05273e-05,1.0
0.22988899999999998,1.0,1.6165149999999998e-07,1.0,-60.56748,1.0,4.17603e-05,1.0
0.23010300000000003,1.0,1.631775e-07,1.0,-61.688159999999996,1.0,4.08081e-05,1.0
0.230591,1.0,1.6593949999999998e-07,1.0,-63.28116,1.0,4.10126e-05,1.0
0.23101799999999997,1.0,1.696165e-07,1.0,-64.413,1.0,4.1806000000000006e-05,1.0
0.231415,1.0,1.7340099999999998e-07,1.0,-64.57752,1.0,4.16382e-05,1.0
0.231812,1.0,1.76178e-07,1.0,-63.819720000000004,1.0,4.151e-05,1.0
0.23211700000000002,1.0,1.7767349999999997e-07,1.0,-62.39124,1.0,4.2166099999999996e-05,1.0
0.23266599999999998,1.0,1.77719e-07,1.0,-61.028999999999996,1.0,4.17175e-05,1.0
0.233002,1.0,1.7677300000000002e-07,1.0,-59.974199999999996,1.0,4.22272e-05,1.0
0.233398,1.0,1.7488099999999996e-07,1.0,-59.52384000000001,1.0,4.23737e-05,1.0
0.233856,1.0,1.7263800000000001e-07,1.0,-59.73264,1.0,4.19739e-05,1.0
0.23422199999999999,1.0,1.706545e-07,1.0,-60.71039999999999,1.0,4.32587e-05,1.0
0.234589,1.0,1.699675e-07,1.0,-62.44632,1.0,4.26605e-05,1.0
0.23495500000000002,1.0,1.7108149999999998e-07,1.0,-64.25892,1.0,4.30359e-05,1.0
0.235382,1.0,1.7355349999999998e-07,1.0,-65.72015999999999,1.0,4.24622e-05,1.0
0.235779,1.0,1.76895e-07,1.0,-66.5442,1.0,4.3038900000000006e-05,1.0
0.236267,1.0,1.8020649999999998e-07,1.0,-66.52224000000001,1.0,4.3136599999999996e-05,1.0
0.23663299999999998,1.0,1.83075e-07,1.0,-65.72015999999999,1.0,4.35516e-05,1.0
0.236969,1.0,1.85318e-07,1.0,-64.08324,1.0,4.3792700000000005e-05,1.0
0.237366,1.0,1.86157e-07,1.0,-62.10576,1.0,4.4516000000000005e-05,1.0
0.23779299999999998,1.0,1.8568399999999998e-07,1.0,-60.35904000000001,1.0,4.48608e-05,1.0
0.238312,1.0,1.84677e-07,1.0,-59.073479999999996,1.0,4.36737e-05,1.0
0.238525,1.0,1.82663e-07,1.0,-58.65588,1.0,4.4262700000000006e-05,1.0
0.23895300000000003,1.0,1.8089299999999998e-07,1.0,-59.45795999999999,1.0,4.4796800000000005e-05,1.0
0.23938,1.0,1.7974849999999996e-07,1.0,-61.45739999999999,1.0,4.47083e-05,1.0
0.23980700000000002,1.0,1.8061849999999997e-07,1.0,-64.12716,1.0,4.51691e-05,1.0
0.240143,1.0,1.8347149999999998e-07,1.0,-66.37932,1.0,4.5495600000000005e-05,1.0
0.24054,1.0,1.878965e-07,1.0,-67.51115999999999,1.0,4.57184e-05,1.0
0.240936,1.0,1.93039e-07,1.0,-67.11552,1.0,4.62799e-05,1.0
0.241302,1.0,1.9708249999999998e-07,1.0,-65.37960000000001,1.0,4.5767200000000005e-05,1.0
0.241669,1.0,2.00104e-07,1.0,-63.32507999999999,1.0,4.58313e-05,1.0
0.24197399999999997,1.0,2.0091249999999998e-07,1.0,-60.86412,1.0,4.57428e-05,1.0
0.242523,1.0,2.002565e-07,1.0,-58.49136,1.0,4.66736e-05,1.0
0.242889,1.0,1.97815e-07,1.0,-56.898360000000004,1.0,4.70947e-05,1.0
0.243256,1.0,1.94763e-07,1.0,-56.678399999999996,1.0,4.7207600000000005e-05,1.0
0.24368299999999998,1.0,1.91925e-07,1.0,-58.10652,1.0,4.6994e-05,1.0
0.244049,1.0,1.9093299999999998e-07,1.0,-60.68844,1.0,4.89624e-05,1.0
0.244446,1.0,1.91742e-07,1.0,-63.59975999999999,1.0,4.7207600000000005e-05,1.0
0.24484299999999998,1.0,1.943055e-07,1.0,-66.08268,1.0,4.79462e-05,1.0
0.24523899999999998,1.0,1.98044e-07,1.0,-67.43412,1.0,4.8477200000000004e-05,1.0
0.24563600000000002,1.0,2.024535e-07,1.0,-67.5,1.0,4.79187e-05,1.0
0.246155,1.0,2.0677199999999997e-07,1.0,-66.36852,1.0,4.8703000000000004e-05,1.0
0.246429,1.0,2.0985399999999997e-07,1.0,-64.23696,1.0,4.76532e-05,1.0
0.24682600000000002,1.0,2.10907e-07,1.0,-62.0838,1.0,4.8465e-05,1.0
0.247223,1.0,2.105715e-07,1.0,-60.41375999999999,1.0,4.8989899999999997e-05,1.0
0.24758899999999998,1.0,2.0835900000000002e-07,1.0,-59.425200000000004,1.0,4.93347e-05,1.0
0.248077,1.0,2.0472699999999998e-07,1.0,-59.31504000000001,1.0,4.90417e-05,1.0
0.24841300000000002,1.0,2.0103449999999999e-07,1.0,-60.02927999999999,1.0,4.9591099999999993e-05,1.0
0.24874899999999997,1.0,1.98883e-07,1.0,-61.58952000000001,1.0,4.98383e-05,1.0
0.249146,1.0,1.988525e-07,1.0,-63.89639999999999,1.0,5.03754e-05,1.0
0.249573,1.0,2.00989e-07,1.0,-66.28067999999999,1.0,4.97955e-05,1.0
0.249939,1.0,2.051695e-07,1.0,-67.86252,1.0,4.8968500000000004e-05,1.0
0.250366,1.0,2.0985399999999997e-07,1.0,-68.18111999999999,1.0,5.0286899999999995e-05,1.0
0.250702,1.0,2.14569e-07,1.0,-67.47804000000001,1.0,5.0882e-05,1.0
0.25109899999999996,1.0,2.1798699999999998e-07,1.0,-65.89583999999999,1.0,5.1492299999999995e-05,1.0
0.25149499999999997,1.0,2.1990949999999997e-07,1.0,-63.79776,1.0,5.1248199999999995e-05,1.0
0.25177,1.0,2.2033699999999997e-07,1.0,-61.875,1.0,5.14679e-05,1.0
0.252258,1.0,2.19284e-07,1.0,-60.47964,1.0,5.17242e-05,1.0
0.252655,1.0,2.1797199999999996e-07,1.0,-60.1722,1.0,5.18738e-05,1.0
0.253052,1.0,2.166445e-07,1.0,-60.89724000000001,1.0,5.1776099999999994e-05,1.0
0.253448,1.0,2.15378e-07,1.0,-62.4024,1.0,5.2227799999999995e-05,1.0
0.253784,1.0,2.1467600000000004e-07,1.0,-64.23696,1.0,5.2713e-05,1.0
0.254181,1.0,2.1473699999999997e-07,1.0,-66.20364000000001,1.0,5.16876e-05,1.0
0.254578,1.0,2.1644599999999998e-07,1.0,-67.79664000000001,1.0,5.20508e-05,1.0
0.25500500000000004,1.0,2.196045e-07,1.0,-68.59872,1.0,5.26917e-05,1.0
0.255432,1.0,2.2337349999999999e-07,1.0,-68.30207999999999,1.0,5.30365e-05,1.0
0.25589,1.0,2.27127e-07,1.0,-67.00572,1.0,5.2969399999999995e-05,1.0
0.256195,1.0,2.296905e-07,1.0,-65.10492,1.0,5.2951e-05,1.0
0.25656100000000004,1.0,2.3048400000000001e-07,1.0,-63.06156,1.0,5.3869600000000003e-05,1.0
0.256958,1.0,2.2950749999999995e-07,1.0,-61.58952000000001,1.0,5.37537e-05,1.0
0.257324,1.0,2.2702049999999996e-07,1.0,-60.8202,1.0,5.4052700000000005e-05,1.0
0.257843,1.0,2.244265e-07,1.0,-61.38072,1.0,5.3640699999999996e-05,1.0
0.258179,1.0,2.2245799999999997e-07,1.0,-62.753759999999986,1.0,5.41107e-05,1.0
0.258575,1.0,2.220915e-07,1.0,-64.83024,1.0,5.43701e-05,1.0
0.258972,1.0,2.23694e-07,1.0,-66.9618,1.0,5.4306000000000005e-05,1.0
0.259369,1.0,2.2778299999999997e-07,1.0,-68.28012,1.0,5.46997e-05,1.0
0.259766,1.0,2.330015e-07,1.0,-68.43384,1.0,5.35675e-05,1.0
0.260071,1.0,2.37213e-07,1.0,-67.599,1.0,5.51025e-05,1.0
0.260529,1.0,2.401275e-07,1.0,-66.02796,1.0,5.54901e-05,1.0
0.260864,1.0,2.41623e-07,1.0,-64.16028,1.0,5.5661e-05,1.0
0.261322,1.0,2.4188249999999996e-07,1.0,-62.51220000000001,1.0,5.5838e-05,1.0
0.261658,1.0,2.40631e-07,1.0,-61.28172000000001,1.0,5.5331400000000004e-05,1.0
0.262085,1.0,2.37915e-07,1.0,-60.66648,1.0,5.5990600000000006e-05,1.0
0.26251199999999997,1.0,2.357025e-07,1.0,-60.94116,1.0,5.6781000000000004e-05,1.0
0.262878,1.0,2.3437499999999998e-07,1.0,-61.98479999999999,1.0,5.74249e-05,1.0
0.263336,1.0,2.3455799999999998e-07,1.0,-63.56699999999999,1.0,5.79224e-05,1.0
0.26361100000000004,1.0,2.36328e-07,1.0,-65.2698,1.0,5.79163e-05,1.0
0.264099,1.0,2.3973099999999996e-07,1.0,-66.93984,1.0,5.8026099999999997e-05,1.0
0.264465,1.0,2.444915e-07,1.0,-67.86252,1.0,5.85938e-05,1.0
0.264862,1.0,2.502745e-07,1.0,-67.7088,1.0,5.86792e-05,1.0
0.265289,1.0,2.550355e-07,1.0,-66.654,1.0,5.8581499999999995e-05,1.0
0.26556399999999997,1.0,2.5785849999999997e-07,1.0,-65.09412,1.0,5.99182e-05,1.0
0.266022,1.0,2.587435e-07,1.0,-63.42407999999999,1.0,5.90851e-05,1.0
0.266418,1.0,2.578735e-07,1.0,-61.85304000000001,1.0,5.8953900000000005e-05,1.0
0.266754,1.0,2.5585949999999995e-07,1.0,-60.66648,1.0,5.91003e-05,1.0
0.267151,1.0,2.53311e-07,1.0,-60.1722,1.0,5.9524499999999996e-05,1.0
0.26766999999999996,1.0,2.5134299999999995e-07,1.0,-60.68844,1.0,6.0141000000000006e-05,1.0
0.267914,1.0,2.49649e-07,1.0,-61.98479999999999,1.0,5.98755e-05,1.0
0.26828,1.0,2.49649e-07,1.0,-63.55584,1.0,5.99182e-05,1.0
0.26870700000000003,1.0,2.5119e-07,1.0,-64.89612,1.0,6.0553e-05,1.0
0.269012,1.0,2.546235e-07,1.0,-65.75327999999999,1.0,6.01013e-05,1.0
0.26956199999999997,1.0,2.587585e-07,1.0,-66.18168,1.0,6.0076899999999994e-05,1.0
0.269897,1.0,2.630155e-07,1.0,-65.98404000000001,1.0,6.07086e-05,1.0
0.270203,1.0,2.664795e-07,1.0,-65.3688,1.0,6.12762e-05,1.0
0.27063000000000004,1.0,2.68753e-07,1.0,-64.4238,1.0,6.0739099999999996e-05,1.0
0.270996,1.0,2.696075e-07,1.0,-63.34704000000001,1.0,6.15753e-05,1.0
0.271332,1.0,2.694245e-07,1.0,-62.36928,1.0,6.162109999999999e-05,1.0
0.27175900000000003,1.0,2.6840199999999994e-07,1.0,-61.710119999999996,1.0,6.1792e-05,1.0
0.27218600000000004,1.0,2.66266e-07,1.0,-61.732079999999996,1.0,6.20544e-05,1.0
0.272552,1.0,2.6338199999999997e-07,1.0,-62.42435999999999,1.0,6.264649999999999e-05,1.0
0.272949,1.0,2.60956e-07,1.0,-63.69875999999999,1.0,6.29395e-05,1.0
0.273285,1.0,2.6033e-07,1.0,-64.92924000000001,1.0,6.35406e-05,1.0
0.273804,1.0,2.612915e-07,1.0,-65.90700000000001,1.0,6.32599e-05,1.0
0.2742,1.0,2.6341249999999996e-07,1.0,-66.46716,1.0,6.3446e-05,1.0
0.274567,1.0,2.66342e-07,1.0,-66.50028,1.0,6.34247e-05,1.0
0.274994,1.0,2.6896649999999996e-07,1.0,-66.37932,1.0,6.380619999999999e-05,1.0
0.27533,1.0,2.71805e-07,1.0,-66.03876,1.0,6.58936e-05,1.0
0.275726,1.0,2.7342199999999997e-07,1.0,-65.37960000000001,1.0,6.44775e-05,1.0
0.276154,1.0,2.7444450000000003e-07,1.0,-64.40184,1.0,6.45233e-05,1.0
0.27652,1.0,2.7416999999999997e-07,1.0,-63.51192000000001,1.0,6.46332e-05,1.0
0.276917,1.0,2.7269e-07,1.0,-62.97372,1.0,6.53839e-05,1.0
0.277344,1.0,2.711945e-07,1.0,-63.006479999999996,1.0,6.52954e-05,1.0
0.277649,1.0,2.69623e-07,1.0,-63.36900000000001,1.0,6.49933e-05,1.0
0.27813699999999997,1.0,2.691955e-07,1.0,-63.951480000000004,1.0,6.55762e-05,1.0
0.278503,1.0,2.7029399999999997e-07,1.0,-64.78632,1.0,6.59821e-05,1.0
0.2789,1.0,2.7287299999999996e-07,1.0,-65.35764,1.0,6.633e-05,1.0
0.279327,1.0,2.7630599999999996e-07,1.0,-65.61035999999999,1.0,6.57837e-05,1.0
0.279694,1.0,2.80075e-07,1.0,-65.32488,1.0,6.64398e-05,1.0
0.28006,1.0,2.833405e-07,1.0,-64.61064000000002,1.0,6.69647e-05,1.0
0.280487,1.0,2.85858e-07,1.0,-63.55584,1.0,6.72241e-05,1.0
0.280823,1.0,2.872465e-07,1.0,-62.39124,1.0,6.71173e-05,1.0
0.281219,1.0,2.87201e-07,1.0,-61.54524,1.0,6.61652e-05,1.0
0.281586,1.0,2.868345e-07,1.0,-61.30368,1.0,6.75354e-05,1.0
0.282013,1.0,2.8656e-07,1.0,-61.600319999999996,1.0,6.777649999999999e-05,1.0
0.282471,1.0,2.8721599999999994e-07,1.0,-62.0946,1.0,6.77856e-05,1.0
0.282806,1.0,2.8810099999999997e-07,1.0,-62.721000000000004,1.0,6.85486e-05,1.0
0.283051,1.0,2.89383e-07,1.0,-63.17135999999999,1.0,6.8985e-05,1.0
0.283661,1.0,2.9092399999999997e-07,1.0,-63.69875999999999,1.0,6.915279999999999e-05,1.0
0.283966,1.0,2.9310599999999995e-07,1.0,-64.45692,1.0,6.83228e-05,1.0
0.28436300000000003,1.0,2.9576099999999997e-07,1.0,-65.35764,1.0,6.9043e-05,1.0
0.28479,1.0,2.990415e-07,1.0,-66.17052,1.0,7.034e-05,1.0
0.284973,1.0,3.01605e-07,1.0,-66.50028,1.0,7.02728e-05,1.0
0.285553,1.0,3.035125e-07,1.0,-66.21444,1.0,7.0108e-05,1.0
0.285919,1.0,3.0422949999999995e-07,1.0,-65.29176,1.0,7.00195e-05,1.0
0.286285,1.0,3.041685e-07,1.0,-64.07244,1.0,7.0639e-05,1.0
0.286652,1.0,3.02948e-07,1.0,-63.0504,1.0,7.094729999999999e-05,1.0
0.287079,1.0,3.00949e-07,1.0,-62.457119999999996,1.0,7.23785e-05,1.0
0.287476,1.0,2.9882800000000003e-07,1.0,-62.53416,1.0,7.1167e-05,1.0
0.287903,1.0,2.974245e-07,1.0,-63.32507999999999,1.0,7.14691e-05,1.0
0.288208,1.0,2.9728699999999995e-07,1.0,-64.58868,1.0,7.2229e-05,1.0
0.288635,1.0,2.981565e-07,1.0,-65.87388,1.0,7.21588e-05,1.0
0.289093,1.0,3.0012499999999994e-07,1.0,-66.85164,1.0,7.32513e-05,1.0
0.289398,1.0,3.033295e-07,1.0,-67.47804000000001,1.0,7.24884e-05,1.0
0.28976399999999997,1.0,3.0748e-07,1.0,-67.51115999999999,1.0,7.196350000000001e-05,1.0
0.2901,1.0,3.1181350000000003e-07,1.0,-66.90672,1.0,7.29584e-05,1.0
0.290497,1.0,3.148955e-07,1.0,-65.90700000000001,1.0,7.299800000000001e-05,1.0
0.290985,1.0,3.16818e-07,1.0,-64.87415999999999,1.0,7.17133e-05,1.0
0.29129,1.0,3.176725e-07,1.0,-63.79776,1.0,7.37091e-05,1.0
0.291687,1.0,3.170775e-07,1.0,-62.89667999999999,1.0,7.40631e-05,1.0
0.292084,1.0,3.15796e-07,1.0,-62.303399999999996,1.0,7.34222e-05,1.0
0.29248,1.0,3.14438e-07,1.0,-62.072640000000014,1.0,7.46735e-05,1.0
0.292786,1.0,3.13736e-07,1.0,-62.501400000000004,1.0,7.35626e-05,1.0
0.293274,1.0,3.13797e-07,1.0,-63.32507999999999,1.0,7.48047e-05,1.0
0.293671,1.0,3.1507849999999995e-07,1.0,-64.48967999999999,1.0,7.5174e-05,1.0
0.294037,1.0,3.1797800000000004e-07,1.0,-65.53332,1.0,7.52258e-05,1.0
0.294464,1.0,3.2182300000000004e-07,1.0,-66.10464,1.0,7.57446e-05,1.0
0.294769,1.0,3.25821e-07,1.0,-66.25872000000001,1.0,7.61353e-05,1.0
0.295227,1.0,3.299255e-07,1.0,-65.86308,1.0,7.604979999999999e-05,1.0
