Potential,potstdev,Photocurrent (nA),pcstdev,Phase (°),phstdev,DC Current (µA),dcCurrstdev
-0.116943,1.0,1.2724299999999998e-08,1.0,-131.79204,1.0,-1.3800000000000002e-05,1.0
-0.116547,1.0,6.47735e-09,1.0,-94.65804000000001,1.0,-1.3300000000000001e-05,1.0
-0.116211,1.0,3.1326299999999998e-09,1.0,-24.628068,1.0,-1.4000000000000001e-05,1.0
-0.115875,1.0,4.948425e-09,1.0,41.20956,1.0,-1.34e-05,1.0
-0.115448,1.0,7.73925e-09,1.0,81.8262,1.0,-1.28e-05,1.0
-0.115051,1.0,9.2636e-09,1.0,124.06859999999999,1.0,-1.2e-05,1.0
-0.114624,1.0,1.060945e-08,1.0,170.48592,1.0,-1.29e-05,1.0
-0.114227,1.0,1.2976049999999998e-08,1.0,210.76164,1.0,-1.27e-05,1.0
-0.11389200000000001,1.0,1.4486700000000001e-08,1.0,243.85248,1.0,-1.25e-05,1.0
-0.11346400000000001,1.0,1.4349349999999999e-08,1.0,277.317,1.0,-1.23e-05,1.0
-0.113098,1.0,1.374205e-08,1.0,311.87988,1.0,-1.1599999999999999e-05,1.0
-0.112701,1.0,1.2844849999999999e-08,1.0,345.62988,1.0,-1.11e-05,1.0
-0.11233499999999999,1.0,1.137695e-08,1.0,-336.63204,1.0,-1.17e-05,1.0
-0.11193800000000001,1.0,1.01242e-08,1.0,-291.75300000000004,1.0,-1.26e-05,1.0
-0.11145,1.0,9.677099999999998e-09,1.0,-249.27983999999998,1.0,-1.25e-05,1.0
-0.111115,1.0,8.688349999999999e-09,1.0,-210.41028,1.0,-1.18e-05,1.0
-0.110687,1.0,6.90615e-09,1.0,-167.27796,1.0,-1.15e-05,1.0
-0.11035199999999999,1.0,5.210899999999999e-09,1.0,-108.07236,1.0,-1.21e-05,1.0
-0.109955,1.0,6.02415e-09,1.0,-46.505160000000004,1.0,-1.15e-05,1.0
-0.109528,1.0,7.4997e-09,1.0,3.706776,1.0,-1.11e-05,1.0
-0.109222,1.0,7.142649999999998e-09,1.0,55.20636,1.0,-1.0800000000000002e-05,1.0
-0.10876500000000001,1.0,7.10295e-09,1.0,116.77356,1.0,-9.97e-06,1.0
-0.108368,1.0,8.935549999999999e-09,1.0,173.25432,1.0,-1.11e-05,1.0
-0.107971,1.0,1.2268049999999999e-08,1.0,212.94791999999998,1.0,-1.09e-05,1.0
-0.107544,1.0,1.6041549999999998e-08,1.0,242.65511999999998,1.0,-1.11e-05,1.0
-0.107147,1.0,1.8019099999999996e-08,1.0,268.38504,1.0,-9.92e-06,1.0
-0.106781,1.0,1.6894549999999996e-08,1.0,297.1692,1.0,-9.9e-06,1.0
-0.106445,1.0,1.494295e-08,1.0,330.36984,1.0,-9.66e-06,1.0
-0.10598800000000001,1.0,1.3497899999999997e-08,1.0,-351.65052000000003,1.0,-9.67e-06,1.0
-0.105621,1.0,1.1737049999999999e-08,1.0,-316.8018,1.0,-1.06e-05,1.0
-0.10519400000000001,1.0,8.756999999999999e-09,1.0,-280.5138,1.0,-1.05e-05,1.0
-0.10476700000000001,1.0,5.03845e-09,1.0,-229.07592,1.0,-9.95e-06,1.0
-0.10437,1.0,2.7923599999999997e-09,1.0,-156.43439999999998,1.0,-9.76e-06,1.0
-0.104065,1.0,1.72119e-09,1.0,-66.47832000000001,1.0,-1.05e-05,1.0
-0.10360699999999999,1.0,3.019715e-09,1.0,28.608407999999997,1.0,-9.64e-06,1.0
-0.10324100000000001,1.0,5.67475e-09,1.0,87.31944000000001,1.0,-9.02e-06,1.0
-0.102875,1.0,8.670049999999999e-09,1.0,127.00188,1.0,-8.73e-06,1.0
-0.102478,1.0,1.2187200000000001e-08,1.0,154.5336,1.0,-9.18e-06,1.0
-0.10208099999999999,1.0,1.58127e-08,1.0,178.69248,1.0,-8.89e-06,1.0
-0.101715,1.0,1.8255599999999996e-08,1.0,204.15888,1.0,-7.57e-06,1.0
-0.101349,1.0,1.960755e-08,1.0,228.73536,1.0,-8.72e-06,1.0
-0.100922,1.0,1.891175e-08,1.0,256.13532,1.0,-9.02e-06,1.0
-0.10055499999999999,1.0,1.7083750000000002e-08,1.0,284.61168000000004,1.0,-8.42e-06,1.0
-0.100128,1.0,1.3780200000000003e-08,1.0,316.95552000000004,1.0,-8.42e-06,1.0
-0.0997314,1.0,9.9304e-09,1.0,359.3628,1.0,-9.15e-06,1.0
-0.0992432,1.0,7.810949999999999e-09,1.0,-300.58596,1.0,-8.99e-06,1.0
-0.09890750000000001,1.0,7.77895e-09,1.0,-234.756,1.0,-9.28e-06,1.0
-0.0985718,1.0,9.55355e-09,1.0,-179.25300000000001,1.0,-8.83e-06,1.0
-0.09811399999999999,1.0,1.157835e-08,1.0,-138.85631999999998,1.0,-8.67e-06,1.0
-0.0977783,1.0,1.1894249999999999e-08,1.0,-108.38016,1.0,-8.94e-06,1.0
-0.09735110000000001,1.0,1.0409549999999997e-08,1.0,-83.13372000000001,1.0,-9.04e-06,1.0
-0.0969238,1.0,8.0139e-09,1.0,-52.97616000000001,1.0,-8.58e-06,1.0
-0.0965271,1.0,5.183399999999999e-09,1.0,-12.03444,1.0,-8.37e-06,1.0
-0.0961914,1.0,2.99225e-09,1.0,45.38448,1.0,-8.81e-06,1.0
-0.0957642,1.0,2.10266e-09,1.0,121.42079999999999,1.0,-7.8e-06,1.0
-0.09533689999999999,1.0,3.3752449999999995e-09,1.0,204.34571999999997,1.0,-7.56e-06,1.0
-0.09494019999999999,1.0,7.087699999999999e-09,1.0,268.5168,1.0,-7.95e-06,1.0
-0.094574,1.0,1.20331e-08,1.0,310.13316,1.0,-8.11e-06,1.0
-0.09417719999999999,1.0,1.6360449999999997e-08,1.0,338.38992,1.0,-7.84e-06,1.0
-0.09375,1.0,1.905825e-08,1.0,359.52768000000003,1.0,-7.35e-06,1.0
-0.0933533,1.0,1.9654849999999998e-08,1.0,-338.51088000000004,1.0,-8.11e-06,1.0
-0.09304810000000001,1.0,1.868135e-08,1.0,-316.8126,1.0,-9.04e-06,1.0
-0.0925903,1.0,1.66168e-08,1.0,-291.85164,1.0,-7.27e-06,1.0
-0.0922241,1.0,1.2979149999999998e-08,1.0,-265.51764,1.0,-7.82e-06,1.0
-0.0917664,1.0,7.598899999999999e-09,1.0,-230.47127999999998,1.0,-7.81e-06,1.0
-0.09136960000000001,1.0,1.893615e-09,1.0,-157.01651999999999,1.0,-7.95e-06,1.0
-0.0910034,1.0,5.3406e-10,1.0,-30.498048,1.0,-7.7e-06,1.0
-0.0906677,1.0,4.23279e-09,1.0,58.3704,1.0,-7.18e-06,1.0
-0.0902405,1.0,7.978799999999999e-09,1.0,101.79936000000001,1.0,-7.1e-06,1.0
-0.0898132,1.0,1.11725e-08,1.0,129.71555999999998,1.0,-6.9e-06,1.0
-0.08938600000000001,1.0,1.352235e-08,1.0,144.49211999999997,1.0,-6.42e-06,1.0
-0.0890503,1.0,1.57608e-08,1.0,154.413,1.0,-6.81e-06,1.0
-0.08862300000000001,1.0,1.6813650000000002e-08,1.0,164.68488,1.0,-6.51e-06,1.0
-0.08822630000000001,1.0,1.59485e-08,1.0,181.2636,1.0,-5.66e-06,1.0
-0.0877991,1.0,1.2915049999999998e-08,1.0,207.53172,1.0,-6.88e-06,1.0
-0.0874329,1.0,9.0744e-09,1.0,247.30236000000005,1.0,-6.1e-06,1.0
-0.0870972,1.0,5.6075999999999995e-09,1.0,309.66048,1.0,-5.95e-06,1.0
-0.08663939999999999,1.0,4.96216e-09,1.0,-327.78792,1.0,-7.03e-06,1.0
-0.0862427,1.0,8.11155e-09,1.0,-264.38616,1.0,-6.85e-06,1.0
-0.08584589999999999,1.0,1.0455299999999998e-08,1.0,-234.06371999999996,1.0,-5.94e-06,1.0
-0.08551030000000001,1.0,9.24225e-09,1.0,-208.80611999999996,1.0,-6.7e-06,1.0
-0.0851135,1.0,6.8801999999999995e-09,1.0,-181.88963999999999,1.0,-6.32e-06,1.0
-0.08474730000000001,1.0,3.866575e-09,1.0,-144.17352,1.0,-5.98e-06,1.0
-0.0843811,1.0,1.42975e-09,1.0,-85.30884,1.0,-5.53e-06,1.0
-0.0839233,1.0,1.2374899999999998e-09,1.0,4.6362239999999995,1.0,-5.71e-06,1.0
-0.08358760000000001,1.0,2.7328499999999997e-09,1.0,78.57432,1.0,-6.15e-06,1.0
-0.0831909,1.0,4.244994999999999e-09,1.0,131.23152,1.0,-5.85e-06,1.0
-0.0827942,1.0,4.93469e-09,1.0,179.53848,1.0,-4.97e-06,1.0
-0.0823975,1.0,5.1758e-09,1.0,232.67952,1.0,-5.54e-06,1.0
-0.0820007,1.0,6.893899999999999e-09,1.0,286.93008000000003,1.0,-4.75e-06,1.0
-0.0816345,1.0,9.924299999999998e-09,1.0,321.54768,1.0,-5.26e-06,1.0
-0.0812988,1.0,1.198275e-08,1.0,345.0258,1.0,-5.29e-06,1.0
-0.0808716,1.0,1.359255e-08,1.0,-349.84871999999996,1.0,-6.01e-06,1.0
-0.08041380000000001,1.0,1.491395e-08,1.0,-323.82216000000005,1.0,-5.94e-06,1.0
-0.08007810000000001,1.0,1.6044599999999997e-08,1.0,-300.37716000000006,1.0,-6.34e-06,1.0
-0.0796509,1.0,1.6526800000000002e-08,1.0,-282.97476,1.0,-5.87e-06,1.0
-0.0792236,1.0,1.494905e-08,1.0,-269.16516,1.0,-5.98e-06,1.0
-0.0788574,1.0,1.2145999999999998e-08,1.0,-254.16863999999995,1.0,-5.56e-06,1.0
-0.0784912,1.0,7.843000000000001e-09,1.0,-239.07348000000002,1.0,-5.87e-06,1.0
-0.07809450000000001,1.0,1.474e-09,1.0,-228.13128,1.0,-5.47e-06,1.0
-0.0777283,1.0,-4.336550000000001e-09,1.0,-263.66076000000004,1.0,-5.54e-06,1.0
-0.07733150000000001,1.0,-2.508545e-09,1.0,215.63964,1.0,-4.9e-06,1.0
-0.0769043,1.0,1.6326899999999999e-09,1.0,216.43056,1.0,-4.28e-06,1.0
-0.0765686,1.0,5.75865e-09,1.0,224.07731999999996,1.0,-4.57e-06,1.0
-0.0761108,1.0,8.78295e-09,1.0,228.55968000000001,1.0,-4.62e-06,1.0
-0.07574460000000001,1.0,9.997549999999998e-09,1.0,237.46931999999998,1.0,-4.86e-06,1.0
-0.07531739999999999,1.0,9.994499999999999e-09,1.0,254.45448000000002,1.0,-5.07e-06,1.0
-0.0748901,1.0,7.57445e-09,1.0,282.195,1.0,-5.26e-06,1.0
-0.07455439999999999,1.0,5.4031499999999995e-09,1.0,334.0944,1.0,-4.03e-06,1.0
-0.07412719999999999,1.0,6.09285e-09,1.0,-314.25300000000004,1.0,-5.6e-06,1.0
-0.07376100000000001,1.0,9.387200000000001e-09,1.0,-261.73836,1.0,-5.42e-06,1.0
-0.07336430000000001,1.0,1.2339799999999999e-08,1.0,-222.17651999999998,1.0,-4.96e-06,1.0
-0.072937,1.0,1.424865e-08,1.0,-187.87715999999998,1.0,-4.85e-06,1.0
-0.0725708,1.0,1.4462299999999999e-08,1.0,-163.91591999999997,1.0,-5.4e-06,1.0
-0.07223510000000001,1.0,1.210175e-08,1.0,-151.10604,1.0,-5.22e-06,1.0
-0.0718079,1.0,8.045949999999999e-09,1.0,-145.2942,1.0,-4.45e-06,1.0
-0.0714111,1.0,3.190615e-09,1.0,-143.58024,1.0,-4.34e-06,1.0
-0.07101439999999999,1.0,-1.45569e-09,1.0,-157.0824,1.0,-4.98e-06,1.0
-0.0706177,1.0,-5.1132e-09,1.0,-270.06588,1.0,-4.1e-06,1.0
-0.07022089999999999,1.0,-2.511595e-09,1.0,301.91544,1.0,-4.22e-06,1.0
-0.0698547,1.0,9.7046e-10,1.0,308.66076,1.0,-3.88e-06,1.0
-0.069458,1.0,4.478455e-09,1.0,322.07508,1.0,-3.98e-06,1.0
-0.0690918,1.0,7.0449999999999996e-09,1.0,333.87443999999994,1.0,-3.97e-06,1.0
-0.06872560000000001,1.0,8.35265e-09,1.0,350.40888,1.0,-3.84e-06,1.0
-0.0682983,1.0,9.5459e-09,1.0,-350.79336,1.0,-4.79e-06,1.0
-0.0679016,1.0,1.08307e-08,1.0,-331.27092,1.0,-3.89e-06,1.0
-0.06750489999999999,1.0,1.137695e-08,1.0,-320.81183999999996,1.0,-4.2e-06,1.0
-0.0670776,1.0,9.964e-09,1.0,-316.73592,1.0,-4.41e-06,1.0
-0.06671139999999999,1.0,6.456e-09,1.0,-315.9558,1.0,-3.93e-06,1.0
-0.0662842,1.0,1.64032e-09,1.0,-321.28416000000004,1.0,-4.7e-06,1.0
-0.06594850000000001,1.0,-3.3004750000000002e-09,1.0,353.15567999999996,1.0,-3.98e-06,1.0
-0.06555180000000001,1.0,-2.5833149999999998e-09,1.0,169.42031999999998,1.0,-4.04e-06,1.0
-0.0651245,1.0,1.2115499999999998e-09,1.0,152.10575999999998,1.0,-3.5e-06,1.0
-0.0647583,1.0,4.481505e-09,1.0,167.28876,1.0,-3.68e-06,1.0
-0.06427000000000001,1.0,7.69805e-09,1.0,191.7882,1.0,-4.03e-06,1.0
-0.06393430000000001,1.0,1.071775e-08,1.0,211.44276,1.0,-3.34e-06,1.0
-0.0635071,1.0,1.3371299999999999e-08,1.0,227.51604000000003,1.0,-3.13e-06,1.0
-0.0631714,1.0,1.57791e-08,1.0,245.01708000000002,1.0,-3.45e-06,1.0
-0.06277469999999999,1.0,1.7231749999999998e-08,1.0,262.67220000000003,1.0,-2.78e-06,1.0
-0.0624084,1.0,1.7062400000000003e-08,1.0,277.60248,1.0,-3.23e-06,1.0
-0.0619812,1.0,1.4372249999999998e-08,1.0,296.46612,1.0,-3.6e-06,1.0
-0.061614999999999996,1.0,9.93195e-09,1.0,333.6876,1.0,-3.31e-06,1.0
-0.061218299999999996,1.0,7.34255e-09,1.0,-330.63372,1.0,-3.67e-06,1.0
-0.0607605,1.0,6.504799999999999e-09,1.0,-273.6144,1.0,-3.16e-06,1.0
-0.06042480000000001,1.0,5.63505e-09,1.0,-228.51576,1.0,-3.89e-06,1.0
-0.0599976,1.0,3.4225449999999996e-09,1.0,-190.27223999999998,1.0,-2.95e-06,1.0
-0.0596008,1.0,1.29242e-09,1.0,-147.55752,1.0,-3.21e-06,1.0
-0.059204099999999996,1.0,-8.926399999999999e-10,1.0,-105.31512000000001,1.0,-2.67e-06,1.0
-0.058868399999999994,1.0,-3.788755e-09,1.0,-30.530988,1.0,-3.25e-06,1.0
-0.0584106,1.0,-3.79486e-09,1.0,179.50571999999997,1.0,-2.99e-06,1.0
-0.058044399999999996,1.0,-3.87573e-10,1.0,227.17511999999996,1.0,-3.09e-06,1.0
-0.0576172,1.0,2.755735e-09,1.0,242.89668,1.0,-2.14e-06,1.0
-0.057281500000000006,1.0,4.74396e-09,1.0,252.26820000000004,1.0,-4.16e-06,1.0
-0.056884800000000006,1.0,5.38175e-09,1.0,266.08896000000004,1.0,-2.77e-06,1.0
-0.056488,1.0,6.484999999999999e-09,1.0,285.46883999999994,1.0,-2.43e-06,1.0
-0.05606080000000001,1.0,7.098399999999999e-09,1.0,305.10144,1.0,-2.45e-06,1.0
-0.055694600000000004,1.0,6.8741e-09,1.0,327.23891999999995,1.0,-2.2e-06,1.0
-0.055297900000000004,1.0,5.606100000000001e-09,1.0,359.50572,1.0,-2.42e-06,1.0
-0.054901099999999994,1.0,3.89099e-09,1.0,-318.18600000000004,1.0,-2.44e-06,1.0
-0.0545044,1.0,2.3513800000000002e-09,1.0,-256.35492,1.0,-2.73e-06,1.0
-0.0541687,1.0,1.88904e-09,1.0,-189.77796,1.0,-2.53e-06,1.0
-0.053772,1.0,2.101135e-09,1.0,-131.3856,1.0,-2.56e-06,1.0
-0.0533447,1.0,2.7771000000000003e-09,1.0,-94.92192,1.0,-2.15e-06,1.0
-0.053009,1.0,3.152465e-09,1.0,-80.57376,1.0,-3.16e-06,1.0
-0.052520800000000006,1.0,2.764895e-09,1.0,-73.7622,1.0,-2.53e-06,1.0
-0.05215449999999999,1.0,9.67405e-10,1.0,-60.55667999999999,1.0,-2.99e-06,1.0
-0.0517578,1.0,-1.379395e-09,1.0,-19.377684,1.0,-2.11e-06,1.0
-0.051391599999999996,1.0,-2.89154e-09,1.0,69.97175999999999,1.0,-1.6e-06,1.0
-0.0509338,1.0,-2.19116e-09,1.0,183.09815999999998,1.0,-1.98e-06,1.0
-0.0505676,1.0,-2.944945e-10,1.0,245.1708,1.0,-3e-06,1.0
-0.0502319,1.0,1.1703499999999998e-09,1.0,283.76604,1.0,-2.18e-06,1.0
-0.0497742,1.0,1.4633199999999999e-09,1.0,322.6464,1.0,-2.06e-06,1.0
-0.049426300000000006,1.0,1.670835e-09,1.0,-357.91272,1.0,-2.53e-06,1.0
-0.0490234,1.0,2.1575949999999997e-09,1.0,-328.53528,1.0,-2.54e-06,1.0
-0.048632800000000004,1.0,2.7236949999999997e-09,1.0,-320.24051999999995,1.0,-1.88e-06,1.0
-0.0482361,1.0,2.31323e-09,1.0,-324.90972,1.0,-1.92e-06,1.0
-0.047851599999999994,1.0,7.385249999999999e-10,1.0,-338.86224,1.0,-2.27e-06,1.0
-0.0474731,1.0,-2.52838e-09,1.0,354.6936,1.0,-1.76e-06,1.0
-0.0470825,1.0,-4.85382e-09,1.0,154.52280000000002,1.0,-2.07e-06,1.0
-0.0466766,1.0,-5.61525e-10,1.0,86.97888,1.0,-1.78e-06,1.0
-0.046273800000000004,1.0,2.72522e-09,1.0,96.98724000000001,1.0,-6.18e-07,1.0
-0.0459106,1.0,4.211425e-09,1.0,120.75084,1.0,-1.81e-06,1.0
-0.0454865,1.0,4.255675e-09,1.0,144.40428000000003,1.0,-1.45e-06,1.0
-0.045095800000000005,1.0,3.572085e-09,1.0,170.0136,1.0,-1.87e-06,1.0
-0.0447388,1.0,3.3905049999999998e-09,1.0,199.10520000000002,1.0,-1.2e-06,1.0
-0.044323699999999994,1.0,2.93274e-09,1.0,226.23048,1.0,-1.17e-06,1.0
-0.043936199999999995,1.0,2.04773e-09,1.0,245.00628,1.0,-1.75e-06,1.0
-0.043582199999999995,1.0,4.92859e-10,1.0,269.53848000000005,1.0,-1.85e-06,1.0
-0.043185400000000006,1.0,-3.50952e-10,1.0,306.37584,1.0,-1.1e-06,1.0
-0.0427704,1.0,-1.2222299999999998e-09,1.0,352.12283999999994,1.0,-9.15e-07,1.0
-0.042385900000000004,1.0,-1.402285e-09,1.0,-300.44304,1.0,-1.8e-06,1.0
-0.04198,1.0,-9.9182e-10,1.0,-245.907,1.0,-1.56e-06,1.0
-0.041625999999999996,1.0,-7.43105e-10,1.0,-201.08268,1.0,-1.65e-06,1.0
-0.0412262,1.0,-9.7809e-10,1.0,-149.01839999999999,1.0,-1.83e-06,1.0
-0.0407898,1.0,-7.5531e-10,1.0,-90.43956,1.0,-9.27e-07,1.0
-0.0404144,1.0,-4.92859e-10,1.0,-33.233652,1.0,-1.06e-06,1.0
-0.0400269,1.0,-3.12805e-10,1.0,17.986824000000002,1.0,-1.84e-06,1.0
-0.039672900000000004,1.0,-3.02124e-10,1.0,59.842439999999996,1.0,-1.47e-06,1.0
-0.0392487,1.0,-1.187135e-09,1.0,121.43196,1.0,-1.8100000000000002e-07,1.0
-0.0388977,1.0,-3.448485e-10,1.0,214.40915999999999,1.0,-1.13e-06,1.0
-0.038504000000000004,1.0,3.416445e-09,1.0,272.3292,1.0,-1.4e-06,1.0
-0.0381317,1.0,7.0449999999999996e-09,1.0,304.47504,1.0,-1.33e-06,1.0
-0.037719699999999995,1.0,1.017915e-08,1.0,321.94331999999997,1.0,-4.48e-07,1.0
-0.0373108,1.0,1.1849999999999999e-08,1.0,332.97371999999996,1.0,-1.02e-06,1.0
-0.036923199999999996,1.0,1.2026999999999999e-08,1.0,340.91676,1.0,-5.95e-07,1.0
-0.0365204,1.0,1.2083450000000001e-08,1.0,346.95936,1.0,-1.04e-06,1.0
-0.036157199999999994,1.0,1.12274e-08,1.0,350.80452,1.0,-1.72e-06,1.0
-0.035739099999999996,1.0,8.665450000000001e-09,1.0,355.66056,1.0,-1.38e-06,1.0
-0.0353546,1.0,5.642699999999999e-09,1.0,-358.79148000000004,1.0,-1.2e-06,1.0
-0.0349609,1.0,3.163145e-09,1.0,359.52768000000003,1.0,-7.4e-07,1.0
-0.0346069,1.0,1.2008649999999999e-09,1.0,349.596,1.0,-3.86e-07,1.0
-0.0342163,1.0,-3.5858150000000003e-10,1.0,337.52196,1.0,-1.64e-06,1.0
-0.0338165,1.0,-1.982115e-09,1.0,300.55283999999995,1.0,-8.87e-07,1.0
-0.0334167,1.0,-2.438355e-09,1.0,237.17268000000004,1.0,-1.19e-06,1.0
-0.0329834,1.0,-1.1947649999999999e-09,1.0,197.87471999999997,1.0,-6.64e-07,1.0
-0.0326111,1.0,5.41685e-10,1.0,198.95148,1.0,-7.49e-07,1.0
-0.0322327,1.0,1.651e-09,1.0,213.38748,1.0,-1.23e-06,1.0
-0.031808499999999996,1.0,2.31476e-09,1.0,229.68,1.0,-6.590000000000001e-07,1.0
-0.0314423,1.0,2.0797749999999997e-09,1.0,251.92763999999997,1.0,-7.35e-07,1.0
-0.031051599999999995,1.0,1.88141e-09,1.0,292.77468000000005,1.0,-8.42e-07,1.0
-0.030645799999999997,1.0,1.882935e-09,1.0,338.28012,1.0,-2.57e-07,1.0
-0.030224599999999997,1.0,2.0797749999999997e-09,1.0,-337.79663999999997,1.0,-1.37e-06,1.0
-0.029833999999999996,1.0,2.105715e-09,1.0,-303.17868000000004,1.0,-1.23e-06,1.0
-0.0294647,1.0,1.25122e-09,1.0,-254.68488000000002,1.0,-9.89e-07,1.0
-0.029068,1.0,1.6922e-09,1.0,-192.31560000000002,1.0,-1.73e-06,1.0
-0.0286804,1.0,4.0740949999999995e-09,1.0,-138.88908,1.0,-9.42e-07,1.0
-0.028271499999999998,1.0,6.523149999999999e-09,1.0,-98.96472000000001,1.0,-1.64e-06,1.0
-0.0278656,1.0,7.3471e-09,1.0,-65.50056,1.0,-1.21e-06,1.0
-0.0274872,1.0,6.4742999999999994e-09,1.0,-28.850112000000003,1.0,-9.63e-07,1.0
-0.027099599999999998,1.0,5.1376499999999995e-09,1.0,2.9003904,1.0,-1.05e-06,1.0
-0.0266937,1.0,3.3935549999999997e-09,1.0,17.526492,1.0,-1.27e-06,1.0
-0.026269499999999998,1.0,5.5084e-10,1.0,21.662855999999998,1.0,-8.38e-07,1.0
-0.0258942,1.0,-2.227785e-09,1.0,17.75502,1.0,-6.110000000000001e-07,1.0
-0.0254822,1.0,-4.57306e-09,1.0,-0.4325328,1.0,-5.04e-07,1.0
-0.0250885,1.0,-5.41535e-09,1.0,-316.79064,1.0,-8.49e-07,1.0
-0.0246613,1.0,-3.3203149999999996e-09,1.0,-315.64836,1.0,-1.46e-06,1.0
-0.0242981,1.0,-1.197815e-09,1.0,-302.29992,1.0,-1.56e-06,1.0
-0.0238922,1.0,3.341675e-10,1.0,-290.6874,1.0,-1.07e-06,1.0
-0.0235077,1.0,1.23291e-09,1.0,-286.21583999999996,1.0,-4.05e-07,1.0
-0.0231079,1.0,1.65558e-09,1.0,-283.83191999999997,1.0,-1.21e-06,1.0
-0.022702,1.0,1.74408e-09,1.0,-280.48104,1.0,-1.44e-06,1.0
-0.0223358,1.0,1.26953e-09,1.0,-273.98807999999997,1.0,-8.21e-07,1.0
-0.021890299999999998,1.0,-5.950949999999999e-11,1.0,-266.16564,1.0,-1.12e-06,1.0
-0.021521000000000002,1.0,-1.356505e-09,1.0,-262.44143999999994,1.0,-1.83e-06,1.0
-0.021106,1.0,-2.438355e-09,1.0,-263.66076000000004,1.0,-1.01e-06,1.0
-0.0207275,1.0,-3.23944e-09,1.0,-279.19548,1.0,-4.839999999999999e-07,1.0
-0.0203613,1.0,-3.961179999999999e-09,1.0,-318.35088,1.0,-7.94e-07,1.0
-0.0199707,1.0,-3.918455e-09,1.0,335.34684,1.0,-6.45e-07,1.0
-0.0195679,1.0,-3.0899049999999998e-09,1.0,292.88448000000005,1.0,-2.37e-07,1.0
-0.019174200000000002,1.0,-1.3900749999999999e-09,1.0,280.404,1.0,6.3e-07,1.0
-0.0187775,1.0,5.783099999999999e-10,1.0,283.52412,1.0,1.34e-07,1.0
-0.0184296,1.0,1.43738e-09,1.0,289.85220000000004,1.0,4.16e-07,1.0
-0.0179779,1.0,1.838685e-09,1.0,297.98208000000005,1.0,3.1e-07,1.0
-0.0176331,1.0,1.620485e-09,1.0,315.02196,1.0,3.97e-09,1.0
-0.017215,1.0,6.8207e-10,1.0,348.88176,1.0,3.7799999999999997e-07,1.0
-0.016796900000000003,1.0,9.185799999999999e-10,1.0,-320.21856,1.0,-1.8399999999999998e-07,1.0
-0.016409299999999998,1.0,2.0355199999999996e-09,1.0,-267.1326,1.0,2.66e-08,1.0
-0.016012600000000002,1.0,3.796385e-09,1.0,-232.73424,1.0,5.7400000000000004e-08,1.0
-0.015664700000000004,1.0,6.4209e-09,1.0,-218.26548000000003,1.0,-6.740000000000001e-08,1.0
-0.0152405,1.0,8.4503e-09,1.0,-213.59627999999998,1.0,-7.790000000000001e-07,1.0
-0.014825399999999999,1.0,7.348649999999999e-09,1.0,-208.49868,1.0,-6.84e-08,1.0
-0.0144562,1.0,3.474425e-09,1.0,-203.81832,1.0,-6.629999999999999e-07,1.0
-0.0140869,1.0,3.479005e-10,1.0,-200.77524,1.0,3.34e-07,1.0
-0.0136597,1.0,-2.44751e-09,1.0,-199.37988,1.0,8.42e-08,1.0
-0.0132751,1.0,-3.73535e-09,1.0,-195.65568000000002,1.0,4.32e-07,1.0
-0.0128906,1.0,-5.0597999999999994e-09,1.0,-194.69988,1.0,4.6200000000000003e-07,1.0
-0.0125183,1.0,-5.697649999999999e-09,1.0,-180.42839999999998,1.0,-2.87e-07,1.0
-0.0121277,1.0,-5.85785e-09,1.0,-180.43955999999997,1.0,-1.03e-06,1.0
-0.0117096,1.0,-6.053149999999999e-09,1.0,-180.42839999999998,1.0,-8.8e-07,1.0
-0.011325100000000001,1.0,-6.27135e-09,1.0,-0.42528240000000006,1.0,2.9199999999999997e-07,1.0
-0.010931399999999999,1.0,-6.3033999999999996e-09,1.0,-0.4271472,1.0,3.66e-07,1.0
-0.0105316,1.0,-6.3110500000000005e-09,1.0,-0.4281372,1.0,4.879999999999999e-07,1.0
-0.0101593,1.0,-6.283550000000001e-09,1.0,-0.42945479999999997,1.0,-3.09e-07,1.0
-0.00975647,1.0,-6.323249999999999e-09,1.0,-0.42648839999999993,1.0,-5.079999999999999e-07,1.0
-0.00941162,1.0,-6.3400499999999994e-09,1.0,-0.427806,1.0,-2.08e-08,1.0
-0.00899048,1.0,-6.30645e-09,1.0,-0.42890760000000006,1.0,5.5e-07,1.0
-0.00859375,1.0,-6.3263e-09,1.0,-0.42802559999999995,1.0,2.6e-07,1.0
-0.00819702,1.0,-6.3583500000000005e-09,1.0,-0.428688,1.0,1.6e-07,1.0
-0.00778809,1.0,-6.257649999999999e-09,1.0,-0.4273668,1.0,2.88e-07,1.0
-0.00741577,1.0,-6.30645e-09,1.0,-0.425502,1.0,-7.43e-07,1.0
-0.00702515,1.0,-6.3507e-09,1.0,-0.427806,1.0,5.92e-07,1.0
-0.00663147,1.0,-6.3202e-09,1.0,-0.430992,1.0,-1.45e-07,1.0
-0.00625305,1.0,-6.3431000000000006e-09,1.0,-0.4282488,1.0,1.78e-07,1.0
-0.00586548,1.0,-6.3400499999999994e-09,1.0,-0.42901559999999994,1.0,2.72e-07,1.0
-0.00542908,1.0,-6.336999999999999e-09,1.0,-0.4271472,1.0,9.81e-07,1.0
-0.00506287,1.0,-6.3735999999999996e-09,1.0,-0.4268196000000001,1.0,4.82e-07,1.0
-0.0046814,1.0,-6.384300000000001e-09,1.0,-0.43077240000000006,1.0,3.6799999999999996e-07,1.0
-0.00429077,1.0,-6.3400499999999994e-09,1.0,-0.43319159999999995,1.0,1.3800000000000002e-07,1.0
-0.0039031999999999995,1.0,-6.3751000000000005e-09,1.0,-0.43066439999999995,1.0,4.18e-08,1.0
-0.00348206,1.0,-6.346149999999999e-09,1.0,-0.4281372,1.0,7.06e-07,1.0
-0.00311584,1.0,-6.362899999999999e-09,1.0,-0.430884,1.0,1.85e-07,1.0
-0.00273132,1.0,-6.361399999999999e-09,1.0,-0.4301136,1.0,7.93e-08,1.0
-0.00232239,1.0,-6.4040999999999994e-09,1.0,-0.43055279999999996,1.0,1.37e-07,1.0
-0.0019103999999999998,1.0,-6.38125e-09,1.0,-0.429894,1.0,5.55e-07,1.0
-0.00153503,1.0,-6.3202e-09,1.0,-0.429786,1.0,-2.2e-07,1.0
-0.00111389,1.0,-6.4087e-09,1.0,-0.4320936000000001,1.0,-1.37e-08,1.0
-0.000741577,1.0,-5.9661999999999995e-09,1.0,359.51652,1.0,6.2e-07,1.0
-0.00033264199999999996,1.0,-3.5873399999999997e-09,1.0,359.51652,1.0,6.96e-07,1.0
6.709999999999999e-05,1.0,-7.644649999999999e-10,1.0,-350.34299999999996,1.0,1.7e-07,1.0
0.00048217800000000004,1.0,2.14691e-09,1.0,-320.64696,1.0,3.9899999999999996e-07,1.0
0.000894165,1.0,4.2541499999999994e-09,1.0,-285.6006,1.0,-2.25e-07,1.0
0.00125427,1.0,5.77395e-09,1.0,-250.42248000000004,1.0,4.21e-08,1.0
0.0016449000000000001,1.0,6.02875e-09,1.0,-231.50375999999997,1.0,2.55e-07,1.0
0.00202332,1.0,5.5893e-09,1.0,-222.87959999999998,1.0,3.75e-07,1.0
0.00247803,1.0,5.0308e-09,1.0,-218.39724,1.0,4.06e-07,1.0
0.00287476,1.0,4.800415e-09,1.0,-211.84919999999997,1.0,4.32e-07,1.0
0.00322571,1.0,4.9819950000000004e-09,1.0,-209.32236000000003,1.0,1.77e-08,1.0
0.00361938,1.0,4.983519999999999e-09,1.0,-213.50844,1.0,-5.24e-07,1.0
0.00401611,1.0,3.5995499999999996e-09,1.0,-231.85548,1.0,-4.81e-07,1.0
0.00444336,1.0,2.1362299999999998e-09,1.0,-260.61768,1.0,7.32e-07,1.0
0.00479431,1.0,-2.960205e-10,1.0,-290.40156,1.0,4.21e-07,1.0
0.00523071,1.0,-2.50702e-09,1.0,-315.91188,1.0,1.2199999999999998e-07,1.0
0.00560913,1.0,-4.1824349999999995e-09,1.0,-315.16488000000004,1.0,3.7100000000000003e-07,1.0
0.00602417,1.0,-5.335999999999999e-09,1.0,-245.03903999999997,1.0,1.55e-07,1.0
0.00641785,1.0,-4.83246e-09,1.0,-139.33944000000002,1.0,4.7600000000000003e-07,1.0
0.00682983,1.0,-4.402159999999999e-09,1.0,-110.43468,1.0,8.2e-07,1.0
0.00720825,1.0,-4.681394999999999e-09,1.0,-90.42839999999998,1.0,1.19e-06,1.0
0.00756531,1.0,-4.852295e-09,1.0,-25.511364,1.0,6.490000000000001e-07,1.0
0.0079834,1.0,-4.200745e-09,1.0,76.8492,1.0,1.03e-06,1.0
0.00836792,1.0,-3.0715949999999997e-09,1.0,102.22775999999999,1.0,9.86e-07,1.0
0.00873413,1.0,-2.87628e-09,1.0,104.7438,1.0,8.109999999999999e-07,1.0
0.00914612,1.0,-3.0975349999999997e-09,1.0,102.23892000000001,1.0,1.37e-06,1.0
0.00955811,1.0,-4.257199999999999e-09,1.0,102.23892000000001,1.0,1.04e-06,1.0
0.00991516,1.0,-5.2124e-09,1.0,61.446600000000004,1.0,1.64e-06,1.0
0.010330200000000001,1.0,-5.513e-09,1.0,-157.80743999999999,1.0,7.529999999999999e-07,1.0
0.0107422,1.0,-4.1534400000000005e-09,1.0,-189.2394,1.0,4.53e-07,1.0
0.0110748,1.0,-3.5140999999999997e-09,1.0,-187.19603999999998,1.0,3.11e-07,1.0
0.011498999999999999,1.0,-3.315735e-09,1.0,-167.76108,1.0,1.5e-06,1.0
0.0118988,1.0,-3.49884e-09,1.0,-114.96096,1.0,2.11e-06,1.0
0.012265,1.0,-3.108215e-09,1.0,-61.38072,1.0,1.24e-06,1.0
0.012652600000000002,1.0,-2.6763899999999997e-09,1.0,-32.332752,1.0,1.44e-06,1.0
0.013037100000000001,1.0,-2.8945899999999996e-09,1.0,-33.848892,1.0,9.23e-07,1.0
0.0134308,1.0,-3.08075e-09,1.0,-35.485848,1.0,9.54e-07,1.0
0.0138123,1.0,-3.720095e-09,1.0,-37.28772,1.0,9.770000000000001e-07,1.0
0.0141815,1.0,-4.56543e-09,1.0,-33.859872,1.0,1.23e-06,1.0
0.014550799999999997,1.0,-5.253599999999999e-09,1.0,-19.374372,1.0,6.57e-07,1.0
0.014975,1.0,-5.66405e-09,1.0,112.18140000000001,1.0,1.38e-06,1.0
0.0153381,1.0,-5.253599999999999e-09,1.0,216.40860000000004,1.0,1.69e-06,1.0
0.0157471,1.0,-4.544065e-09,1.0,246.91788000000003,1.0,2.48e-06,1.0
0.0161407,1.0,-4.411314999999999e-09,1.0,276.24024,1.0,1.28e-06,1.0
0.0165405,1.0,-4.383850000000001e-09,1.0,319.5702,1.0,1.94e-06,1.0
0.0169098,1.0,-4.257199999999999e-09,1.0,342.01547999999997,1.0,1.94e-06,1.0
0.0172791,1.0,-3.09906e-09,1.0,353.49623999999994,1.0,1.06e-06,1.0
0.017688,1.0,-2.03247e-09,1.0,359.51652,1.0,2.17e-06,1.0
0.0180542,1.0,-7.0343e-10,1.0,338.92812,1.0,2.08e-06,1.0
0.0184357,1.0,1.0025e-09,1.0,299.42136000000005,1.0,2.15e-06,1.0
0.018847700000000002,1.0,2.4887099999999998e-09,1.0,258.8598,1.0,2.37e-06,1.0
0.019219999999999998,1.0,4.02832e-09,1.0,225.21959999999999,1.0,2.31e-06,1.0
0.0196259,1.0,5.5984499999999994e-09,1.0,203.73048,1.0,1.51e-06,1.0
0.0200104,1.0,7.356249999999999e-09,1.0,196.43544000000003,1.0,1.14e-06,1.0
0.020388800000000002,1.0,7.157899999999999e-09,1.0,198.2484,1.0,1.56e-06,1.0
0.020825200000000002,1.0,5.4046499999999995e-09,1.0,207.63071999999997,1.0,1.5e-06,1.0
0.021194499999999998,1.0,4.800415e-09,1.0,211.47588000000002,1.0,1.69e-06,1.0
0.0215973,1.0,4.753114999999999e-09,1.0,207.64151999999999,1.0,1.55e-06,1.0
0.0219696,1.0,4.292294999999999e-09,1.0,197.88588,1.0,1.54e-06,1.0
0.0223602,1.0,2.848815e-09,1.0,181.71396,1.0,1.8e-06,1.0
0.022735599999999998,1.0,6.1798e-10,1.0,152.16048,1.0,4.15e-07,1.0
0.023132299999999998,1.0,1.375e-11,1.0,108.83052,1.0,8.75e-07,1.0
0.023538200000000002,1.0,-2.075195e-10,1.0,69.54335999999999,1.0,1.88e-06,1.0
0.023941,1.0,-2.86865e-10,1.0,41.3856,1.0,9.82e-07,1.0
0.0243439,1.0,-9.46045e-10,1.0,9.970092,1.0,1.61e-06,1.0
0.024762,1.0,-1.150515e-09,1.0,-33.837876,1.0,1.67e-06,1.0
0.0251038,1.0,-1.5563949999999998e-09,1.0,-67.77468,1.0,2.48e-07,1.0
0.025534099999999997,1.0,-1.950075e-09,1.0,-93.26304,1.0,1.32e-06,1.0
0.0259216,1.0,-3.2302849999999997e-09,1.0,-95.03171999999999,1.0,1.16e-06,1.0
0.026345799999999996,1.0,-4.56543e-09,1.0,-74.20176,1.0,1.36e-06,1.0
0.026724200000000004,1.0,-5.476399999999999e-09,1.0,-106.67736,1.0,1.25e-06,1.0
0.027130099999999997,1.0,-4.78821e-09,1.0,-221.55011999999996,1.0,1.55e-06,1.0
0.027496299999999998,1.0,-3.2913199999999998e-09,1.0,-239.15052,1.0,1.76e-06,1.0
0.027874799999999998,1.0,-2.00348e-09,1.0,-245.39076,1.0,1.46e-06,1.0
0.028289799999999997,1.0,-1.61896e-09,1.0,-244.45692,1.0,1.37e-06,1.0
0.028652999999999998,1.0,-1.8188499999999996e-09,1.0,-252.49859999999998,1.0,7.709999999999999e-07,1.0
0.029083299999999996,1.0,-2.5009149999999997e-09,1.0,-263.66076000000004,1.0,8.009999999999999e-07,1.0
0.0294617,1.0,-2.482605e-09,1.0,-266.94576,1.0,8.6e-07,1.0
0.0298279,1.0,-2.46887e-09,1.0,-263.69388000000004,1.0,1.27e-06,1.0
0.030242900000000003,1.0,-2.033995e-09,1.0,-255.05856000000003,1.0,9.87e-07,1.0
0.030633499999999998,1.0,-2.0782449999999996e-09,1.0,-255.04776,1.0,1.34e-06,1.0
0.0310181,1.0,-2.6809699999999997e-09,1.0,-252.10332,1.0,1.44e-06,1.0
0.0314087,1.0,-3.9550799999999995e-09,1.0,-247.79663999999997,1.0,1.24e-06,1.0
0.0318512,1.0,-5.261249999999999e-09,1.0,-298.47672,1.0,1.33e-06,1.0
0.0321777,1.0,-5.2582e-09,1.0,282.2058,1.0,1.85e-06,1.0
0.0325806,1.0,-4.620359999999999e-09,1.0,232.66835999999998,1.0,1.91e-06,1.0
0.032974199999999995,1.0,-3.76587e-09,1.0,211.46472,1.0,1.44e-06,1.0
0.033346600000000004,1.0,-3.3508299999999997e-09,1.0,198.46800000000002,1.0,2.05e-06,1.0
0.0337585,1.0,-2.8686500000000004e-09,1.0,158.00544000000002,1.0,1.55e-06,1.0
0.0341492,1.0,-2.2674549999999996e-09,1.0,126.44171999999999,1.0,1.52e-06,1.0
0.034549,1.0,-1.7608649999999998e-09,1.0,107.5122,1.0,2.62e-06,1.0
0.034924300000000005,1.0,-1.82953e-09,1.0,107.50139999999999,1.0,1.46e-06,1.0
0.0353088,1.0,-2.4276749999999997e-09,1.0,109.54476,1.0,1.14e-06,1.0
0.0357574,1.0,-3.1066899999999997e-09,1.0,107.02871999999999,1.0,2.57e-06,1.0
0.0361145,1.0,-5.2658e-09,1.0,66.89592,1.0,2.3e-06,1.0
0.03648680000000001,1.0,-3.73535e-09,1.0,-159.2028,1.0,1.56e-06,1.0
0.0368866,1.0,-3.204345e-10,1.0,-180.42839999999998,1.0,1.52e-06,1.0
0.0372681,1.0,2.14386e-09,1.0,-194.10660000000001,1.0,1.93e-06,1.0
0.037676999999999995,1.0,2.79999e-09,1.0,-194.95224000000002,1.0,1.32e-06,1.0
0.0380768,1.0,3.445435e-09,1.0,-200.34684000000001,1.0,1.78e-06,1.0
0.038452099999999996,1.0,3.41797e-09,1.0,-221.08896,1.0,2e-06,1.0
0.038858,1.0,2.745055e-09,1.0,-250.77383999999998,1.0,1.85e-06,1.0
0.0392181,1.0,2.323915e-09,1.0,-281.38176000000004,1.0,2.15e-06,1.0
0.039636199999999996,1.0,1.213075e-09,1.0,-295.86168,1.0,1.42e-06,1.0
0.0400055,1.0,-1.3900749999999999e-09,1.0,-281.30508000000003,1.0,1.56e-06,1.0
0.0404297,1.0,-3.4622199999999997e-09,1.0,-215.13420000000002,1.0,2.02e-06,1.0
0.0408051,1.0,-3.904725e-09,1.0,-156.24756,1.0,1.41e-06,1.0
0.0411469,1.0,-4.56238e-09,1.0,-210.94848000000002,1.0,2.1e-06,1.0
0.041568,1.0,-3.279115e-09,1.0,-275.02092,1.0,2.41e-06,1.0
0.0419403,1.0,-9.56725e-10,1.0,-265.4298,1.0,1.81e-06,1.0
0.042318699999999994,1.0,2.3284899999999997e-09,1.0,-242.35848000000001,1.0,2.73e-06,1.0
0.0427032,1.0,5.6075999999999995e-09,1.0,-222.85764000000003,1.0,1.95e-06,1.0
0.0431091,1.0,7.59585e-09,1.0,-206.8506,1.0,1.22e-06,1.0
0.0434906,1.0,8.663950000000001e-09,1.0,-194.58972,1.0,2.34e-06,1.0
0.0438568,1.0,8.7311e-09,1.0,-184.29552,1.0,1.95e-06,1.0
0.0442596,1.0,6.96105e-09,1.0,-173.18843999999999,1.0,1.73e-06,1.0
0.04468080000000001,1.0,4.299925e-09,1.0,-162.3888,1.0,1.64e-06,1.0
0.0450653,1.0,1.498415e-09,1.0,-148.20551999999998,1.0,2.48e-06,1.0
0.0454193,1.0,-9.551999999999998e-10,1.0,-141.3612,1.0,2.58e-06,1.0
0.0458557,1.0,-2.19879e-09,1.0,-143.56944000000001,1.0,2.45e-06,1.0
0.046221899999999996,1.0,-2.80304e-09,1.0,-164.1798,1.0,1.7e-06,1.0
0.0466156,1.0,-3.0548099999999997e-09,1.0,-203.04935999999998,1.0,1.63e-06,1.0
0.047049,1.0,-2.871705e-09,1.0,-250.88364,1.0,1.98e-06,1.0
0.0474243,1.0,-3.0853249999999998e-09,1.0,-312.50628,1.0,2.1e-06,1.0
0.0478241,1.0,-2.5009149999999997e-09,1.0,349.98048000000006,1.0,2.66e-06,1.0
0.0482239,1.0,-1.161195e-09,1.0,336.9178800000001,1.0,1.97e-06,1.0
0.0486359,1.0,-1.600645e-09,1.0,347.71716000000004,1.0,2.39e-06,1.0
0.048999,1.0,-2.67029e-09,1.0,359.52768000000003,1.0,2.57e-06,1.0
0.0493927,1.0,-4.83246e-09,1.0,359.50572,1.0,2.56e-06,1.0
0.0498962,1.0,-4.99878e-09,1.0,-59.974199999999996,1.0,1.63e-06,1.0
0.0502625,1.0,-2.438355e-09,1.0,-40.40783999999999,1.0,1.53e-06,1.0
0.0506897,1.0,-9.033199999999999e-10,1.0,-29.388420000000004,1.0,2.55e-06,1.0
0.051086400000000004,1.0,-7.217399999999999e-10,1.0,-13.862556000000001,1.0,1.91e-06,1.0
0.0514832,1.0,-7.751449999999999e-10,1.0,23.539319999999996,1.0,1.68e-06,1.0
0.0518799,1.0,1.571655e-10,1.0,61.98479999999999,1.0,3.06e-06,1.0
0.0523071,1.0,8.087149999999999e-10,1.0,87.69275999999999,1.0,1.64e-06,1.0
0.052673300000000006,1.0,1.2588499999999998e-09,1.0,101.85407999999998,1.0,2.13e-06,1.0
0.0530396,1.0,1.205445e-09,1.0,105.80940000000001,1.0,2.17e-06,1.0
0.053497300000000005,1.0,-3.05176e-10,1.0,100.77767999999999,1.0,2.58e-06,1.0
0.053833000000000006,1.0,-2.5161749999999995e-09,1.0,72.32292000000001,1.0,2.4e-06,1.0
0.054260300000000004,1.0,-3.796385e-09,1.0,-0.43055279999999996,1.0,2.99e-06,1.0
0.0545959,1.0,-3.7124649999999998e-09,1.0,-90.45035999999999,1.0,2.87e-06,1.0
0.0550842,1.0,-2.874755e-09,1.0,-124.9146,1.0,2.75e-06,1.0
0.0553589,1.0,-1.55792e-09,1.0,-110.25864000000001,1.0,2.34e-06,1.0
0.0558472,1.0,6.11875e-10,1.0,-94.25160000000001,1.0,2.31e-06,1.0
0.056121800000000006,1.0,2.9434199999999997e-09,1.0,-88.97832000000001,1.0,3.18e-06,1.0
0.0566101,1.0,4.313660000000001e-09,1.0,-81.47448,1.0,2.57e-06,1.0
0.057006799999999996,1.0,4.084779999999999e-09,1.0,-76.02552,1.0,1.69e-06,1.0
0.0574341,1.0,3.03192e-09,1.0,-77.44248,1.0,2.13e-06,1.0
0.057800300000000006,1.0,1.5411400000000001e-09,1.0,-92.16432,1.0,2.5e-06,1.0
0.058197000000000006,1.0,8.514399999999999e-10,1.0,-130.88016,1.0,2.58e-06,1.0
0.0585938,1.0,-1.8310549999999996e-10,1.0,-186.62471999999997,1.0,2.68e-06,1.0
0.058960000000000005,1.0,-8.65175e-10,1.0,-258.26652,1.0,2.7e-06,1.0
0.0592957,1.0,-1.116945e-09,1.0,-315.4284,1.0,2.32e-06,1.0
0.0597534,1.0,-2.8686500000000004e-09,1.0,348.6402,1.0,2.43e-06,1.0
0.0601196,1.0,-3.90625e-09,1.0,251.60903999999996,1.0,3.25e-06,1.0
0.0604553,1.0,-4.382325e-09,1.0,189.07488,1.0,2.72e-06,1.0
0.0609436,1.0,-5.168149999999999e-09,1.0,179.54964,1.0,2.33e-06,1.0
0.0612793,1.0,-5.932599999999999e-09,1.0,179.53848,1.0,2.52e-06,1.0
0.061737099999999996,1.0,-5.6015e-09,1.0,-152.33652,1.0,2.71e-06,1.0
0.06213380000000001,1.0,-3.6697399999999998e-09,1.0,-166.19004,1.0,2.89e-06,1.0
0.06253049999999999,1.0,-1.7608649999999998e-09,1.0,-154.45692,1.0,1.95e-06,1.0
0.06292719999999999,1.0,-1.33667e-09,1.0,-129.01248,1.0,2.29e-06,1.0
0.06323240000000001,1.0,-1.393125e-09,1.0,-93.13128,1.0,2.6e-06,1.0
0.0636292,1.0,-9.38415e-10,1.0,-58.75488,1.0,2.85e-06,1.0
0.0640564,1.0,-3.067015e-10,1.0,-35.397936,1.0,2.96e-06,1.0
0.0643921,1.0,9.155249999999999e-11,1.0,-21.313476,1.0,2.42e-06,1.0
0.0648499,1.0,4.867555e-10,1.0,-8.611092,1.0,2.33e-06,1.0
0.06527709999999999,1.0,4.92859e-10,1.0,7.7453639999999995,1.0,3.15e-06,1.0
0.0656433,1.0,5.0812e-10,1.0,16.230095999999996,1.0,2.93e-06,1.0
0.0660095,1.0,3.463745e-10,1.0,5.302008,1.0,2.61e-06,1.0
0.0664063,1.0,-2.853395e-10,1.0,-3.533202,1.0,2.92e-06,1.0
0.066803,1.0,-7.5836e-10,1.0,-21.062988,1.0,2.5e-06,1.0
0.0671997,1.0,-9.46045e-10,1.0,-47.30724,1.0,2.3e-06,1.0
0.0675964,1.0,-3.479005e-10,1.0,-72.92736,1.0,1.6e-06,1.0
0.06802369999999999,1.0,5.90515e-10,1.0,-86.63832000000001,1.0,1.5e-06,1.0
0.06842039999999999,1.0,1.83258e-09,1.0,-88.78067999999999,1.0,2.59e-06,1.0
0.0688171,1.0,2.7420049999999998e-09,1.0,-84.41892,1.0,2.82e-06,1.0
0.0692139,1.0,3.4042349999999995e-09,1.0,-79.28819999999999,1.0,3.29e-06,1.0
0.0696716,1.0,3.5705549999999998e-09,1.0,-76.87116,1.0,3.31e-06,1.0
0.0700073,1.0,3.852845e-09,1.0,-67.84056,1.0,2.67e-06,1.0
0.0704346,1.0,3.00598e-09,1.0,-58.1616,1.0,3.38e-06,1.0
0.0708313,1.0,1.05896e-09,1.0,-45.47232,1.0,3.63e-06,1.0
0.0711975,1.0,-9.82665e-10,1.0,-10.839096000000001,1.0,3.13e-06,1.0
0.0715942,1.0,-2.28882e-09,1.0,50.69088,1.0,2.99e-06,1.0
0.07192989999999999,1.0,-1.786805e-09,1.0,110.99484,1.0,3.43e-06,1.0
0.0723877,1.0,-1.6296399999999998e-09,1.0,143.92079999999999,1.0,3.1e-06,1.0
0.0727539,1.0,-1.402285e-09,1.0,160.62012,1.0,3.57e-06,1.0
0.07315060000000001,1.0,-1.6174299999999999e-09,1.0,167.73912,1.0,3.26e-06,1.0
0.0735474,1.0,-3.12042e-09,1.0,179.54964,1.0,3.54e-06,1.0
0.07391360000000001,1.0,-5.661e-09,1.0,246.91788000000003,1.0,3.82e-06,1.0
0.0743713,1.0,-3.2653799999999997e-09,1.0,-186.77844,1.0,3.94e-06,1.0
0.0747375,1.0,3.78418e-10,1.0,-174.70476,1.0,3.31e-06,1.0
0.0751038,1.0,3.396605e-09,1.0,-162.48780000000002,1.0,3.81e-06,1.0
0.075531,1.0,4.304505e-09,1.0,-153.25920000000002,1.0,2.99e-06,1.0
0.07583619999999999,1.0,3.4347549999999995e-09,1.0,-138.62556,1.0,3.32e-06,1.0
0.0762939,1.0,2.0767200000000002e-09,1.0,-111.17052000000001,1.0,3.39e-06,1.0
0.0766296,1.0,1.0726949999999999e-09,1.0,-75.75084000000001,1.0,3.32e-06,1.0
0.0770264,1.0,-9.5978e-10,1.0,-47.30724,1.0,3.41e-06,1.0
0.0773926,1.0,-3.744505e-09,1.0,-21.70458,1.0,3.34e-06,1.0
0.0777893,1.0,-5.1941e-09,1.0,102.21695999999999,1.0,3.76e-06,1.0
0.078186,1.0,-4.434205e-09,1.0,261.43056,1.0,3.94e-06,1.0
0.0785217,1.0,-2.464295e-09,1.0,315.0,1.0,3.75e-06,1.0
0.07891849999999999,1.0,-2.79236e-10,1.0,336.92868000000004,1.0,3.35e-06,1.0
0.0792847,1.0,1.649475e-09,1.0,359.52768000000003,1.0,3.65e-06,1.0
0.07971189999999999,1.0,3.4225449999999996e-09,1.0,-338.93928,1.0,3.05e-06,1.0
0.0801697,1.0,5.455e-09,1.0,-320.47128,1.0,3.33e-06,1.0
0.0805359,1.0,6.674200000000001e-09,1.0,-307.90296,1.0,3.44e-06,1.0
0.0808716,1.0,6.378149999999999e-09,1.0,-290.89584,1.0,2.91e-06,1.0
0.08132930000000001,1.0,5.0308e-09,1.0,-269.21988,1.0,3.26e-06,1.0
0.081665,1.0,3.6911e-09,1.0,-238.73291999999998,1.0,3.17e-06,1.0
0.0820923,1.0,2.8518699999999996e-09,1.0,-203.52168,1.0,3e-06,1.0
0.08251950000000001,1.0,1.93939e-09,1.0,-168.78312,1.0,3.55e-06,1.0
0.08288569999999999,1.0,5.889899999999999e-10,1.0,-126.07920000000001,1.0,2.74e-06,1.0
0.08328250000000001,1.0,1.49536e-10,1.0,-61.35876,1.0,2.99e-06,1.0
0.08364869999999999,1.0,1.6433699999999999e-09,1.0,-2.8168956,1.0,5.16e-06,1.0
0.08398439999999999,1.0,3.1311049999999996e-09,1.0,31.981212,1.0,3.42e-06,1.0
0.0844421,1.0,4.339599999999999e-09,1.0,52.3278,1.0,2.85e-06,1.0
0.0847778,1.0,5.009449999999999e-09,1.0,61.775999999999996,1.0,3.7e-06,1.0
0.08523560000000001,1.0,4.49219e-09,1.0,63.01764000000001,1.0,3.33e-06,1.0
0.0856018,1.0,2.32239e-09,1.0,67.54392,1.0,3.71e-06,1.0
0.08596799999999999,1.0,-9.23155e-10,1.0,82.26576,1.0,3.72e-06,1.0
0.0863953,1.0,-3.056335e-09,1.0,110.55528,1.0,3.66e-06,1.0
0.08673099999999999,1.0,-5.230699999999999e-09,1.0,112.19256,1.0,4.05e-06,1.0
0.08712769999999999,1.0,-4.36096e-09,1.0,-152.35848000000001,1.0,3.54e-06,1.0
0.087616,1.0,-6.790150000000001e-10,1.0,-146.73348000000001,1.0,2.84e-06,1.0
0.0879822,1.0,2.07367e-09,1.0,-138.933,1.0,4.19e-06,1.0
0.0883789,1.0,3.41034e-09,1.0,-127.29851999999998,1.0,3.94e-06,1.0
0.0888062,1.0,2.970885e-09,1.0,-103.42512000000002,1.0,3.41e-06,1.0
0.08914180000000001,1.0,2.5466899999999996e-09,1.0,-72.02628,1.0,4.12e-06,1.0
0.08953860000000001,1.0,2.21863e-09,1.0,-41.55012000000001,1.0,3.68e-06,1.0
0.0899658,1.0,1.4678950000000001e-09,1.0,-14.977656000000001,1.0,3.91e-06,1.0
0.09033200000000001,1.0,6.103500000000001e-10,1.0,24.943356,1.0,3.58e-06,1.0
0.09069819999999999,1.0,7.69045e-10,1.0,108.47915999999998,1.0,4.18e-06,1.0
0.09109500000000001,1.0,3.42102e-09,1.0,167.93712,1.0,4.54e-06,1.0
0.09155269999999999,1.0,6.2668e-09,1.0,196.46856,1.0,4.62e-06,1.0
0.0919189,1.0,7.589699999999999e-09,1.0,217.28771999999998,1.0,4.21e-06,1.0
0.0922546,1.0,7.995599999999999e-09,1.0,239.88636000000002,1.0,4.08e-06,1.0
0.0925903,1.0,7.11825e-09,1.0,262.55123999999995,1.0,4.26e-06,1.0
0.09307860000000001,1.0,4.2587299999999994e-09,1.0,284.71068,1.0,4.67e-06,1.0
0.0934143,1.0,1.190185e-10,1.0,313.57188,1.0,4.53e-06,1.0
0.093811,1.0,-3.974914999999999e-09,1.0,-326.20608000000004,1.0,3.92e-06,1.0
0.0941467,1.0,-1.5945449999999999e-09,1.0,-83.69388000000001,1.0,4.31e-06,1.0
0.0946045,1.0,4.275515e-09,1.0,-49.48236000000001,1.0,4.49e-06,1.0
0.0949097,1.0,8.68075e-09,1.0,-27.608652,1.0,3.66e-06,1.0
0.09533689999999999,1.0,1.1644e-08,1.0,-12.178332000000001,1.0,3.69e-06,1.0
0.0957336,1.0,1.3111899999999998e-08,1.0,1.5234731999999997,1.0,4.62e-06,1.0
0.09609989999999999,1.0,1.3394149999999999e-08,1.0,13.226436000000001,1.0,3.54e-06,1.0
0.09655760000000001,1.0,1.2118549999999998e-08,1.0,25.656371999999998,1.0,4.13e-06,1.0
0.0968933,1.0,1.06262e-08,1.0,41.46228,1.0,4.27e-06,1.0
0.09729,1.0,7.80945e-09,1.0,53.87688000000001,1.0,4.3e-06,1.0
0.0976868,1.0,4.719545e-09,1.0,67.46688,1.0,3.32e-06,1.0
0.09811399999999999,1.0,1.454165e-09,1.0,82.5732,1.0,3.88e-06,1.0
0.0984802,1.0,-1.39923e-09,1.0,86.9238,1.0,3.62e-06,1.0
0.098938,1.0,-3.75824e-09,1.0,73.31184,1.0,4.35e-06,1.0
0.0993347,1.0,-4.6173100000000005e-09,1.0,-106.62228,1.0,4.08e-06,1.0
0.099762,1.0,-1.911925e-09,1.0,-171.837,1.0,3.61e-06,1.0
0.100128,1.0,5.38635e-10,1.0,-172.25459999999998,1.0,4.06e-06,1.0
0.100525,1.0,2.7236949999999997e-09,1.0,-161.14752,1.0,4.18e-06,1.0
0.100922,1.0,3.57666e-09,1.0,-155.62115999999997,1.0,3.61e-06,1.0
0.10131799999999999,1.0,3.823855e-09,1.0,-148.2714,1.0,4.27e-06,1.0
0.101685,1.0,3.3798199999999996e-09,1.0,-142.317,1.0,4.46e-06,1.0
0.10208099999999999,1.0,2.555845e-09,1.0,-129.24324,1.0,3.28e-06,1.0
0.102539,1.0,1.0833749999999999e-09,1.0,-103.59,1.0,4.09e-06,1.0
0.102875,1.0,-5.87465e-10,1.0,-62.38044,1.0,4.96e-06,1.0
0.10321,1.0,-1.856995e-09,1.0,-15.436872,1.0,4.93e-06,1.0
0.10366800000000001,1.0,-2.459715e-09,1.0,45.94500000000001,1.0,4.63e-06,1.0
0.10403399999999999,1.0,-3.3340449999999997e-09,1.0,112.17023999999999,1.0,4.57e-06,1.0
0.104431,1.0,-3.944395e-09,1.0,195.79824,1.0,5.31e-06,1.0
0.10485799999999999,1.0,-3.1127949999999995e-09,1.0,322.62443999999994,1.0,3.87e-06,1.0
0.10519400000000001,1.0,-2.02942e-09,1.0,-315.14291999999995,1.0,4.2e-06,1.0
0.105652,1.0,-9.033199999999999e-10,1.0,-236.83211999999997,1.0,4.48e-06,1.0
0.106049,1.0,1.45874e-09,1.0,-163.13616,1.0,4.63e-06,1.0
0.10641500000000001,1.0,5.932599999999999e-09,1.0,-119.57508,1.0,4.49e-06,1.0
0.10681199999999999,1.0,1.06079e-08,1.0,-96.04260000000001,1.0,4.65e-06,1.0
0.107147,1.0,1.467135e-08,1.0,-84.03444,1.0,4.54e-06,1.0
0.10760499999999999,1.0,1.7752099999999998e-08,1.0,-74.65212,1.0,4.86e-06,1.0
0.107971,1.0,1.9178749999999996e-08,1.0,-62.589240000000004,1.0,4.65e-06,1.0
0.108368,1.0,1.94229e-08,1.0,-45.57132,1.0,4.88e-06,1.0
0.108704,1.0,1.8846149999999997e-08,1.0,-25.104852,1.0,5.29e-06,1.0
0.10913099999999999,1.0,1.7704750000000002e-08,1.0,-2.8157976000000007,1.0,4.52e-06,1.0
0.109528,1.0,1.526185e-08,1.0,19.976436,1.0,5e-06,1.0
0.109894,1.0,1.18515e-08,1.0,43.7256,1.0,4.81e-06,1.0
0.110321,1.0,7.733149999999999e-09,1.0,63.1386,1.0,5.01e-06,1.0
0.11065699999999999,1.0,2.027895e-09,1.0,65.67624,1.0,4.54e-06,1.0
0.111176,1.0,-2.482605e-09,1.0,24.114995999999998,1.0,4.33e-06,1.0
0.111481,1.0,-3.11737e-09,1.0,-106.69931999999999,1.0,4.33e-06,1.0
0.111969,1.0,-9.42995e-10,1.0,-159.2028,1.0,3.99e-06,1.0
0.11233499999999999,1.0,1.26343e-09,1.0,-168.00300000000001,1.0,4.25e-06,1.0
0.112732,1.0,4.008485e-09,1.0,-163.68516,1.0,5.03e-06,1.0
0.113159,1.0,6.25915e-09,1.0,-146.4588,1.0,4.49e-06,1.0
0.113495,1.0,8.679199999999999e-09,1.0,-118.72908,1.0,4.81e-06,1.0
0.11389200000000001,1.0,1.09848e-08,1.0,-97.44876,1.0,5.27e-06,1.0
0.114319,1.0,1.233675e-08,1.0,-83.21039999999999,1.0,4.96e-06,1.0
0.114746,1.0,1.2145999999999998e-08,1.0,-71.26848,1.0,4.28e-06,1.0
0.11511199999999999,1.0,1.019895e-08,1.0,-54.60192000000001,1.0,4.99e-06,1.0
0.11557,1.0,7.763649999999999e-09,1.0,-33.848892,1.0,5.03e-06,1.0
0.115845,1.0,4.9728399999999995e-09,1.0,-14.071284,1.0,5.16e-06,1.0
0.11633299999999999,1.0,2.7191149999999997e-09,1.0,-0.43494839999999996,1.0,5.17e-06,1.0
0.11666900000000001,1.0,8.239749999999999e-10,1.0,12.832019999999996,1.0,4.71e-06,1.0
0.11703499999999999,1.0,-1.79596e-09,1.0,29.68506,1.0,5.46e-06,1.0
0.117401,1.0,-5.058299999999999e-09,1.0,151.35876000000002,1.0,5.9e-06,1.0
0.117798,1.0,-3.3615099999999995e-09,1.0,326.73348,1.0,6.1e-06,1.0
0.118225,1.0,-2.4734499999999996e-09,1.0,-341.48807999999997,1.0,5.21e-06,1.0
0.118591,1.0,-2.8533949999999997e-09,1.0,-254.22372000000001,1.0,4.78e-06,1.0
0.11898800000000001,1.0,-9.963999999999998e-10,1.0,-155.73132,1.0,5.34e-06,1.0
0.119354,1.0,2.79846e-09,1.0,-121.76136,1.0,4.75e-06,1.0
0.11972000000000001,1.0,7.1213e-09,1.0,-101.56859999999999,1.0,4.55e-06,1.0
0.120117,1.0,1.04645e-08,1.0,-78.29964000000001,1.0,6.11e-06,1.0
0.12051400000000001,1.0,1.3464350000000001e-08,1.0,-51.83352,1.0,5.68e-06,1.0
0.12091099999999999,1.0,1.60736e-08,1.0,-27.257076,1.0,5.44e-06,1.0
0.121307,1.0,1.792295e-08,1.0,-7.512444,1.0,5.4e-06,1.0
0.121643,1.0,1.865995e-08,1.0,7.901352,1.0,5.4e-06,1.0
0.12207,1.0,1.8728650000000003e-08,1.0,21.136608,1.0,5.42e-06,1.0
0.122467,1.0,1.739045e-08,1.0,30.59694,1.0,5.18e-06,1.0
0.122833,1.0,1.562195e-08,1.0,36.14508,1.0,6.01e-06,1.0
0.12326,1.0,1.299745e-08,1.0,37.65024,1.0,5.92e-06,1.0
0.123627,1.0,1.0409549999999997e-08,1.0,34.650864,1.0,5.56e-06,1.0
0.123993,1.0,7.80485e-09,1.0,24.350112,1.0,5.3e-06,1.0
0.12442,1.0,5.4046499999999995e-09,1.0,-2.0742192,1.0,5.45e-06,1.0
0.124847,1.0,4.281615e-09,1.0,-47.99916,1.0,6.06e-06,1.0
0.125275,1.0,5.61065e-09,1.0,-98.36064,1.0,6.02e-06,1.0
0.12561,1.0,8.631899999999999e-09,1.0,-133.54992,1.0,5.58e-06,1.0
0.125946,1.0,1.2332149999999999e-08,1.0,-140.625,1.0,5.81e-06,1.0
0.126404,1.0,1.6154499999999998e-08,1.0,-130.3308,1.0,4.97e-06,1.0
0.126801,1.0,1.931765e-08,1.0,-113.29092,1.0,5.48e-06,1.0
0.12725799999999998,1.0,1.9978349999999998e-08,1.0,-95.02092000000002,1.0,5.98e-06,1.0
0.127563,1.0,1.8637099999999996e-08,1.0,-78.0138,1.0,6.08e-06,1.0
0.128021,1.0,1.533355e-08,1.0,-64.62144,1.0,5.44e-06,1.0
0.128357,1.0,1.0174549999999999e-08,1.0,-52.020360000000004,1.0,4.87e-06,1.0
0.128754,1.0,4.888914999999999e-09,1.0,-17.685792,1.0,6.11e-06,1.0
0.129211,1.0,1.3885500000000001e-09,1.0,49.4496,1.0,5.62e-06,1.0
0.12951700000000002,1.0,1.82953e-09,1.0,114.25788,1.0,6.03e-06,1.0
0.129913,1.0,2.0492549999999997e-09,1.0,137.66976,1.0,6.34e-06,1.0
0.13028,1.0,5.38635e-10,1.0,122.76108000000002,1.0,6.02e-06,1.0
0.130737,1.0,-3.479005e-10,1.0,71.37827999999999,1.0,6.39e-06,1.0
0.131134,1.0,1.0681149999999999e-10,1.0,5.429448,1.0,6.32e-06,1.0
0.13147,1.0,2.32239e-09,1.0,-47.71368,1.0,6.15e-06,1.0
0.131927,1.0,6.06385e-09,1.0,-73.88316,1.0,6.26e-06,1.0
0.132294,1.0,1.000975e-08,1.0,-82.92492,1.0,6.71e-06,1.0
0.13269,1.0,1.3493350000000001e-08,1.0,-82.18872,1.0,5.78e-06,1.0
0.133148,1.0,1.518555e-08,1.0,-74.53115999999999,1.0,5.92e-06,1.0
0.133484,1.0,1.51947e-08,1.0,-60.73235999999999,1.0,6.07e-06,1.0
0.133881,1.0,1.5136700000000002e-08,1.0,-40.69332000000001,1.0,5.87e-06,1.0
0.134186,1.0,1.499635e-08,1.0,-18.618516,1.0,6.67e-06,1.0
0.134644,1.0,1.57242e-08,1.0,1.3131972,1.0,5.82e-06,1.0
0.134918,1.0,1.6586299999999997e-08,1.0,16.188372,1.0,6.46e-06,1.0
0.135406,1.0,1.726225e-08,1.0,24.1128,1.0,6.69e-06,1.0
0.135773,1.0,1.595915e-08,1.0,26.407836000000003,1.0,7.18e-06,1.0
0.136139,1.0,1.3587950000000001e-08,1.0,20.877336000000003,1.0,6.48e-06,1.0
0.136505,1.0,1.1236549999999999e-08,1.0,8.304552000000001,1.0,6.74e-06,1.0
0.136932,1.0,9.9472e-09,1.0,-20.322504000000002,1.0,7.1e-06,1.0
0.13735999999999998,1.0,1.171875e-08,1.0,-53.096759999999996,1.0,6.66e-06,1.0
0.137695,1.0,1.4892600000000001e-08,1.0,-80.80452,1.0,6.47e-06,1.0
0.138062,1.0,1.863555e-08,1.0,-94.72428,1.0,6.59e-06,1.0
0.138519,1.0,2.2837849999999994e-08,1.0,-99.74484,1.0,6.46e-06,1.0
0.13888499999999998,1.0,2.5375349999999996e-08,1.0,-99.36035999999999,1.0,6.34e-06,1.0
0.139282,1.0,2.69165e-08,1.0,-95.29524,1.0,6.93e-06,1.0
0.139648,1.0,2.7328500000000002e-08,1.0,-91.2636,1.0,7.57e-06,1.0
0.140106,1.0,2.6260400000000003e-08,1.0,-83.44116,1.0,6.78e-06,1.0
0.14041099999999998,1.0,2.4325549999999998e-08,1.0,-71.4222,1.0,5.85e-06,1.0
0.140808,1.0,2.148745e-08,1.0,-58.17276,1.0,6.09e-06,1.0
0.141235,1.0,1.7820749999999998e-08,1.0,-49.59216000000001,1.0,6.6e-06,1.0
0.141602,1.0,1.31775e-08,1.0,-46.571039999999996,1.0,6.64e-06,1.0
0.142059,1.0,8.6258e-09,1.0,-53.55828,1.0,6.58e-06,1.0
0.142395,1.0,4.046629999999999e-09,1.0,-73.46556,1.0,6.84e-06,1.0
0.14288299999999998,1.0,8.193949999999999e-10,1.0,-118.98179999999999,1.0,6.22e-06,1.0
0.14325,1.0,-7.782e-11,1.0,-159.00516,1.0,6.49e-06,1.0
0.143555,1.0,4.959105000000001e-10,1.0,-160.56504,1.0,6.32e-06,1.0
0.144012,1.0,1.7059349999999999e-09,1.0,-133.71444000000002,1.0,6.41e-06,1.0
0.14440899999999998,1.0,3.6132799999999997e-09,1.0,-110.91779999999999,1.0,6.79e-06,1.0
0.144867,1.0,5.2658e-09,1.0,-93.21912,1.0,6.62e-06,1.0
0.145233,1.0,7.1777499999999995e-09,1.0,-68.21424,1.0,6.31e-06,1.0
0.14562999999999998,1.0,9.994499999999999e-09,1.0,-46.69199999999999,1.0,7.04e-06,1.0
0.14599600000000001,1.0,1.2939449999999999e-08,1.0,-29.729015999999994,1.0,6.74e-06,1.0
0.146423,1.0,1.512755e-08,1.0,-14.679936000000001,1.0,6.81e-06,1.0
0.146759,1.0,1.724395e-08,1.0,2.7059328000000002,1.0,6.69e-06,1.0
0.147125,1.0,1.991425e-08,1.0,17.071668,1.0,6.96e-06,1.0
0.147583,1.0,2.0800799999999998e-08,1.0,29.816891999999996,1.0,7.59e-06,1.0
0.14798,1.0,2.0143150000000002e-08,1.0,40.52844,1.0,6.92e-06,1.0
0.148315,1.0,1.8615700000000003e-08,1.0,47.24136,1.0,7.93e-06,1.0
0.14874300000000001,1.0,1.59317e-08,1.0,45.38448,1.0,7.13e-06,1.0
0.14917,1.0,1.2054450000000001e-08,1.0,33.47535599999999,1.0,7.56e-06,1.0
0.149475,1.0,7.7362e-09,1.0,0.9129636,1.0,7.25e-06,1.0
0.149963,1.0,6.4682e-09,1.0,-49.59216000000001,1.0,7.81e-06,1.0
0.15033,1.0,8.195499999999999e-09,1.0,-91.19735999999999,1.0,8.01e-06,1.0
0.150726,1.0,1.0897849999999998e-08,1.0,-110.00627999999999,1.0,7.78e-06,1.0
0.15115399999999998,1.0,1.3526899999999999e-08,1.0,-115.70796,1.0,7.05e-06,1.0
0.151581,1.0,1.5687549999999997e-08,1.0,-110.65428,1.0,7.77e-06,1.0
0.151917,1.0,1.7236349999999995e-08,1.0,-98.43767999999999,1.0,7.85e-06,1.0
0.152283,1.0,1.8197650000000003e-08,1.0,-82.2438,1.0,7.3e-06,1.0
0.152679,1.0,1.862945e-08,1.0,-64.8414,1.0,7.12e-06,1.0
0.153076,1.0,1.7968749999999997e-08,1.0,-45.58212,1.0,8.17e-06,1.0
0.153473,1.0,1.7063899999999998e-08,1.0,-22.736196,1.0,7.39e-06,1.0
0.153809,1.0,1.6644299999999996e-08,1.0,3.7408319999999997,1.0,8.44e-06,1.0
0.154205,1.0,1.6390999999999998e-08,1.0,27.630612000000003,1.0,7.91e-06,1.0
0.154633,1.0,1.5750099999999998e-08,1.0,46.05480000000001,1.0,7.19e-06,1.0
0.154999,1.0,1.3145449999999999e-08,1.0,60.996240000000014,1.0,7.67e-06,1.0
0.155426,1.0,1.0018899999999998e-08,1.0,76.34412,1.0,8.22e-06,1.0
0.155823,1.0,5.6701499999999995e-09,1.0,91.67004,1.0,8.87e-06,1.0
0.156219,1.0,1.28784e-09,1.0,89.57160000000002,1.0,8.34e-06,1.0
0.156555,1.0,-2.4139399999999996e-09,1.0,45.94500000000001,1.0,7.96e-06,1.0
0.156921,1.0,-1.96991e-09,1.0,-77.77224000000001,1.0,8.43e-06,1.0
0.15744,1.0,2.563475e-09,1.0,-111.8628,1.0,8.12e-06,1.0
0.15783699999999998,1.0,7.377600000000001e-09,1.0,-112.31316,1.0,8.08e-06,1.0
0.158203,1.0,1.146395e-08,1.0,-105.6114,1.0,7.96e-06,1.0
0.15850799999999998,1.0,1.4501949999999999e-08,1.0,-89.84628000000001,1.0,7.94e-06,1.0
0.158936,1.0,1.81961e-08,1.0,-69.3018,1.0,8.36e-06,1.0
0.159424,1.0,2.2216800000000002e-08,1.0,-46.592999999999996,1.0,8.15e-06,1.0
0.15975999999999999,1.0,2.5848400000000003e-08,1.0,-25.495956,1.0,7.16e-06,1.0
0.160156,1.0,2.83661e-08,1.0,-6.743412000000001,1.0,8.16e-06,1.0
0.160461,1.0,2.9693599999999996e-08,1.0,10.152468,1.0,8.32e-06,1.0
0.160858,1.0,2.944945e-08,1.0,25.321284,1.0,8.82e-06,1.0
0.16128499999999998,1.0,2.7969349999999996e-08,1.0,38.0016,1.0,8.37e-06,1.0
0.16171300000000002,1.0,2.56195e-08,1.0,46.285560000000004,1.0,8.35e-06,1.0
0.162079,1.0,2.223205e-08,1.0,48.32892,1.0,8.88e-06,1.0
0.162476,1.0,1.89041e-08,1.0,42.879599999999996,1.0,8.59e-06,1.0
0.16284200000000001,1.0,1.5744000000000002e-08,1.0,30.706776,1.0,8.34e-06,1.0
0.16323900000000002,1.0,1.26831e-08,1.0,11.694959999999998,1.0,8.83e-06,1.0
0.163666,1.0,1.0592649999999999e-08,1.0,-15.25122,1.0,8.08e-06,1.0
0.16403199999999998,1.0,1.07956e-08,1.0,-41.96772,1.0,8.44e-06,1.0
0.164429,1.0,1.2985249999999999e-08,1.0,-61.160759999999996,1.0,8.71e-06,1.0
0.16488599999999998,1.0,1.687315e-08,1.0,-73.50948,1.0,8.7e-06,1.0
0.165222,1.0,2.167665e-08,1.0,-77.98104,1.0,9.21e-06,1.0
0.165649,1.0,2.622985e-08,1.0,-75.12444,1.0,9.21e-06,1.0
0.166046,1.0,2.8823849999999996e-08,1.0,-69.3126,1.0,8.58e-06,1.0
0.16641199999999998,1.0,2.944945e-08,1.0,-61.18272,1.0,9.03e-06,1.0
0.16684000000000002,1.0,2.8213499999999997e-08,1.0,-49.37256000000001,1.0,8.4e-06,1.0
0.167236,1.0,2.581785e-08,1.0,-33.541272000000006,1.0,8.44e-06,1.0
0.167603,1.0,2.212065e-08,1.0,-14.503068000000003,1.0,8.7e-06,1.0
0.16802999999999998,1.0,1.84326e-08,1.0,8.773668,1.0,8.66e-06,1.0
0.16833499999999998,1.0,1.510925e-08,1.0,40.19904,1.0,8.91e-06,1.0
0.168762,1.0,1.22986e-08,1.0,75.76164000000001,1.0,8.76e-06,1.0
0.169189,1.0,1.09802e-08,1.0,107.57808,1.0,9.97e-06,1.0
0.169647,1.0,9.9045e-09,1.0,128.01276000000001,1.0,9.53e-06,1.0
0.169983,1.0,6.4040999999999994e-09,1.0,125.06832,1.0,1.0300000000000001e-05,1.0
0.170441,1.0,2.2857649999999997e-09,1.0,72.42192,1.0,9.65e-06,1.0
0.170807,1.0,3.98712e-09,1.0,-30.31128,1.0,9.29e-06,1.0
0.171204,1.0,1.058805e-08,1.0,-66.25872000000001,1.0,1.01e-05,1.0
0.17157,1.0,1.6619849999999998e-08,1.0,-71.02655999999999,1.0,1.01e-05,1.0
0.171967,1.0,2.2026049999999998e-08,1.0,-62.79767999999999,1.0,9.85e-06,1.0
0.172333,1.0,2.6031499999999997e-08,1.0,-50.70204,1.0,9.74e-06,1.0
0.172729,1.0,3.0120849999999994e-08,1.0,-40.92408,1.0,9.64e-06,1.0
0.173096,1.0,3.3966050000000004e-08,1.0,-33.706044000000006,1.0,1.01e-05,1.0
0.17346199999999998,1.0,3.62396e-08,1.0,-28.092024,1.0,1.01e-05,1.0
0.173828,1.0,3.7323e-08,1.0,-21.157488,1.0,1.04e-05,1.0
0.174286,1.0,3.622434999999999e-08,1.0,-11.676276,1.0,1.0800000000000002e-05,1.0
0.174622,1.0,3.3889749999999994e-08,1.0,-1.4922719999999998,1.0,1.0199999999999999e-05,1.0
0.175018,1.0,2.95105e-08,1.0,4.347288,1.0,9.97e-06,1.0
0.17538499999999999,1.0,2.4133299999999998e-08,1.0,6.459948,1.0,9.78e-06,1.0
0.175812,1.0,1.793215e-08,1.0,7.463015999999999,1.0,1.06e-05,1.0
0.176178,1.0,1.143495e-08,1.0,4.920768000000001,1.0,9.81e-06,1.0
0.176544,1.0,5.392449999999999e-09,1.0,-5.333868000000001,1.0,1.01e-05,1.0
0.17697100000000002,1.0,5.5237e-10,1.0,-53.55828,1.0,1.0300000000000001e-05,1.0
0.177368,1.0,7.35475e-10,1.0,-120.9816,1.0,1.0300000000000001e-05,1.0
0.177765,1.0,3.84369e-09,1.0,-138.20796,1.0,1.05e-05,1.0
0.178101,1.0,8.6334e-09,1.0,-129.61656,1.0,1.04e-05,1.0
0.178558,1.0,1.43921e-08,1.0,-108.92952,1.0,1.09e-05,1.0
0.178955,1.0,2.0098899999999998e-08,1.0,-89.42868,1.0,1.05e-05,1.0
0.179321,1.0,2.505495e-08,1.0,-72.71856,1.0,1.0300000000000001e-05,1.0
0.17971800000000002,1.0,2.807615e-08,1.0,-57.03012,1.0,1.0300000000000001e-05,1.0
0.180115,1.0,2.93579e-08,1.0,-39.166199999999996,1.0,1.05e-05,1.0
0.180481,1.0,2.978515e-08,1.0,-19.541376,1.0,1.01e-05,1.0
0.18100000000000002,1.0,2.8839099999999993e-08,1.0,-0.9640512000000001,1.0,1.11e-05,1.0
0.181305,1.0,2.734375e-08,1.0,14.329476,1.0,1.05e-05,1.0
0.181641,1.0,2.5177e-08,1.0,27.630612000000003,1.0,1.06e-05,1.0
0.182068,1.0,2.2113049999999997e-08,1.0,39.57264,1.0,1.11e-05,1.0
0.18243399999999999,1.0,1.8191549999999997e-08,1.0,51.65784,1.0,1.06e-05,1.0
0.1828,1.0,1.3745099999999999e-08,1.0,59.040359999999986,1.0,1.0800000000000002e-05,1.0
0.183228,1.0,9.4467e-09,1.0,54.87660000000001,1.0,1.18e-05,1.0
0.18365499999999998,1.0,6.46055e-09,1.0,37.3644,1.0,1.05e-05,1.0
0.184021,1.0,5.34515e-09,1.0,11.000627999999999,1.0,1.17e-05,1.0
0.184418,1.0,6.6818e-09,1.0,-24.216048,1.0,1.1400000000000001e-05,1.0
0.184875,1.0,9.93805e-09,1.0,-56.66760000000001,1.0,1.09e-05,1.0
0.18518099999999998,1.0,1.520995e-08,1.0,-73.48752,1.0,1.13e-05,1.0
0.185669,1.0,2.178495e-08,1.0,-74.6082,1.0,1.15e-05,1.0
0.18603499999999998,1.0,2.8656e-08,1.0,-70.2576,1.0,1.11e-05,1.0
0.186401,1.0,3.485105e-08,1.0,-62.29260000000001,1.0,1.1400000000000001e-05,1.0
0.186798,1.0,3.91388e-08,1.0,-50.4054,1.0,1.1e-05,1.0
0.187195,1.0,4.1976949999999997e-08,1.0,-36.59544,1.0,1.09e-05,1.0
0.18756099999999998,1.0,4.356384999999999e-08,1.0,-24.790644,1.0,1.12e-05,1.0
0.18798800000000002,1.0,4.37927e-08,1.0,-12.699108,1.0,1.17e-05,1.0
0.188324,1.0,4.113769999999999e-08,1.0,0.792774,1.0,1.12e-05,1.0
0.18866,1.0,3.686524999999999e-08,1.0,13.325327999999999,1.0,1.1900000000000001e-05,1.0
0.189056,1.0,3.1951899999999995e-08,1.0,21.117924000000002,1.0,1.18e-05,1.0
0.18951400000000002,1.0,2.6886e-08,1.0,23.2218,1.0,1.22e-05,1.0
0.18988,1.0,2.1614049999999997e-08,1.0,17.340804,1.0,1.11e-05,1.0
0.190247,1.0,1.72928e-08,1.0,3.636468,1.0,1.18e-05,1.0
0.19070399999999998,1.0,1.44684e-08,1.0,-20.88612,1.0,1.18e-05,1.0
0.191132,1.0,1.4511099999999999e-08,1.0,-53.15184000000001,1.0,1.21e-05,1.0
0.191498,1.0,1.79825e-08,1.0,-79.24427999999999,1.0,1.21e-05,1.0
0.191803,1.0,2.3001099999999997e-08,1.0,-89.54964000000001,1.0,1.3000000000000001e-05,1.0
0.192261,1.0,2.89154e-08,1.0,-90.41760000000001,1.0,1.26e-05,1.0
0.192627,1.0,3.332519999999999e-08,1.0,-86.04504,1.0,1.24e-05,1.0
0.192993,1.0,3.7719749999999996e-08,1.0,-77.77224000000001,1.0,1.24e-05,1.0
0.19342,1.0,4.093935e-08,1.0,-66.80772,1.0,1.24e-05,1.0
0.193848,1.0,4.24347e-08,1.0,-54.08567999999999,1.0,1.28e-05,1.0
0.194214,1.0,4.203794999999999e-08,1.0,-39.6936,1.0,1.27e-05,1.0
0.194519,1.0,3.9062499999999997e-08,1.0,-22.9779,1.0,1.24e-05,1.0
0.194946,1.0,3.48816e-08,1.0,-1.8325188000000001,1.0,1.22e-05,1.0
0.19531300000000001,1.0,3.1066900000000004e-08,1.0,20.619144,1.0,1.24e-05,1.0
0.195679,1.0,2.74048e-08,1.0,42.00084,1.0,1.23e-05,1.0
0.196045,1.0,2.2805799999999995e-08,1.0,57.821039999999996,1.0,1.24e-05,1.0
0.19653299999999999,1.0,1.7573549999999998e-08,1.0,64.50084000000001,1.0,1.24e-05,1.0
0.19686900000000002,1.0,1.3002000000000001e-08,1.0,54.90972000000001,1.0,1.26e-05,1.0
0.197266,1.0,1.02249e-08,1.0,21.822156,1.0,1.2e-05,1.0
0.197723,1.0,1.088715e-08,1.0,-23.048208,1.0,1.26e-05,1.0
0.19809000000000002,1.0,1.5653999999999996e-08,1.0,-54.61307999999999,1.0,1.23e-05,1.0
0.198517,1.0,2.305755e-08,1.0,-66.36852,1.0,1.28e-05,1.0
0.198944,1.0,3.1570449999999995e-08,1.0,-68.60952,1.0,1.26e-05,1.0
0.19931,1.0,3.9840699999999996e-08,1.0,-65.99484,1.0,1.25e-05,1.0
0.199707,1.0,4.670715e-08,1.0,-61.314840000000004,1.0,1.31e-05,1.0
0.20013399999999998,1.0,5.1208500000000005e-08,1.0,-54.898559999999996,1.0,1.3000000000000001e-05,1.0
0.2005,1.0,5.2535999999999995e-08,1.0,-47.17512000000001,1.0,1.28e-05,1.0
0.200897,1.0,5.0552499999999996e-08,1.0,-36.56268,1.0,1.3000000000000001e-05,1.0
0.201324,1.0,4.621885e-08,1.0,-24.904908,1.0,1.3300000000000001e-05,1.0
0.20163,1.0,4.019165e-08,1.0,-13.657103999999999,1.0,1.27e-05,1.0
0.20211800000000002,1.0,3.295899999999999e-08,1.0,-2.8762200000000004,1.0,1.34e-05,1.0
0.202423,1.0,2.5146499999999996e-08,1.0,10.67652,1.0,1.4099999999999999e-05,1.0
0.20282,1.0,1.7990099999999996e-08,1.0,27.443844000000002,1.0,1.42e-05,1.0
0.203247,1.0,1.0836799999999999e-08,1.0,39.583800000000004,1.0,1.3800000000000002e-05,1.0
0.203644,1.0,4.266355e-09,1.0,32.420664,1.0,1.36e-05,1.0
0.204041,1.0,7.09535e-10,1.0,-38.12256000000001,1.0,1.31e-05,1.0
0.204407,1.0,5.1620499999999996e-09,1.0,-119.75111999999999,1.0,1.4000000000000001e-05,1.0
0.20483400000000002,1.0,1.2529e-08,1.0,-135.88992,1.0,1.3000000000000001e-05,1.0
0.205292,1.0,2.01584e-08,1.0,-134.86824,1.0,1.4400000000000001e-05,1.0
0.205627,1.0,2.7496350000000003e-08,1.0,-128.79288000000003,1.0,1.4099999999999999e-05,1.0
0.205933,1.0,3.42102e-08,1.0,-116.30124,1.0,1.39e-05,1.0
0.20636,1.0,4.045105e-08,1.0,-98.81099999999999,1.0,1.36e-05,1.0
0.206787,1.0,4.566955e-08,1.0,-78.9696,1.0,1.42e-05,1.0
0.20721399999999998,1.0,4.769894999999999e-08,1.0,-57.55752,1.0,1.4300000000000002e-05,1.0
0.20755,1.0,4.69055e-08,1.0,-33.991704,1.0,1.42e-05,1.0
0.207947,1.0,4.4403099999999996e-08,1.0,-9.484487999999999,1.0,1.3800000000000002e-05,1.0
0.208313,1.0,4.2022699999999996e-08,1.0,14.734872,1.0,1.42e-05,1.0
0.20874,1.0,3.9917e-08,1.0,37.07892,1.0,1.4999999999999999e-05,1.0
0.20904499999999998,1.0,3.7567149999999996e-08,1.0,55.03068,1.0,1.51e-05,1.0
0.209473,1.0,3.3432e-08,1.0,66.9726,1.0,1.4099999999999999e-05,1.0
0.2099,1.0,2.674865e-08,1.0,65.88504,1.0,1.42e-05,1.0
0.21026599999999998,1.0,2.0834349999999996e-08,1.0,46.1646,1.0,1.52e-05,1.0
0.21072399999999997,1.0,1.79672e-08,1.0,8.983512000000001,1.0,1.55e-05,1.0
0.211121,1.0,2.0034799999999996e-08,1.0,-33.409440000000004,1.0,1.4599999999999999e-05,1.0
0.211456,1.0,2.6718150000000003e-08,1.0,-60.96312,1.0,1.4599999999999999e-05,1.0
0.211914,1.0,3.46527e-08,1.0,-72.57563999999999,1.0,1.55e-05,1.0
0.21234099999999997,1.0,4.162599999999999e-08,1.0,-74.57508,1.0,1.55e-05,1.0
0.212677,1.0,4.63257e-08,1.0,-70.32347999999999,1.0,1.4999999999999999e-05,1.0
0.21304299999999998,1.0,5.0171e-08,1.0,-62.1936,1.0,1.58e-05,1.0
0.21347,1.0,5.4458500000000004e-08,1.0,-52.07507999999999,1.0,1.47e-05,1.0
0.213837,1.0,5.7677999999999995e-08,1.0,-41.94576,1.0,1.58e-05,1.0
0.21420300000000003,1.0,5.830399999999999e-08,1.0,-31.091292,1.0,1.55e-05,1.0
0.214569,1.0,5.595399999999999e-08,1.0,-21.076164,1.0,1.51e-05,1.0
0.215027,1.0,5.209349999999999e-08,1.0,-9.908568,1.0,1.58e-05,1.0
0.21539299999999997,1.0,4.6875e-08,1.0,2.0720232,1.0,1.56e-05,1.0
0.215759,1.0,4.0329000000000003e-08,1.0,14.388803999999999,1.0,1.59e-05,1.0
0.216187,1.0,3.334045e-08,1.0,26.970336000000003,1.0,1.53e-05,1.0
0.21655300000000002,1.0,2.627565e-08,1.0,37.70496,1.0,1.49e-05,1.0
0.216919,1.0,1.862945e-08,1.0,31.838363999999995,1.0,1.58e-05,1.0
0.21740700000000002,1.0,1.2539650000000001e-08,1.0,-7.531128,1.0,1.57e-05,1.0
0.217743,1.0,1.251525e-08,1.0,-71.00460000000001,1.0,1.59e-05,1.0
0.21816999999999998,1.0,1.7868049999999998e-08,1.0,-113.49972,1.0,1.57e-05,1.0
0.218506,1.0,2.53601e-08,1.0,-127.5732,1.0,1.59e-05,1.0
0.218994,1.0,3.39203e-08,1.0,-126.7164,1.0,1.65e-05,1.0
0.21933000000000002,1.0,4.174805e-08,1.0,-118.56456,1.0,1.6e-05,1.0
0.219727,1.0,4.888915e-08,1.0,-107.80884,1.0,1.6100000000000002e-05,1.0
0.22009299999999998,1.0,5.282599999999999e-08,1.0,-96.57000000000001,1.0,1.67e-05,1.0
0.22055100000000002,1.0,5.422949999999999e-08,1.0,-84.71556,1.0,1.6100000000000002e-05,1.0
0.220917,1.0,5.354299999999999e-08,1.0,-69.87312,1.0,1.65e-05,1.0
0.221344,1.0,5.1895e-08,1.0,-54.31644,1.0,1.7100000000000002e-05,1.0
0.221741,1.0,4.925534999999999e-08,1.0,-37.41947999999999,1.0,1.65e-05,1.0
0.222137,1.0,4.771425e-08,1.0,-21.066300000000002,1.0,1.7e-05,1.0
0.222534,1.0,4.5913699999999994e-08,1.0,-5.251464,1.0,1.7e-05,1.0
0.22283899999999998,1.0,4.325865e-08,1.0,7.6871160000000005,1.0,1.67e-05,1.0
0.223358,1.0,3.8574199999999996e-08,1.0,14.07348,1.0,1.6899999999999997e-05,1.0
0.223694,1.0,3.24707e-08,1.0,12.956183999999999,1.0,1.7899999999999998e-05,1.0
0.22409099999999998,1.0,2.4932849999999998e-08,1.0,0.17677008,1.0,1.7199999999999998e-05,1.0
0.224579,1.0,1.945495e-08,1.0,-30.992436000000005,1.0,1.7e-05,1.0
0.22494499999999998,1.0,1.9064349999999997e-08,1.0,-69.07104000000001,1.0,1.83e-05,1.0
0.225311,1.0,2.38083e-08,1.0,-90.80207999999999,1.0,1.7199999999999998e-05,1.0
0.225677,1.0,3.1478899999999995e-08,1.0,-96.1524,1.0,1.75e-05,1.0
0.22610500000000003,1.0,3.9779650000000004e-08,1.0,-92.77956,1.0,1.75e-05,1.0
0.226471,1.0,4.6875e-08,1.0,-86.67107999999999,1.0,1.73e-05,1.0
0.226746,1.0,5.35735e-08,1.0,-78.42024,1.0,1.8e-05,1.0
0.227173,1.0,6.0135e-08,1.0,-68.31287999999999,1.0,1.8100000000000003e-05,1.0
0.227661,1.0,6.62385e-08,1.0,-56.98620000000001,1.0,1.85e-05,1.0
0.22799699999999998,1.0,7.03585e-08,1.0,-45.65916,1.0,1.77e-05,1.0
0.228424,1.0,7.1228e-08,1.0,-36.002159999999996,1.0,1.86e-05,1.0
0.22876,1.0,6.900000000000001e-08,1.0,-26.800056,1.0,1.74e-05,1.0
0.229187,1.0,6.5384e-08,1.0,-16.722288,1.0,1.87e-05,1.0
0.229523,1.0,6.14165e-08,1.0,-6.544548000000001,1.0,1.89e-05,1.0
0.22988899999999998,1.0,5.5572500000000003e-08,1.0,1.7277084000000003,1.0,1.9e-05,1.0
0.230316,1.0,4.81415e-08,1.0,6.944471999999999,1.0,1.9e-05,1.0
0.230713,1.0,4.006959999999999e-08,1.0,7.015860000000001,1.0,1.9e-05,1.0
0.23104899999999998,1.0,3.248595e-08,1.0,-2.4071039999999995,1.0,1.9e-05,1.0
0.23144499999999998,1.0,2.7542099999999998e-08,1.0,-20.610360000000004,1.0,1.76e-05,1.0
0.23184200000000002,1.0,2.6489249999999997e-08,1.0,-45.230760000000004,1.0,1.9e-05,1.0
0.232239,1.0,2.9541e-08,1.0,-69.76332,1.0,1.88e-05,1.0
0.23263499999999998,1.0,3.663635e-08,1.0,-87.27552,1.0,1.87e-05,1.0
0.232971,1.0,4.530335e-08,1.0,-92.77956,1.0,1.92e-05,1.0
0.233429,1.0,5.3833e-08,1.0,-87.95664000000002,1.0,1.85e-05,1.0
0.23379499999999998,1.0,6.1264e-08,1.0,-77.80499999999999,1.0,1.95e-05,1.0
0.234192,1.0,6.6864e-08,1.0,-65.86308,1.0,1.9399999999999997e-05,1.0
0.234589,1.0,7.136549999999999e-08,1.0,-51.99839999999999,1.0,1.9699999999999998e-05,1.0
0.23495500000000002,1.0,7.37455e-08,1.0,-36.35388,1.0,1.9399999999999997e-05,1.0
0.235352,1.0,7.38375e-08,1.0,-21.246444,1.0,1.93e-05,1.0
0.23571799999999998,1.0,7.167049999999999e-08,1.0,-8.266104,1.0,2e-05,1.0
0.236145,1.0,6.680299999999999e-08,1.0,1.1445552,1.0,2.0600000000000003e-05,1.0
0.236511,1.0,5.8868499999999995e-08,1.0,4.259412,1.0,1.99e-05,1.0
0.236938,1.0,5.0049e-08,1.0,-0.04328604,1.0,1.92e-05,1.0
0.23727399999999998,1.0,4.292294999999999e-08,1.0,-12.509027999999999,1.0,2.01e-05,1.0
0.23770100000000002,1.0,3.92456e-08,1.0,-32.794200000000004,1.0,2.0399999999999998e-05,1.0
0.238098,1.0,3.9886449999999995e-08,1.0,-54.87660000000001,1.0,1.9399999999999997e-05,1.0
0.23849499999999998,1.0,4.423525e-08,1.0,-70.20252,1.0,1.93e-05,1.0
0.23892199999999997,1.0,5.0201499999999995e-08,1.0,-76.53059999999999,1.0,1.9600000000000002e-05,1.0
0.239258,1.0,5.622849999999999e-08,1.0,-76.78332,1.0,2.0600000000000003e-05,1.0
0.23968499999999998,1.0,6.147749999999999e-08,1.0,-72.60875999999999,1.0,2.11e-05,1.0
0.24008200000000002,1.0,6.51855e-08,1.0,-66.63204,1.0,2.13e-05,1.0
0.24054,1.0,6.748949999999999e-08,1.0,-57.98592000000001,1.0,2.0399999999999998e-05,1.0
0.24084499999999998,1.0,6.84965e-08,1.0,-47.15316,1.0,2.0600000000000003e-05,1.0
0.24124099999999998,1.0,6.89085e-08,1.0,-35.233164,1.0,2.0399999999999998e-05,1.0
0.24163800000000002,1.0,6.78865e-08,1.0,-23.265756000000003,1.0,2.0399999999999998e-05,1.0
0.242035,1.0,6.5048e-08,1.0,-11.69604,1.0,2.09e-05,1.0
0.24240100000000003,1.0,6.069950000000001e-08,1.0,-0.4473647999999999,1.0,2.08e-05,1.0
0.242767,1.0,5.4427999999999996e-08,1.0,8.991216,1.0,2.08e-05,1.0
0.243103,1.0,4.641725e-08,1.0,16.655256,1.0,2.09e-05,1.0
0.24353000000000002,1.0,3.7887550000000004e-08,1.0,22.632948000000003,1.0,2.17e-05,1.0
0.243927,1.0,2.9754650000000002e-08,1.0,23.74146,1.0,2.1600000000000003e-05,1.0
0.24432399999999999,1.0,2.21588e-08,1.0,8.290296000000001,1.0,2.11e-05,1.0
0.24475100000000002,1.0,1.7518599999999998e-08,1.0,-33.892812000000006,1.0,2.11e-05,1.0
0.245148,1.0,2.0881650000000002e-08,1.0,-90.90072,1.0,2.14e-05,1.0
0.24560500000000002,1.0,3.0838e-08,1.0,-121.76136,1.0,2.07e-05,1.0
0.24597199999999997,1.0,4.1107199999999996e-08,1.0,-126.95796,1.0,2.18e-05,1.0
0.246338,1.0,4.945375e-08,1.0,-116.75160000000001,1.0,2.13e-05,1.0
0.24673499999999998,1.0,5.7846e-08,1.0,-101.0304,1.0,2.2100000000000002e-05,1.0
0.247131,1.0,6.59945e-08,1.0,-85.79231999999999,1.0,2.24e-05,1.0
0.24758899999999998,1.0,7.363899999999999e-08,1.0,-72.26820000000001,1.0,2.25e-05,1.0
0.247955,1.0,8.168049999999999e-08,1.0,-58.71096,1.0,2.22e-05,1.0
0.248352,1.0,8.77685e-08,1.0,-45.747,1.0,2.2100000000000002e-05,1.0
0.24865700000000002,1.0,9.07595e-08,1.0,-34.28834400000001,1.0,2.23e-05,1.0
0.24908400000000003,1.0,9.01335e-08,1.0,-24.000732000000003,1.0,2.3100000000000002e-05,1.0
0.24939,1.0,8.789049999999999e-08,1.0,-13.109976,1.0,2.25e-05,1.0
0.249817,1.0,8.3435e-08,1.0,-2.5532244,1.0,2.2899999999999998e-05,1.0
0.250244,1.0,7.8003e-08,1.0,6.710436,1.0,2.27e-05,1.0
0.25058,1.0,6.94735e-08,1.0,10.679796,1.0,2.26e-05,1.0
0.25100700000000004,1.0,5.789199999999999e-08,1.0,8.5122,1.0,2.2899999999999998e-05,1.0
0.251312,1.0,4.597475e-08,1.0,-1.4834844,1.0,2.24e-05,1.0
0.25177,1.0,3.749085e-08,1.0,-23.303088,1.0,2.3100000000000002e-05,1.0
0.25216700000000003,1.0,3.5919199999999996e-08,1.0,-55.52496,1.0,2.37e-05,1.0
0.252594,1.0,4.048155e-08,1.0,-80.87039999999999,1.0,2.34e-05,1.0
0.25299099999999997,1.0,4.8919699999999994e-08,1.0,-94.33944,1.0,2.36e-05,1.0
0.253326,1.0,5.9204e-08,1.0,-96.40512,1.0,2.34e-05,1.0
0.253693,1.0,6.878649999999999e-08,1.0,-90.94500000000001,1.0,2.34e-05,1.0
0.25405900000000003,1.0,7.55155e-08,1.0,-81.56267999999999,1.0,2.33e-05,1.0
0.254456,1.0,7.88575e-08,1.0,-69.12612,1.0,2.36e-05,1.0
0.25488299999999997,1.0,7.99255e-08,1.0,-53.21772,1.0,2.49e-05,1.0
0.255249,1.0,7.972699999999998e-08,1.0,-36.936,1.0,2.36e-05,1.0
0.255676,1.0,7.58055e-08,1.0,-23.686524,1.0,2.3899999999999998e-05,1.0
0.25601199999999996,1.0,6.881699999999999e-08,1.0,-12.16296,1.0,2.35e-05,1.0
0.256439,1.0,6.01655e-08,1.0,-1.5682968000000002,1.0,2.4100000000000003e-05,1.0
0.256775,1.0,5.146799999999999e-08,1.0,7.840944,1.0,2.3899999999999998e-05,1.0
0.257233,1.0,4.26941e-08,1.0,13.673592,1.0,2.49e-05,1.0
0.257629,1.0,3.4194949999999993e-08,1.0,11.410416000000001,1.0,2.47e-05,1.0
0.25802600000000003,1.0,2.8671249999999996e-08,1.0,-4.802112,1.0,2.4100000000000003e-05,1.0
0.258423,1.0,2.79999e-08,1.0,-37.17756,1.0,2.3899999999999998e-05,1.0
0.25882,1.0,3.3401499999999996e-08,1.0,-68.88419999999999,1.0,2.49e-05,1.0
0.259247,1.0,4.2556749999999995e-08,1.0,-87.51707999999999,1.0,2.33e-05,1.0
0.25961300000000004,1.0,5.23375e-08,1.0,-90.43956,1.0,2.4299999999999998e-05,1.0
0.26000999999999996,1.0,6.1447e-08,1.0,-83.68272,1.0,2.47e-05,1.0
0.260437,1.0,6.87715e-08,1.0,-73.32264,1.0,2.5300000000000002e-05,1.0
0.260834,1.0,7.60345e-08,1.0,-61.974000000000004,1.0,2.51e-05,1.0
0.261261,1.0,8.314500000000001e-08,1.0,-50.13072,1.0,2.54e-05,1.0
0.26159699999999997,1.0,8.883649999999999e-08,1.0,-38.089439999999996,1.0,2.57e-05,1.0
0.262054,1.0,9.139999999999998e-08,1.0,-26.962632000000003,1.0,2.51e-05,1.0
0.26239,1.0,8.988949999999999e-08,1.0,-16.617924,1.0,2.6000000000000002e-05,1.0
0.262787,1.0,8.407599999999999e-08,1.0,-6.354504,1.0,2.56e-05,1.0
0.26318400000000003,1.0,7.5119e-08,1.0,3.0959460000000005,1.0,2.6300000000000002e-05,1.0
0.26361100000000004,1.0,6.3797e-08,1.0,10.493027999999999,1.0,2.7000000000000002e-05,1.0
0.263916,1.0,5.133049999999999e-08,1.0,11.18736,1.0,2.65e-05,1.0
0.264374,1.0,4.042055e-08,1.0,-1.6515756,1.0,2.56e-05,1.0
0.264771,1.0,3.411865e-08,1.0,-32.849136,1.0,2.62e-05,1.0
0.265167,1.0,3.764344999999999e-08,1.0,-70.60896,1.0,2.61e-05,1.0
0.26556399999999997,1.0,4.818725e-08,1.0,-93.99888,1.0,2.59e-05,1.0
0.26593,1.0,6.14015e-08,1.0,-100.60164,1.0,2.58e-05,1.0
0.266266,1.0,7.450850000000001e-08,1.0,-96.76764,1.0,2.64e-05,1.0
0.266754,1.0,8.68835e-08,1.0,-88.12116,1.0,2.6600000000000003e-05,1.0
0.26711999999999997,1.0,9.64205e-08,1.0,-77.54148,1.0,2.68e-05,1.0
0.267487,1.0,1.02539e-07,1.0,-66.34656,1.0,2.7000000000000002e-05,1.0
0.267883,1.0,1.0435499999999998e-07,1.0,-54.415440000000004,1.0,2.7000000000000002e-05,1.0
0.268372,1.0,1.01776e-07,1.0,-42.42924,1.0,2.8000000000000003e-05,1.0
0.26870700000000003,1.0,9.57945e-08,1.0,-29.97072,1.0,2.8000000000000003e-05,1.0
0.269073,1.0,8.773799999999999e-08,1.0,-17.14086,1.0,2.78e-05,1.0
0.26947,1.0,7.913200000000001e-08,1.0,-5.12622,1.0,2.8000000000000003e-05,1.0
0.269836,1.0,7.0999e-08,1.0,3.2849136000000003,1.0,2.65e-05,1.0
0.270233,1.0,6.14165e-08,1.0,7.740971999999999,1.0,2.7600000000000003e-05,1.0
0.27063000000000004,1.0,5.195599999999999e-08,1.0,6.828011999999999,1.0,2.8499999999999998e-05,1.0
0.271057,1.0,4.266355e-08,1.0,-3.774888,1.0,2.8000000000000003e-05,1.0
0.271423,1.0,3.7078849999999996e-08,1.0,-30.33324,1.0,2.7399999999999995e-05,1.0
0.27179000000000003,1.0,3.918455e-08,1.0,-63.775800000000004,1.0,2.84e-05,1.0
0.27218600000000004,1.0,4.92401e-08,1.0,-84.12227999999999,1.0,2.78e-05,1.0
0.272522,1.0,6.38275e-08,1.0,-90.99972000000001,1.0,2.8300000000000003e-05,1.0
0.27298,1.0,7.88115e-08,1.0,-88.07724,1.0,2.8000000000000003e-05,1.0
0.273346,1.0,9.139999999999998e-08,1.0,-79.78284,1.0,2.8000000000000003e-05,1.0
0.273773,1.0,9.9884e-08,1.0,-67.95035999999999,1.0,2.8600000000000004e-05,1.0
0.27413899999999997,1.0,1.040955e-07,1.0,-53.53632,1.0,2.8499999999999998e-05,1.0
0.274567,1.0,1.0572799999999999e-07,1.0,-36.4086,1.0,2.8800000000000002e-05,1.0
0.274933,1.0,1.0520949999999999e-07,1.0,-17.827524,1.0,2.8899999999999998e-05,1.0
0.27529899999999996,1.0,1.0295099999999999e-07,1.0,-1.2938616,1.0,2.8199999999999998e-05,1.0
0.275726,1.0,9.921249999999999e-08,1.0,11.365343999999999,1.0,2.8999999999999997e-05,1.0
0.276093,1.0,9.274299999999999e-08,1.0,18.796499999999998,1.0,2.9299999999999997e-05,1.0
0.27652,1.0,8.19855e-08,1.0,19.14588,1.0,2.9600000000000005e-05,1.0
0.276855,1.0,7.0297e-08,1.0,10.33812,1.0,2.9299999999999997e-05,1.0
0.277344,1.0,6.1432e-08,1.0,-10.896228,1.0,2.9100000000000003e-05,1.0
0.27771,1.0,5.87615e-08,1.0,-38.03472000000001,1.0,3.02e-05,1.0
0.27816799999999997,1.0,6.1859e-08,1.0,-59.56776,1.0,3.02e-05,1.0
0.278534,1.0,6.719949999999999e-08,1.0,-71.631,1.0,3.01e-05,1.0
0.278931,1.0,7.365399999999999e-08,1.0,-76.2012,1.0,2.9600000000000005e-05,1.0
0.279388,1.0,8.07495e-08,1.0,-74.56428,1.0,3.07e-05,1.0
0.279694,1.0,8.663949999999999e-08,1.0,-67.64292,1.0,3.02e-05,1.0
0.280121,1.0,9.211749999999999e-08,1.0,-58.79879999999999,1.0,3.0799999999999996e-05,1.0
0.280487,1.0,9.64355e-08,1.0,-48.7242,1.0,3.1e-05,1.0
0.280914,1.0,9.8587e-08,1.0,-37.254599999999996,1.0,3.14e-05,1.0
0.28125,1.0,9.8099e-08,1.0,-25.183944,1.0,3.13e-05,1.0
0.281647,1.0,9.465049999999999e-08,1.0,-13.351680000000002,1.0,3.0799999999999996e-05,1.0
0.282013,1.0,8.68225e-08,1.0,-1.4744736,1.0,3.16e-05,1.0
0.282379,1.0,7.711799999999999e-08,1.0,9.652572000000001,1.0,3.21e-05,1.0
0.28274499999999997,1.0,6.564349999999999e-08,1.0,18.281267999999997,1.0,3.26e-05,1.0
0.283142,1.0,5.39705e-08,1.0,21.201408,1.0,3.17e-05,1.0
0.283508,1.0,4.4296249999999995e-08,1.0,16.842024000000002,1.0,3.17e-05,1.0
0.283966,1.0,3.749085e-08,1.0,0.451098,1.0,3.19e-05,1.0
0.28433200000000003,1.0,3.6026e-08,1.0,-29.718,1.0,3.18e-05,1.0
0.284729,1.0,4.20685e-08,1.0,-57.26088,1.0,3.2200000000000003e-05,1.0
0.285156,1.0,5.2978499999999994e-08,1.0,-68.68656,1.0,3.2e-05,1.0
0.285461,1.0,6.813049999999999e-08,1.0,-68.36796,1.0,3.2e-05,1.0
0.285919,1.0,8.450299999999999e-08,1.0,-62.79767999999999,1.0,3.229999999999999e-05,1.0
0.28625500000000004,1.0,1.00235e-07,1.0,-54.27252,1.0,3.21e-05,1.0
0.286682,1.0,1.1338800000000001e-07,1.0,-43.44012000000001,1.0,3.24e-05,1.0
0.287018,1.0,1.22574e-07,1.0,-32.135003999999995,1.0,3.2500000000000004e-05,1.0
0.287476,1.0,1.2780750000000001e-07,1.0,-21.367296,1.0,3.3e-05,1.0
0.28781100000000004,1.0,1.28418e-07,1.0,-12.956183999999999,1.0,3.21e-05,1.0
0.288269,1.0,1.2236e-07,1.0,-7.145496,1.0,3.3600000000000004e-05,1.0
0.288635,1.0,1.11252e-07,1.0,-2.3961168,1.0,3.35e-05,1.0
0.288971,1.0,9.6863e-08,1.0,0.11656512000000001,1.0,3.27e-05,1.0
0.289429,1.0,8.0124e-08,1.0,-0.6429204000000002,1.0,3.3e-05,1.0
0.289825,1.0,6.42855e-08,1.0,-8.028792,1.0,3.32e-05,1.0
0.290192,1.0,5.0628499999999996e-08,1.0,-23.790888,1.0,3.41e-05,1.0
0.290558,1.0,4.3289199999999996e-08,1.0,-48.54852,1.0,3.3e-05,1.0
0.290985,1.0,4.4540399999999996e-08,1.0,-75.20148,1.0,3.32e-05,1.0
0.29138200000000003,1.0,5.31005e-08,1.0,-90.65916,1.0,3.4e-05,1.0
0.291748,1.0,6.506349999999999e-08,1.0,-93.32892000000001,1.0,3.4e-05,1.0
0.292175,1.0,7.6645e-08,1.0,-89.64828,1.0,3.37e-05,1.0
0.292572,1.0,8.84705e-08,1.0,-81.39779999999999,1.0,3.41e-05,1.0
0.292969,1.0,9.85565e-08,1.0,-69.9498,1.0,3.43e-05,1.0
0.293365,1.0,1.04492e-07,1.0,-55.667880000000004,1.0,3.46e-05,1.0
0.29376199999999997,1.0,1.0803199999999998e-07,1.0,-40.84703999999999,1.0,3.4399999999999996e-05,1.0
0.294098,1.0,1.0963449999999999e-07,1.0,-26.526492,1.0,3.5e-05,1.0
0.294525,1.0,1.082155e-07,1.0,-12.504636000000001,1.0,3.47e-05,1.0
0.29489099999999996,1.0,1.02112e-07,1.0,0.634572,1.0,3.5499999999999996e-05,1.0
0.295258,1.0,9.143049999999999e-08,1.0,12.224484,1.0,3.48e-05,1.0
0.295624,1.0,7.667549999999999e-08,1.0,19.235951999999997,1.0,3.47e-05,1.0
