Potential,potstdev,Photocurrent (nA),pcstdev,Phase (°),phstdev,DC Current (µA),dcCurrstdev
-0.0808411,1.0,-4.3533349999999994e-09,1.0,-319.3614,1.0,-3.09e-06,1.0
-0.0804443,1.0,-3.964235e-09,1.0,-296.46612,1.0,-3.74e-06,1.0
-0.0799866,1.0,-4.09088e-09,1.0,-279.27252,1.0,-3.43e-06,1.0
-0.0795898,1.0,-4.35791e-09,1.0,-251.59787999999998,1.0,-3.04e-06,1.0
-0.0792542,1.0,-4.55475e-09,1.0,-210.41028,1.0,-2.99e-06,1.0
-0.07882689999999999,1.0,-5.0232e-09,1.0,-180.51623999999998,1.0,-3.03e-06,1.0
-0.0784302,1.0,-5.8548e-09,1.0,-180.48348000000001,1.0,-2.38e-06,1.0
-0.07803339999999999,1.0,-7.017499999999999e-09,1.0,-270.48348,1.0,-3.05e-06,1.0
-0.0776672,1.0,-6.3583500000000005e-09,1.0,223.0884,1.0,-2.57e-06,1.0
-0.0772705,1.0,-6.12795e-09,1.0,211.38804,1.0,-2.73e-06,1.0
-0.0768738,1.0,-6.131e-09,1.0,216.02411999999998,1.0,-2.56e-06,1.0
-0.0764771,1.0,-6.07145e-09,1.0,282.13991999999996,1.0,-2.77e-06,1.0
-0.0760193,1.0,-5.6930499999999995e-09,1.0,318.35088,1.0,-2.05e-06,1.0
-0.07574460000000001,1.0,-5.51605e-09,1.0,326.06316000000004,1.0,-2.41e-06,1.0
-0.07522580000000001,1.0,-5.2551499999999996e-09,1.0,310.57236,1.0,-2.54e-06,1.0
-0.0748901,1.0,-5.191049999999999e-09,1.0,297.55368000000004,1.0,-2.15e-06,1.0
-0.0744324,1.0,-5.61065e-09,1.0,295.47720000000004,1.0,-1.83e-06,1.0
-0.07412719999999999,1.0,-6.12795e-09,1.0,269.48376,1.0,-2.13e-06,1.0
-0.0736694,1.0,-6.103499999999999e-09,1.0,195.76548000000003,1.0,-2.05e-06,1.0
-0.0733032,1.0,-5.3787e-09,1.0,135.92268,1.0,-2.46e-06,1.0
-0.07296749999999999,1.0,-4.948425e-09,1.0,122.29992,1.0,-2.46e-06,1.0
-0.07244869999999999,1.0,-5.1299999999999994e-09,1.0,139.53744,1.0,-2.34e-06,1.0
-0.0721436,1.0,-5.39855e-09,1.0,202.12632,1.0,-2.36e-06,1.0
-0.07168580000000001,1.0,-4.46472e-09,1.0,269.49456,1.0,-2.29e-06,1.0
-0.07135010000000001,1.0,-3.341675e-09,1.0,299.33351999999996,1.0,-2.26e-06,1.0
-0.0709229,1.0,-3.23944e-09,1.0,319.51547999999997,1.0,-1.46e-06,1.0
-0.0704956,1.0,-3.541565e-09,1.0,337.9284,1.0,-2.12e-06,1.0
-0.0701904,1.0,-3.80554e-09,1.0,-354.40811999999994,1.0,-2.79e-06,1.0
-0.0697937,1.0,-4.071044999999999e-09,1.0,-315.69228000000004,1.0,-2.73e-06,1.0
-0.06933589999999999,1.0,-3.6560049999999997e-09,1.0,-274.42764,1.0,-2.36e-06,1.0
-0.0690002,1.0,-3.4667949999999997e-09,1.0,-274.17492,1.0,-2.16e-06,1.0
-0.0686646,1.0,-3.9413449999999995e-09,1.0,-296.46612,1.0,-2.45e-06,1.0
-0.0682068,1.0,-4.782105e-09,1.0,351.28799999999995,1.0,-1.29e-06,1.0
-0.0677185,1.0,-4.382325e-09,1.0,260.29908,1.0,-1.99e-06,1.0
-0.0673523,1.0,-3.227235e-09,1.0,217.85904,1.0,-2.11e-06,1.0
-0.06701660000000001,1.0,-1.75934e-09,1.0,193.74372,1.0,-1.7e-06,1.0
-0.0666199,1.0,-7.61415e-10,1.0,188.2836,1.0,-1.61e-06,1.0
-0.0662537,1.0,-3.570555e-10,1.0,193.0518,1.0,-1.72e-06,1.0
-0.06579589999999999,1.0,-8.08715e-11,1.0,201.04992,1.0,-1.88e-06,1.0
-0.0654602,1.0,-3.1738299999999997e-10,1.0,221.56128000000004,1.0,-1.75e-06,1.0
-0.0650024,1.0,1.7089849999999999e-10,1.0,243.22643999999997,1.0,-1.67e-06,1.0
-0.06463619999999999,1.0,5.67625e-10,1.0,262.52928,1.0,-1.54e-06,1.0
-0.064209,1.0,9.4757e-10,1.0,274.44960000000003,1.0,-1.28e-06,1.0
-0.0639038,1.0,3.723144999999999e-10,1.0,285.26004,1.0,-1.85e-06,1.0
-0.063446,1.0,-6.27135e-10,1.0,299.02572,1.0,-1.74e-06,1.0
-0.06311040000000001,1.0,-2.2094749999999998e-09,1.0,304.63992,1.0,-1.42e-06,1.0
-0.0626831,1.0,-3.51715e-09,1.0,317.75759999999997,1.0,-6.02e-07,1.0
-0.062286400000000006,1.0,-4.63867e-09,1.0,331.40268000000003,1.0,-1.37e-06,1.0
-0.061889599999999996,1.0,-5.00795e-09,1.0,350.69471999999996,1.0,-1.08e-06,1.0
-0.061523400000000006,1.0,-5.230699999999999e-09,1.0,359.4726,1.0,-1.41e-06,1.0
-0.0611877,1.0,-5.2063e-09,1.0,349.91459999999995,1.0,-1.09e-06,1.0
-0.06072999999999999,1.0,-5.26885e-09,1.0,349.92539999999997,1.0,-1.51e-06,1.0
-0.060333300000000006,1.0,-5.484e-09,1.0,328.94172,1.0,-1.69e-06,1.0
-0.059936500000000004,1.0,-5.227649999999999e-09,1.0,319.52628000000004,1.0,-1.2e-06,1.0
-0.059539800000000004,1.0,-5.183399999999999e-09,1.0,310.59432000000004,1.0,-1.34e-06,1.0
-0.059143100000000004,1.0,-5.24595e-09,1.0,297.53172,1.0,-1.39e-06,1.0
-0.05874630000000001,1.0,-4.971314999999999e-09,1.0,302.24484,1.0,-1.26e-06,1.0
-0.0583496,1.0,-5.159e-09,1.0,289.50084,1.0,-6.979999999999999e-07,1.0
-0.0578918,1.0,-5.009449999999999e-09,1.0,282.16188,1.0,-1.13e-06,1.0
-0.0575867,1.0,-4.989625e-09,1.0,269.50572,1.0,-9.66e-07,1.0
-0.0571899,1.0,-4.98657e-09,1.0,256.78332,1.0,-8.340000000000001e-07,1.0
-0.0567932,1.0,-5.188e-09,1.0,262.72691999999995,1.0,-1.18e-06,1.0
-0.056427,1.0,-5.458049999999999e-09,1.0,261.8262,1.0,-6.790000000000001e-07,1.0
-0.055969200000000004,1.0,-5.90515e-09,1.0,279.83268,1.0,-8.83e-07,1.0
-0.055541999999999994,1.0,-6.097399999999999e-09,1.0,297.55368000000004,1.0,-1.07e-06,1.0
-0.055175800000000004,1.0,-6.57195e-09,1.0,306.34272,1.0,-9.359999999999999e-07,1.0
-0.0547791,1.0,-6.75505e-09,1.0,232.61364000000003,1.0,-1.23e-06,1.0
-0.05432130000000001,1.0,-6.510949999999999e-09,1.0,151.44660000000002,1.0,-4.48e-07,1.0
-0.0540466,1.0,-6.08675e-09,1.0,126.37584,1.0,-7.11e-07,1.0
-0.05355830000000001,1.0,-6.04095e-09,1.0,112.14828,1.0,-6.420000000000001e-07,1.0
-0.053161599999999996,1.0,-6.08825e-09,1.0,77.29992,1.0,-6.68e-07,1.0
-0.0527649,1.0,-6.31255e-09,1.0,73.23479999999999,1.0,-6.05e-07,1.0
-0.0523376,1.0,-6.5857e-09,1.0,27.564695999999998,1.0,-1.23e-06,1.0
-0.0519409,1.0,-6.5933e-09,1.0,-0.4922964,1.0,-7e-07,1.0
-0.0515442,1.0,-6.79015e-09,1.0,-0.4919688,1.0,-6.5e-07,1.0
-0.051239,1.0,-6.9748e-09,1.0,-0.49438440000000006,1.0,-1.74e-06,1.0
-0.0507813,1.0,-6.96105e-09,1.0,-90.49427999999999,1.0,-1e-06,1.0
-0.050354,1.0,-6.751999999999999e-09,1.0,-127.37556,1.0,-1.24e-06,1.0
-0.0500183,1.0,-6.6009500000000005e-09,1.0,-180.48348000000001,1.0,-1.1e-06,1.0
-0.049581900000000005,1.0,-6.097399999999999e-09,1.0,-212.40972000000002,1.0,-1.46e-06,1.0
-0.0491821,1.0,-5.41685e-09,1.0,-211.01435999999998,1.0,-1.19e-06,1.0
-0.0487915,1.0,-4.7317499999999995e-09,1.0,-204.68628,1.0,-9.91e-07,1.0
-0.0484589,1.0,-4.811095e-09,1.0,-204.68628,1.0,-8.88e-07,1.0
-0.048043800000000005,1.0,-5.23225e-09,1.0,-190.03068000000002,1.0,-1.08e-06,1.0
-0.047637900000000004,1.0,-5.4016e-09,1.0,-191.89835999999997,1.0,-1.1e-06,1.0
-0.047250400000000005,1.0,-5.4535e-09,1.0,-191.90915999999999,1.0,-1.67e-06,1.0
-0.0468231,1.0,-5.4031499999999995e-09,1.0,-191.92031999999998,1.0,-1.34e-06,1.0
-0.0465027,1.0,-5.448899999999999e-09,1.0,-224.11008,1.0,-9.42e-07,1.0
-0.04606319999999999,1.0,-5.4336499999999985e-09,1.0,-247.85171999999997,1.0,-1.36e-06,1.0
-0.0456482,1.0,-5.65185e-09,1.0,-296.433,1.0,-1.94e-06,1.0
-0.045303300000000005,1.0,-6.1569e-09,1.0,359.4178800000001,1.0,-9.8e-07,1.0
-0.044879199999999994,1.0,-6.043999999999999e-09,1.0,297.53172,1.0,-1.31e-06,1.0
-0.044546499999999996,1.0,-6.5262e-09,1.0,232.61364000000003,1.0,-1.6100000000000003e-07,1.0
-0.044155900000000005,1.0,-6.514e-09,1.0,151.43544000000003,1.0,-1.54e-06,1.0
-0.0437469,1.0,-6.03945e-09,1.0,179.48376000000002,1.0,-9.55e-07,1.0
-0.0433868,1.0,-5.6122e-09,1.0,216.36468,1.0,-1.28e-06,1.0
-0.042999300000000004,1.0,-5.41685e-09,1.0,255.21228000000002,1.0,-1e-06,1.0
-0.042584199999999996,1.0,-5.22005e-09,1.0,276.19631999999996,1.0,-1.15e-06,1.0
-0.0422089,1.0,-5.418399999999999e-09,1.0,311.51736000000005,1.0,-7.12e-07,1.0
-0.041861,1.0,-5.728149999999999e-09,1.0,359.4618,1.0,-5.86e-07,1.0
-0.0414032,1.0,-5.776999999999999e-09,1.0,-319.37256,1.0,-9.109999999999999e-07,1.0
-0.0410431,1.0,-6.129449999999999e-09,1.0,-270.48348,1.0,-8.47e-07,1.0
-0.0405975,1.0,-6.304949999999999e-09,1.0,-254.24568,1.0,-1.01e-06,1.0
-0.0402557,1.0,-6.7917e-09,1.0,-323.62416,1.0,-6.38e-07,1.0
-0.039898699999999995,1.0,-6.402600000000001e-09,1.0,336.82968,1.0,-8.65e-07,1.0
-0.0395142,1.0,-6.1737e-09,1.0,359.4726,1.0,-6.26e-07,1.0
-0.03909,1.0,-5.50535e-09,1.0,-337.87368,1.0,-8.540000000000001e-07,1.0
-0.038714599999999995,1.0,-5.56185e-09,1.0,-329.98536,1.0,-1.81e-06,1.0
-0.0382904,1.0,-5.0826999999999994e-09,1.0,-323.62416,1.0,-1.18e-06,1.0
-0.037893699999999995,1.0,-4.56543e-09,1.0,-316.86768,1.0,-1.36e-06,1.0
-0.037493900000000004,1.0,-3.4805299999999998e-09,1.0,-312.01164,1.0,-8.83e-07,1.0
-0.0370941,1.0,-2.459715e-09,1.0,-319.83408,1.0,-1.43e-06,1.0
-0.0367859,1.0,-1.64032e-09,1.0,-333.22644,1.0,-1.49e-06,1.0
-0.0363647,1.0,-1.87683e-09,1.0,-343.25676,1.0,-1.27e-06,1.0
-0.035968,1.0,-2.66571e-09,1.0,-356.23152,1.0,-1.23e-06,1.0
-0.03559880000000001,1.0,-4.0023799999999996e-09,1.0,347.40972,1.0,-1.74e-07,1.0
-0.035180699999999995,1.0,-4.9728399999999995e-09,1.0,302.24484,1.0,-8.77e-07,1.0
-0.034848000000000004,1.0,-5.0812e-09,1.0,256.78332,1.0,-4.0399999999999996e-07,1.0
-0.034399400000000004,1.0,-4.298399999999999e-09,1.0,229.53743999999998,1.0,-4.89e-07,1.0
-0.034017900000000004,1.0,-3.930665e-09,1.0,210.564,1.0,-7.780000000000001e-08,1.0
-0.0336151,1.0,-4.193114999999999e-09,1.0,198.43488,1.0,-1.1900000000000001e-07,1.0
-0.0332184,1.0,-3.91693e-09,1.0,196.57836,1.0,-4.38e-07,1.0
-0.0328583,1.0,-4.15802e-09,1.0,232.62444,1.0,-1.82e-07,1.0
-0.032461500000000004,1.0,-5.6946e-09,1.0,306.30996000000005,1.0,-4.5700000000000003e-07,1.0
-0.0320007,1.0,-5.889899999999999e-09,1.0,-239.99616,1.0,-2.35e-07,1.0
-0.0316467,1.0,-4.518125e-09,1.0,-195.7104,1.0,-6.55e-07,1.0
-0.0312378,1.0,-3.84979e-09,1.0,-198.44603999999998,1.0,-2.35e-07,1.0
-0.030813599999999997,1.0,-4.5089699999999996e-09,1.0,-217.38635999999997,1.0,-1.54e-07,1.0
-0.0304565,1.0,-5.841049999999999e-09,1.0,-270.47231999999997,1.0,-1.12e-06,1.0
-0.030120799999999996,1.0,-6.1477499999999996e-09,1.0,297.5428800000001,1.0,6.709999999999999e-09,1.0
-0.029693599999999997,1.0,-5.464149999999999e-09,1.0,223.09919999999997,1.0,-1.8100000000000002e-07,1.0
-0.029299900000000004,1.0,-4.751585e-09,1.0,195.76548000000003,1.0,-4.2700000000000005e-07,1.0
-0.0289154,1.0,-4.737855e-09,1.0,187.69031999999999,1.0,-6.3e-07,1.0
-0.0285187,1.0,-5.2353e-09,1.0,189.04175999999998,1.0,4.5799999999999995e-07,1.0
-0.0281219,1.0,-5.8441000000000005e-09,1.0,193.78799999999995,1.0,2.85e-07,1.0
-0.027725200000000002,1.0,-6.2729e-09,1.0,223.11036,1.0,-5.4299999999999997e-08,1.0
-0.0273407,1.0,-6.523149999999999e-09,1.0,246.87359999999998,1.0,-3.9700000000000005e-08,1.0
-0.0269836,1.0,-6.668099999999999e-09,1.0,232.60248,1.0,-7.54e-08,1.0
-0.0265503,1.0,-6.9122499999999996e-09,1.0,269.49456,1.0,6.25e-07,1.0
-0.026116900000000005,1.0,-7.106e-09,1.0,-0.48911040000000006,1.0,-9.83e-08,1.0
-0.025790399999999998,1.0,-7.1884e-09,1.0,-0.4897691999999999,1.0,-6.23e-07,1.0
-0.025369299999999997,1.0,-7.1777499999999995e-09,1.0,-0.4905396000000001,1.0,-2.48e-07,1.0
-0.0250366,1.0,-7.127399999999999e-09,1.0,-0.4898808,1.0,-4.7e-07,1.0
-0.024603299999999998,1.0,-7.231149999999999e-09,1.0,-0.48625559999999995,1.0,-5.96e-07,1.0
-0.024224900000000004,1.0,-7.217399999999999e-09,1.0,-0.49416480000000007,1.0,-2.33e-07,1.0
-0.023828099999999998,1.0,-7.27235e-09,1.0,-0.49416480000000007,1.0,-1.82e-07,1.0
-0.0234375,1.0,-7.316599999999999e-09,1.0,-0.5018544,1.0,-1.08e-07,1.0
-0.023019400000000002,1.0,-7.26775e-09,1.0,-0.498888,1.0,3.88e-07,1.0
-0.022644,1.0,-7.278449999999999e-09,1.0,-0.494604,1.0,-5.070000000000001e-07,1.0
-0.022250400000000004,1.0,-7.2525e-09,1.0,-0.4971312,1.0,-4.45e-07,1.0
-0.0218475,1.0,-7.30745e-09,1.0,-0.4932864,1.0,1.45e-07,1.0
-0.0214722,1.0,-7.337949999999999e-09,1.0,-0.49537439999999994,1.0,-1.2699999999999999e-07,1.0
-0.020996099999999997,1.0,-7.29675e-09,1.0,-0.49954680000000007,1.0,-1.7e-07,1.0
-0.0206787,1.0,-7.3471e-09,1.0,-0.5015267999999999,1.0,-3.91e-07,1.0
-0.0202362,1.0,-7.2799499999999995e-09,1.0,-0.49976639999999994,1.0,-4.0300000000000004e-08,1.0
-0.019909700000000002,1.0,-7.1884e-09,1.0,-0.48845160000000004,1.0,-2.1e-07,1.0
-0.019442700000000004,1.0,-7.122800000000001e-09,1.0,-0.4897691999999999,1.0,-3.7200000000000005e-07,1.0
-0.0190613,1.0,-7.222e-09,1.0,-0.4905396000000001,1.0,-8.39e-08,1.0
-0.018673699999999998,1.0,-7.173149999999999e-09,1.0,-0.48900240000000006,1.0,-9.34e-08,1.0
-0.0182983,1.0,-7.144149999999999e-09,1.0,-0.49273560000000005,1.0,1.53e-08,1.0
-0.0179108,1.0,-7.183850000000001e-09,1.0,-0.4903199999999999,1.0,5.89e-08,1.0
-0.0174988,1.0,-7.151799999999999e-09,1.0,-0.48944160000000003,1.0,-3.69e-07,1.0
-0.017144799999999998,1.0,-7.19605e-09,1.0,-0.49273560000000005,1.0,-7.179999999999999e-07,1.0
-0.016735800000000002,1.0,-7.200599999999999e-09,1.0,-0.4932864,1.0,-1.85e-07,1.0
-0.0163849,1.0,-7.24485e-09,1.0,-0.49284720000000004,1.0,-2.7800000000000003e-07,1.0
-0.0159424,1.0,-7.1456999999999994e-09,1.0,-0.49010040000000005,1.0,1.62e-07,1.0
-0.015545699999999999,1.0,-7.2113e-09,1.0,-0.4938372000000001,1.0,-5.04e-07,1.0
-0.015255700000000002,1.0,-7.205199999999999e-09,1.0,-0.49273560000000005,1.0,-1.57e-07,1.0
-0.0147827,1.0,-7.2403e-09,1.0,-0.49438440000000006,1.0,5.62e-07,1.0
-0.0144196,1.0,-7.232649999999999e-09,1.0,-0.495594,1.0,5.489999999999999e-09,1.0
-0.014019799999999997,1.0,-7.19145e-09,1.0,-0.4952628,1.0,-5.37e-07,1.0
-0.0136322,1.0,-7.101449999999999e-09,1.0,-0.48702239999999997,1.0,-1.58e-07,1.0
-0.0132935,1.0,-7.24485e-09,1.0,-0.4947156,1.0,-7.2e-08,1.0
-0.0128265,1.0,-7.1533e-09,1.0,-0.4897691999999999,1.0,-3.85e-07,1.0
-0.0124695,1.0,-7.1701e-09,1.0,-0.488232,1.0,1.71e-07,1.0
-0.012069700000000001,1.0,-7.193e-09,1.0,-0.49317479999999997,1.0,-6.78e-07,1.0
-0.0116852,1.0,-7.217399999999999e-09,1.0,-0.4876848,1.0,-7.57e-08,1.0
-0.0112518,1.0,-7.2281e-09,1.0,-0.49405679999999996,1.0,-1.13e-07,1.0
-0.010922200000000002,1.0,-7.16555e-09,1.0,-0.49163759999999995,1.0,-3.7e-07,1.0
-0.0105469,1.0,-7.2403e-09,1.0,-0.49218839999999997,1.0,-1.11e-07,1.0
-0.0101746,1.0,-7.2342e-09,1.0,-0.4897691999999999,1.0,-2.39e-07,1.0
-0.00973206,1.0,-7.12435e-09,1.0,-0.48702239999999997,1.0,-4.46e-08,1.0
-0.00932312,1.0,-7.182300000000001e-09,1.0,-0.4898808,1.0,-5.4e-07,1.0
-0.00897827,1.0,-7.185349999999999e-09,1.0,-0.486036,1.0,5.19e-07,1.0
-0.00860291,1.0,-7.15485e-09,1.0,-0.4855968,1.0,3.84e-07,1.0
-0.00820618,1.0,-7.115149999999999e-09,1.0,-0.4876848,1.0,3.1e-07,1.0
-0.00777588,1.0,-7.08925e-09,1.0,-0.48438720000000013,1.0,2.74e-07,1.0
-0.00740662,1.0,-7.12435e-09,1.0,-0.48065040000000003,1.0,-2.8e-07,1.0
-0.00700989,1.0,-7.142649999999998e-09,1.0,-0.48867120000000003,1.0,-1.74e-08,1.0
-0.00661011,1.0,-7.1167e-09,1.0,-0.48779279999999997,1.0,9.74e-08,1.0
-0.00619812,1.0,-7.09535e-09,1.0,-0.488124,1.0,5.979999999999999e-07,1.0
-0.00579529,1.0,-7.1456999999999994e-09,1.0,-0.4905396000000001,1.0,7.66e-07,1.0
-0.00549622,1.0,-7.1884e-09,1.0,-0.48735360000000005,1.0,-7.63e-08,1.0
-0.00501404,1.0,-7.16555e-09,1.0,-0.48790439999999996,1.0,7.35e-07,1.0
-0.00462646,1.0,-7.13195e-09,1.0,-0.488232,1.0,4.96e-07,1.0
-0.00421753,1.0,-7.16555e-09,1.0,-0.48526559999999996,1.0,3.6200000000000004e-07,1.0
-0.00386047,1.0,-7.1701e-09,1.0,-0.4868028,1.0,2.47e-07,1.0
-0.00349121,1.0,-7.1869000000000005e-09,1.0,-0.4907592,1.0,5.5e-07,1.0
-0.0030426,1.0,-7.16095e-09,1.0,-0.4876848,1.0,5e-07,1.0
-0.0026062,1.0,-7.127399999999999e-09,1.0,-0.48625559999999995,1.0,7.529999999999999e-07,1.0
-0.00223389,1.0,-7.1563500000000004e-09,1.0,-0.486036,1.0,5.71e-07,1.0
-0.00186462,1.0,-7.1396e-09,1.0,-0.48790439999999996,1.0,1.05e-06,1.0
-0.00140076,1.0,-7.180800000000001e-09,1.0,-0.48998880000000006,1.0,1.36e-06,1.0
-0.00105591,1.0,-7.183850000000001e-09,1.0,-0.49152959999999996,1.0,9.27e-07,1.0
-0.0006866460000000001,1.0,-7.1563500000000004e-09,1.0,-0.48779279999999997,1.0,3.7200000000000005e-07,1.0
-0.000268555,1.0,-7.138049999999999e-09,1.0,-0.48625559999999995,1.0,5.36e-07,1.0
0.000164795,1.0,-7.067849999999999e-09,1.0,-0.485046,1.0,1.01e-06,1.0
0.000588989,1.0,-7.1045e-09,1.0,-0.487134,1.0,5.26e-07,1.0
0.000924683,1.0,-7.136549999999999e-09,1.0,-0.48350879999999996,1.0,5.51e-07,1.0
0.00132446,1.0,-7.144149999999999e-09,1.0,-0.4840560000000001,1.0,4.53e-07,1.0
0.00173645,1.0,-7.142649999999998e-09,1.0,-0.4898808,1.0,6.24e-07,1.0
0.00211792,1.0,-7.15485e-09,1.0,-0.488124,1.0,7.7e-07,1.0
0.00254517,1.0,-7.11825e-09,1.0,-0.4864752,1.0,8e-07,1.0
0.0028595,1.0,-7.215899999999999e-09,1.0,-0.4898808,1.0,9.8e-07,1.0
0.00328369,1.0,-7.135e-09,1.0,-0.4885632000000001,1.0,6.88e-07,1.0
0.00364685,1.0,-7.1533e-09,1.0,-0.49405679999999996,1.0,1.16e-06,1.0
0.00404663,1.0,-7.1533e-09,1.0,-0.4857048,1.0,2.4399999999999996e-07,1.0
0.00443726,1.0,-7.15485e-09,1.0,-0.4896612,1.0,1.6399999999999999e-07,1.0
0.00481567,1.0,-7.18995e-09,1.0,-0.48801239999999996,1.0,8.909999999999999e-07,1.0
0.00521851,1.0,-7.180800000000001e-09,1.0,-0.49273560000000005,1.0,2.87e-07,1.0
0.00563049,1.0,-7.135e-09,1.0,-0.48889079999999996,1.0,8.690000000000001e-07,1.0
0.00604858,1.0,-7.1563500000000004e-09,1.0,-0.4922964,1.0,1.01e-06,1.0
0.00632935,1.0,-7.21435e-09,1.0,-0.4903199999999999,1.0,1.98e-07,1.0
0.00680847,1.0,-6.967149999999999e-09,1.0,359.4178800000001,1.0,1.13e-06,1.0
0.00716858,1.0,-7.06175e-09,1.0,359.4506399999999,1.0,1.51e-06,1.0
0.00758057,1.0,-7.0449999999999996e-09,1.0,359.4618,1.0,9.6e-07,1.0
0.00797729,1.0,-7.258599999999999e-09,1.0,-0.493506,1.0,1.49e-07,1.0
0.00839844,1.0,-6.729149999999999e-09,1.0,-180.50544000000002,1.0,7.140000000000001e-07,1.0
0.00880432,1.0,-5.831899999999999e-09,1.0,-180.49428000000003,1.0,9.97e-07,1.0
0.00918884,1.0,-5.596899999999999e-09,1.0,-180.47232,1.0,8.1e-07,1.0
0.00959473,1.0,-5.841049999999999e-09,1.0,-180.48348000000001,1.0,6.47e-07,1.0
0.0099884,1.0,-6.2316999999999995e-09,1.0,-180.48348000000001,1.0,6.34e-07,1.0
0.010406499999999999,1.0,-6.687949999999999e-09,1.0,359.43983999999995,1.0,9.65e-07,1.0
0.0107239,1.0,-5.096449999999999e-09,1.0,249.49944,1.0,1.2e-06,1.0
0.0111176,1.0,-2.963255e-09,1.0,246.88476,1.0,1.08e-06,1.0
0.0115021,1.0,-1.0421749999999999e-09,1.0,252.00432,1.0,1.22e-06,1.0
0.0118774,1.0,7.0343e-10,1.0,262.54044,1.0,1.03e-06,1.0
0.0123199,1.0,1.5945449999999999e-09,1.0,272.58191999999997,1.0,1.3e-06,1.0
0.0126678,1.0,2.01416e-09,1.0,286.17192,1.0,1.03e-06,1.0
0.0130768,1.0,1.7425549999999999e-09,1.0,300.49812000000003,1.0,1.14e-06,1.0
0.0134277,1.0,1.30615e-09,1.0,308.35332,1.0,1.5e-06,1.0
0.013806200000000001,1.0,8.60595e-10,1.0,305.27712,1.0,1.45e-06,1.0
0.0142395,1.0,-7.3395e-10,1.0,286.3368,1.0,1.26e-06,1.0
0.0146576,1.0,-2.423095e-09,1.0,225.35171999999997,1.0,1.54e-06,1.0
0.014996299999999999,1.0,-2.4765e-09,1.0,159.25788000000003,1.0,1.12e-06,1.0
0.015451,1.0,-2.383425e-09,1.0,128.2104,1.0,1.45e-06,1.0
0.0158386,1.0,-2.833555e-09,1.0,120.564,1.0,1.47e-06,1.0
0.0161865,1.0,-3.3981299999999997e-09,1.0,114.94980000000001,1.0,1.52e-06,1.0
0.0166382,1.0,-4.341125e-09,1.0,123.3324,1.0,1.69e-06,1.0
0.0170013,1.0,-5.581649999999999e-09,1.0,192.17268,1.0,1.01e-06,1.0
0.0174622,1.0,-5.33905e-09,1.0,326.05236,1.0,2.47e-06,1.0
0.017843599999999998,1.0,-4.541015e-09,1.0,352.28772,1.0,1.84e-06,1.0
0.018237299999999998,1.0,-4.1015649999999996e-09,1.0,-354.04524,1.0,1.73e-06,1.0
0.0186401,1.0,-4.5852649999999995e-09,1.0,-337.86251999999996,1.0,1.61e-06,1.0
0.019043,1.0,-4.997254999999999e-09,1.0,-270.47231999999997,1.0,9.47e-07,1.0
0.0194336,1.0,-4.571534999999999e-09,1.0,-210.36636,1.0,1.58e-06,1.0
0.019842500000000002,1.0,-4.1534400000000005e-09,1.0,-193.18356,1.0,1.47e-06,1.0
0.020288099999999996,1.0,-3.89099e-09,1.0,-180.48348000000001,1.0,1.63e-06,1.0
0.0206757,1.0,-3.619385e-09,1.0,-175.02335999999997,1.0,1.82e-06,1.0
0.0210144,1.0,-3.4698499999999996e-09,1.0,-159.88392,1.0,1.58e-06,1.0
0.0214935,1.0,-3.82538e-09,1.0,-145.44792,1.0,1.33e-06,1.0
0.0218353,1.0,-4.7348e-09,1.0,-130.94604,1.0,4.81e-07,1.0
0.022311400000000002,1.0,-6.07145e-09,1.0,-127.34244000000001,1.0,1.59e-06,1.0
0.022583000000000002,1.0,-6.739799999999999e-09,1.0,359.43983999999995,1.0,1.92e-06,1.0
0.022994999999999998,1.0,-5.6671e-09,1.0,288.38016,1.0,1.54e-06,1.0
0.0233826,1.0,-4.83856e-09,1.0,292.0716,1.0,1.52e-06,1.0
0.0237518,1.0,-3.964235e-09,1.0,290.50056000000006,1.0,1.4e-06,1.0
0.0241791,1.0,-3.820799999999999e-09,1.0,283.52412,1.0,1e-06,1.0
0.024585,1.0,-3.81012e-09,1.0,265.25376,1.0,1.05e-06,1.0
0.0249359,1.0,-4.49219e-09,1.0,248.8734,1.0,1.46e-06,1.0
0.0253357,1.0,-4.7317499999999995e-09,1.0,213.70608000000001,1.0,1.68e-06,1.0
0.025695799999999998,1.0,-5.0155500000000005e-09,1.0,179.49455999999998,1.0,6.75e-07,1.0
0.0260986,1.0,-4.96826e-09,1.0,170.69472,1.0,9.9e-07,1.0
0.026467900000000003,1.0,-5.42295e-09,1.0,189.90972,1.0,1.52e-06,1.0
0.026840199999999998,1.0,-5.8730999999999995e-09,1.0,193.75488,1.0,1.77e-06,1.0
0.0272308,1.0,-6.4392e-09,1.0,207.58679999999998,1.0,1.64e-06,1.0
0.027652,1.0,-6.9977e-09,1.0,-270.45036000000005,1.0,1.25e-06,1.0
0.027963299999999996,1.0,-6.4728e-09,1.0,-208.5534,1.0,1.35e-06,1.0
0.028439299999999997,1.0,-6.390399999999999e-09,1.0,-293.0821199999999,1.0,1.46e-06,1.0
0.028820799999999997,1.0,-6.02415e-09,1.0,322.59168,1.0,1.66e-06,1.0
0.0292084,1.0,-4.70581e-09,1.0,287.43516000000005,1.0,1.42e-06,1.0
0.029592900000000002,1.0,-3.945925e-09,1.0,298.52064,1.0,1.54e-06,1.0
0.0299805,1.0,-3.55377e-09,1.0,315.846,1.0,2.01e-06,1.0
0.0303558,1.0,-4.185485e-09,1.0,340.53228,1.0,2e-06,1.0
0.0307587,1.0,-4.9957300000000005e-09,1.0,-334.48968,1.0,1.78e-06,1.0
0.031152299999999997,1.0,-5.39095e-09,1.0,-254.23451999999997,1.0,1.25e-06,1.0
0.031555200000000005,1.0,-5.40925e-09,1.0,-170.09028,1.0,1.3e-06,1.0
0.031979400000000005,1.0,-4.733275e-09,1.0,-119.98152,1.0,1.07e-06,1.0
0.0323029,1.0,-4.496764999999999e-09,1.0,-85.52844000000002,1.0,1.81e-06,1.0
0.0327118,1.0,-4.6798699999999995e-09,1.0,-67.88448,1.0,2.18e-06,1.0
0.033126800000000005,1.0,-5.30395e-09,1.0,-44.12124,1.0,1.03e-06,1.0
0.033493,1.0,-5.98755e-09,1.0,18.464724,1.0,1.6e-06,1.0
0.0338776,1.0,-6.2607e-09,1.0,156.86280000000002,1.0,1.54e-06,1.0
0.034277300000000004,1.0,-5.81205e-09,1.0,207.5976,1.0,2.14e-06,1.0
0.0346741,1.0,-5.7846e-09,1.0,238.99643999999998,1.0,2e-06,1.0
0.035107400000000004,1.0,-5.97535e-09,1.0,256.79448,1.0,1.96e-06,1.0
0.035513300000000005,1.0,-6.35375e-09,1.0,306.36468,1.0,2.08e-06,1.0
0.035849,1.0,-6.1264e-09,1.0,-337.86251999999996,1.0,1.25e-06,1.0
0.03630680000000001,1.0,-5.8716e-09,1.0,-328.56804,1.0,1.9e-06,1.0
0.036676,1.0,-5.5008e-09,1.0,-347.76108000000005,1.0,1.94e-06,1.0
0.037066699999999994,1.0,-5.776999999999999e-09,1.0,345.26736000000005,1.0,2.25e-06,1.0
0.0374481,1.0,-5.761699999999999e-09,1.0,313.0884,1.0,2.12e-06,1.0
0.0377686,1.0,-5.934149999999999e-09,1.0,269.48376,1.0,2.29e-06,1.0
0.038229400000000004,1.0,-5.435199999999999e-09,1.0,250.587,1.0,1.87e-06,1.0
0.0386475,1.0,-5.2887e-09,1.0,232.65755999999996,1.0,2.02e-06,1.0
0.039007599999999996,1.0,-4.881285e-09,1.0,232.6356,1.0,1.85e-06,1.0
0.0393829,1.0,-4.63867e-09,1.0,246.87359999999998,1.0,1.81e-06,1.0
0.039779699999999994,1.0,-4.46472e-09,1.0,264.04524,1.0,2.99e-06,1.0
0.040158099999999995,1.0,-4.847715e-09,1.0,275.526,1.0,1.54e-06,1.0
0.040603600000000004,1.0,-5.032350000000001e-09,1.0,289.48968,1.0,2.08e-06,1.0
0.0409698,1.0,-5.291749999999999e-09,1.0,306.36468,1.0,2.05e-06,1.0
0.0413605,1.0,-5.293249999999999e-09,1.0,338.85144,1.0,2.74e-06,1.0
0.041848800000000005,1.0,-5.1758e-09,1.0,-342.37800000000004,1.0,1.72e-06,1.0
0.042175300000000006,1.0,-4.91791e-09,1.0,-342.99324,1.0,2.03e-06,1.0
0.0425476,1.0,-5.1376499999999995e-09,1.0,-332.4132,1.0,1.97e-06,1.0
0.0429779,1.0,-5.54655e-09,1.0,-307.3536,1.0,2.25e-06,1.0
0.0433624,1.0,-5.99825e-09,1.0,-283.1508,1.0,2.03e-06,1.0
0.0438324,1.0,-6.692499999999999e-09,1.0,-233.78903999999997,1.0,1.8000000000000001e-06,1.0
0.0440979,1.0,-6.9e-09,1.0,179.48376000000002,1.0,1.87e-06,1.0
0.0445007,1.0,-6.4682e-09,1.0,179.49455999999998,1.0,2.45e-06,1.0
0.044924900000000004,1.0,-5.996699999999999e-09,1.0,179.49455999999998,1.0,2.14e-06,1.0
0.045285,1.0,-5.80445e-09,1.0,179.4618,1.0,2.25e-06,1.0
0.0457001,1.0,-5.808999999999999e-09,1.0,193.75488,1.0,1.65e-06,1.0
0.0460846,1.0,-5.8441000000000005e-09,1.0,216.37584,1.0,2.16e-06,1.0
0.046475199999999994,1.0,-6.33545e-09,1.0,246.87359999999998,1.0,2.35e-06,1.0
0.0468994,1.0,-6.869499999999999e-09,1.0,-270.46151999999995,1.0,1.95e-06,1.0
0.0472839,1.0,-6.205749999999999e-09,1.0,-157.88448000000002,1.0,2.5e-06,1.0
0.0475983,1.0,-5.9433e-09,1.0,-143.62416000000002,1.0,2.3e-06,1.0
0.0480591,1.0,-5.924999999999999e-09,1.0,-113.10408,1.0,2.36e-06,1.0
0.0484344,1.0,-5.91735e-09,1.0,-77.80499999999999,1.0,2.14e-06,1.0
0.0487976,1.0,-6.05925e-09,1.0,-53.61336,1.0,2.26e-06,1.0
0.049243199999999994,1.0,-6.19355e-09,1.0,-0.48438720000000013,1.0,2.67e-06,1.0
0.0495514,1.0,-6.4163e-09,1.0,52.657560000000004,1.0,2.53e-06,1.0
0.0501099,1.0,-6.15845e-09,1.0,135.88992,1.0,2.4e-06,1.0
0.05044559999999999,1.0,-6.19965e-09,1.0,223.07724000000002,1.0,2.77e-06,1.0
0.0509338,1.0,-5.9555e-09,1.0,269.49456,1.0,2.64e-06,1.0
0.0512695,1.0,-5.992149999999999e-09,1.0,297.55368000000004,1.0,2.24e-06,1.0
0.0516663,1.0,-5.9372e-09,1.0,343.13616,1.0,2.89e-06,1.0
0.0520325,1.0,-5.2826e-09,1.0,-312.56100000000004,1.0,2.06e-06,1.0
0.0523987,1.0,-4.44336e-09,1.0,-254.22372000000001,1.0,2.31e-06,1.0
0.052795400000000006,1.0,-3.8040149999999995e-09,1.0,-223.00056,1.0,2.34e-06,1.0
0.0531311,1.0,-3.8040149999999995e-09,1.0,-205.05996,1.0,1.99e-06,1.0
0.0536499,1.0,-4.222105e-09,1.0,-193.91976,1.0,2.42e-06,1.0
0.05395509999999999,1.0,-4.86603e-09,1.0,-180.47232,1.0,2.67e-06,1.0
0.054351800000000006,1.0,-6.01045e-09,1.0,-144.00863999999999,1.0,1.97e-06,1.0
0.0547485,1.0,-5.972299999999999e-09,1.0,66.88476,1.0,2.57e-06,1.0
0.055114699999999996,1.0,-4.0771500000000005e-09,1.0,102.96396,1.0,2.08e-06,1.0
0.055541999999999994,1.0,-2.58026e-09,1.0,126.38664000000001,1.0,1.85e-06,1.0
0.055938699999999994,1.0,-1.6693099999999999e-09,1.0,161.74079999999998,1.0,2.49e-06,1.0
0.0563354,1.0,-9.7809e-10,1.0,194.90831999999997,1.0,2.7000000000000004e-06,1.0
0.0567932,1.0,-1.75476e-10,1.0,218.99051999999998,1.0,2.44e-06,1.0
0.0570984,1.0,5.1422e-10,1.0,238.35924,1.0,2.2e-06,1.0
0.0574341,1.0,4.867555e-10,1.0,256.78332,1.0,2.61e-06,1.0
0.0578308,1.0,-1.7089849999999999e-10,1.0,275.3064,1.0,2.81e-06,1.0
0.0582581,1.0,-1.1062599999999999e-09,1.0,296.433,1.0,2.64e-06,1.0
0.0586548,1.0,-2.3391699999999995e-09,1.0,318.84516,1.0,2.23e-06,1.0
0.0590515,1.0,-3.79486e-09,1.0,335.6982,1.0,2.4e-06,1.0
0.059417700000000004,1.0,-5.2718999999999995e-09,1.0,-350.05751999999995,1.0,2.6e-06,1.0
0.0598145,1.0,-6.3675e-09,1.0,-307.3536,1.0,1.91e-06,1.0
0.060180700000000004,1.0,-6.6223e-09,1.0,-0.48219120000000004,1.0,2.18e-06,1.0
0.06054690000000001,1.0,-6.01045e-09,1.0,36.36468,1.0,2.55e-06,1.0
0.06100459999999999,1.0,-5.4825000000000005e-09,1.0,52.64639999999999,1.0,2.79e-06,1.0
0.0614014,1.0,-5.493149999999999e-09,1.0,80.72748,1.0,2.85e-06,1.0
0.061706500000000004,1.0,-5.99975e-09,1.0,89.49456,1.0,2.19e-06,1.0
0.062072800000000004,1.0,-6.495649999999999e-09,1.0,179.49455999999998,1.0,2.79e-06,1.0
0.0625,1.0,-5.996699999999999e-09,1.0,327.56831999999997,1.0,3.07e-06,1.0
0.0628662,1.0,-5.181899999999999e-09,1.0,359.4618,1.0,3.09e-06,1.0
0.0633545,1.0,-4.518125e-09,1.0,-330.6114,1.0,2.67e-06,1.0
0.0636292,1.0,-4.28772e-09,1.0,-298.53144,1.0,2.6e-06,1.0
0.0640869,1.0,-4.023744999999999e-09,1.0,-279.28332,1.0,2.8e-06,1.0
0.0644226,1.0,-3.771975e-09,1.0,-257.77224,1.0,2.58e-06,1.0
0.06488039999999999,1.0,-3.79486e-09,1.0,-246.29148,1.0,2.46e-06,1.0
0.06527709999999999,1.0,-3.6300649999999997e-09,1.0,-231.20711999999997,1.0,1.98e-06,1.0
0.0656738,1.0,-3.788755e-09,1.0,-215.52983999999998,1.0,2.85e-06,1.0
0.0660095,1.0,-3.85132e-09,1.0,-186.52571999999998,1.0,2.99e-06,1.0
0.0663757,1.0,-4.1275e-09,1.0,-161.15831999999997,1.0,2.57e-06,1.0
0.06674189999999999,1.0,-4.92096e-09,1.0,-143.62416000000002,1.0,2.64e-06,1.0
0.0671997,1.0,-6.4819499999999995e-09,1.0,-152.43516,1.0,2.67e-06,1.0
0.0675964,1.0,-6.483449999999999e-09,1.0,232.61364000000003,1.0,3.36e-06,1.0
0.06796260000000001,1.0,-4.96216e-09,1.0,244.44576,1.0,3.37e-06,1.0
0.06838989999999999,1.0,-4.545595e-09,1.0,254.58623999999995,1.0,3.66e-06,1.0
0.0688171,1.0,-3.852845e-09,1.0,286.96283999999997,1.0,2.91e-06,1.0
0.0690918,1.0,-3.7567149999999995e-09,1.0,331.38072,1.0,3.2e-06,1.0
0.0695496,1.0,-3.4118649999999998e-09,1.0,-355.24296,1.0,2.79e-06,1.0
0.0698547,1.0,-3.837585e-09,1.0,-337.85172,1.0,2.57e-06,1.0
0.07034299999999999,1.0,-4.527285e-09,1.0,-316.86768,1.0,3.33e-06,1.0
0.0707703,1.0,-5.1635500000000004e-09,1.0,-298.53144,1.0,2.84e-06,1.0
0.0710449,1.0,-5.496199999999999e-09,1.0,-270.48348,1.0,3.5000000000000004e-06,1.0
0.07150269999999999,1.0,-5.467199999999999e-09,1.0,-254.25648,1.0,2.96e-06,1.0
0.07192989999999999,1.0,-5.6488e-09,1.0,-251.59787999999998,1.0,3.42e-06,1.0
0.0722961,1.0,-6.12335e-09,1.0,-298.5426,1.0,3.64e-06,1.0
0.07266239999999999,1.0,-6.3263e-09,1.0,336.85164,1.0,3.75e-06,1.0
0.07315060000000001,1.0,-6.0089e-09,1.0,292.06043999999997,1.0,4.14e-06,1.0
0.0734863,1.0,-5.6717e-09,1.0,260.68356000000006,1.0,3.64e-06,1.0
0.07397460000000002,1.0,-5.41685e-09,1.0,269.4618,1.0,3.81e-06,1.0
0.07431030000000001,1.0,-5.39095e-09,1.0,277.08624,1.0,4.22e-06,1.0
0.07467649999999999,1.0,-5.841049999999999e-09,1.0,299.98152,1.0,3.85e-06,1.0
0.0751343,1.0,-6.5506e-09,1.0,331.43543999999997,1.0,4.14e-06,1.0
0.0755005,1.0,-6.5033e-09,1.0,-307.3536,1.0,3.39e-06,1.0
0.07583619999999999,1.0,-6.30035e-09,1.0,-286.72128,1.0,3.81e-06,1.0
0.0762939,1.0,-6.01655e-09,1.0,-270.48348,1.0,3.37e-06,1.0
0.07669069999999999,1.0,-5.9845e-09,1.0,-247.85171999999997,1.0,3.4e-06,1.0
0.077179,1.0,-6.251550000000001e-09,1.0,-203.13719999999998,1.0,2.73e-06,1.0
0.0774841,1.0,-6.4513999999999995e-09,1.0,-127.37556,1.0,3.23e-06,1.0
0.0779419,1.0,-6.4209e-09,1.0,-28.553472000000006,1.0,3.78e-06,1.0
0.0782776,1.0,-5.94175e-09,1.0,89.49456,1.0,3.83e-06,1.0
0.0787048,1.0,-5.542e-09,1.0,126.38664000000001,1.0,3.86e-06,1.0
0.0789795,1.0,-5.3283500000000005e-09,1.0,156.85164000000003,1.0,3.24e-06,1.0
0.0794373,1.0,-5.32075e-09,1.0,190.92024,1.0,3.96e-06,1.0
0.0798645,1.0,-5.27345e-09,1.0,232.61364000000003,1.0,3.62e-06,1.0
0.08026119999999999,1.0,-4.89197e-09,1.0,263.45232,1.0,4.29e-06,1.0
0.08062739999999999,1.0,-4.94232e-09,1.0,294.47748,1.0,3.86e-06,1.0
0.08093260000000001,1.0,-5.1849499999999996e-09,1.0,331.40268000000003,1.0,3.94e-06,1.0
0.08142089999999999,1.0,-5.4062e-09,1.0,-327.07404,1.0,3.78e-06,1.0
0.08178710000000002,1.0,-5.361949999999999e-09,1.0,-247.86252,1.0,3.13e-06,1.0
0.0822449,1.0,-5.1162499999999996e-09,1.0,-180.48348000000001,1.0,3.64e-06,1.0
0.0826111,1.0,-4.85382e-09,1.0,-135.26352,1.0,3.87e-06,1.0
0.08300779999999999,1.0,-4.6371449999999995e-09,1.0,-113.08212,1.0,4.24e-06,1.0
0.0833435,1.0,-4.951475e-09,1.0,-96.52572,1.0,3.65e-06,1.0
0.0837708,1.0,-5.343649999999999e-09,1.0,-90.49427999999999,1.0,3.52e-06,1.0
0.084198,1.0,-6.0028e-09,1.0,-77.82732,1.0,4.29e-06,1.0
0.08456419999999999,1.0,-6.32475e-09,1.0,135.87876,1.0,3.95e-06,1.0
0.085022,1.0,-4.58832e-09,1.0,187.119,1.0,4.44e-06,1.0
0.0853271,1.0,-3.4835799999999997e-09,1.0,195.04044000000002,1.0,4.17e-06,1.0
0.08572389999999999,1.0,-3.12042e-09,1.0,203.01623999999998,1.0,4.06e-06,1.0
0.0861206,1.0,-3.3004750000000002e-09,1.0,205.10387999999998,1.0,4.02e-06,1.0
0.0865173,1.0,-4.0878299999999995e-09,1.0,204.53256,1.0,4.25e-06,1.0
0.0869446,1.0,-4.751585e-09,1.0,195.76548000000003,1.0,3.93e-06,1.0
0.0872498,1.0,-5.838e-09,1.0,151.43544000000003,1.0,3.81e-06,1.0
0.087738,1.0,-5.787649999999999e-09,1.0,45.90072,1.0,4.14e-06,1.0
0.08807369999999999,1.0,-5.1162499999999996e-09,1.0,-10.028303999999999,1.0,3.87e-06,1.0
0.0885315,1.0,-4.273985e-09,1.0,-35.222184000000006,1.0,3.77e-06,1.0
0.0888062,1.0,-3.44391e-09,1.0,-27.290051999999996,1.0,3.69e-06,1.0
0.0892639,1.0,-3.0715949999999997e-09,1.0,-9.627336,1.0,4.2999999999999995e-06,1.0
0.0897217,1.0,-2.54059e-09,1.0,25.520148,1.0,4.13e-06,1.0
0.09002689999999999,1.0,-2.189635e-09,1.0,67.9284,1.0,3.56e-06,1.0
0.0904236,1.0,-1.5625e-09,1.0,99.00864000000001,1.0,3.78e-06,1.0
0.0906372,1.0,-1.75934e-09,1.0,131.19876,1.0,4.51e-06,1.0
0.09124760000000001,1.0,-2.867125e-09,1.0,170.68356,1.0,4.11e-06,1.0
0.09161380000000001,1.0,-3.65143e-09,1.0,225.17568,1.0,4.83e-06,1.0
0.092041,1.0,-4.093935e-09,1.0,306.34272,1.0,4.64e-06,1.0
0.09237669999999999,1.0,-3.826905e-09,1.0,-325.41516,1.0,4.42e-06,1.0
0.0927429,1.0,-3.215025e-09,1.0,-273.94416000000007,1.0,5.15e-06,1.0
0.0932007,1.0,-3.1692499999999996e-09,1.0,-224.98884000000004,1.0,4.15e-06,1.0
0.0936279,1.0,-3.189085e-09,1.0,-173.39723999999998,1.0,4.02e-06,1.0
0.09402469999999999,1.0,-3.370665e-09,1.0,-115.94987999999998,1.0,3.97e-06,1.0
0.0943604,1.0,-3.788755e-09,1.0,-66.30264000000001,1.0,4.62e-06,1.0
0.0948181,1.0,-4.298399999999999e-09,1.0,-20.527956,1.0,4.52e-06,1.0
0.0950928,1.0,-5.13305e-09,1.0,48.394800000000004,1.0,4.42e-06,1.0
0.0954895,1.0,-5.352799999999999e-09,1.0,169.09055999999998,1.0,4.67e-06,1.0
0.09588619999999999,1.0,-4.435729999999999e-09,1.0,242.73179999999996,1.0,4.81e-06,1.0
0.0963745,1.0,-3.3737200000000002e-09,1.0,280.5138,1.0,4.67e-06,1.0
0.0967712,1.0,-2.33612e-09,1.0,308.12256,1.0,4.6e-06,1.0
0.0971069,1.0,-2.326965e-09,1.0,331.40268000000003,1.0,4.56e-06,1.0
0.0975342,1.0,-2.2994999999999998e-09,1.0,347.23403999999994,1.0,5.52e-06,1.0
0.09790039999999998,1.0,-3.1433099999999996e-09,1.0,-350.93628,1.0,4.39e-06,1.0
0.09835819999999999,1.0,-3.189085e-09,1.0,-334.85220000000004,1.0,4.6e-06,1.0
0.09872439999999999,1.0,-3.489685e-09,1.0,-309.7926,1.0,3.9e-06,1.0
0.09902949999999999,1.0,-3.759765e-09,1.0,-287.9406,1.0,4.2999999999999995e-06,1.0
0.0994873,1.0,-4.4006349999999995e-09,1.0,-270.45036000000005,1.0,5.17e-06,1.0
0.0998535,1.0,-4.74701e-09,1.0,-257.78303999999997,1.0,4.7e-06,1.0
0.10022,1.0,-5.5893e-09,1.0,-261.68328,1.0,4.06e-06,1.0
0.100464,1.0,-6.0013e-09,1.0,-283.1616,1.0,4.39e-06,1.0
0.101013,1.0,-6.277449999999999e-09,1.0,-286.73208,1.0,4.74e-06,1.0
0.10141,1.0,-6.4728e-09,1.0,-293.09328,1.0,4.46e-06,1.0
0.101746,1.0,-6.727600000000001e-09,1.0,359.42868000000004,1.0,5.36e-06,1.0
0.102234,1.0,-6.6757e-09,1.0,322.61364,1.0,5.6e-06,1.0
0.10250899999999999,1.0,-6.63605e-09,1.0,322.61364,1.0,5.51e-06,1.0
0.10293599999999999,1.0,-6.45905e-09,1.0,359.4506399999999,1.0,5.32e-06,1.0
0.10336300000000001,1.0,-6.25915e-09,1.0,359.4726,1.0,5.25e-06,1.0
0.10366800000000001,1.0,-6.066899999999999e-09,1.0,359.4726,1.0,5.55e-06,1.0
0.104126,1.0,-6.0836999999999996e-09,1.0,-341.51004,1.0,4.51e-06,1.0
0.104553,1.0,-6.6971e-09,1.0,-180.48348000000001,1.0,5.26e-06,1.0
0.10495,1.0,-5.096449999999999e-09,1.0,-62.435159999999996,1.0,4.82e-06,1.0
0.105316,1.0,-3.44391e-09,1.0,-44.08812,1.0,5.33e-06,1.0
0.10571300000000002,1.0,-2.4139399999999996e-09,1.0,-29.575187999999997,1.0,5.04e-06,1.0
0.10614000000000001,1.0,-2.2583000000000004e-09,1.0,-19.437012,1.0,4.9000000000000005e-06,1.0
0.10656700000000001,1.0,-2.43988e-09,1.0,3.6002159999999996,1.0,5.05e-06,1.0
0.106842,1.0,-3.2959e-09,1.0,33.354504,1.0,5.36e-06,1.0
0.1073,1.0,-3.9276099999999994e-09,1.0,73.25676,1.0,5.83e-06,1.0
0.107635,1.0,-4.58069e-09,1.0,120.00384,1.0,5.49e-06,1.0
0.108002,1.0,-5.1239e-09,1.0,167.71715999999998,1.0,5.62e-06,1.0
0.108429,1.0,-5.4779e-09,1.0,212.87124000000003,1.0,5.05e-06,1.0
0.108856,1.0,-6.11115e-09,1.0,272.25216,1.0,6.34e-06,1.0
0.10919200000000001,1.0,-6.2668e-09,1.0,-337.85172,1.0,5.47e-06,1.0
0.10961900000000001,1.0,-6.0058499999999995e-09,1.0,-247.87368,1.0,5.23e-06,1.0
0.110016,1.0,-6.06995e-09,1.0,-196.75404,1.0,5.32e-06,1.0
0.110382,1.0,-5.64575e-09,1.0,-116.47692000000002,1.0,4.58e-06,1.0
0.11084000000000001,1.0,-4.829405e-09,1.0,-61.0182,1.0,5.84e-06,1.0
0.111176,1.0,-3.993225e-09,1.0,-12.545280000000002,1.0,5.77e-06,1.0
0.111572,1.0,-2.90985e-09,1.0,26.519903999999997,1.0,6.09e-06,1.0
0.11199999999999999,1.0,-1.8997199999999997e-09,1.0,49.52628,1.0,5.72e-06,1.0
0.112274,1.0,-9.93345e-10,1.0,66.07188,1.0,5.5e-06,1.0
0.112732,1.0,-7.797249999999999e-10,1.0,87.23159999999999,1.0,6.43e-06,1.0
0.113159,1.0,-1.190185e-09,1.0,119.19059999999999,1.0,6.28e-06,1.0
0.113525,1.0,-1.5121449999999998e-09,1.0,159.47748,1.0,6.15e-06,1.0
0.11386099999999999,1.0,-1.968385e-09,1.0,196.72128,1.0,6.3e-06,1.0
0.114258,1.0,-2.1362299999999998e-09,1.0,224.43984,1.0,7.03e-06,1.0
0.114685,1.0,-2.9953e-09,1.0,238.44743999999997,1.0,6.38e-06,1.0
0.11514300000000001,1.0,-4.2343149999999996e-09,1.0,246.87359999999998,1.0,6.34e-06,1.0
0.11554,1.0,-5.665600000000001e-09,1.0,250.55424,1.0,6.28e-06,1.0
0.115875,1.0,-6.517050000000001e-09,1.0,-53.646119999999996,1.0,5.87e-06,1.0
0.11645499999999999,1.0,-4.383850000000001e-09,1.0,-56.64564,1.0,6.17e-06,1.0
0.11675999999999999,1.0,-2.89154e-09,1.0,-49.76819999999999,1.0,6.12e-06,1.0
0.117157,1.0,-2.301025e-09,1.0,-39.81456,1.0,6e-06,1.0
0.117523,1.0,-2.2583000000000004e-09,1.0,-19.439208,1.0,6.14e-06,1.0
0.11792000000000001,1.0,-2.4917599999999997e-09,1.0,11.318112000000001,1.0,6.7e-06,1.0
0.118408,1.0,-3.12042e-09,1.0,52.62443999999999,1.0,5.7999999999999995e-06,1.0
0.118683,1.0,-3.95813e-09,1.0,106.96284,1.0,6.61e-06,1.0
0.11914100000000001,1.0,-4.3380750000000004e-09,1.0,172.74888,1.0,6.94e-06,1.0
0.119476,1.0,-4.37622e-09,1.0,235.66788000000003,1.0,6.78e-06,1.0
0.119843,1.0,-4.808045e-09,1.0,292.0716,1.0,6.93e-06,1.0
0.120361,1.0,-4.803464999999999e-09,1.0,-318.4056,1.0,5.23e-06,1.0
0.12075799999999999,1.0,-3.35541e-09,1.0,-228.95496000000003,1.0,6.38e-06,1.0
0.121155,1.0,-1.8127449999999998e-09,1.0,-187.77815999999999,1.0,6.64e-06,1.0
0.121521,1.0,-9.002699999999999e-10,1.0,-162.54288000000003,1.0,5.82e-06,1.0
0.121887,1.0,-4.867555e-10,1.0,-139.06512,1.0,6.38e-06,1.0
0.12216199999999999,1.0,-7.461549999999999e-10,1.0,-115.56504,1.0,5.43e-06,1.0
0.122742,1.0,-1.3580300000000001e-09,1.0,-99.63504,1.0,6.39e-06,1.0
0.123047,1.0,-2.656555e-09,1.0,-84.48479999999999,1.0,5.95e-06,1.0
0.123474,1.0,-4.429625e-09,1.0,-55.04148,1.0,6.45e-06,1.0
0.12384,1.0,-5.86855e-09,1.0,13.746096,1.0,6.49e-06,1.0
0.124176,1.0,-5.862449999999999e-09,1.0,151.42464,1.0,7.42e-06,1.0
0.12454200000000001,1.0,-4.856875e-09,1.0,195.76548000000003,1.0,6.36e-06,1.0
0.12506099999999998,1.0,-4.1870099999999996e-09,1.0,198.41292,1.0,7.28e-06,1.0
0.125397,1.0,-3.6666849999999995e-09,1.0,207.57564000000002,1.0,6.78e-06,1.0
0.12579300000000002,1.0,-3.9077749999999996e-09,1.0,232.62444,1.0,6.98e-06,1.0
0.12619,1.0,-4.244994999999999e-09,1.0,274.0428,1.0,7.8e-06,1.0
0.12658699999999998,1.0,-4.43268e-09,1.0,332.97371999999996,1.0,7.39e-06,1.0
0.12701400000000002,1.0,-4.40674e-09,1.0,-340.47720000000004,1.0,6.09e-06,1.0
0.12735,1.0,-4.54254e-09,1.0,-297.26820000000004,1.0,6.6e-06,1.0
0.127716,1.0,-5.493149999999999e-09,1.0,-228.41675999999998,1.0,5.96e-06,1.0
0.12826500000000002,1.0,-5.0461e-09,1.0,-84.47399999999999,1.0,6.39e-06,1.0
0.12850999999999999,1.0,-3.1875599999999997e-09,1.0,-24.051275999999998,1.0,6.33e-06,1.0
0.128967,1.0,-1.83563e-09,1.0,6.458868000000001,1.0,6.78e-06,1.0
0.129242,1.0,-4.089355e-10,1.0,35.496828,1.0,6.87e-06,1.0
0.1297,1.0,5.844100000000001e-10,1.0,55.9314,1.0,6.78e-06,1.0
0.130127,1.0,3.2653799999999997e-10,1.0,73.72907999999998,1.0,5.92e-06,1.0
0.130493,1.0,-3.14331e-10,1.0,97.37172,1.0,6.55e-06,1.0
0.130859,1.0,-1.6326899999999999e-09,1.0,133.97832,1.0,7.19e-06,1.0
0.131226,1.0,-2.70233e-09,1.0,175.24296,1.0,7.25e-06,1.0
0.131683,1.0,-4.36249e-09,1.0,226.75788000000003,1.0,6.95e-06,1.0
0.131958,1.0,-5.09795e-09,1.0,350.5518,1.0,6.73e-06,1.0
0.132477,1.0,-4.58069e-09,1.0,-275.46011999999996,1.0,6.41e-06,1.0
0.13284300000000002,1.0,-4.5516949999999996e-09,1.0,-208.56455999999997,1.0,6.4e-06,1.0
0.133301,1.0,-3.89557e-09,1.0,-124.68384,1.0,6.64e-06,1.0
0.13363599999999998,1.0,-2.388e-09,1.0,-64.48967999999999,1.0,7.05e-06,1.0
0.133881,1.0,-1.342775e-09,1.0,-33.266591999999996,1.0,6.99e-06,1.0
0.13446,1.0,-9.15525e-10,1.0,-9.517464,1.0,7.03e-06,1.0
0.134735,1.0,-1.78833e-09,1.0,10.216187999999999,1.0,7.02e-06,1.0
0.135101,1.0,-3.60565e-09,1.0,54.08567999999999,1.0,7.36e-06,1.0
0.13559000000000002,1.0,-4.327395e-09,1.0,144.78876,1.0,7.32e-06,1.0
0.135956,1.0,-3.71399e-09,1.0,218.06748000000002,1.0,8.24e-06,1.0
0.136292,1.0,-2.8701799999999997e-09,1.0,250.56503999999995,1.0,7.85e-06,1.0
0.136719,1.0,-2.7359e-09,1.0,275.49323999999996,1.0,7.81e-06,1.0
0.137146,1.0,-2.9434199999999997e-09,1.0,294.5214,1.0,7.99e-06,1.0
0.137482,1.0,-3.3218399999999998e-09,1.0,313.0884,1.0,7.72e-06,1.0
0.138,1.0,-3.96271e-09,1.0,348.02496,1.0,8.12e-06,1.0
0.138336,1.0,-3.948975000000001e-09,1.0,-325.43712,1.0,7.17e-06,1.0
0.138672,1.0,-3.75366e-09,1.0,-278.11872,1.0,7.32e-06,1.0
0.139099,1.0,-3.315735e-09,1.0,-225.01115999999996,1.0,7.27e-06,1.0
0.139557,1.0,-2.423095e-09,1.0,-176.40756,1.0,7.31e-06,1.0
0.140015,1.0,-1.802065e-09,1.0,-143.63532,1.0,6.74e-06,1.0
0.140289,1.0,-2.01416e-09,1.0,-114.17004,1.0,7.499999999999999e-06,1.0
0.140625,1.0,-2.9235849999999995e-09,1.0,-81.22175999999999,1.0,7.63e-06,1.0
0.140961,1.0,-4.0206900000000005e-09,1.0,-40.9572,1.0,7.32e-06,1.0
0.141327,1.0,-4.63867e-09,1.0,20.760876,1.0,7.85e-06,1.0
0.14163199999999998,1.0,-4.7698949999999995e-09,1.0,89.49456,1.0,7.16e-06,1.0
0.142151,1.0,-5.4291e-09,1.0,156.86280000000002,1.0,8.23e-06,1.0
0.14260899999999999,1.0,-5.934149999999999e-09,1.0,269.48376,1.0,8.94e-06,1.0
0.142975,1.0,-4.69818e-09,1.0,-321.2071199999999,1.0,7.64e-06,1.0
0.143372,1.0,-2.4978650000000002e-09,1.0,-264.75948000000005,1.0,7.38e-06,1.0
0.14361600000000002,1.0,1.0681149999999999e-10,1.0,-234.79992,1.0,8.36e-06,1.0
0.14416500000000002,1.0,1.679995e-09,1.0,-215.35416,1.0,7.8e-06,1.0
0.144531,1.0,2.09961e-09,1.0,-194.74380000000002,1.0,8.18e-06,1.0
0.144958,1.0,1.7059349999999999e-09,1.0,-171.87012,1.0,8.29e-06,1.0
0.145386,1.0,4.4860849999999995e-10,1.0,-139.69116,1.0,8.26e-06,1.0
0.145752,1.0,-1.937865e-10,1.0,-98.3826,1.0,8.97e-06,1.0
0.146149,1.0,-5.75255e-10,1.0,-61.42464000000001,1.0,8.69e-06,1.0
0.146484,1.0,-1.7028799999999998e-09,1.0,-55.1844,1.0,8.11e-06,1.0
0.14694200000000002,1.0,-3.75519e-09,1.0,-89.28576,1.0,8.32e-06,1.0
0.147369,1.0,-4.5043949999999995e-09,1.0,-195.72156,1.0,8.56e-06,1.0
0.147919,1.0,-2.82593e-09,1.0,-255.11363999999998,1.0,8.06e-06,1.0
0.148071,1.0,-7.2937e-10,1.0,-264.24323999999996,1.0,8.02e-06,1.0
0.14846800000000002,1.0,9.750349999999998e-10,1.0,-261.93600000000004,1.0,8.1e-06,1.0
0.148895,1.0,1.330565e-09,1.0,-260.95824,1.0,8.41e-06,1.0
0.149323,1.0,9.170549999999999e-10,1.0,-260.36496,1.0,8.37e-06,1.0
0.149811,1.0,-1.51062e-10,1.0,-256.48668000000004,1.0,7.64e-06,1.0
0.150055,1.0,-2.1285999999999995e-09,1.0,-254.20176,1.0,8.599999999999999e-06,1.0
0.150452,1.0,-3.65753e-09,1.0,-226.1754,1.0,8.400000000000001e-06,1.0
0.150848,1.0,-4.301455e-09,1.0,-173.75975999999997,1.0,8.58e-06,1.0
0.15124500000000002,1.0,-4.249575e-09,1.0,-118.57536,1.0,8.21e-06,1.0
0.15155,1.0,-4.06189e-09,1.0,-67.86252,1.0,8.31e-06,1.0
0.152069,1.0,-4.118345e-09,1.0,-13.179203999999999,1.0,8.94e-06,1.0
0.152374,1.0,-3.83606e-09,1.0,54.415440000000004,1.0,9.16e-06,1.0
0.152679,1.0,-4.0878299999999995e-09,1.0,115.4664,1.0,9.56e-06,1.0
0.153076,1.0,-4.0359499999999995e-09,1.0,203.24699999999999,1.0,9.66e-06,1.0
0.15329,1.0,-2.6336649999999997e-09,1.0,277.83324,1.0,9.44e-06,1.0
0.15387,1.0,-7.247899999999999e-10,1.0,318.98807999999997,1.0,9.68e-06,1.0
0.154205,1.0,2.0446799999999998e-10,1.0,346.91544,1.0,9.38e-06,1.0
0.15466300000000002,1.0,1.434325e-10,1.0,-348.07968,1.0,9.54e-06,1.0
0.155029,1.0,-6.71385e-11,1.0,-317.85659999999996,1.0,9.35e-06,1.0
0.155334,1.0,-1.161195e-09,1.0,-278.98668000000004,1.0,9.59e-06,1.0
0.155823,1.0,-1.956175e-09,1.0,-224.11008,1.0,9.42e-06,1.0
0.156219,1.0,-2.163695e-09,1.0,-162.19116,1.0,9.02e-06,1.0
0.156586,1.0,-1.968385e-09,1.0,-117.98208,1.0,8.99e-06,1.0
0.156952,1.0,-2.163695e-09,1.0,-74.99268000000001,1.0,9.36e-06,1.0
0.157471,1.0,-2.7328499999999997e-09,1.0,-40.111200000000004,1.0,1.0199999999999999e-05,1.0
0.157745,1.0,-4.4708250000000004e-09,1.0,-0.5021856,1.0,9.74e-06,1.0
0.158051,1.0,-5.792249999999999e-09,1.0,98.2836,1.0,1e-05,1.0
0.158539,1.0,-5.61065e-09,1.0,253.18008000000003,1.0,1.04e-05,1.0
0.158905,1.0,-4.4906599999999995e-09,1.0,312.17652,1.0,1.0199999999999999e-05,1.0
0.159485,1.0,-4.013059999999999e-09,1.0,330.69960000000003,1.0,1.04e-05,1.0
0.15975999999999999,1.0,-4.525755e-09,1.0,-340.48836,1.0,9.59e-06,1.0
0.160156,1.0,-4.493715e-09,1.0,-260.94744,1.0,9.77e-06,1.0
0.160583,1.0,-3.43933e-09,1.0,-195.39180000000002,1.0,9.74e-06,1.0
0.16097999999999998,1.0,-2.5466899999999996e-09,1.0,-143.64611999999997,1.0,1.01e-05,1.0
0.161377,1.0,-1.26648e-09,1.0,-103.67783999999999,1.0,9.26e-06,1.0
0.16171300000000002,1.0,6.957999999999998e-10,1.0,-81.99108,1.0,1.0199999999999999e-05,1.0
0.162079,1.0,1.94397e-09,1.0,-67.33511999999999,1.0,9.95e-06,1.0
0.16250599999999998,1.0,2.375795e-09,1.0,-53.63532,1.0,1.07e-05,1.0
0.162964,1.0,1.841735e-09,1.0,-34.69482000000001,1.0,1.09e-05,1.0
0.163208,1.0,3.40271e-10,1.0,-2.9904768,1.0,9.3e-06,1.0
0.163666,1.0,-8.392349999999999e-10,1.0,44.725319999999996,1.0,1.05e-05,1.0
0.16403199999999998,1.0,-1.478575e-09,1.0,100.82160000000002,1.0,1.07e-05,1.0
0.16449,1.0,-1.75171e-09,1.0,144.79992,1.0,1.13e-05,1.0
0.164795,1.0,-1.81427e-09,1.0,182.84544,1.0,1.1400000000000001e-05,1.0
0.16503900000000002,1.0,-1.74713e-09,1.0,213.20064000000002,1.0,1.1900000000000001e-05,1.0
0.165588,1.0,-2.452085e-09,1.0,234.27252,1.0,1.1e-05,1.0
0.165955,1.0,-4.145814999999999e-09,1.0,265.221,1.0,1.0199999999999999e-05,1.0
0.166321,1.0,-6.13555e-09,1.0,359.4506399999999,1.0,1.17e-05,1.0
0.16680899999999999,1.0,-5.0155500000000005e-09,1.0,-138.43872,1.0,9.89e-06,1.0
0.16714500000000002,1.0,-2.4429299999999995e-09,1.0,-95.94359999999999,1.0,1.1400000000000001e-05,1.0
0.167572,1.0,-3.189085e-10,1.0,-67.91760000000001,1.0,1.09e-05,1.0
0.16806,1.0,1.919555e-09,1.0,-42.594120000000004,1.0,1.0800000000000002e-05,1.0
0.16833499999999998,1.0,3.190615e-09,1.0,-24.211655999999998,1.0,1.11e-05,1.0
0.168732,1.0,3.1860349999999995e-09,1.0,-7.76844,1.0,1.1400000000000001e-05,1.0
0.16925,1.0,1.5747049999999999e-09,1.0,11.935547999999999,1.0,1.18e-05,1.0
0.169495,1.0,-1.37329e-10,1.0,31.354992,1.0,1.1e-05,1.0
0.16983,1.0,-2.5649999999999997e-09,1.0,59.44716,1.0,1.1599999999999999e-05,1.0
0.17028800000000002,1.0,-4.9499499999999994e-09,1.0,94.46039999999999,1.0,1.15e-05,1.0
0.170593,1.0,-6.932049999999999e-09,1.0,232.59168,1.0,1.15e-05,1.0
0.171173,1.0,-4.922484999999999e-09,1.0,-268.32996,1.0,1.06e-05,1.0
0.171509,1.0,-2.305605e-09,1.0,-241.84188,1.0,1.17e-05,1.0
0.17193599999999998,1.0,-9.4757e-10,1.0,-225.75816,1.0,1.11e-05,1.0
0.172272,1.0,-1.641845e-09,1.0,-193.55724,1.0,1.15e-05,1.0
0.17266800000000002,1.0,-2.56195e-09,1.0,-134.12124,1.0,1.21e-05,1.0
0.173035,1.0,-1.89514e-09,1.0,-68.84027999999999,1.0,1.09e-05,1.0
0.173431,1.0,6.60705e-10,1.0,-16.781616,1.0,1.17e-05,1.0
0.173828,1.0,1.0568250000000001e-08,1.0,-20.54772,1.0,1.13e-05,1.0
0.174225,1.0,2.3852549999999997e-08,1.0,-42.94547999999999,1.0,1.2e-05,1.0
0.174622,1.0,3.567505e-08,1.0,-59.78772,1.0,1.18e-05,1.0
0.174835,1.0,4.10614e-08,1.0,-69.21396,1.0,1.17e-05,1.0
0.17538499999999999,1.0,3.919984999999999e-08,1.0,-74.49839999999999,1.0,1.18e-05,1.0
0.175751,1.0,3.182985e-08,1.0,-78.77196,1.0,1.1599999999999999e-05,1.0
0.176178,1.0,2.200625e-08,1.0,-85.47372,1.0,1.1900000000000001e-05,1.0
0.17660499999999998,1.0,1.23062e-08,1.0,-99.40428,1.0,1.1900000000000001e-05,1.0
0.17687999999999998,1.0,5.4198999999999995e-09,1.0,-126.70524,1.0,1.29e-05,1.0
0.17733800000000002,1.0,2.32086e-09,1.0,-167.73912,1.0,1.26e-05,1.0
0.177795,1.0,9.3384e-10,1.0,-196.14996,1.0,1.23e-05,1.0
0.178162,1.0,1.0528549999999998e-10,1.0,-198.19332,1.0,1.23e-05,1.0
0.178497,1.0,-1.0299700000000001e-09,1.0,-174.62772,1.0,1.15e-05,1.0
0.179047,1.0,-1.8493649999999998e-09,1.0,-135.02195999999998,1.0,1.4000000000000001e-05,1.0
0.179291,1.0,-2.5436399999999997e-09,1.0,-82.54044,1.0,1.22e-05,1.0
0.17968800000000001,1.0,-2.79541e-09,1.0,-12.751847999999999,1.0,1.28e-05,1.0
0.17999300000000001,1.0,-2.033995e-09,1.0,57.85416,1.0,1.27e-05,1.0
0.18042,1.0,-1.268005e-09,1.0,104.54579999999999,1.0,1.34e-05,1.0
0.18096900000000002,1.0,-4.2419449999999995e-10,1.0,138.35088000000002,1.0,1.32e-05,1.0
0.181213,1.0,7.3242e-11,1.0,171.87012,1.0,1.32e-05,1.0
0.18161,1.0,7.308949999999999e-10,1.0,203.00544000000002,1.0,1.31e-05,1.0
0.181976,1.0,7.8125e-10,1.0,227.40588000000002,1.0,1.3300000000000001e-05,1.0
0.182373,1.0,9.9182e-11,1.0,247.56588000000002,1.0,1.3000000000000001e-05,1.0
0.18277000000000002,1.0,-2.648925e-09,1.0,269.48376,1.0,1.18e-05,1.0
0.183258,1.0,-6.3156e-09,1.0,-341.52084,1.0,1.24e-05,1.0
0.18365499999999998,1.0,-3.4835799999999997e-09,1.0,-122.89320000000001,1.0,1.31e-05,1.0
0.18399000000000001,1.0,-2.67029e-10,1.0,-101.94228,1.0,1.3300000000000001e-05,1.0
0.184448,1.0,1.0681149999999999e-09,1.0,-90.51624000000001,1.0,1.28e-05,1.0
0.184662,1.0,1.05896e-09,1.0,-82.45224,1.0,1.26e-05,1.0
0.185211,1.0,1.948545e-09,1.0,-113.68655999999999,1.0,1.32e-05,1.0
0.185608,1.0,7.66295e-09,1.0,-166.35492,1.0,1.29e-05,1.0
0.185944,1.0,1.6300950000000002e-08,1.0,-190.26108,1.0,1.29e-05,1.0
0.186432,1.0,2.332e-08,1.0,-197.90784000000002,1.0,1.3000000000000001e-05,1.0
0.186615,1.0,2.6290899999999998e-08,1.0,-199.88532,1.0,1.4000000000000001e-05,1.0
0.187164,1.0,2.4121099999999997e-08,1.0,-198.62172,1.0,1.32e-05,1.0
0.187531,1.0,1.984255e-08,1.0,-197.52335999999997,1.0,1.28e-05,1.0
0.187958,1.0,1.46118e-08,1.0,-199.88532,1.0,1.3500000000000001e-05,1.0
0.188324,1.0,1.01837e-08,1.0,-205.92756,1.0,1.36e-05,1.0
0.18866,1.0,6.957999999999999e-09,1.0,-211.47588000000002,1.0,1.53e-05,1.0
0.189117,1.0,4.79126e-09,1.0,-208.95984000000004,1.0,1.34e-05,1.0
0.189453,1.0,3.164675e-09,1.0,-194.77656,1.0,1.32e-05,1.0
0.18985,1.0,1.6540549999999998e-09,1.0,-174.13344,1.0,1.3000000000000001e-05,1.0
0.190247,1.0,-5.493149999999999e-11,1.0,-132.11064,1.0,1.4099999999999999e-05,1.0
0.19076500000000002,1.0,-4.6386699999999995e-10,1.0,-73.14696,1.0,1.36e-05,1.0
0.19104000000000002,1.0,1.3122549999999998e-10,1.0,-15.384167999999999,1.0,1.3800000000000002e-05,1.0
0.191376,1.0,7.476799999999999e-10,1.0,30.421152,1.0,1.39e-05,1.0
0.191772,1.0,2.0141599999999998e-10,1.0,73.74024,1.0,1.4300000000000002e-05,1.0
0.1922,1.0,-3.234865e-10,1.0,127.52928000000001,1.0,1.4599999999999999e-05,1.0
0.19259600000000002,1.0,1.464845e-10,1.0,185.21856,1.0,1.3699999999999998e-05,1.0
0.192902,1.0,1.071165e-09,1.0,227.64780000000002,1.0,1.47e-05,1.0
0.193329,1.0,1.0528549999999999e-09,1.0,261.40860000000004,1.0,1.4800000000000002e-05,1.0
0.193695,1.0,-4.4403099999999997e-10,1.0,295.11468,1.0,1.4599999999999999e-05,1.0
0.19406099999999998,1.0,-2.713015e-09,1.0,359.4178800000001,1.0,1.52e-05,1.0
0.19439700000000001,1.0,-3.0090350000000002e-09,1.0,-255.70692,1.0,1.3699999999999998e-05,1.0
0.194977,1.0,-1.927185e-09,1.0,-173.58408000000003,1.0,1.4099999999999999e-05,1.0
0.19534300000000002,1.0,-4.89807e-10,1.0,-115.4664,1.0,1.4599999999999999e-05,1.0
0.195679,1.0,9.01795e-10,1.0,-65.31372,1.0,1.4499999999999998e-05,1.0
0.19613599999999998,1.0,1.683045e-09,1.0,-25.575083999999997,1.0,1.4499999999999998e-05,1.0
0.19632,1.0,2.56958e-09,1.0,5.226191999999999,1.0,1.56e-05,1.0
0.19686900000000002,1.0,3.0090350000000002e-09,1.0,27.553716,1.0,1.52e-05,1.0
0.197205,1.0,2.830505e-09,1.0,41.693039999999996,1.0,1.52e-05,1.0
0.19766199999999998,1.0,1.91345e-09,1.0,43.472879999999996,1.0,1.52e-05,1.0
0.19809000000000002,1.0,7.9956e-10,1.0,35.2881,1.0,1.53e-05,1.0
0.19833399999999998,1.0,-4.775999999999999e-10,1.0,27.564695999999998,1.0,1.6800000000000002e-05,1.0
0.198822,1.0,-2.17743e-09,1.0,25.781616000000003,1.0,1.59e-05,1.0
0.199219,1.0,-3.627015e-09,1.0,31.376952,1.0,1.55e-05,1.0
0.19958499999999998,1.0,-4.91791e-09,1.0,15.769763999999999,1.0,1.56e-05,1.0
0.199982,1.0,-5.58775e-09,1.0,-58.62311999999999,1.0,1.5399999999999998e-05,1.0
0.2005,1.0,-4.751585e-09,1.0,-121.00356,1.0,1.67e-05,1.0
0.200775,1.0,-2.8533949999999997e-09,1.0,-117.86148,1.0,1.58e-05,1.0
0.201202,1.0,-6.11875e-10,1.0,-106.78716,1.0,1.64e-05,1.0
0.20153800000000002,1.0,1.33362e-09,1.0,-93.24108,1.0,1.58e-05,1.0
0.201935,1.0,3.007505e-09,1.0,-76.11335999999999,1.0,1.65e-05,1.0
0.202545,1.0,3.5095199999999997e-09,1.0,-53.63532,1.0,1.58e-05,1.0
0.202728,1.0,3.279115e-09,1.0,-29.904767999999997,1.0,1.62e-05,1.0
0.203156,1.0,2.085875e-09,1.0,3.4969500000000004,1.0,1.63e-05,1.0
0.203491,1.0,4.89807e-10,1.0,44.703359999999996,1.0,1.65e-05,1.0
0.20391800000000002,1.0,-1.3687149999999999e-09,1.0,96.24024,1.0,1.6800000000000002e-05,1.0
0.204224,1.0,-3.0838e-09,1.0,170.68356,1.0,1.58e-05,1.0
0.204651,1.0,-3.71704e-09,1.0,272.91132,1.0,1.74e-05,1.0
0.205109,1.0,-3.0853249999999998e-09,1.0,-347.33268,1.0,1.66e-05,1.0
0.20550500000000002,1.0,-1.8371599999999999e-09,1.0,-280.00872,1.0,1.63e-05,1.0
0.20587199999999997,1.0,-5.2643e-10,1.0,-231.21828,1.0,1.66e-05,1.0
0.206146,1.0,4.1046149999999996e-10,1.0,-187.83324000000002,1.0,1.57e-05,1.0
0.20672600000000002,1.0,8.666999999999999e-10,1.0,-145.0854,1.0,1.73e-05,1.0
0.207092,1.0,1.64032e-09,1.0,-99.53604000000001,1.0,1.6899999999999997e-05,1.0
0.20748899999999998,1.0,2.1514899999999996e-09,1.0,-59.040359999999986,1.0,1.6899999999999997e-05,1.0
0.207855,1.0,3.1753549999999997e-09,1.0,-22.44618,1.0,1.77e-05,1.0
0.208069,1.0,3.1707749999999997e-09,1.0,10.386468,1.0,1.8100000000000003e-05,1.0
0.20858800000000002,1.0,2.71759e-09,1.0,50.07564,1.0,1.73e-05,1.0
0.209015,1.0,2.30713e-09,1.0,90.69228,1.0,1.7899999999999998e-05,1.0
0.209412,1.0,2.31323e-09,1.0,124.60679999999999,1.0,1.82e-05,1.0
0.209747,1.0,2.264405e-09,1.0,151.41348,1.0,1.77e-05,1.0
0.210083,1.0,1.57318e-09,1.0,173.08944000000002,1.0,1.88e-05,1.0
0.210571,1.0,1.75476e-10,1.0,194.34815999999998,1.0,1.86e-05,1.0
0.21093800000000001,1.0,-1.64032e-09,1.0,216.35387999999998,1.0,1.84e-05,1.0
0.21142600000000003,1.0,-3.75061e-09,1.0,244.01736,1.0,1.88e-05,1.0
0.2117,1.0,-5.101e-09,1.0,317.38392,1.0,1.83e-05,1.0
0.21237199999999998,1.0,-4.748535e-09,1.0,-265.55039999999997,1.0,1.8e-05,1.0
0.21261599999999997,1.0,-1.58386e-09,1.0,-190.31616,1.0,1.83e-05,1.0
0.21304299999999998,1.0,2.1408099999999998e-09,1.0,-160.26839999999999,1.0,1.7800000000000002e-05,1.0
0.21337899999999999,1.0,4.185485e-09,1.0,-141.52571999999998,1.0,1.84e-05,1.0
0.21377600000000002,1.0,4.582214999999999e-09,1.0,-118.03716,1.0,1.85e-05,1.0
0.21435500000000002,1.0,3.279115e-09,1.0,-89.21988,1.0,1.6899999999999997e-05,1.0
0.2146,1.0,8.987449999999999e-10,1.0,-51.54767999999999,1.0,1.89e-05,1.0
0.214935,1.0,-1.885985e-09,1.0,-7.444332,1.0,1.85e-05,1.0
0.215302,1.0,-4.02832e-09,1.0,60.42492000000001,1.0,1.89e-05,1.0
0.215729,1.0,-5.65185e-09,1.0,189.8766,1.0,1.93e-05,1.0
0.21600300000000003,1.0,-4.57306e-09,1.0,309.40811999999994,1.0,1.7100000000000002e-05,1.0
0.216522,1.0,-3.5263049999999996e-09,1.0,-340.76303999999993,1.0,1.82e-05,1.0
0.21694899999999998,1.0,-2.20642e-09,1.0,-283.74372,1.0,1.86e-05,1.0
0.21731599999999998,1.0,-8.209249999999999e-10,1.0,-232.33896,1.0,1.92e-05,1.0
0.217621,1.0,2.0446799999999998e-10,1.0,-180.50544000000002,1.0,1.88e-05,1.0
0.217926,1.0,1.293945e-09,1.0,-130.36391999999998,1.0,1.87e-05,1.0
0.218506,1.0,2.331545e-09,1.0,-86.3856,1.0,1.92e-05,1.0
0.21887199999999998,1.0,3.4225449999999996e-09,1.0,-49.94387999999999,1.0,1.9600000000000002e-05,1.0
0.219269,1.0,3.961179999999999e-09,1.0,-16.054308,1.0,1.95e-05,1.0
0.21966599999999997,1.0,3.22113e-09,1.0,21.061872,1.0,1.99e-05,1.0
0.219971,1.0,2.1499650000000002e-09,1.0,56.22804,1.0,1.99e-05,1.0
0.22049000000000002,1.0,1.135255e-09,1.0,96.02064,1.0,1.99e-05,1.0
0.220825,1.0,-7.4768e-11,1.0,147.33756,1.0,2.01e-05,1.0
0.22116100000000002,1.0,-2.929685e-10,1.0,206.24615999999997,1.0,2.0300000000000002e-05,1.0
0.221588,1.0,1.25122e-10,1.0,256.32216000000005,1.0,2.05e-05,1.0
0.22216799999999998,1.0,1.61743e-10,1.0,292.76352,1.0,1.9699999999999998e-05,1.0
0.22235100000000002,1.0,-1.3412499999999999e-09,1.0,327.56831999999997,1.0,2.07e-05,1.0
0.222809,1.0,-3.588865e-09,1.0,-334.86336,1.0,2.02e-05,1.0
0.223206,1.0,-4.312135e-09,1.0,-193.22748,1.0,1.99e-05,1.0
0.223602,1.0,-2.6199349999999996e-09,1.0,-110.11608000000001,1.0,2e-05,1.0
0.22418200000000002,1.0,-6.57655e-10,1.0,-78.29964000000001,1.0,1.7899999999999998e-05,1.0
0.22442600000000001,1.0,1.0330199999999998e-09,1.0,-55.7226,1.0,2.02e-05,1.0
0.224731,1.0,2.326965e-09,1.0,-34.28834400000001,1.0,2.0399999999999998e-05,1.0
0.22515900000000003,1.0,3.486635e-09,1.0,-11.786148,1.0,2.0600000000000003e-05,1.0
0.225525,1.0,4.570005e-09,1.0,14.140512000000001,1.0,2.09e-05,1.0
0.2258,1.0,4.753114999999999e-09,1.0,39.29796,1.0,1.8100000000000003e-05,1.0
0.22628800000000002,1.0,4.260255e-09,1.0,61.41347999999999,1.0,2.0600000000000003e-05,1.0
0.226654,1.0,2.508545e-09,1.0,82.77084,1.0,2.12e-05,1.0
0.22705100000000003,1.0,1.28174e-10,1.0,105.24887999999999,1.0,2.12e-05,1.0
0.227448,1.0,-2.9724099999999997e-09,1.0,145.27223999999998,1.0,2.14e-05,1.0
0.227661,1.0,-5.2627499999999994e-09,1.0,280.34928,1.0,2.01e-05,1.0
0.22821,1.0,-3.105165e-09,1.0,-279.70092,1.0,2.14e-05,1.0
0.22869899999999999,1.0,6.46975e-10,1.0,-221.913,1.0,2.09e-05,1.0
0.22912600000000002,1.0,3.49884e-09,1.0,-184.131,1.0,2.12e-05,1.0
0.229462,1.0,5.6e-09,1.0,-149.24916000000002,1.0,2.17e-05,1.0
0.22985799999999998,1.0,6.715399999999999e-09,1.0,-114.64236000000001,1.0,2.17e-05,1.0
0.230225,1.0,7.205199999999999e-09,1.0,-84.00131999999999,1.0,2.1600000000000003e-05,1.0
0.23068200000000003,1.0,6.35225e-09,1.0,-55.78847999999999,1.0,2.17e-05,1.0
0.23095700000000002,1.0,4.28467e-09,1.0,-27.015372000000003,1.0,2.14e-05,1.0
0.23144499999999998,1.0,1.6433699999999999e-09,1.0,5.853528,1.0,2.23e-05,1.0
0.23190300000000003,1.0,-1.3412499999999999e-09,1.0,51.21827999999999,1.0,2.1899999999999997e-05,1.0
0.232208,1.0,-3.70178e-09,1.0,114.92783999999999,1.0,2.23e-05,1.0
0.232544,1.0,-4.748535e-09,1.0,218.79288000000003,1.0,2.22e-05,1.0
0.23294099999999998,1.0,-4.753114999999999e-09,1.0,306.32076,1.0,2.3100000000000002e-05,1.0
0.233398,1.0,-5.41685e-09,1.0,-332.4132,1.0,2.1600000000000003e-05,1.0
0.23406999999999997,1.0,-4.393005e-09,1.0,-199.43496,1.0,2.0399999999999998e-05,1.0
0.234192,1.0,-1.268005e-09,1.0,-151.68816,1.0,2.24e-05,1.0
0.23449699999999998,1.0,8.78905e-10,1.0,-129.474,1.0,2.24e-05,1.0
0.234894,1.0,1.4327999999999998e-09,1.0,-104.19444000000001,1.0,2.27e-05,1.0
0.235352,1.0,2.32239e-09,1.0,-75.04776,1.0,2.2899999999999998e-05,1.0
0.23580900000000002,1.0,2.685545e-09,1.0,-45.16488,1.0,1.9699999999999998e-05,1.0
0.23611500000000002,1.0,2.9434199999999997e-09,1.0,-15.462144,1.0,2.2800000000000002e-05,1.0
0.23642,1.0,2.72827e-09,1.0,16.571772000000003,1.0,2.3e-05,1.0
0.236816,1.0,3.1707749999999997e-09,1.0,55.53576,1.0,2.35e-05,1.0
0.23727399999999998,1.0,4.49524e-09,1.0,87.20964000000001,1.0,2.35e-05,1.0
0.23745700000000003,1.0,4.80957e-09,1.0,112.53312000000001,1.0,2.14e-05,1.0
0.23800700000000002,1.0,4.72412e-09,1.0,137.61468,1.0,2.37e-05,1.0
0.23840300000000003,1.0,3.89099e-09,1.0,169.25544000000002,1.0,2.42e-05,1.0
0.23886100000000002,1.0,2.3590099999999997e-09,1.0,195.46884,1.0,2.44e-05,1.0
0.239288,1.0,-9.246849999999999e-10,1.0,212.5746,1.0,2.48e-05,1.0
0.239441,1.0,-5.314649999999999e-09,1.0,188.83296,1.0,2.45e-05,1.0
0.24008200000000002,1.0,-4.115295e-09,1.0,-94.73508000000001,1.0,2.4e-05,1.0
0.240448,1.0,2.79236e-10,1.0,-99.57996,1.0,2.3800000000000003e-05,1.0
0.240814,1.0,3.3035299999999997e-09,1.0,-84.08952000000001,1.0,2.3800000000000003e-05,1.0
0.24118,1.0,5.377199999999999e-09,1.0,-61.688159999999996,1.0,2.4e-05,1.0
0.241577,1.0,7.316599999999999e-09,1.0,-39.06756,1.0,2.57e-05,1.0
0.241943,1.0,8.06425e-09,1.0,-20.465316,1.0,2.4e-05,1.0
0.242371,1.0,7.0587e-09,1.0,3.43872,1.0,2.44e-05,1.0
0.242706,1.0,5.377199999999999e-09,1.0,35.859384,1.0,2.48e-05,1.0
0.24313400000000002,1.0,3.23639e-09,1.0,66.39048,1.0,2.45e-05,1.0
0.243835,1.0,1.693725e-10,1.0,94.76820000000001,1.0,2.55e-05,1.0
0.243927,1.0,-3.6972049999999995e-09,1.0,119.77308000000001,1.0,2.5300000000000002e-05,1.0
0.244263,1.0,-6.73065e-09,1.0,-233.65728000000004,1.0,2.5e-05,1.0
0.24472,1.0,-1.7394999999999998e-09,1.0,-180.50544000000002,1.0,2.51e-05,1.0
0.245148,1.0,3.733825e-09,1.0,-154.33596,1.0,2.46e-05,1.0
0.24572800000000003,1.0,8.131399999999999e-09,1.0,-131.81400000000002,1.0,2.4100000000000003e-05,1.0
0.24588000000000002,1.0,1.1111449999999999e-08,1.0,-108.83052,1.0,2.47e-05,1.0
0.246277,1.0,1.313325e-08,1.0,-87.18767999999999,1.0,2.55e-05,1.0
0.24667399999999998,1.0,1.3743599999999999e-08,1.0,-67.87368,1.0,2.6000000000000002e-05,1.0
0.24704,1.0,1.3986199999999998e-08,1.0,-45.9558,1.0,2.54e-05,1.0
0.24752800000000003,1.0,1.3510149999999998e-08,1.0,-22.77576,1.0,2.49e-05,1.0
0.247833,1.0,1.26236e-08,1.0,1.3994388,1.0,2.59e-05,1.0
0.24819899999999998,1.0,1.1669899999999999e-08,1.0,25.8651,1.0,2.59e-05,1.0
0.248627,1.0,1.042025e-08,1.0,46.31832000000001,1.0,2.62e-05,1.0
0.249023,1.0,8.706649999999999e-09,1.0,62.22672,1.0,2.64e-05,1.0
0.249207,1.0,6.698600000000001e-09,1.0,72.15804000000001,1.0,2.7600000000000003e-05,1.0
0.249786,1.0,4.266355e-09,1.0,76.79448,1.0,2.6899999999999997e-05,1.0
0.25012199999999996,1.0,1.91498e-09,1.0,64.57752,1.0,2.68e-05,1.0
0.25058,1.0,-4.211425e-10,1.0,27.125244,1.0,2.65e-05,1.0
0.25100700000000004,1.0,-1.304625e-09,1.0,-29.36646,1.0,2.6300000000000002e-05,1.0
0.25119,1.0,-7.064799999999999e-10,1.0,-80.48592000000001,1.0,3.09e-05,1.0
0.25174,1.0,1.3168349999999998e-09,1.0,-99.77796,1.0,2.6899999999999997e-05,1.0
0.25216700000000003,1.0,3.948975000000001e-09,1.0,-100.64592000000002,1.0,2.72e-05,1.0
0.252655,1.0,6.7474499999999995e-09,1.0,-90.50544,1.0,2.7399999999999995e-05,1.0
0.25296,1.0,9.153749999999999e-09,1.0,-70.77384,1.0,2.7699999999999996e-05,1.0
0.253296,1.0,1.00113e-08,1.0,-46.75788,1.0,3.35e-05,1.0
0.253754,1.0,9.581e-09,1.0,-21.138804,1.0,2.8199999999999998e-05,1.0
0.25415,1.0,7.003799999999999e-09,1.0,4.820796,1.0,2.8100000000000002e-05,1.0
0.254517,1.0,3.52783e-09,1.0,35.233164,1.0,2.75e-05,1.0
0.254944,1.0,-4.5776349999999996e-10,1.0,77.6952,1.0,2.8199999999999998e-05,1.0
0.255768,1.0,-4.0222149999999994e-09,1.0,168.07968000000002,1.0,3.34e-05,1.0
0.255707,1.0,-3.4835799999999997e-09,1.0,349.91459999999995,1.0,2.84e-05,1.0
0.256104,1.0,2.0599349999999998e-10,1.0,-301.68467999999996,1.0,2.8199999999999998e-05,1.0
0.256592,1.0,2.1835349999999997e-09,1.0,-266.23152,1.0,2.8199999999999998e-05,1.0
0.256897,1.0,2.404785e-09,1.0,-226.64808000000002,1.0,2.8499999999999998e-05,1.0
0.25756799999999996,1.0,2.0202649999999997e-09,1.0,-178.46208,1.0,2.98e-05,1.0
0.25769000000000003,1.0,2.4246200000000003e-09,1.0,-125.63964000000001,1.0,2.9100000000000003e-05,1.0
0.25811799999999996,1.0,3.6880500000000003e-09,1.0,-79.43111999999999,1.0,2.9199999999999998e-05,1.0
0.25845300000000004,1.0,4.8400899999999996e-09,1.0,-40.3308,1.0,2.8999999999999997e-05,1.0
0.258881,1.0,5.896e-09,1.0,-6.307236,1.0,2.9199999999999998e-05,1.0
0.259033,1.0,6.106549999999999e-09,1.0,24.099624,1.0,2.9600000000000005e-05,1.0
0.259644,1.0,5.6304999999999995e-09,1.0,52.62443999999999,1.0,2.95e-05,1.0
0.260071,1.0,5.00185e-09,1.0,72.92736,1.0,2.99e-05,1.0
0.26040599999999997,1.0,4.164125e-09,1.0,82.51848,1.0,2.95e-05,1.0
0.260864,1.0,3.211975e-09,1.0,85.62744,1.0,2.9999999999999997e-05,1.0
0.26074200000000003,1.0,1.09558e-09,1.0,84.66047999999999,1.0,2.9600000000000005e-05,1.0
0.26168800000000003,1.0,-2.4292e-09,1.0,64.7316,1.0,2.97e-05,1.0
0.262115,1.0,-4.79431e-09,1.0,-60.2928,1.0,2.9600000000000005e-05,1.0
0.26254299999999997,1.0,-1.8692e-09,1.0,-159.09300000000002,1.0,2.9199999999999998e-05,1.0
0.262878,1.0,1.756285e-09,1.0,-174.13344,1.0,2.98e-05,1.0
0.26297,1.0,4.69208e-09,1.0,-170.84844,1.0,2.99e-05,1.0
0.26364099999999996,1.0,6.129449999999999e-09,1.0,-162.0702,1.0,3.05e-05,1.0
0.264099,1.0,6.1858999999999995e-09,1.0,-147.26088,1.0,3.01e-05,1.0
0.264404,1.0,5.6e-09,1.0,-120.81671999999999,1.0,3.11e-05,1.0
0.264801,1.0,5.4336499999999985e-09,1.0,-85.13316,1.0,3.04e-05,1.0
0.265167,1.0,4.6081549999999996e-09,1.0,-51.53688,1.0,3.07e-05,1.0
0.265625,1.0,3.5217299999999996e-09,1.0,-16.517952,1.0,3.11e-05,1.0
0.2659,1.0,1.6815199999999998e-09,1.0,22.720824,1.0,3.09e-05,1.0
0.266235,1.0,-6.16455e-10,1.0,55.09656,1.0,3.07e-05,1.0
0.26672399999999996,1.0,-3.5964949999999998e-09,1.0,45.87876,1.0,3.04e-05,1.0
0.267151,1.0,-4.58374e-09,1.0,-90.50544,1.0,3.11e-05,1.0
0.26757800000000004,1.0,-8.86535e-10,1.0,-138.03228000000001,1.0,3.06e-05,1.0
0.267944,1.0,3.227235e-09,1.0,-136.21931999999998,1.0,3.06e-05,1.0
0.26828,1.0,7.667549999999998e-09,1.0,-118.13615999999999,1.0,3.1e-05,1.0
0.26873800000000003,1.0,1.195985e-08,1.0,-94.74624,1.0,3.14e-05,1.0
0.269073,1.0,1.5594499999999998e-08,1.0,-72.09216,1.0,3.11e-05,1.0
0.26947,1.0,1.766205e-08,1.0,-48.90024,1.0,3.17e-05,1.0
0.269806,1.0,1.8933099999999997e-08,1.0,-26.141976,1.0,3.14e-05,1.0
0.270264,1.0,1.898955e-08,1.0,-6.9818039999999995,1.0,3.15e-05,1.0
0.270599,1.0,1.853025e-08,1.0,6.837876,1.0,3.15e-05,1.0
0.271057,1.0,1.7201249999999997e-08,1.0,9.596556,1.0,3.27e-05,1.0
0.271362,1.0,1.46805e-08,1.0,2.0676276000000002,1.0,3.21e-05,1.0
0.27179000000000003,1.0,1.19583e-08,1.0,-13.409927999999999,1.0,3.2200000000000003e-05,1.0
0.27218600000000004,1.0,9.3521e-09,1.0,-30.520008,1.0,3.2500000000000004e-05,1.0
0.272552,1.0,7.88725e-09,1.0,-44.571600000000004,1.0,3.24e-05,1.0
0.27301,1.0,7.4402e-09,1.0,-53.04204,1.0,3.289999999999999e-05,1.0
0.273376,1.0,7.62635e-09,1.0,-59.38127999999999,1.0,3.27e-05,1.0
0.273712,1.0,7.6355e-09,1.0,-63.30312,1.0,3.28e-05,1.0
0.27416999999999997,1.0,7.7072e-09,1.0,-63.98424,1.0,3.26e-05,1.0
0.274475,1.0,7.60195e-09,1.0,-62.87472,1.0,3.32e-05,1.0
0.274902,1.0,7.60955e-09,1.0,-56.51351999999999,1.0,3.3299999999999996e-05,1.0
0.27529899999999996,1.0,7.856749999999999e-09,1.0,-42.94547999999999,1.0,3.3299999999999996e-05,1.0
0.275726,1.0,8.51135e-09,1.0,-21.525516,1.0,3.39e-05,1.0
0.276093,1.0,8.92485e-09,1.0,-0.5036148,1.0,3.37e-05,1.0
0.276489,1.0,8.953849999999999e-09,1.0,19.80396,1.0,3.41e-05,1.0
0.276855,1.0,7.66145e-09,1.0,41.19876,1.0,3.3600000000000004e-05,1.0
0.277252,1.0,5.4016e-09,1.0,66.04992000000001,1.0,3.46e-05,1.0
0.277679,1.0,1.88751e-09,1.0,102.49127999999999,1.0,3.43e-05,1.0
0.278046,1.0,-1.3442999999999998e-09,1.0,182.6586,1.0,3.45e-05,1.0
0.278412,1.0,-6.83595e-10,1.0,292.0824,1.0,3.4899999999999995e-05,1.0
0.27880900000000003,1.0,1.4999399999999999e-09,1.0,-356.09976,1.0,3.39e-05,1.0
0.279175,1.0,3.819275e-09,1.0,-295.63128,1.0,3.46e-05,1.0
0.279633,1.0,5.91735e-09,1.0,-241.50132,1.0,3.4399999999999996e-05,1.0
0.279999,1.0,7.397449999999999e-09,1.0,-192.10679999999996,1.0,3.43e-05,1.0
0.280457,1.0,8.9844e-09,1.0,-138.88908,1.0,3.52e-05,1.0
0.280853,1.0,1.06781e-08,1.0,-95.03171999999999,1.0,3.46e-05,1.0
0.28125,1.0,1.11847e-08,1.0,-58.721759999999996,1.0,3.52e-05,1.0
0.281555,1.0,1.027375e-08,1.0,-33.618168,1.0,3.5499999999999996e-05,1.0
0.281952,1.0,7.550049999999999e-09,1.0,-18.745956,1.0,3.5100000000000006e-05,1.0
0.282379,1.0,3.504945e-09,1.0,-5.79528,1.0,3.6e-05,1.0
0.282684,1.0,-6.8207e-10,1.0,19.859976,1.0,3.59e-05,1.0
0.283051,1.0,-4.327395e-09,1.0,75.80555999999999,1.0,3.570000000000001e-05,1.0
0.283478,1.0,-5.41535e-09,1.0,289.46772,1.0,3.6200000000000006e-05,1.0
0.283875,1.0,-3.4667949999999997e-09,1.0,-346.23396,1.0,3.5799999999999996e-05,1.0
0.28433200000000003,1.0,-1.7807000000000003e-09,1.0,-289.43496000000005,1.0,3.6099999999999997e-05,1.0
0.284698,1.0,4.1656499999999995e-10,1.0,-249.90588000000002,1.0,3.5799999999999996e-05,1.0
0.285095,1.0,1.960755e-09,1.0,-219.95711999999997,1.0,3.64e-05,1.0
0.285431,1.0,1.6601549999999998e-09,1.0,-180.51623999999998,1.0,3.6099999999999997e-05,1.0
0.285828,1.0,1.6174299999999999e-09,1.0,-132.15456,1.0,3.68e-05,1.0
0.286224,1.0,2.76184e-09,1.0,-85.18788,1.0,3.6700000000000004e-05,1.0
0.286652,1.0,4.597475e-09,1.0,-45.13176,1.0,3.69e-05,1.0
0.286987,1.0,6.5262e-09,1.0,-10.172232,1.0,3.7e-05,1.0
0.287323,1.0,9.721350000000002e-09,1.0,18.218628000000002,1.0,3.69e-05,1.0
0.28772,1.0,1.3587950000000001e-08,1.0,38.35332000000001,1.0,3.73e-05,1.0
0.288208,1.0,1.649475e-08,1.0,59.798519999999996,1.0,3.74e-05,1.0
0.288605,1.0,1.66672e-08,1.0,86.68224000000001,1.0,3.75e-05,1.0
0.28894000000000003,1.0,1.4080799999999998e-08,1.0,116.33435999999999,1.0,3.84e-05,1.0
0.289337,1.0,8.24585e-09,1.0,153.69876,1.0,3.82e-05,1.0
0.289642,1.0,1.87073e-09,1.0,208.53143999999998,1.0,3.84e-05,1.0
0.290039,1.0,-2.4749749999999997e-09,1.0,324.97560000000004,1.0,3.87e-05,1.0
0.290588,1.0,-6.60705e-10,1.0,-247.87368,1.0,3.79e-05,1.0
0.290955,1.0,3.685e-09,1.0,-170.05752,1.0,3.85e-05,1.0
0.291321,1.0,8.935549999999999e-09,1.0,-123.66216,1.0,3.8799999999999994e-05,1.0
0.291718,1.0,1.3694749999999998e-08,1.0,-90.36252,1.0,3.8900000000000004e-05,1.0
0.292114,1.0,1.7173750000000002e-08,1.0,-65.53332,1.0,3.8900000000000004e-05,1.0
0.292542,1.0,1.79184e-08,1.0,-43.8246,1.0,3.8900000000000004e-05,1.0
0.29284699999999997,1.0,1.68396e-08,1.0,-23.601924,1.0,3.86e-05,1.0
0.293274,1.0,1.33957e-08,1.0,-5.1339239999999995,1.0,3.929999999999999e-05,1.0
0.29364,1.0,8.273299999999999e-09,1.0,10.4337,1.0,3.929999999999999e-05,1.0
0.294006,1.0,2.9602049999999997e-09,1.0,29.300543999999995,1.0,3.97e-05,1.0
0.294342,1.0,-2.0721449999999998e-09,1.0,51.02064,1.0,3.98e-05,1.0
0.29483000000000004,1.0,-5.719e-09,1.0,73.04795999999999,1.0,3.9899999999999994e-05,1.0
0.295197,1.0,-6.2912e-09,1.0,-127.38636,1.0,3.96e-05,1.0
0.295624,1.0,-4.15497e-09,1.0,-138.03228000000001,1.0,4.01e-05,1.0
