Potential,potstdev,Photocurrent (nA),pcstdev,Phase (°),phstdev,DC Current (µA),dcCurrstdev
0.298431,1.0,9.101849999999999e-08,1.0,-14.171256,1.0,0.00010839799999999999,1.0
0.298065,1.0,8.616649999999999e-08,1.0,-12.158568,1.0,0.000107544,1.0
0.297729,1.0,8.143599999999999e-08,1.0,-9.109872,1.0,0.00010656700000000001,1.0
0.297302,1.0,7.797249999999999e-08,1.0,-7.889291999999999,1.0,0.00010568200000000001,1.0
0.296906,1.0,7.6401e-08,1.0,-11.010492,1.0,0.00010498,1.0
0.296539,1.0,7.583599999999999e-08,1.0,-17.047476,1.0,0.000104065,1.0
0.296143,1.0,7.71025e-08,1.0,-23.076792,1.0,0.00010342399999999999,1.0
0.29577600000000004,1.0,7.9483e-08,1.0,-26.286984,1.0,0.000102661,1.0
0.295258,1.0,8.30535e-08,1.0,-25.824456000000005,1.0,0.00010202,1.0
0.29486100000000004,1.0,8.62275e-08,1.0,-23.278932,1.0,0.000101288,1.0
0.294495,1.0,8.898949999999999e-08,1.0,-20.293956,1.0,0.000100525,1.0
0.294037,1.0,9.043900000000001e-08,1.0,-18.789912,1.0,9.990000000000002e-05,1.0
0.29364,1.0,9.0393e-08,1.0,-19.617192,1.0,9.92e-05,1.0
0.293274,1.0,8.9752e-08,1.0,-21.324456,1.0,9.87e-05,1.0
0.29281599999999997,1.0,8.9325e-08,1.0,-21.433212,1.0,9.790000000000001e-05,1.0
0.292419,1.0,8.9264e-08,1.0,-21.440916,1.0,9.740000000000001e-05,1.0
0.292053,1.0,8.969099999999999e-08,1.0,-22.56264,1.0,9.66e-05,1.0
0.291626,1.0,9.0576e-08,1.0,-23.104260000000004,1.0,9.6e-05,1.0
0.291229,1.0,9.207149999999999e-08,1.0,-22.581288,1.0,9.54e-05,1.0
0.290833,1.0,9.3155e-08,1.0,-21.382704,1.0,9.49e-05,1.0
0.290436,1.0,9.338400000000001e-08,1.0,-19.193112,1.0,9.42e-05,1.0
0.290009,1.0,9.19035e-08,1.0,-16.739856,1.0,9.37e-05,1.0
0.289612,1.0,8.929449999999999e-08,1.0,-14.798592000000003,1.0,9.31e-05,1.0
0.289215,1.0,8.6075e-08,1.0,-14.416271999999998,1.0,9.25e-05,1.0
0.28884899999999997,1.0,8.35725e-08,1.0,-15.19848,1.0,9.209999999999999e-05,1.0
0.288452,1.0,8.187849999999999e-08,1.0,-17.453988000000003,1.0,9.15e-05,1.0
0.288025,1.0,8.04445e-08,1.0,-20.374128,1.0,9.08e-05,1.0
0.287628,1.0,8.07345e-08,1.0,-24.489612,1.0,9.03e-05,1.0
0.28726199999999996,1.0,8.20005e-08,1.0,-27.18018,1.0,8.98e-05,1.0
0.286804,1.0,8.435049999999998e-08,1.0,-27.78444,1.0,8.94e-05,1.0
0.286407,1.0,8.6548e-08,1.0,-26.339724,1.0,8.859999999999999e-05,1.0
0.286011,1.0,8.8089e-08,1.0,-22.892220000000002,1.0,8.82e-05,1.0
0.285645,1.0,8.8089e-08,1.0,-18.600948000000002,1.0,8.77e-05,1.0
0.285248,1.0,8.7265e-08,1.0,-14.894172000000003,1.0,8.73e-05,1.0
0.284851,1.0,8.589149999999999e-08,1.0,-14.028443999999999,1.0,8.68e-05,1.0
0.284454,1.0,8.4854e-08,1.0,-16.06752,1.0,8.63e-05,1.0
0.283997,1.0,8.4137e-08,1.0,-19.972044,1.0,8.590000000000001e-05,1.0
0.283661,1.0,8.477799999999999e-08,1.0,-23.632704,1.0,8.52e-05,1.0
0.28323400000000004,1.0,8.7036e-08,1.0,-26.692379999999996,1.0,8.48e-05,1.0
0.282928,1.0,8.93705e-08,1.0,-29.047860000000004,1.0,8.44e-05,1.0
0.282471,1.0,9.11405e-08,1.0,-29.915784000000002,1.0,8.36e-05,1.0
0.282013,1.0,9.24375e-08,1.0,-28.13598,1.0,8.35e-05,1.0
0.281647,1.0,9.2926e-08,1.0,-24.235847999999997,1.0,8.290000000000001e-05,1.0
0.281281,1.0,9.17815e-08,1.0,-20.278548,1.0,8.23e-05,1.0
0.280792,1.0,9.053049999999999e-08,1.0,-16.961796,1.0,8.18e-05,1.0
0.280518,1.0,8.883649999999999e-08,1.0,-15.688476,1.0,8.149999999999999e-05,1.0
0.280029,1.0,8.659349999999999e-08,1.0,-16.85304,1.0,8.1e-05,1.0
0.279663,1.0,8.39995e-08,1.0,-19.82592,1.0,8.05e-05,1.0
0.27926599999999996,1.0,8.20465e-08,1.0,-22.613148000000002,1.0,8.01e-05,1.0
0.27887,1.0,8.22145e-08,1.0,-23.64696,1.0,7.96e-05,1.0
0.278442,1.0,8.3603e-08,1.0,-22.884516,1.0,7.92e-05,1.0
0.27807600000000005,1.0,8.482349999999999e-08,1.0,-20.056644,1.0,7.87e-05,1.0
0.277618,1.0,8.5724e-08,1.0,-15.298452000000001,1.0,7.82e-05,1.0
0.27722199999999997,1.0,8.56325e-08,1.0,-9.974484,1.0,7.77e-05,1.0
0.276825,1.0,8.479299999999998e-08,1.0,-5.67882,1.0,7.730000000000001e-05,1.0
0.276489,1.0,8.32825e-08,1.0,-4.293468,1.0,7.69e-05,1.0
0.276001,1.0,8.1955e-08,1.0,-5.617296,1.0,7.65e-05,1.0
0.275726,1.0,8.154299999999999e-08,1.0,-8.655012000000001,1.0,7.609999999999999e-05,1.0
0.275208,1.0,8.1772e-08,1.0,-13.347288,1.0,7.57e-05,1.0
0.274872,1.0,8.25805e-08,1.0,-18.99864,1.0,7.53e-05,1.0
0.274475,1.0,8.4198e-08,1.0,-23.762340000000002,1.0,7.5e-05,1.0
0.27407800000000004,1.0,8.61205e-08,1.0,-26.431992,1.0,7.45e-05,1.0
0.273712,1.0,8.860800000000001e-08,1.0,-26.481456,1.0,7.42e-05,1.0
0.273285,1.0,9.025549999999998e-08,1.0,-24.559919999999998,1.0,7.37e-05,1.0
0.272919,1.0,9.0912e-08,1.0,-21.271716,1.0,7.340000000000001e-05,1.0
0.272461,1.0,8.920299999999998e-08,1.0,-18.028548,1.0,7.3e-05,1.0
0.272034,1.0,8.5739e-08,1.0,-15.312744,1.0,7.26e-05,1.0
0.271729,1.0,8.14055e-08,1.0,-14.528304,1.0,7.219999999999999e-05,1.0
0.271271,1.0,7.78045e-08,1.0,-16.04664,1.0,7.18e-05,1.0
0.270935,1.0,7.6706e-08,1.0,-18.299916000000003,1.0,7.15e-05,1.0
0.27050799999999997,1.0,7.849099999999998e-08,1.0,-20.425788,1.0,7.11e-05,1.0
0.270081,1.0,8.1177e-08,1.0,-22.646124,1.0,7.070000000000001e-05,1.0
0.269714,1.0,8.354199999999998e-08,1.0,-24.183107999999997,1.0,7.04e-05,1.0
0.269348,1.0,8.55105e-08,1.0,-24.121584,1.0,7e-05,1.0
0.268951,1.0,8.7036e-08,1.0,-22.932864,1.0,6.979999999999999e-05,1.0
0.268463,1.0,8.72345e-08,1.0,-21.444228000000003,1.0,6.929999999999999e-05,1.0
0.268097,1.0,8.70515e-08,1.0,-20.874024,1.0,6.9e-05,1.0
0.267761,1.0,8.65785e-08,1.0,-20.785032,1.0,6.879999999999999e-05,1.0
0.267303,1.0,8.525099999999999e-08,1.0,-21.2058,1.0,6.840000000000001e-05,1.0
0.266998,1.0,8.422849999999999e-08,1.0,-22.538448000000002,1.0,6.8e-05,1.0
0.266479,1.0,8.3084e-08,1.0,-24.065568,1.0,6.78e-05,1.0
0.266144,1.0,8.309950000000001e-08,1.0,-25.377336000000003,1.0,6.75e-05,1.0
0.265717,1.0,8.39845e-08,1.0,-26.03322,1.0,6.709999999999999e-05,1.0
0.26535,1.0,8.49455e-08,1.0,-25.532244,1.0,6.68e-05,1.0
0.264893,1.0,8.554099999999998e-08,1.0,-24.508296,1.0,6.659999999999999e-05,1.0
0.26452600000000004,1.0,8.58e-08,1.0,-22.804308,1.0,6.63e-05,1.0
0.26416,1.0,8.4915e-08,1.0,-20.870712,1.0,6.59e-05,1.0
0.263733,1.0,8.363349999999999e-08,1.0,-18.663588,1.0,6.57e-05,1.0
0.263336,1.0,8.1604e-08,1.0,-16.627824,1.0,6.53e-05,1.0
0.262909,1.0,7.98185e-08,1.0,-16.315812,1.0,6.51e-05,1.0
0.262482,1.0,7.870499999999999e-08,1.0,-17.406755999999998,1.0,6.49e-05,1.0
0.262115,1.0,7.89795e-08,1.0,-19.154663999999997,1.0,6.459999999999998e-05,1.0
0.26168800000000003,1.0,7.9529e-08,1.0,-20.776248000000002,1.0,6.43e-05,1.0
0.261292,1.0,8.068849999999999e-08,1.0,-21.615588,1.0,6.4e-05,1.0
0.260864,1.0,8.19245e-08,1.0,-21.302495999999998,1.0,6.36e-05,1.0
0.260468,1.0,8.348099999999999e-08,1.0,-19.05138,1.0,6.330000000000001e-05,1.0
0.26004,1.0,8.477799999999999e-08,1.0,-15.461063999999999,1.0,6.31e-05,1.0
0.259735,1.0,8.4137e-08,1.0,-12.181644,1.0,6.27e-05,1.0
0.259216,1.0,8.22905e-08,1.0,-10.312884,1.0,6.25e-05,1.0
0.258881,1.0,7.9666e-08,1.0,-10.408463999999999,1.0,6.23e-05,1.0
0.25845300000000004,1.0,7.711799999999999e-08,1.0,-12.504636000000001,1.0,6.2e-05,1.0
0.25811799999999996,1.0,7.5119e-08,1.0,-16.282836,1.0,6.17e-05,1.0
0.25769000000000003,1.0,7.45545e-08,1.0,-20.581775999999998,1.0,6.14e-05,1.0
0.257324,1.0,7.548499999999999e-08,1.0,-24.140268,1.0,6.11e-05,1.0
0.256805,1.0,7.698049999999999e-08,1.0,-26.295768000000002,1.0,6.07e-05,1.0
0.256439,1.0,7.806399999999999e-08,1.0,-26.871444000000004,1.0,6.04e-05,1.0
0.256104,1.0,7.8949e-08,1.0,-26.146368000000002,1.0,6.01e-05,1.0
0.25561500000000004,1.0,7.93455e-08,1.0,-23.750244000000002,1.0,5.9699999999999994e-05,1.0
0.255157,1.0,7.85065e-08,1.0,-21.239855999999996,1.0,5.96e-05,1.0
0.25488299999999997,1.0,7.67515e-08,1.0,-19.404036,1.0,5.920000000000001e-05,1.0
0.254395,1.0,7.43255e-08,1.0,-18.532836000000003,1.0,5.88e-05,1.0
0.253967,1.0,7.2891e-08,1.0,-18.406512,1.0,5.8399999999999997e-05,1.0
0.253632,1.0,7.282999999999998e-08,1.0,-20.084112,1.0,5.8099999999999996e-05,1.0
0.253143,1.0,7.4188e-08,1.0,-22.155012,1.0,5.7799999999999995e-05,1.0
0.252747,1.0,7.61565e-08,1.0,-23.449212,1.0,5.73e-05,1.0
0.25235,1.0,7.76215e-08,1.0,-23.500872,1.0,5.7100000000000006e-05,1.0
0.251923,1.0,7.89795e-08,1.0,-22.763664,1.0,5.68e-05,1.0
0.251587,1.0,7.900999999999999e-08,1.0,-22.079231999999998,1.0,5.629999999999999e-05,1.0
0.25116,1.0,7.8308e-08,1.0,-21.267324000000002,1.0,5.59e-05,1.0
0.250763,1.0,7.7469e-08,1.0,-21.06738,1.0,5.5700000000000005e-05,1.0
0.250397,1.0,7.612599999999999e-08,1.0,-21.39588,1.0,5.5299999999999996e-05,1.0
0.249939,1.0,7.47835e-08,1.0,-22.017708,1.0,5.5e-05,1.0
0.249573,1.0,7.35475e-08,1.0,-22.768055999999998,1.0,5.4600000000000006e-05,1.0
0.249176,1.0,7.32725e-08,1.0,-23.609627999999997,1.0,5.44e-05,1.0
0.24881,1.0,7.399e-08,1.0,-23.828256000000003,1.0,5.4000000000000005e-05,1.0
0.248352,1.0,7.5943e-08,1.0,-23.545908,1.0,5.3700000000000004e-05,1.0
0.247986,1.0,7.792649999999999e-08,1.0,-22.799916000000003,1.0,5.3500000000000006e-05,1.0
0.24761999999999998,1.0,7.8949e-08,1.0,-21.40686,1.0,5.31e-05,1.0
0.247223,1.0,7.9239e-08,1.0,-19.784196,1.0,5.2900000000000005e-05,1.0
0.24682600000000002,1.0,7.9239e-08,1.0,-18.184572,1.0,5.25e-05,1.0
0.24639899999999998,1.0,7.896399999999999e-08,1.0,-17.124372,1.0,5.2300000000000004e-05,1.0
0.246033,1.0,7.843e-08,1.0,-17.240832,1.0,5.21e-05,1.0
0.245667,1.0,7.77285e-08,1.0,-18.491076,1.0,5.19e-05,1.0
0.245178,1.0,7.760599999999999e-08,1.0,-20.402712,1.0,5.16e-05,1.0
0.244873,1.0,7.7347e-08,1.0,-22.747176000000003,1.0,5.14e-05,1.0
0.24441500000000002,1.0,7.7423e-08,1.0,-24.331427999999995,1.0,5.1e-05,1.0
0.24408000000000002,1.0,7.812499999999999e-08,1.0,-24.755508,1.0,5.07e-05,1.0
0.243652,1.0,7.95595e-08,1.0,-24.338016,1.0,5.0600000000000003e-05,1.0
0.243286,1.0,8.048999999999999e-08,1.0,-22.765860000000004,1.0,5.04e-05,1.0
0.24285900000000002,1.0,8.055099999999999e-08,1.0,-20.137932,1.0,5.02e-05,1.0
0.242493,1.0,7.9849e-08,1.0,-17.195795999999998,1.0,5e-05,1.0
0.242065,1.0,7.810949999999999e-08,1.0,-15.053472000000003,1.0,4.99e-05,1.0
0.241669,1.0,7.637e-08,1.0,-14.205312000000001,1.0,4.970000000000001e-05,1.0
0.241333,1.0,7.5058e-08,1.0,-15.330312000000001,1.0,4.95e-05,1.0
0.24090599999999998,1.0,7.4463e-08,1.0,-17.101332,1.0,4.92e-05,1.0
0.24050900000000003,1.0,7.485950000000001e-08,1.0,-19.186524,1.0,4.9e-05,1.0
0.24005100000000001,1.0,7.576e-08,1.0,-20.311524,1.0,4.88e-05,1.0
0.23971599999999998,1.0,7.6645e-08,1.0,-20.603772,1.0,4.8700000000000005e-05,1.0
0.239319,1.0,7.672099999999999e-08,1.0,-19.889639999999996,1.0,4.85e-05,1.0
0.23889200000000002,1.0,7.6187e-08,1.0,-19.30518,1.0,4.83e-05,1.0
0.23849499999999998,1.0,7.55005e-08,1.0,-18.546012,1.0,4.8e-05,1.0
0.238129,1.0,7.463049999999999e-08,1.0,-18.493271999999997,1.0,4.7799999999999996e-05,1.0
0.23770100000000002,1.0,7.35625e-08,1.0,-18.932724,1.0,4.7600000000000005e-05,1.0
0.23727399999999998,1.0,7.27385e-08,1.0,-19.654524,1.0,4.74e-05,1.0
0.236938,1.0,7.237250000000001e-08,1.0,-20.966292000000003,1.0,4.74e-05,1.0
0.236511,1.0,7.238749999999999e-08,1.0,-22.677984,1.0,4.71e-05,1.0
0.236145,1.0,7.334899999999999e-08,1.0,-23.843628000000002,1.0,4.6899999999999995e-05,1.0
0.235748,1.0,7.4463e-08,1.0,-23.750244000000002,1.0,4.6700000000000003e-05,1.0
0.235321,1.0,7.55005e-08,1.0,-22.738392,1.0,4.6399999999999996e-05,1.0
0.234894,1.0,7.62635e-08,1.0,-20.908079999999998,1.0,4.6200000000000005e-05,1.0
0.23452800000000001,1.0,7.68125e-08,1.0,-18.260388,1.0,4.61e-05,1.0
0.234192,1.0,7.667549999999999e-08,1.0,-15.298452000000001,1.0,4.59e-05,1.0
0.23373400000000003,1.0,7.620249999999998e-08,1.0,-12.854015999999998,1.0,4.5600000000000004e-05,1.0
0.233337,1.0,7.548499999999999e-08,1.0,-12.0564,1.0,4.55e-05,1.0
0.23290999999999998,1.0,7.4936e-08,1.0,-12.950675999999998,1.0,4.52e-05,1.0
0.232513,1.0,7.42035e-08,1.0,-15.487416000000001,1.0,4.5e-05,1.0
0.23211700000000002,1.0,7.400499999999999e-08,1.0,-18.415296,1.0,4.47e-05,1.0
0.23168899999999998,1.0,7.40205e-08,1.0,-20.307132000000003,1.0,4.46e-05,1.0
0.231323,1.0,7.488999999999999e-08,1.0,-21.054204,1.0,4.429999999999999e-05,1.0
0.23095700000000002,1.0,7.592749999999999e-08,1.0,-20.774051999999998,1.0,4.4e-05,1.0
0.23056,1.0,7.6889e-08,1.0,-19.634760000000004,1.0,4.39e-05,1.0
0.230133,1.0,7.701099999999999e-08,1.0,-18.015372000000003,1.0,4.3799999999999994e-05,1.0
0.229767,1.0,7.621749999999999e-08,1.0,-16.963992,1.0,4.34e-05,1.0
0.22934000000000002,1.0,7.5302e-08,1.0,-16.933212,1.0,4.33e-05,1.0
0.22891199999999998,1.0,7.444749999999999e-08,1.0,-18.764639999999996,1.0,4.31e-05,1.0
0.228516,1.0,7.4173e-08,1.0,-21.919931999999996,1.0,4.28e-05,1.0
0.228088,1.0,7.46615e-08,1.0,-24.433595999999998,1.0,4.270000000000001e-05,1.0
0.227753,1.0,7.5226e-08,1.0,-25.880508,1.0,4.24e-05,1.0
0.227325,1.0,7.61565e-08,1.0,-26.067276000000003,1.0,4.22e-05,1.0
0.226868,1.0,7.6599e-08,1.0,-25.459704,1.0,4.2e-05,1.0
0.226532,1.0,7.6645e-08,1.0,-24.29298,1.0,4.1899999999999995e-05,1.0
0.22616599999999998,1.0,7.5699e-08,1.0,-22.667004000000002,1.0,4.16e-05,1.0
0.2258,1.0,7.46615e-08,1.0,-20.635631999999998,1.0,4.15e-05,1.0
0.22528099999999998,1.0,7.275399999999999e-08,1.0,-18.43614,1.0,4.1200000000000005e-05,1.0
0.22494499999999998,1.0,7.15635e-08,1.0,-16.536636,1.0,4.1e-05,1.0
0.224487,1.0,7.026649999999999e-08,1.0,-16.570692,1.0,4.0799999999999996e-05,1.0
0.224152,1.0,6.915299999999998e-08,1.0,-18.06264,1.0,4.0600000000000004e-05,1.0
0.22372399999999998,1.0,6.84965e-08,1.0,-20.251116,1.0,4.04e-05,1.0
0.22338899999999998,1.0,6.8527e-08,1.0,-22.508784,1.0,4.03e-05,1.0
0.222992,1.0,6.930549999999998e-08,1.0,-24.08094,1.0,4.01e-05,1.0
0.222534,1.0,7.0389e-08,1.0,-24.019416000000003,1.0,4e-05,1.0
0.22210700000000003,1.0,7.151799999999999e-08,1.0,-23.142708,1.0,3.96e-05,1.0
0.221741,1.0,7.24335e-08,1.0,-21.890268,1.0,3.9399999999999995e-05,1.0
0.221375,1.0,7.246399999999999e-08,1.0,-20.434572,1.0,3.929999999999999e-05,1.0
0.22094699999999998,1.0,7.118250000000001e-08,1.0,-19.248048,1.0,3.91e-05,1.0
0.22052,1.0,6.980900000000001e-08,1.0,-18.42408,1.0,3.9e-05,1.0
0.220123,1.0,6.84815e-08,1.0,-18.170279999999998,1.0,3.8799999999999994e-05,1.0
0.219757,1.0,6.8161e-08,1.0,-19.782,1.0,3.85e-05,1.0
0.21939099999999997,1.0,6.886299999999999e-08,1.0,-21.649644000000002,1.0,3.84e-05,1.0
0.218964,1.0,7.016e-08,1.0,-22.813128,1.0,3.8299999999999996e-05,1.0
0.21859699999999999,1.0,7.1472e-08,1.0,-22.443984,1.0,3.8e-05,1.0
0.21810900000000003,1.0,7.269299999999999e-08,1.0,-21.137687999999997,1.0,3.79e-05,1.0
0.217743,1.0,7.3517e-08,1.0,-19.924812000000003,1.0,3.77e-05,1.0
0.21731599999999998,1.0,7.3288e-08,1.0,-18.983268000000002,1.0,3.75e-05,1.0
0.21698,1.0,7.2357e-08,1.0,-18.3186,1.0,3.74e-05,1.0
0.216583,1.0,7.0389e-08,1.0,-18.53064,1.0,3.72e-05,1.0
0.216156,1.0,6.81915e-08,1.0,-19.500732000000003,1.0,3.71e-05,1.0
0.215759,1.0,6.6849e-08,1.0,-21.175056,1.0,3.68e-05,1.0
0.215363,1.0,6.643699999999999e-08,1.0,-23.142708,1.0,3.68e-05,1.0
0.214905,1.0,6.724549999999999e-08,1.0,-24.940080000000002,1.0,3.65e-05,1.0
0.21453899999999998,1.0,6.900000000000001e-08,1.0,-25.381728000000003,1.0,3.64e-05,1.0
0.21417199999999997,1.0,7.096849999999999e-08,1.0,-24.80382,1.0,3.6200000000000006e-05,1.0
0.213684,1.0,7.1884e-08,1.0,-23.478876,1.0,3.6e-05,1.0
0.21331799999999998,1.0,7.257100000000001e-08,1.0,-21.568356,1.0,3.5799999999999996e-05,1.0
0.212952,1.0,7.28605e-08,1.0,-19.088748000000002,1.0,3.570000000000001e-05,1.0
0.21261599999999997,1.0,7.24945e-08,1.0,-16.330068,1.0,3.5499999999999996e-05,1.0
0.212128,1.0,7.104500000000001e-08,1.0,-14.693112,1.0,3.54e-05,1.0
0.211761,1.0,6.89545e-08,1.0,-14.307480000000002,1.0,3.52e-05,1.0
0.21142600000000003,1.0,6.777949999999999e-08,1.0,-15.574212,1.0,3.5e-05,1.0
0.210968,1.0,6.70015e-08,1.0,-17.822016,1.0,3.4899999999999995e-05,1.0
0.210571,1.0,6.7032e-08,1.0,-20.121444,1.0,3.48e-05,1.0
0.210144,1.0,6.768799999999999e-08,1.0,-22.296743999999997,1.0,3.46e-05,1.0
0.20977800000000002,1.0,6.838999999999999e-08,1.0,-23.378904000000002,1.0,3.4399999999999996e-05,1.0
0.209412,1.0,6.838999999999999e-08,1.0,-22.880124000000002,1.0,3.4200000000000005e-05,1.0
0.209015,1.0,6.776449999999998e-08,1.0,-20.744388,1.0,3.41e-05,1.0
0.20858800000000002,1.0,6.71385e-08,1.0,-18.312012,1.0,3.4e-05,1.0
0.20822100000000002,1.0,6.61925e-08,1.0,-16.667351999999998,1.0,3.39e-05,1.0
0.207825,1.0,6.5048e-08,1.0,-16.101576,1.0,3.3600000000000004e-05,1.0
0.207367,1.0,6.39345e-08,1.0,-16.584948,1.0,3.3600000000000004e-05,1.0
0.20697,1.0,6.38275e-08,1.0,-16.636608,1.0,3.35e-05,1.0
0.20654299999999998,1.0,6.43615e-08,1.0,-16.777224,1.0,3.32e-05,1.0
0.206116,1.0,6.58875e-08,1.0,-17.513316000000003,1.0,3.3100000000000005e-05,1.0
0.205719,1.0,6.75965e-08,1.0,-17.87364,1.0,3.28e-05,1.0
0.20532199999999998,1.0,6.88935e-08,1.0,-17.338608,1.0,3.28e-05,1.0
0.205017,1.0,6.9092e-08,1.0,-16.285031999999998,1.0,3.27e-05,1.0
0.204559,1.0,6.82375e-08,1.0,-14.609628,1.0,3.2500000000000004e-05,1.0
0.20413199999999998,1.0,6.6925e-08,1.0,-13.140756,1.0,3.229999999999999e-05,1.0
0.203766,1.0,6.523150000000001e-08,1.0,-12.368412000000001,1.0,3.2200000000000003e-05,1.0
0.203308,1.0,6.439199999999999e-08,1.0,-13.586796000000001,1.0,3.21e-05,1.0
0.202972,1.0,6.4148e-08,1.0,-16.022448,1.0,3.19e-05,1.0
0.202545,1.0,6.45905e-08,1.0,-18.108756000000003,1.0,3.18e-05,1.0
0.20211800000000002,1.0,6.51855e-08,1.0,-19.530396,1.0,3.17e-05,1.0
0.201721,1.0,6.56585e-08,1.0,-20.722428,1.0,3.15e-05,1.0
0.20138499999999998,1.0,6.6498e-08,1.0,-21.271716,1.0,3.14e-05,1.0
0.201019,1.0,6.74135e-08,1.0,-21.299183999999997,1.0,3.12e-05,1.0
0.200623,1.0,6.765750000000001e-08,1.0,-20.70594,1.0,3.12e-05,1.0
0.200195,1.0,6.777949999999999e-08,1.0,-19.189836000000003,1.0,3.1e-05,1.0
0.199738,1.0,6.730650000000001e-08,1.0,-18.223019999999998,1.0,3.09e-05,1.0
0.199432,1.0,6.675700000000001e-08,1.0,-17.878068000000003,1.0,3.07e-05,1.0
0.199005,1.0,6.564349999999999e-08,1.0,-18.358164,1.0,3.05e-05,1.0
0.198578,1.0,6.4789e-08,1.0,-19.70838,1.0,3.04e-05,1.0
0.198181,1.0,6.431599999999999e-08,1.0,-21.146472000000003,1.0,3.0299999999999998e-05,1.0
0.19781500000000002,1.0,6.4514e-08,1.0,-22.472532,1.0,3.0299999999999998e-05,1.0
0.197357,1.0,6.4789e-08,1.0,-22.927355999999996,1.0,3.01e-05,1.0
0.197052,1.0,6.501749999999999e-08,1.0,-23.387687999999997,1.0,2.99e-05,1.0
0.19656400000000002,1.0,6.523150000000001e-08,1.0,-23.018544,1.0,2.98e-05,1.0
0.19622799999999999,1.0,6.521599999999999e-08,1.0,-21.703500000000002,1.0,2.97e-05,1.0
0.195831,1.0,6.51855e-08,1.0,-19.8369,1.0,2.9600000000000005e-05,1.0
0.195435,1.0,6.4972e-08,1.0,-17.749512,1.0,2.9299999999999997e-05,1.0
0.19500699999999999,1.0,6.460549999999999e-08,1.0,-16.242192,1.0,2.9199999999999998e-05,1.0
0.194641,1.0,6.398e-08,1.0,-16.381728,1.0,2.9100000000000003e-05,1.0
0.194214,1.0,6.352249999999999e-08,1.0,-18.158219999999996,1.0,2.8999999999999997e-05,1.0
0.193848,1.0,6.35375e-08,1.0,-20.850948000000002,1.0,2.8699999999999996e-05,1.0
0.19339,1.0,6.4148e-08,1.0,-23.341536,1.0,2.8699999999999996e-05,1.0
0.193024,1.0,6.520099999999999e-08,1.0,-24.946668,1.0,2.8600000000000004e-05,1.0
0.192657,1.0,6.56585e-08,1.0,-25.270739999999996,1.0,2.84e-05,1.0
0.192261,1.0,6.61165e-08,1.0,-24.110604000000002,1.0,2.8300000000000003e-05,1.0
0.191833,1.0,6.613150000000001e-08,1.0,-23.017464,1.0,2.8199999999999998e-05,1.0
0.191406,1.0,6.55975e-08,1.0,-22.172616,1.0,2.8100000000000002e-05,1.0
0.19100999999999999,1.0,6.47585e-08,1.0,-21.569472,1.0,2.7899999999999997e-05,1.0
0.190643,1.0,6.3736e-08,1.0,-21.333239999999996,1.0,2.7699999999999996e-05,1.0
0.190216,1.0,6.28355e-08,1.0,-21.62988,1.0,2.75e-05,1.0
0.189789,1.0,6.1844e-08,1.0,-21.849624,1.0,2.75e-05,1.0
0.189362,1.0,6.19965e-08,1.0,-22.079231999999998,1.0,2.7399999999999995e-05,1.0
0.188995,1.0,6.303400000000001e-08,1.0,-22.081427999999995,1.0,2.72e-05,1.0
0.188538,1.0,6.40565e-08,1.0,-21.72438,1.0,2.71e-05,1.0
0.188202,1.0,6.48345e-08,1.0,-21.220092,1.0,2.7000000000000002e-05,1.0
0.187744,1.0,6.555199999999999e-08,1.0,-20.527956,1.0,2.68e-05,1.0
0.18743900000000002,1.0,6.550599999999999e-08,1.0,-19.749024,1.0,2.6700000000000002e-05,1.0
0.186951,1.0,6.506349999999999e-08,1.0,-19.577627999999997,1.0,2.65e-05,1.0
0.186584,1.0,6.46515e-08,1.0,-19.447992,1.0,2.65e-05,1.0
0.186249,1.0,6.4087e-08,1.0,-19.835820000000002,1.0,2.64e-05,1.0
0.185883,1.0,6.40565e-08,1.0,-20.978388,1.0,2.62e-05,1.0
0.18548599999999998,1.0,6.410199999999999e-08,1.0,-22.559328,1.0,2.61e-05,1.0
0.184998,1.0,6.4728e-08,1.0,-23.756831999999996,1.0,2.59e-05,1.0
0.184601,1.0,6.533799999999999e-08,1.0,-23.801868000000002,1.0,2.6000000000000002e-05,1.0
0.184143,1.0,6.55825e-08,1.0,-23.449212,1.0,2.57e-05,1.0
0.183807,1.0,6.506349999999999e-08,1.0,-22.524155999999998,1.0,2.57e-05,1.0
0.18335,1.0,6.37055e-08,1.0,-21.477168,1.0,2.55e-05,1.0
0.182892,1.0,6.26985e-08,1.0,-19.375488,1.0,2.54e-05,1.0
0.182556,1.0,6.153849999999999e-08,1.0,-16.825572,1.0,2.5300000000000002e-05,1.0
0.18212899999999999,1.0,6.06535e-08,1.0,-14.807376,1.0,2.52e-05,1.0
0.181641,1.0,6.0013e-08,1.0,-13.545036,1.0,2.5e-05,1.0
0.181335,1.0,5.914299999999999e-08,1.0,-14.011956000000001,1.0,2.49e-05,1.0
0.18096900000000002,1.0,5.9188999999999995e-08,1.0,-15.741216,1.0,2.48e-05,1.0
0.180481,1.0,5.982949999999999e-08,1.0,-17.885736,1.0,2.47e-05,1.0
0.180054,1.0,6.0837e-08,1.0,-18.741563999999997,1.0,2.47e-05,1.0
0.17971800000000002,1.0,6.17525e-08,1.0,-18.483408,1.0,2.44e-05,1.0
0.179321,1.0,6.20115e-08,1.0,-18.1692,1.0,2.4299999999999998e-05,1.0
0.178955,1.0,6.1493e-08,1.0,-17.684676,1.0,2.42e-05,1.0
0.178528,1.0,6.0898e-08,1.0,-17.260632,1.0,2.4100000000000003e-05,1.0
0.17813099999999998,1.0,6.01655e-08,1.0,-17.434188,1.0,2.42e-05,1.0
0.177765,1.0,6.004349999999999e-08,1.0,-18.563616,1.0,2.3800000000000003e-05,1.0
0.17733800000000002,1.0,5.9341499999999996e-08,1.0,-21.160763999999997,1.0,2.3899999999999998e-05,1.0
0.177002,1.0,5.943300000000001e-08,1.0,-24.661008,1.0,2.3800000000000003e-05,1.0
0.176544,1.0,5.982949999999999e-08,1.0,-27.092268,1.0,2.36e-05,1.0
0.176147,1.0,6.03945e-08,1.0,-28.004148000000004,1.0,2.36e-05,1.0
0.17572000000000002,1.0,6.10045e-08,1.0,-26.87256,1.0,2.34e-05,1.0
0.175354,1.0,6.173699999999999e-08,1.0,-24.881831999999996,1.0,2.34e-05,1.0
0.174988,1.0,6.231699999999999e-08,1.0,-23.091048,1.0,2.34e-05,1.0
0.17453,1.0,6.1569e-08,1.0,-21.648564,1.0,2.3199999999999998e-05,1.0
0.17413299999999998,1.0,5.98145e-08,1.0,-20.725704,1.0,2.3e-05,1.0
0.173706,1.0,5.801399999999999e-08,1.0,-20.945448000000003,1.0,2.2899999999999998e-05,1.0
0.17334000000000002,1.0,5.6961e-08,1.0,-21.641976,1.0,2.2800000000000002e-05,1.0
0.172913,1.0,5.59235e-08,1.0,-21.99132,1.0,2.2800000000000002e-05,1.0
0.172577,1.0,5.53895e-08,1.0,-22.757075999999998,1.0,2.26e-05,1.0
0.17215,1.0,5.5511499999999994e-08,1.0,-22.704336,1.0,2.25e-05,1.0
0.171753,1.0,5.632e-08,1.0,-23.050404,1.0,2.24e-05,1.0
0.171356,1.0,5.7128999999999995e-08,1.0,-22.706532,1.0,2.24e-05,1.0
0.17099,1.0,5.8594e-08,1.0,-22.045175999999998,1.0,2.22e-05,1.0
0.17056300000000002,1.0,5.9204e-08,1.0,-21.253068,1.0,2.22e-05,1.0
0.17013499999999998,1.0,5.9173500000000004e-08,1.0,-20.644416000000003,1.0,2.2100000000000002e-05,1.0
0.169708,1.0,5.87615e-08,1.0,-19.6128,1.0,2.1899999999999997e-05,1.0
0.16934200000000002,1.0,5.80445e-08,1.0,-19.172232,1.0,2.18e-05,1.0
0.168976,1.0,5.75715e-08,1.0,-19.954476,1.0,2.18e-05,1.0
0.168549,1.0,5.691549999999999e-08,1.0,-21.317867999999997,1.0,2.1600000000000003e-05,1.0
0.16806,1.0,5.645750000000001e-08,1.0,-22.94604,1.0,2.15e-05,1.0
0.167694,1.0,5.6473e-08,1.0,-24.459948,1.0,2.14e-05,1.0
0.167297,1.0,5.65645e-08,1.0,-25.030151999999998,1.0,2.12e-05,1.0
0.166901,1.0,5.7083e-08,1.0,-23.973263999999997,1.0,2.12e-05,1.0
0.166534,1.0,5.7083e-08,1.0,-22.487904,1.0,2.11e-05,1.0
0.166138,1.0,5.7327499999999995e-08,1.0,-20.011608,1.0,2.1e-05,1.0
0.16568,1.0,5.7144000000000005e-08,1.0,-17.974728,1.0,2.1e-05,1.0
0.165253,1.0,5.68695e-08,1.0,-16.5465,1.0,2.1e-05,1.0
0.164948,1.0,5.642699999999999e-08,1.0,-16.080696,1.0,2.09e-05,1.0
0.16449,1.0,5.5343499999999995e-08,1.0,-17.222184,1.0,2.0600000000000003e-05,1.0
0.164124,1.0,5.45195e-08,1.0,-19.631484,1.0,2.0600000000000003e-05,1.0
0.163727,1.0,5.3833e-08,1.0,-23.285519999999998,1.0,2.05e-05,1.0
0.16336099999999998,1.0,5.436699999999999e-08,1.0,-25.389395999999998,1.0,2.05e-05,1.0
0.162964,1.0,5.5190999999999994e-08,1.0,-26.568252,1.0,2.0399999999999998e-05,1.0
0.16250599999999998,1.0,5.6365999999999997e-08,1.0,-26.737416000000003,1.0,2.0300000000000002e-05,1.0
0.16217,1.0,5.6473e-08,1.0,-26.611092000000003,1.0,2.0300000000000002e-05,1.0
0.16171300000000002,1.0,5.63355e-08,1.0,-26.737416000000003,1.0,2.01e-05,1.0
0.161407,1.0,5.5465499999999995e-08,1.0,-26.137583999999997,1.0,2.01e-05,1.0
0.16097999999999998,1.0,5.45045e-08,1.0,-25.880508,1.0,2.01e-05,1.0
0.160614,1.0,5.40315e-08,1.0,-25.212528,1.0,1.98e-05,1.0
0.160187,1.0,5.3070000000000005e-08,1.0,-24.873048,1.0,1.98e-05,1.0
0.159729,1.0,5.26735e-08,1.0,-24.466536,1.0,1.9699999999999998e-05,1.0
0.159393,1.0,5.23985e-08,1.0,-23.528304,1.0,1.9600000000000002e-05,1.0
0.158966,1.0,5.285650000000001e-08,1.0,-22.104504000000002,1.0,1.9600000000000002e-05,1.0
0.158539,1.0,5.39705e-08,1.0,-20.475216,1.0,1.9600000000000002e-05,1.0
0.158173,1.0,5.5023e-08,1.0,-18.900864,1.0,1.95e-05,1.0
0.157745,1.0,5.567949999999999e-08,1.0,-18.088992,1.0,1.9399999999999997e-05,1.0
0.157349,1.0,5.587749999999999e-08,1.0,-16.78932,1.0,1.9399999999999997e-05,1.0
0.156952,1.0,5.5511499999999994e-08,1.0,-15.97302,1.0,1.91e-05,1.0
0.156555,1.0,5.485549999999999e-08,1.0,-15.849972000000003,1.0,1.91e-05,1.0
0.156128,1.0,5.393999999999999e-08,1.0,-17.61876,1.0,1.91e-05,1.0
0.155792,1.0,5.3085499999999996e-08,1.0,-20.0907,1.0,1.88e-05,1.0
0.155426,1.0,5.2413999999999995e-08,1.0,-22.222044,1.0,1.88e-05,1.0
0.15493800000000002,1.0,5.2215499999999995e-08,1.0,-23.90184,1.0,1.88e-05,1.0
0.154633,1.0,5.2658e-08,1.0,-24.763175999999998,1.0,1.88e-05,1.0
0.154144,1.0,5.28105e-08,1.0,-24.652224,1.0,1.85e-05,1.0
0.15371700000000002,1.0,5.3711e-08,1.0,-23.043816,1.0,1.85e-05,1.0
0.153381,1.0,5.485549999999999e-08,1.0,-21.108024,1.0,1.85e-05,1.0
0.15298499999999998,1.0,5.55575e-08,1.0,-19.055771999999997,1.0,1.83e-05,1.0
0.152588,1.0,5.5572500000000003e-08,1.0,-18.468,1.0,1.82e-05,1.0
0.152161,1.0,5.48705e-08,1.0,-18.364751999999996,1.0,1.8100000000000003e-05,1.0
0.15173299999999998,1.0,5.3039499999999997e-08,1.0,-18.498780000000004,1.0,1.8e-05,1.0
0.151398,1.0,5.220049999999999e-08,1.0,-18.783324,1.0,1.7800000000000002e-05,1.0
0.151001,1.0,5.18495e-08,1.0,-19.568844000000002,1.0,1.7800000000000002e-05,1.0
0.150635,1.0,5.2139499999999995e-08,1.0,-20.455452,1.0,1.7800000000000002e-05,1.0
0.150269,1.0,5.282599999999999e-08,1.0,-20.914668,1.0,1.77e-05,1.0
0.14978,1.0,5.30245e-08,1.0,-21.102552,1.0,1.75e-05,1.0
0.14941400000000002,1.0,5.293250000000001e-08,1.0,-20.479608,1.0,1.75e-05,1.0
0.149048,1.0,5.2963499999999996e-08,1.0,-19.883052,1.0,1.74e-05,1.0
0.148621,1.0,5.2612499999999995e-08,1.0,-19.343628000000002,1.0,1.73e-05,1.0
0.14819300000000002,1.0,5.20325e-08,1.0,-19.556748000000002,1.0,1.7199999999999998e-05,1.0
0.147827,1.0,5.1651e-08,1.0,-19.667735999999998,1.0,1.7199999999999998e-05,1.0
0.14743,1.0,5.1208500000000005e-08,1.0,-20.46312,1.0,1.7e-05,1.0
0.147064,1.0,5.0812e-08,1.0,-21.335436,1.0,1.7e-05,1.0
0.14666700000000002,1.0,5.03235e-08,1.0,-22.512096,1.0,1.6800000000000002e-05,1.0
0.146271,1.0,4.96979e-08,1.0,-23.399784,1.0,1.6899999999999997e-05,1.0
0.145905,1.0,4.977415e-08,1.0,-23.395392,1.0,1.6800000000000002e-05,1.0
0.145508,1.0,4.997255e-08,1.0,-23.65686,1.0,1.67e-05,1.0
0.145081,1.0,5.01405e-08,1.0,-23.273424000000002,1.0,1.66e-05,1.0
0.14468399999999998,1.0,5.0002999999999995e-08,1.0,-21.971556,1.0,1.67e-05,1.0
0.144318,1.0,4.974365e-08,1.0,-20.315916,1.0,1.66e-05,1.0
0.143921,1.0,4.930115e-08,1.0,-17.784684,1.0,1.66e-05,1.0
0.143494,1.0,4.89044e-08,1.0,-16.200432,1.0,1.67e-05,1.0
0.143097,1.0,4.8171999999999996e-08,1.0,-16.00488,1.0,1.66e-05,1.0
0.1427,1.0,4.8034649999999994e-08,1.0,-16.37622,1.0,1.65e-05,1.0
0.14230299999999999,1.0,4.82483e-08,1.0,-17.40564,1.0,1.66e-05,1.0
0.141907,1.0,4.849245e-08,1.0,-19.440323999999997,1.0,1.64e-05,1.0
0.141541,1.0,4.870605e-08,1.0,-21.457404,1.0,1.63e-05,1.0
0.14111300000000002,1.0,4.895019999999999e-08,1.0,-22.336307999999995,1.0,1.63e-05,1.0
0.14068599999999998,1.0,4.937745e-08,1.0,-22.863636,1.0,1.62e-05,1.0
0.14032,1.0,4.9438499999999996e-08,1.0,-22.860360000000004,1.0,1.63e-05,1.0
0.139862,1.0,4.89044e-08,1.0,-22.74498,1.0,1.62e-05,1.0
0.139526,1.0,4.809569999999999e-08,1.0,-22.380263999999997,1.0,1.6100000000000002e-05,1.0
0.139069,1.0,4.73938e-08,1.0,-23.004288,1.0,1.6e-05,1.0
0.138702,1.0,4.69818e-08,1.0,-23.893055999999998,1.0,1.6e-05,1.0
0.138214,1.0,4.719545e-08,1.0,-25.272936,1.0,1.59e-05,1.0
0.137817,1.0,4.820249999999999e-08,1.0,-26.524296,1.0,1.57e-05,1.0
0.137451,1.0,4.96216e-08,1.0,-27.257076,1.0,1.56e-05,1.0
0.13708499999999998,1.0,5.0475999999999995e-08,1.0,-26.517708,1.0,1.56e-05,1.0
0.136658,1.0,5.08575e-08,1.0,-25.008192,1.0,1.55e-05,1.0
0.136261,1.0,5.0522e-08,1.0,-22.46814,1.0,1.53e-05,1.0
0.13583399999999998,1.0,4.9636849999999995e-08,1.0,-20.096207999999997,1.0,1.52e-05,1.0
0.135437,1.0,4.78058e-08,1.0,-18.588851999999996,1.0,1.4999999999999999e-05,1.0
0.135071,1.0,4.592894999999999e-08,1.0,-18.514152000000003,1.0,1.4999999999999999e-05,1.0
0.134613,1.0,4.46625e-08,1.0,-19.01952,1.0,1.4800000000000002e-05,1.0
0.134216,1.0,4.331969999999999e-08,1.0,-20.181888,1.0,1.4800000000000002e-05,1.0
0.13385,1.0,4.273985e-08,1.0,-22.038588,1.0,1.4499999999999998e-05,1.0
0.133423,1.0,4.2541500000000004e-08,1.0,-24.033707999999997,1.0,1.4400000000000001e-05,1.0
0.13305699999999998,1.0,4.3136599999999996e-08,1.0,-25.275132,1.0,1.4300000000000002e-05,1.0
0.132629,1.0,4.4281e-08,1.0,-24.787368,1.0,1.42e-05,1.0
0.13226300000000002,1.0,4.493715e-08,1.0,-23.7096,1.0,1.4000000000000001e-05,1.0
0.131866,1.0,4.530335e-08,1.0,-22.363775999999998,1.0,1.3800000000000002e-05,1.0
0.1315,1.0,4.5105e-08,1.0,-21.355235999999998,1.0,1.3800000000000002e-05,1.0
0.13104200000000002,1.0,4.4845599999999995e-08,1.0,-21.498048,1.0,1.3699999999999998e-05,1.0
0.130646,1.0,4.45862e-08,1.0,-22.71204,1.0,1.3500000000000001e-05,1.0
0.13028,1.0,4.45862e-08,1.0,-24.228144,1.0,1.34e-05,1.0
0.129822,1.0,4.460145e-08,1.0,-25.745363999999995,1.0,1.3500000000000001e-05,1.0
0.129456,1.0,4.460145e-08,1.0,-27.15822,1.0,1.34e-05,1.0
0.129181,1.0,4.4845599999999995e-08,1.0,-27.861336,1.0,1.34e-05,1.0
0.128815,1.0,4.4876099999999996e-08,1.0,-27.531756,1.0,1.3500000000000001e-05,1.0
0.128357,1.0,4.4647199999999994e-08,1.0,-25.749756,1.0,1.3500000000000001e-05,1.0
0.12796,1.0,4.46625e-08,1.0,-24.221556,1.0,1.3500000000000001e-05,1.0
0.127563,1.0,4.455565e-08,1.0,-22.424183999999997,1.0,1.3500000000000001e-05,1.0
0.127197,1.0,4.421994999999999e-08,1.0,-21.380508,1.0,1.36e-05,1.0
0.12677,1.0,4.39148e-08,1.0,-21.093767999999997,1.0,1.3800000000000002e-05,1.0
0.126404,1.0,4.376219999999999e-08,1.0,-21.893544,1.0,1.3699999999999998e-05,1.0
0.12600699999999998,1.0,4.417419999999999e-08,1.0,-22.9131,1.0,1.3800000000000002e-05,1.0
0.12561,1.0,4.45862e-08,1.0,-24.664319999999996,1.0,1.39e-05,1.0
0.125183,1.0,4.4784549999999996e-08,1.0,-25.57728,1.0,1.39e-05,1.0
0.12475599999999999,1.0,4.5028699999999996e-08,1.0,-25.328988,1.0,1.39e-05,1.0
0.124329,1.0,4.571535e-08,1.0,-23.982048,1.0,1.3800000000000002e-05,1.0
0.123993,1.0,4.605105e-08,1.0,-22.458239999999996,1.0,1.3800000000000002e-05,1.0
0.12353499999999999,1.0,4.551695e-08,1.0,-20.466432,1.0,1.39e-05,1.0
0.12313800000000001,1.0,4.4876099999999996e-08,1.0,-18.493271999999997,1.0,1.4000000000000001e-05,1.0
0.122772,1.0,4.3670649999999995e-08,1.0,-17.747316,1.0,1.39e-05,1.0
0.122314,1.0,4.304505e-08,1.0,-18.397692,1.0,1.39e-05,1.0
0.12197899999999999,1.0,4.28009e-08,1.0,-20.466432,1.0,1.3699999999999998e-05,1.0
0.121521,1.0,4.2419449999999995e-08,1.0,-22.9131,1.0,1.3699999999999998e-05,1.0
0.121124,1.0,4.240415e-08,1.0,-25.232292,1.0,1.36e-05,1.0
0.120728,1.0,4.2892449999999996e-08,1.0,-26.669304000000004,1.0,1.3500000000000001e-05,1.0
0.12027,1.0,4.3075550000000004e-08,1.0,-27.224136000000005,1.0,1.34e-05,1.0
0.11993399999999999,1.0,4.3533349999999996e-08,1.0,-26.684676000000003,1.0,1.3300000000000001e-05,1.0
0.119476,1.0,4.370115e-08,1.0,-26.147448000000004,1.0,1.32e-05,1.0
0.11907999999999999,1.0,4.3533349999999996e-08,1.0,-24.745607999999997,1.0,1.31e-05,1.0
0.11871300000000001,1.0,4.30603e-08,1.0,-23.445936000000003,1.0,1.3000000000000001e-05,1.0
0.11828599999999999,1.0,4.244994999999999e-08,1.0,-22.975704,1.0,1.29e-05,1.0
0.11788900000000001,1.0,4.16107e-08,1.0,-22.915296,1.0,1.28e-05,1.0
0.117401,1.0,4.167175e-08,1.0,-23.756831999999996,1.0,1.28e-05,1.0
0.117065,1.0,4.1397099999999996e-08,1.0,-25.835436000000005,1.0,1.26e-05,1.0
0.116638,1.0,4.1046150000000004e-08,1.0,-27.531756,1.0,1.25e-05,1.0
0.116272,1.0,4.09088e-08,1.0,-28.004148000000004,1.0,1.24e-05,1.0
0.115875,1.0,4.09088e-08,1.0,-27.246096,1.0,1.22e-05,1.0
0.115479,1.0,4.06494e-08,1.0,-24.542352,1.0,1.22e-05,1.0
0.11508199999999999,1.0,4.092405e-08,1.0,-21.260736,1.0,1.22e-05,1.0
0.11465499999999999,1.0,4.093935e-08,1.0,-18.851436,1.0,1.21e-05,1.0
0.114258,1.0,4.045105e-08,1.0,-17.742924,1.0,1.21e-05,1.0
0.1138,1.0,3.9627099999999994e-08,1.0,-17.627580000000002,1.0,1.2e-05,1.0
0.113434,1.0,3.88794e-08,1.0,-18.766836,1.0,1.1900000000000001e-05,1.0
0.11303699999999998,1.0,3.829955e-08,1.0,-21.081672000000005,1.0,1.1900000000000001e-05,1.0
0.11264,1.0,3.81317e-08,1.0,-24.20838,1.0,1.18e-05,1.0
0.11224400000000001,1.0,3.8146949999999995e-08,1.0,-26.766000000000002,1.0,1.17e-05,1.0
0.111847,1.0,3.87726e-08,1.0,-28.190915999999998,1.0,1.1599999999999999e-05,1.0
0.11142,1.0,3.938295e-08,1.0,-28.179936000000005,1.0,1.17e-05,1.0
0.111053,1.0,4.0344249999999994e-08,1.0,-26.069472,1.0,1.15e-05,1.0
0.110687,1.0,4.0817249999999994e-08,1.0,-24.143544,1.0,1.1400000000000001e-05,1.0
0.11026,1.0,4.1046150000000004e-08,1.0,-21.966048,1.0,1.1400000000000001e-05,1.0
0.10986300000000002,1.0,4.09546e-08,1.0,-20.408219999999996,1.0,1.13e-05,1.0
0.10943599999999999,1.0,4.026795e-08,1.0,-20.63124,1.0,1.13e-05,1.0
0.109009,1.0,4.014584999999999e-08,1.0,-22.43736,1.0,1.12e-05,1.0
0.108643,1.0,3.9703349999999994e-08,1.0,-24.64452,1.0,1.11e-05,1.0
0.108276,1.0,3.94745e-08,1.0,-26.805528,1.0,1.1e-05,1.0
0.107849,1.0,3.9367699999999996e-08,1.0,-28.026108,1.0,1.11e-05,1.0
0.107422,1.0,3.942869999999999e-08,1.0,-28.41066,1.0,1.09e-05,1.0
0.107025,1.0,3.919984999999999e-08,1.0,-28.190915999999998,1.0,1.1e-05,1.0
0.106628,1.0,3.88031e-08,1.0,-27.597672,1.0,1.11e-05,1.0
0.106201,1.0,3.82538e-08,1.0,-27.081288,1.0,1.0800000000000002e-05,1.0
0.105774,1.0,3.7948599999999996e-08,1.0,-27.279036,1.0,1.0800000000000002e-05,1.0
0.10540799999999999,1.0,3.762815e-08,1.0,-27.443844000000002,1.0,1.0800000000000002e-05,1.0
0.10504200000000001,1.0,3.7170399999999996e-08,1.0,-28.179936000000005,1.0,1.0800000000000002e-05,1.0
0.104584,1.0,3.6407449999999994e-08,1.0,-28.168956,1.0,1.06e-05,1.0
0.10418699999999999,1.0,3.587340000000001e-08,1.0,-29.025863999999995,1.0,1.07e-05,1.0
0.10382100000000001,1.0,3.5583499999999996e-08,1.0,-28.795175999999998,1.0,1.05e-05,1.0
0.103394,1.0,3.520205e-08,1.0,-28.586412000000003,1.0,1.07e-05,1.0
0.103027,1.0,3.515625e-08,1.0,-26.247419999999998,1.0,1.05e-05,1.0
0.1026,1.0,3.562925e-08,1.0,-23.773320000000002,1.0,1.04e-05,1.0
0.102173,1.0,3.593445e-08,1.0,-20.837772000000005,1.0,1.04e-05,1.0
0.10180700000000001,1.0,3.6254900000000004e-08,1.0,-18.537227999999995,1.0,1.0300000000000001e-05,1.0
0.101379,1.0,3.6254900000000004e-08,1.0,-17.200188,1.0,1.0300000000000001e-05,1.0
0.100983,1.0,3.62396e-08,1.0,-16.299324000000002,1.0,1.04e-05,1.0
0.100647,1.0,3.642275e-08,1.0,-17.159544,1.0,1.0300000000000001e-05,1.0
0.100159,1.0,3.642275e-08,1.0,-19.327139999999996,1.0,1.0300000000000001e-05,1.0
0.09979249999999999,1.0,3.712465e-08,1.0,-22.159439999999996,1.0,1.01e-05,1.0
0.09936519999999999,1.0,3.753659999999999e-08,1.0,-24.896124,1.0,1.01e-05,1.0
0.09902949999999999,1.0,3.793335e-08,1.0,-26.776980000000002,1.0,1e-05,1.0
0.0985718,1.0,3.822325e-08,1.0,-27.081288,1.0,1e-05,1.0
0.0982361,1.0,3.837585e-08,1.0,-26.191404,1.0,9.85e-06,1.0
0.0977783,1.0,3.822325e-08,1.0,-25.347672,1.0,9.92e-06,1.0
0.09741210000000002,1.0,3.865049999999999e-08,1.0,-24.77088,1.0,9.84e-06,1.0
0.0970154,1.0,3.84369e-08,1.0,-24.456672000000005,1.0,9.81e-06,1.0
0.09664919999999999,1.0,3.817749999999999e-08,1.0,-23.727168,1.0,9.81e-06,1.0
0.0962219,1.0,3.7994400000000004e-08,1.0,-23.897448,1.0,9.69e-06,1.0
0.0958557,1.0,3.738405e-08,1.0,-24.564348000000003,1.0,9.8e-06,1.0
0.0953979,1.0,3.718565e-08,1.0,-25.573968,1.0,9.59e-06,1.0
0.0950623,1.0,3.6926249999999996e-08,1.0,-26.626464,1.0,9.54e-06,1.0
0.094635,1.0,3.674315e-08,1.0,-27.114264000000002,1.0,9.47e-06,1.0
0.0942688,1.0,3.65448e-08,1.0,-27.322992,1.0,9.51e-06,1.0
0.09384160000000001,1.0,3.6102300000000004e-08,1.0,-27.531756,1.0,9.41e-06,1.0
0.0934143,1.0,3.546145e-08,1.0,-27.048347999999997,1.0,9.39e-06,1.0
0.09307860000000001,1.0,3.482055000000001e-08,1.0,-25.628904,1.0,9.38e-06,1.0
0.0925903,1.0,3.390505000000001e-08,1.0,-24.768684,1.0,9.48e-06,1.0
0.09231569999999999,1.0,3.311155e-08,1.0,-24.709356,1.0,9.25e-06,1.0
0.09182739999999999,1.0,3.230285e-08,1.0,-25.118028,1.0,9.18e-06,1.0
0.0914307,1.0,3.222655e-08,1.0,-25.907976,1.0,9.11e-06,1.0
0.09106449999999999,1.0,3.17688e-08,1.0,-26.6067,1.0,9.19e-06,1.0
0.0906372,1.0,3.190615e-08,1.0,-25.530012,1.0,9.15e-06,1.0
0.090271,1.0,3.1967150000000006e-08,1.0,-23.531616,1.0,9.08e-06,1.0
0.0898438,1.0,3.230285e-08,1.0,-20.315916,1.0,8.99e-06,1.0
0.0894775,1.0,3.286745e-08,1.0,-17.750628,1.0,8.88e-06,1.0
0.0890808,1.0,3.28827e-08,1.0,-16.241076,1.0,9.03e-06,1.0
0.08862300000000001,1.0,3.28369e-08,1.0,-15.776351999999997,1.0,8.92e-06,1.0
0.08822630000000001,1.0,3.269959999999999e-08,1.0,-16.321284,1.0,8.77e-06,1.0
0.08782960000000001,1.0,3.2791149999999994e-08,1.0,-17.749512,1.0,8.8e-06,1.0
0.0874329,1.0,3.274535e-08,1.0,-19.148076,1.0,8.7e-06,1.0
0.0870361,1.0,3.274535e-08,1.0,-20.626848000000003,1.0,8.71e-06,1.0
0.08663939999999999,1.0,3.259275e-08,1.0,-21.649644000000002,1.0,8.63e-06,1.0
0.0863037,1.0,3.259275e-08,1.0,-22.128660000000004,1.0,8.56e-06,1.0
0.08584589999999999,1.0,3.2852150000000003e-08,1.0,-23.053716,1.0,8.57e-06,1.0
0.0855408,1.0,3.3065799999999996e-08,1.0,-23.326164,1.0,8.53e-06,1.0
0.0850525,1.0,3.34625e-08,1.0,-22.688964,1.0,8.47e-06,1.0
0.0846252,1.0,3.36151e-08,1.0,-22.519764000000002,1.0,8.25e-06,1.0
0.084259,1.0,3.34778e-08,1.0,-23.048208,1.0,8.26e-06,1.0
0.0838623,1.0,3.326415e-08,1.0,-24.158952,1.0,8.33e-06,1.0
0.0834961,1.0,3.2913199999999996e-08,1.0,-24.797232,1.0,8.3e-06,1.0
0.08300779999999999,1.0,3.31421e-08,1.0,-25.269660000000002,1.0,8.2e-06,1.0
0.0826111,1.0,3.28369e-08,1.0,-26.758296,1.0,8e-06,1.0
0.08227539999999998,1.0,3.28369e-08,1.0,-27.443844000000002,1.0,8.09e-06,1.0
0.0818176,1.0,3.242495e-08,1.0,-27.663587999999997,1.0,8.11e-06,1.0
0.0814819,1.0,3.163145e-08,1.0,-28.245851999999996,1.0,7.96e-06,1.0
0.0810852,1.0,3.04413e-08,1.0,-29.300543999999995,1.0,7.97e-06,1.0
0.08062739999999999,1.0,2.983095e-08,1.0,-29.838851999999996,1.0,7.97e-06,1.0
0.08026119999999999,1.0,2.99225e-08,1.0,-29.476332000000003,1.0,7.82e-06,1.0
0.07989500000000001,1.0,2.9647849999999997e-08,1.0,-29.09178,1.0,7.81e-06,1.0
0.0794067,1.0,2.94647e-08,1.0,-27.575675999999998,1.0,7.69e-06,1.0
0.079071,1.0,2.9220599999999996e-08,1.0,-25.0686,1.0,7.71e-06,1.0
0.0786438,1.0,2.9190049999999995e-08,1.0,-23.452524,1.0,7.72e-06,1.0
0.0782471,1.0,2.9632549999999997e-08,1.0,-22.242924000000002,1.0,7.62e-06,1.0
0.07785030000000001,1.0,2.9953e-08,1.0,-21.036636,1.0,7.55e-06,1.0
0.07745360000000001,1.0,3.0548099999999995e-08,1.0,-20.768544,1.0,7.51e-06,1.0
0.0770569,1.0,3.0777e-08,1.0,-21.082751999999996,1.0,7.4e-06,1.0
0.0766602,1.0,3.1372049999999994e-08,1.0,-20.910276,1.0,7.4e-06,1.0
0.0762939,1.0,3.1387349999999994e-08,1.0,-21.299183999999997,1.0,7.3e-06,1.0
0.07592769999999999,1.0,3.144835e-08,1.0,-21.387096,1.0,7.28e-06,1.0
0.0755005,1.0,3.086855e-08,1.0,-21.574944,1.0,7.17e-06,1.0
0.07507319999999999,1.0,3.0548099999999995e-08,1.0,-21.780396,1.0,7.27e-06,1.0
0.07470700000000001,1.0,3.053285e-08,1.0,-21.7782,1.0,7.17e-06,1.0
0.0742798,1.0,3.0364999999999994e-08,1.0,-23.450327999999995,1.0,7.07e-06,1.0
0.07391360000000001,1.0,3.0151349999999996e-08,1.0,-24.543468,1.0,7.03e-06,1.0
0.07351680000000001,1.0,3.038025e-08,1.0,-25.400376,1.0,6.99e-06,1.0
0.0730896,1.0,3.12042e-08,1.0,-26.082648,1.0,6.89e-06,1.0
0.07269289999999999,1.0,3.1478899999999995e-08,1.0,-26.794548,1.0,6.98e-06,1.0
0.0723267,1.0,3.1463599999999995e-08,1.0,-26.796744,1.0,6.95e-06,1.0
0.07189939999999999,1.0,3.12195e-08,1.0,-27.498780000000004,1.0,6.89e-06,1.0
0.0714722,1.0,3.0838e-08,1.0,-28.696284,1.0,6.83e-06,1.0
0.0710754,1.0,3.02124e-08,1.0,-29.69604,1.0,6.85e-06,1.0
0.0707092,1.0,2.9342650000000004e-08,1.0,-30.970476,1.0,6.78e-06,1.0
0.0703125,1.0,2.8488149999999998e-08,1.0,-31.662612000000003,1.0,6.8e-06,1.0
0.0699463,1.0,2.763365e-08,1.0,-32.563476,1.0,6.81e-06,1.0
0.06951900000000001,1.0,2.67334e-08,1.0,-32.244876,1.0,6.71e-06,1.0
0.06912230000000001,1.0,2.66876e-08,1.0,-31.003415999999998,1.0,6.76e-06,1.0
0.06869510000000001,1.0,2.7603149999999997e-08,1.0,-28.575432,1.0,6.63e-06,1.0
0.0682983,1.0,2.79846e-08,1.0,-25.454231999999998,1.0,6.71e-06,1.0
0.0678711,1.0,2.7786250000000002e-08,1.0,-22.824108,1.0,6.63e-06,1.0
0.06750489999999999,1.0,2.7389549999999998e-08,1.0,-20.077524,1.0,6.68e-06,1.0
0.0671387,1.0,2.69165e-08,1.0,-18.269172000000005,1.0,6.69e-06,1.0
0.0666809,1.0,2.693175e-08,1.0,-18.440568,1.0,6.59e-06,1.0
0.0662842,1.0,2.66876e-08,1.0,-19.07118,1.0,6.64e-06,1.0
0.0658875,1.0,2.6458749999999995e-08,1.0,-19.649051999999998,1.0,6.64e-06,1.0
0.0654907,1.0,2.6580799999999997e-08,1.0,-20.726819999999996,1.0,6.59e-06,1.0
0.06515499999999999,1.0,2.68402e-08,1.0,-21.839724,1.0,6.68e-06,1.0
0.0647583,1.0,2.6901249999999997e-08,1.0,-21.835332,1.0,6.67e-06,1.0
0.0643921,1.0,2.6901249999999997e-08,1.0,-20.545524,1.0,6.56e-06,1.0
0.06393430000000001,1.0,2.72522e-08,1.0,-19.266731999999998,1.0,6.59e-06,1.0
0.0635681,1.0,2.7557349999999996e-08,1.0,-16.925544,1.0,6.55e-06,1.0
0.0630798,1.0,2.7221699999999998e-08,1.0,-15.385248,1.0,6.51e-06,1.0
0.0627441,1.0,2.713015e-08,1.0,-14.358024,1.0,6.53e-06,1.0
0.062439,1.0,2.6397700000000003e-08,1.0,-15.17652,1.0,6.59e-06,1.0
0.0619507,1.0,2.589415e-08,1.0,-17.726436,1.0,6.4e-06,1.0
0.061614999999999996,1.0,2.557375e-08,1.0,-21.436524,1.0,6.47e-06,1.0
0.061218299999999996,1.0,2.5726299999999995e-08,1.0,-25.381728000000003,1.0,6.37e-06,1.0
0.060791,1.0,2.615355e-08,1.0,-27.916272000000003,1.0,6.25e-06,1.0
0.0604553,1.0,2.6855450000000002e-08,1.0,-28.575432,1.0,6.15e-06,1.0
0.060058600000000004,1.0,2.7069099999999998e-08,1.0,-27.78444,1.0,6.15e-06,1.0
0.0596008,1.0,2.6870749999999996e-08,1.0,-26.72316,1.0,6.05e-06,1.0
0.0592346,1.0,2.679445e-08,1.0,-26.305668000000004,1.0,5.94e-06,1.0
0.058868399999999994,1.0,2.6168799999999997e-08,1.0,-27.4878,1.0,5.97e-06,1.0
0.0584717,1.0,2.513125e-08,1.0,-28.861092000000003,1.0,5.79e-06,1.0
0.058044399999999996,1.0,2.430265e-08,1.0,-30.9375,1.0,5.56e-06,1.0
0.0576172,1.0,2.3585499999999996e-08,1.0,-32.728284,1.0,5.62e-06,1.0
0.05722050000000001,1.0,2.3573300000000002e-08,1.0,-34.101576,1.0,5.57e-06,1.0
0.0568237,1.0,2.402495e-08,1.0,-34.321284000000006,1.0,5.2e-06,1.0
0.0563965,1.0,2.4623099999999997e-08,1.0,-31.596696,1.0,5.21e-06,1.0
0.0559998,1.0,2.552795e-08,1.0,-28.070063999999995,1.0,5.11e-06,1.0
0.0556335,1.0,2.552795e-08,1.0,-23.723892,1.0,4.94e-06,1.0
0.055175800000000004,1.0,2.545165e-08,1.0,-20.212632,1.0,4.77e-06,1.0
0.0547791,1.0,2.5115950000000002e-08,1.0,-18.614124,1.0,4.76e-06,1.0
0.054443399999999996,1.0,2.50702e-08,1.0,-17.51112,1.0,4.6e-06,1.0
0.0540466,1.0,2.463075e-08,1.0,-17.201304,1.0,4.52e-06,1.0
0.0536499,1.0,2.4272150000000002e-08,1.0,-17.37378,1.0,4.36e-06,1.0
0.053283699999999996,1.0,2.3884599999999997e-08,1.0,-18.261468,1.0,4.22e-06,1.0
0.0528564,1.0,2.3658749999999997e-08,1.0,-18.354852,1.0,4.13e-06,1.0
0.05242919999999999,1.0,2.3796099999999996e-08,1.0,-18.842651999999998,1.0,4.25e-06,1.0
0.0519409,1.0,2.3970049999999998e-08,1.0,-19.358999999999998,1.0,4.01e-06,1.0
0.0516663,1.0,2.40158e-08,1.0,-18.752580000000002,1.0,3.98e-06,1.0
0.0512695,1.0,2.4003599999999996e-08,1.0,-18.174672000000005,1.0,3.77e-06,1.0
0.050811800000000004,1.0,2.38388e-08,1.0,-16.426764,1.0,3.6e-06,1.0
0.050354,1.0,2.3075849999999996e-08,1.0,-14.242680000000002,1.0,3.61e-06,1.0
0.049987800000000006,1.0,2.2215249999999998e-08,1.0,-14.620608,1.0,3.5e-06,1.0
0.0494934,1.0,2.1188349999999997e-08,1.0,-16.495956,1.0,3.44e-06,1.0
0.0490936,1.0,2.00882e-08,1.0,-19.910519999999998,1.0,3.27e-06,1.0
0.0486816,1.0,1.97174e-08,1.0,-23.142708,1.0,3.28e-06,1.0
0.048278800000000004,1.0,1.9194049999999996e-08,1.0,-27.081288,1.0,3.11e-06,1.0
0.0478943,1.0,1.9694499999999998e-08,1.0,-30.465072,1.0,3.16e-06,1.0
0.047467,1.0,1.991425e-08,1.0,-32.980968,1.0,3.1e-06,1.0
0.047076400000000004,1.0,2.01584e-08,1.0,-32.585436,1.0,2.97e-06,1.0
0.0466583,1.0,2.0341499999999997e-08,1.0,-31.55274,1.0,2.9e-06,1.0
0.046273800000000004,1.0,2.0352149999999997e-08,1.0,-29.399399999999996,1.0,2.91e-06,1.0
0.0458496,1.0,2.02606e-08,1.0,-28.11402,1.0,2.66e-06,1.0
0.045437599999999995,1.0,2.0315549999999997e-08,1.0,-26.115588000000002,1.0,2.72e-06,1.0
0.045043900000000005,1.0,1.9841e-08,1.0,-25.75854,1.0,2.63e-06,1.0
0.044635,1.0,1.966555e-08,1.0,-25.189452,1.0,2.55e-06,1.0
0.04423219999999999,1.0,1.9831849999999997e-08,1.0,-25.058699999999998,1.0,2.62e-06,1.0
0.0438232,1.0,2.0552049999999997e-08,1.0,-24.488532,1.0,2.6e-06,1.0
0.0434387,1.0,2.0965599999999996e-08,1.0,-23.284439999999996,1.0,2.49e-06,1.0
0.0430481,1.0,2.18109e-08,1.0,-20.836655999999998,1.0,2.39e-06,1.0
0.0426392,1.0,2.1855149999999998e-08,1.0,-18.079092,1.0,2.4e-06,1.0
0.042221100000000004,1.0,2.186125e-08,1.0,-16.873883999999997,1.0,2.32e-06,1.0
0.0418396,1.0,2.1424849999999997e-08,1.0,-15.766488,1.0,2.26e-06,1.0
0.0414093,1.0,2.08252e-08,1.0,-16.109244,1.0,2.23e-06,1.0
0.0410217,1.0,1.9635e-08,1.0,-16.680528,1.0,2.19e-06,1.0
0.0406281,1.0,1.877595e-08,1.0,-17.9253,1.0,2.14e-06,1.0
0.040206900000000004,1.0,1.83502e-08,1.0,-19.689695999999998,1.0,2.11e-06,1.0
0.0398285,1.0,1.868285e-08,1.0,-22.575816000000003,1.0,2.1e-06,1.0
0.039447,1.0,1.8812549999999997e-08,1.0,-26.850600000000004,1.0,2.06e-06,1.0
0.0390289,1.0,1.877745e-08,1.0,-33.508296,1.0,1.88e-06,1.0
0.0386047,1.0,1.8768299999999996e-08,1.0,-39.66048,1.0,1.89e-06,1.0
0.0381805,1.0,1.8652349999999996e-08,1.0,-43.582679999999996,1.0,1.85e-06,1.0
0.0378052,1.0,1.873015e-08,1.0,-43.59383999999999,1.0,1.88e-06,1.0
0.037417599999999995,1.0,1.8525699999999997e-08,1.0,-41.539320000000004,1.0,1.84e-06,1.0
0.0370087,1.0,1.81427e-08,1.0,-39.73752,1.0,1.7e-06,1.0
0.036614999999999995,1.0,1.8078599999999998e-08,1.0,-37.65024,1.0,1.62e-06,1.0
0.036224400000000004,1.0,1.813965e-08,1.0,-35.2881,1.0,1.69e-06,1.0
0.035806300000000006,1.0,1.7900099999999997e-08,1.0,-32.431644000000006,1.0,1.55e-06,1.0
0.0353973,1.0,1.809845e-08,1.0,-28.245851999999996,1.0,1.42e-06,1.0
0.0350037,1.0,1.933745e-08,1.0,-22.634027999999997,1.0,1.5e-06,1.0
0.0346008,1.0,2.06787e-08,1.0,-18.135144000000004,1.0,1.32e-06,1.0
0.0342041,1.0,2.1760549999999998e-08,1.0,-14.861195999999998,1.0,1.4e-06,1.0
0.033789099999999996,1.0,2.2419749999999998e-08,1.0,-13.920768,1.0,1.25e-06,1.0
0.0333954,1.0,2.2442650000000002e-08,1.0,-12.573863999999999,1.0,1.27e-06,1.0
0.0330139,1.0,2.2445699999999998e-08,1.0,-12.655152000000001,1.0,1.21e-06,1.0
0.0326019,1.0,2.1757499999999998e-08,1.0,-12.847427999999999,1.0,1e-06,1.0
0.032208299999999995,1.0,2.091825e-08,1.0,-13.208867999999999,1.0,1.12e-06,1.0
0.0318207,1.0,2.00226e-08,1.0,-15.032592,1.0,9.759999999999998e-07,1.0
0.0314056,1.0,1.9436649999999998e-08,1.0,-18.301032,1.0,9.05e-07,1.0
0.031012,1.0,1.8075549999999998e-08,1.0,-24.300648000000002,1.0,8.31e-07,1.0
0.030575599999999998,1.0,1.686705e-08,1.0,-29.816891999999996,1.0,6.520000000000001e-07,1.0
0.030188,1.0,1.591035e-08,1.0,-34.090559999999996,1.0,7.03e-07,1.0
0.0297913,1.0,1.55365e-08,1.0,-35.815428000000004,1.0,5.45e-07,1.0
0.029388400000000002,1.0,1.5248099999999997e-08,1.0,-37.122840000000004,1.0,4.85e-07,1.0
0.028982499999999998,1.0,1.5019249999999997e-08,1.0,-40.06728,1.0,4e-07,1.0
0.028570599999999995,1.0,1.48239e-08,1.0,-41.15483999999999,1.0,3.65e-07,1.0
0.028183,1.0,1.445925e-08,1.0,-40.92408,1.0,2.4899999999999997e-07,1.0
0.027822900000000005,1.0,1.44577e-08,1.0,-41.19876,1.0,2.33e-07,1.0
0.0274139,1.0,1.44638e-08,1.0,-40.133160000000004,1.0,1.85e-07,1.0
0.0270142,1.0,1.4666749999999998e-08,1.0,-37.11168,1.0,-6.530000000000001e-08,1.0
0.026599099999999997,1.0,1.5043649999999997e-08,1.0,-30.520008,1.0,-3.63e-08,1.0
0.026211500000000002,1.0,1.555025e-08,1.0,-22.04298,1.0,-1.58e-07,1.0
0.025814799999999995,1.0,1.7599499999999998e-08,1.0,-13.380264,1.0,-1.8800000000000002e-07,1.0
0.0253998,1.0,2.0103450000000003e-08,1.0,-8.027712,1.0,-3.79e-07,1.0
0.025003099999999997,1.0,2.272645e-08,1.0,-4.4901,1.0,-4.66e-07,1.0
0.024606299999999998,1.0,2.452545e-08,1.0,-2.9102796,1.0,-5.48e-07,1.0
0.024212599999999997,1.0,2.5375349999999996e-08,1.0,-1.671678,1.0,-6.02e-07,1.0
0.0238129,1.0,2.377775e-08,1.0,-1.12599,1.0,-7.05e-07,1.0
0.023394799999999997,1.0,2.0085150000000002e-08,1.0,-0.5299812,1.0,-7.6e-07,1.0
0.022991900000000003,1.0,1.715545e-08,1.0,-0.5378904,1.0,-1.02e-06,1.0
0.022567700000000003,1.0,1.55777e-08,1.0,-1.3349484,1.0,-1.17e-06,1.0
0.0221588,1.0,1.47293e-08,1.0,-5.626116000000001,1.0,-1.26e-06,1.0
0.0217834,1.0,1.4501949999999999e-08,1.0,-12.579336000000001,1.0,-1.27e-06,1.0
0.0213898,1.0,1.4251699999999998e-08,1.0,-18.765756000000003,1.0,-1.47e-06,1.0
0.020996099999999997,1.0,1.42746e-08,1.0,-24.024888,1.0,-1.6e-06,1.0
0.020596299999999998,1.0,1.4064049999999999e-08,1.0,-30.530988,1.0,-1.56e-06,1.0
0.0201965,1.0,1.36734e-08,1.0,-34.870608000000004,1.0,-1.8e-06,1.0
0.0198273,1.0,1.3035599999999998e-08,1.0,-35.95824,1.0,-1.88e-06,1.0
0.0194489,1.0,1.2550349999999999e-08,1.0,-35.94726,1.0,-2e-06,1.0
0.0190399,1.0,1.2164299999999999e-08,1.0,-36.793079999999996,1.0,-2.12e-06,1.0
0.0186401,1.0,1.17096e-08,1.0,-38.34216000000001,1.0,-2.13e-06,1.0
0.018255599999999997,1.0,1.219175e-08,1.0,-37.73808,1.0,-2.17e-06,1.0
0.017880200000000002,1.0,1.34079e-08,1.0,-34.562988000000004,1.0,-2.3e-06,1.0
0.017483500000000003,1.0,1.457365e-08,1.0,-29.014883999999995,1.0,-2.38e-06,1.0
0.0170776,1.0,1.5200799999999997e-08,1.0,-24.149051999999998,1.0,-2.5e-06,1.0
0.0166901,1.0,1.4997849999999998e-08,1.0,-20.026980000000002,1.0,-2.47e-06,1.0
0.016308600000000003,1.0,1.4349349999999999e-08,1.0,-16.904664,1.0,-2.64e-06,1.0
0.015918,1.0,1.3729849999999998e-08,1.0,-15.668712,1.0,-2.7e-06,1.0
0.015512100000000001,1.0,1.2785349999999999e-08,1.0,-15.481943999999999,1.0,-2.79e-06,1.0
0.0151398,1.0,1.1740100000000002e-08,1.0,-21.238775999999998,1.0,-2.75e-06,1.0
0.0147705,1.0,1.1125200000000001e-08,1.0,-29.3445,1.0,-2.79e-06,1.0
0.014364600000000002,1.0,1.1125200000000001e-08,1.0,-37.72692,1.0,-2.83e-06,1.0
0.0139648,1.0,1.129455e-08,1.0,-44.67023999999999,1.0,-2.82e-06,1.0
0.0135803,1.0,1.1550899999999998e-08,1.0,-47.04336000000001,1.0,-2.85e-06,1.0
0.0131622,1.0,1.1962899999999997e-08,1.0,-43.24212,1.0,-2.89e-06,1.0
0.0127655,1.0,1.2156700000000001e-08,1.0,-35.59572,1.0,-2.84e-06,1.0
0.012377899999999999,1.0,1.2567149999999999e-08,1.0,-27.048347999999997,1.0,-2.86e-06,1.0
0.0119995,1.0,1.3034049999999997e-08,1.0,-17.998883999999997,1.0,-2.85e-06,1.0
0.0115936,1.0,1.3507099999999999e-08,1.0,-14.138316,1.0,-2.84e-06,1.0
0.0111847,1.0,1.25839e-08,1.0,-12.803472000000003,1.0,-2.91e-06,1.0
0.010791,1.0,1.154325e-08,1.0,-14.429447999999999,1.0,-2.89e-06,1.0
0.0103851,1.0,1.1108400000000001e-08,1.0,-16.799183999999997,1.0,-2.98e-06,1.0
0.00999451,1.0,1.10962e-08,1.0,-19.976436,1.0,-2.89e-06,1.0
0.00958252,1.0,1.155395e-08,1.0,-25.49376,1.0,-3.01e-06,1.0
0.00917664,1.0,1.21094e-08,1.0,-31.332996,1.0,-3.02e-06,1.0
0.00874939,1.0,1.3014199999999999e-08,1.0,-35.090315999999994,1.0,-3.24e-06,1.0
0.00835876,1.0,1.3500999999999998e-08,1.0,-38.26548,1.0,-3.28e-06,1.0
0.00796204,1.0,1.3273599999999997e-08,1.0,-38.55096,1.0,-3.36e-06,1.0
0.0075592,1.0,1.2605299999999999e-08,1.0,-37.70496,1.0,-3.51e-06,1.0
0.00715637,1.0,1.1761450000000001e-08,1.0,-37.37556,1.0,-3.58e-06,1.0
0.00673828,1.0,1.1389149999999998e-08,1.0,-39.28716,1.0,-3.56e-06,1.0
0.00631409,1.0,1.0743700000000002e-08,1.0,-42.61608,1.0,-3.84e-06,1.0
0.00591736,1.0,1.0897849999999998e-08,1.0,-43.582679999999996,1.0,-4.05e-06,1.0
0.00550232,1.0,1.1174e-08,1.0,-41.90184,1.0,-4.29e-06,1.0
0.00509949,1.0,1.16104e-08,1.0,-40.221000000000004,1.0,-4.41e-06,1.0
0.00471191,1.0,1.1816399999999998e-08,1.0,-35.255124,1.0,-4.55e-06,1.0
0.00428467,1.0,1.2237549999999997e-08,1.0,-29.794932,1.0,-4.82e-06,1.0
0.00388184,1.0,1.223145e-08,1.0,-26.547372000000003,1.0,-4.96e-06,1.0
0.00348206,1.0,1.26175e-08,1.0,-27.026351999999996,1.0,-5.11e-06,1.0
0.00308228,1.0,1.30661e-08,1.0,-28.608407999999997,1.0,-5.33e-06,1.0
0.00267029,1.0,1.26831e-08,1.0,-30.904524,1.0,-5.36e-06,1.0
0.00228577,1.0,1.2184149999999998e-08,1.0,-33.45336,1.0,-5.73e-06,1.0
0.00187683,1.0,1.1746199999999999e-08,1.0,-37.38636,1.0,-5.87e-06,1.0
0.00148926,1.0,1.18088e-08,1.0,-42.681960000000004,1.0,-5.94e-06,1.0
0.00108948,1.0,1.225435e-08,1.0,-45.92267999999999,1.0,-6.1e-06,1.0
0.000689697,1.0,1.307525e-08,1.0,-44.97804,1.0,-6.14e-06,1.0
0.00027771,1.0,1.3316349999999999e-08,1.0,-39.39696,1.0,-6.38e-06,1.0
-9.46e-05,1.0,1.3134749999999998e-08,1.0,-33.936768,1.0,-6.5e-06,1.0
-0.0005065919999999999,1.0,1.26587e-08,1.0,-27.938232,1.0,-6.63e-06,1.0
-0.000894165,1.0,1.17569e-08,1.0,-24.127092,1.0,-6.74e-06,1.0
-0.00135193,1.0,1.0336299999999999e-08,1.0,-22.76478,1.0,-6.89e-06,1.0
-0.00173035,1.0,8.660899999999998e-09,1.0,-26.085924,1.0,-7.09e-06,1.0
-0.00214539,1.0,7.7942e-09,1.0,-33.958727999999994,1.0,-7.1e-06,1.0
-0.00255432,1.0,7.264699999999999e-09,1.0,-38.99052,1.0,-7.2e-06,1.0
-0.00295105,1.0,7.589699999999999e-09,1.0,-39.77064,1.0,-7.4e-06,1.0
-0.00331726,1.0,8.271799999999999e-09,1.0,-39.68244,1.0,-7.33e-06,1.0
-0.00374146,1.0,9.34905e-09,1.0,-37.0458,1.0,-7.46e-06,1.0
-0.00412598,1.0,1.0847449999999999e-08,1.0,-30.60792,1.0,-7.46e-06,1.0
-0.00454407,1.0,1.2068199999999999e-08,1.0,-22.790052,1.0,-7.69e-06,1.0
-0.00492859,1.0,1.217805e-08,1.0,-16.922232,1.0,-7.68e-06,1.0
-0.00534668,1.0,1.1073299999999999e-08,1.0,-11.772936000000001,1.0,-7.9e-06,1.0
-0.00577087,1.0,9.5291e-09,1.0,-7.147692000000001,1.0,-8e-06,1.0
-0.0061676000000000005,1.0,8.155800000000001e-09,1.0,-7.689348,1.0,-8.15e-06,1.0
-0.00655823,1.0,7.3593e-09,1.0,-18.242784,1.0,-8.3e-06,1.0
-0.00696106,1.0,7.5363e-09,1.0,-33.46434,1.0,-8.44e-06,1.0
-0.00735474,1.0,8.389299999999998e-09,1.0,-47.3292,1.0,-8.57e-06,1.0
-0.00777283,1.0,9.495549999999998e-09,1.0,-54.173519999999996,1.0,-8.75e-06,1.0
-0.00813904,1.0,1.0261549999999998e-08,1.0,-52.72344,1.0,-9.01e-06,1.0
-0.00854492,1.0,1.098785e-08,1.0,-45.06588,1.0,-9.11e-06,1.0
-0.00894775,1.0,1.1473100000000002e-08,1.0,-33.936768,1.0,-9.33e-06,1.0
-0.00934143,1.0,1.0481249999999998e-08,1.0,-23.37012,1.0,-9.39e-06,1.0
-0.00976257,1.0,9.2697e-09,1.0,-15.082019999999996,1.0,-9.59e-06,1.0
-0.010156299999999998,1.0,7.531749999999999e-09,1.0,-10.487556,1.0,-9.72e-06,1.0
-0.010553,1.0,5.7678e-09,1.0,-8.91432,1.0,-9.86e-06,1.0
-0.010949700000000001,1.0,4.72412e-09,1.0,-17.449595999999996,1.0,-1e-05,1.0
-0.0113495,1.0,4.26178e-09,1.0,-30.91554,1.0,-1.0300000000000001e-05,1.0
-0.011734,1.0,4.496764999999999e-09,1.0,-39.86928,1.0,-1.04e-05,1.0
-0.0121277,1.0,4.8736549999999995e-09,1.0,-39.74867999999999,1.0,-1.05e-05,1.0
-0.0125214,1.0,5.751049999999999e-09,1.0,-34.738776,1.0,-1.0800000000000002e-05,1.0
-0.012902799999999999,1.0,5.5663999999999985e-09,1.0,-27.652572,1.0,-1.0800000000000002e-05,1.0
-0.0133148,1.0,5.09185e-09,1.0,-19.71936,1.0,-1.11e-05,1.0
-0.0137024,1.0,4.49219e-09,1.0,-11.36646,1.0,-1.11e-05,1.0
-0.014093000000000001,1.0,3.938294999999999e-09,1.0,-3.7298519999999997,1.0,-1.12e-05,1.0
-0.014502000000000001,1.0,3.28064e-09,1.0,1.1525760000000003,1.0,-1.12e-05,1.0
-0.014892600000000002,1.0,2.622985e-09,1.0,-2.3840316,1.0,-1.1400000000000001e-05,1.0
-0.0152893,1.0,2.464295e-09,1.0,-21.011364,1.0,-1.15e-05,1.0
-0.015686000000000002,1.0,3.562925e-09,1.0,-39.517920000000004,1.0,-1.17e-05,1.0
-0.0160858,1.0,5.277999999999999e-09,1.0,-46.571039999999996,1.0,-1.17e-05,1.0
-0.0164581,1.0,7.06175e-09,1.0,-45.1098,1.0,-1.18e-05,1.0
-0.0168762,1.0,8.576950000000002e-09,1.0,-39.605760000000004,1.0,-1.1900000000000001e-05,1.0
-0.017266800000000002,1.0,9.922799999999998e-09,1.0,-30.223404,1.0,-1.21e-05,1.0
-0.0176727,1.0,1.03256e-08,1.0,-20.698236,1.0,-1.21e-05,1.0
-0.0180725,1.0,9.7122e-09,1.0,-12.632076000000001,1.0,-1.21e-05,1.0
-0.018453999999999998,1.0,8.00325e-09,1.0,-7.76844,1.0,-1.22e-05,1.0
-0.018869,1.0,5.8151e-09,1.0,-10.313964,1.0,-1.23e-05,1.0
-0.0192627,1.0,4.078675e-09,1.0,-19.752336000000003,1.0,-1.25e-05,1.0
-0.0196808,1.0,3.4317e-09,1.0,-33.607187999999994,1.0,-1.24e-05,1.0
-0.020053099999999997,1.0,3.408815e-09,1.0,-45.39564,1.0,-1.25e-05,1.0
-0.0204681,1.0,4.63867e-09,1.0,-50.95476000000001,1.0,-1.28e-05,1.0
-0.0208771,1.0,6.251550000000001e-09,1.0,-50.00976,1.0,-1.29e-05,1.0
-0.0212738,1.0,7.30745e-09,1.0,-46.95552000000001,1.0,-1.29e-05,1.0
-0.021700999999999998,1.0,7.76215e-09,1.0,-42.81372,1.0,-1.3000000000000001e-05,1.0
-0.0220764,1.0,7.083149999999999e-09,1.0,-37.013040000000004,1.0,-1.3000000000000001e-05,1.0
-0.0225189,1.0,5.334449999999999e-09,1.0,-31.431887999999997,1.0,-1.3300000000000001e-05,1.0
-0.022912599999999998,1.0,3.4362799999999996e-09,1.0,-24.511608,1.0,-1.34e-05,1.0
-0.023321500000000002,1.0,2.4749749999999997e-09,1.0,-21.003660000000004,1.0,-1.3699999999999998e-05,1.0
-0.0237213,1.0,2.131655e-09,1.0,-25.399296,1.0,-1.3800000000000002e-05,1.0
-0.0241516,1.0,2.70996e-09,1.0,-29.959703999999995,1.0,-1.4099999999999999e-05,1.0
-0.0245453,1.0,3.68347e-09,1.0,-34.255368,1.0,-1.42e-05,1.0
-0.0249634,1.0,4.707335e-09,1.0,-37.8918,1.0,-1.4499999999999998e-05,1.0
-0.025375400000000003,1.0,5.447399999999999e-09,1.0,-40.62743999999999,1.0,-1.4800000000000002e-05,1.0
-0.025778199999999998,1.0,5.6473e-09,1.0,-38.33136,1.0,-1.49e-05,1.0
-0.026187099999999998,1.0,5.393999999999999e-09,1.0,-30.036636000000005,1.0,-1.53e-05,1.0
-0.026577800000000002,1.0,4.97589e-09,1.0,-20.230235999999998,1.0,-1.5399999999999998e-05,1.0
-0.0270111,1.0,4.0222149999999994e-09,1.0,-10.223892,1.0,-1.58e-05,1.0
-0.0274017,1.0,3.20282e-09,1.0,1.2080556,1.0,-1.6e-05,1.0
-0.0277954,1.0,2.34833e-09,1.0,6.978528,1.0,-1.62e-05,1.0
-0.028179900000000004,1.0,1.85089e-09,1.0,5.38002,1.0,-1.64e-05,1.0
-0.0285645,1.0,1.249695e-09,1.0,-4.59558,1.0,-1.67e-05,1.0
-0.0289642,1.0,1.5121449999999998e-09,1.0,-19.132704,1.0,-1.6800000000000002e-05,1.0
-0.0293365,1.0,2.124025e-09,1.0,-33.222672,1.0,-1.7100000000000002e-05,1.0
-0.029742400000000002,1.0,3.41797e-09,1.0,-39.01248,1.0,-1.73e-05,1.0
-0.030145299999999996,1.0,4.574585e-09,1.0,-39.84732,1.0,-1.75e-05,1.0
-0.0305267,1.0,5.689999999999999e-09,1.0,-39.63852,1.0,-1.76e-05,1.0
-0.030929599999999998,1.0,5.6075999999999995e-09,1.0,-37.88099999999999,1.0,-1.77e-05,1.0
-0.0312958,1.0,4.9819950000000004e-09,1.0,-34.07958,1.0,-1.77e-05,1.0
-0.031689499999999995,1.0,3.72772e-09,1.0,-32.662368,1.0,-1.7899999999999998e-05,1.0
-0.032058699999999996,1.0,2.3162849999999997e-09,1.0,-35.0244,1.0,-1.7899999999999998e-05,1.0
-0.032479900000000006,1.0,1.226805e-09,1.0,-44.14319999999999,1.0,-1.82e-05,1.0
-0.0328613,1.0,1.22986e-09,1.0,-55.55772,1.0,-1.8100000000000003e-05,1.0
-0.033252,1.0,2.02942e-09,1.0,-63.12744,1.0,-1.83e-05,1.0
-0.033639499999999996,1.0,2.786255e-09,1.0,-62.457119999999996,1.0,-1.84e-05,1.0
-0.0340393,1.0,3.5263049999999996e-09,1.0,-55.1952,1.0,-1.85e-05,1.0
-0.034433,1.0,3.54767e-09,1.0,-42.264359999999996,1.0,-1.86e-05,1.0
-0.0348145,1.0,2.79846e-09,1.0,-23.873292,1.0,-1.86e-05,1.0
-0.0352173,1.0,2.55432e-09,1.0,-9.76356,1.0,-1.88e-05,1.0
-0.0356049,1.0,1.89209e-09,1.0,-0.5367924000000001,1.0,-1.88e-05,1.0
-0.0359985,1.0,1.2786850000000001e-09,1.0,-2.6345232,1.0,-1.9e-05,1.0
-0.036407499999999995,1.0,1.0299700000000001e-09,1.0,-13.558212000000001,1.0,-1.91e-05,1.0
-0.0367859,1.0,1.124575e-09,1.0,-31.234139999999996,1.0,-1.92e-05,1.0
-0.03719480000000001,1.0,1.7120349999999999e-09,1.0,-48.25188,1.0,-1.93e-05,1.0
-0.037616000000000004,1.0,3.4240699999999997e-09,1.0,-57.46932,1.0,-1.95e-05,1.0
-0.0380005,1.0,5.250550000000001e-09,1.0,-56.94228,1.0,-1.9600000000000002e-05,1.0
-0.0384033,1.0,6.98855e-09,1.0,-53.08596,1.0,-1.98e-05,1.0
-0.0388031,1.0,7.363899999999999e-09,1.0,-46.93356000000001,1.0,-1.99e-05,1.0
-0.0392029,1.0,7.205199999999999e-09,1.0,-38.22156,1.0,-2e-05,1.0
-0.0395782,1.0,6.309499999999999e-09,1.0,-29.267568,1.0,-2.02e-05,1.0
-0.040008499999999995,1.0,5.072e-09,1.0,-21.688128,1.0,-2.0300000000000002e-05,1.0
-0.0403839,1.0,3.2959e-09,1.0,-19.760004000000002,1.0,-2.0600000000000003e-05,1.0
-0.040799,1.0,1.4694199999999999e-09,1.0,-23.166863999999997,1.0,-2.08e-05,1.0
-0.041180400000000006,1.0,3.9215099999999994e-10,1.0,-38.88072,1.0,-2.08e-05,1.0
-0.0415894,1.0,-4.0435799999999997e-10,1.0,-60.64452,1.0,-2.1e-05,1.0
-0.04198,1.0,-6.2256e-10,1.0,-71.61984,1.0,-2.11e-05,1.0
-0.0423615,1.0,-1.071165e-09,1.0,-66.35736,1.0,-2.14e-05,1.0
-0.042752099999999994,1.0,-1.2619000000000002e-09,1.0,-48.47184,1.0,-2.14e-05,1.0
-0.043179300000000004,1.0,-1.3442999999999998e-09,1.0,-18.052739999999996,1.0,-2.1600000000000003e-05,1.0
-0.043576,1.0,-8.773799999999999e-10,1.0,16.123535999999998,1.0,-2.17e-05,1.0
-0.0439789,1.0,-9.3994e-10,1.0,41.52816,1.0,-2.18e-05,1.0
-0.0443787,1.0,-1.600645e-09,1.0,52.55856,1.0,-2.2e-05,1.0
-0.044778399999999996,1.0,-2.537535e-09,1.0,39.70476000000001,1.0,-2.2100000000000002e-05,1.0
-0.0451538,1.0,-3.12958e-09,1.0,-0.5399784,1.0,-2.24e-05,1.0
-0.045575,1.0,-1.9775399999999998e-09,1.0,-44.75844,1.0,-2.25e-05,1.0
-0.0459473,1.0,-2.2888199999999998e-10,1.0,-65.88504,1.0,-2.27e-05,1.0
-0.04635619999999999,1.0,1.98822e-09,1.0,-66.85164,1.0,-2.2899999999999998e-05,1.0
-0.0467438,1.0,4.165649999999999e-09,1.0,-55.81043999999999,1.0,-2.3e-05,1.0
-0.047149699999999996,1.0,5.462649999999999e-09,1.0,-43.341120000000004,1.0,-2.3100000000000002e-05,1.0
-0.0475586,1.0,5.642699999999999e-09,1.0,-28.970964,1.0,-2.3199999999999998e-05,1.0
-0.0479401,1.0,5.192549999999999e-09,1.0,-13.891103999999999,1.0,-2.33e-05,1.0
-0.0483582,1.0,3.868105e-09,1.0,2.7312012,1.0,-2.35e-05,1.0
-0.048764,1.0,2.1285999999999995e-09,1.0,12.773808,1.0,-2.36e-05,1.0
-0.0491699,1.0,-4.4249999999999996e-11,1.0,16.829964,1.0,-2.37e-05,1.0
-0.0495514,1.0,-2.404785e-09,1.0,-4.1209560000000005,1.0,-2.3800000000000003e-05,1.0
-0.0499573,1.0,-3.030395e-09,1.0,-44.86824,1.0,-2.4e-05,1.0
-0.0503235,1.0,-2.326965e-09,1.0,-66.0168,1.0,-2.42e-05,1.0
-0.050750699999999996,1.0,-1.67694e-09,1.0,-66.20364000000001,1.0,-2.4299999999999998e-05,1.0
-0.051177999999999994,1.0,-1.3015749999999998e-09,1.0,-54.9756,1.0,-2.45e-05,1.0
-0.051574699999999994,1.0,-1.0787949999999999e-09,1.0,-38.33136,1.0,-2.45e-05,1.0
-0.05197140000000001,1.0,-1.3687149999999999e-09,1.0,-15.160031999999998,1.0,-2.45e-05,1.0
-0.052368200000000004,1.0,-2.19116e-09,1.0,-0.5334947999999999,1.0,-2.48e-05,1.0
-0.0527649,1.0,-3.723145e-09,1.0,-9.66906,1.0,-2.49e-05,1.0
-0.053161599999999996,1.0,-4.518125e-09,1.0,-66.34656,1.0,-2.51e-05,1.0
-0.0535889,1.0,-3.826905e-09,1.0,-131.66028,1.0,-2.5300000000000002e-05,1.0
-0.05395509999999999,1.0,-2.383425e-09,1.0,-161.88371999999998,1.0,-2.54e-05,1.0
-0.054351800000000006,1.0,-1.4953599999999999e-09,1.0,-168.50844,1.0,-2.55e-05,1.0
-0.0547791,1.0,-1.0848999999999998e-09,1.0,-160.16976,1.0,-2.56e-05,1.0
-0.055175800000000004,1.0,-1.3320899999999999e-09,1.0,-144.57996,1.0,-2.58e-05,1.0
-0.055541999999999994,1.0,-1.6876199999999998e-09,1.0,-127.39751999999999,1.0,-2.58e-05,1.0
-0.055969200000000004,1.0,-2.330015e-09,1.0,-108.21528,1.0,-2.59e-05,1.0
-0.0563049,1.0,-2.7847299999999998e-09,1.0,-85.08924,1.0,-2.6000000000000002e-05,1.0
-0.05676269999999999,1.0,-3.28064e-09,1.0,-66.77496,1.0,-2.61e-05,1.0
-0.057159400000000006,1.0,-3.52478e-09,1.0,-61.688159999999996,1.0,-2.6300000000000002e-05,1.0
-0.0575867,1.0,-3.65753e-09,1.0,-80.71668,1.0,-2.6300000000000002e-05,1.0
-0.0579529,1.0,-3.0120849999999997e-09,1.0,-104.42519999999999,1.0,-2.6600000000000003e-05,1.0
-0.0583496,1.0,-1.7318749999999999e-09,1.0,-112.32431999999999,1.0,-2.6700000000000002e-05,1.0
-0.0587158,1.0,2.4108900000000003e-10,1.0,-99.14076,1.0,-2.68e-05,1.0
-0.0591125,1.0,1.5792849999999999e-09,1.0,-83.28744,1.0,-2.6899999999999997e-05,1.0
-0.0594788,1.0,2.88849e-09,1.0,-63.36900000000001,1.0,-2.7000000000000002e-05,1.0
-0.05996699999999999,1.0,3.326415e-09,1.0,-42.835679999999996,1.0,-2.72e-05,1.0
-0.060302699999999994,1.0,2.64435e-09,1.0,-22.795524,1.0,-2.72e-05,1.0
-0.0607605,1.0,1.0391249999999998e-09,1.0,-2.7125244,1.0,-2.7300000000000003e-05,1.0
-0.0611572,1.0,-1.09253e-09,1.0,10.902816,1.0,-2.7300000000000003e-05,1.0
-0.061554,1.0,-3.512575e-09,1.0,12.63978,1.0,-2.75e-05,1.0
-0.0619202,1.0,-5.39855e-09,1.0,-42.60492,1.0,-2.7600000000000003e-05,1.0
-0.062347400000000004,1.0,-4.94232e-09,1.0,-145.81044000000003,1.0,-2.8000000000000003e-05,1.0
-0.0627136,1.0,-3.0426049999999998e-09,1.0,-164.23451999999997,1.0,-2.8100000000000002e-05,1.0
-0.0630798,1.0,-1.32141e-09,1.0,-163.026,1.0,-2.8300000000000003e-05,1.0
-0.0635071,1.0,-1.1291499999999999e-10,1.0,-146.86524000000003,1.0,-2.8300000000000003e-05,1.0
-0.0639038,1.0,-3.5858150000000003e-10,1.0,-120.36635999999999,1.0,-2.8300000000000003e-05,1.0
-0.0643311,1.0,-1.7807000000000003e-09,1.0,-90.53819999999999,1.0,-2.8600000000000004e-05,1.0
-0.06469730000000001,1.0,-3.0776999999999994e-09,1.0,-51.82236,1.0,-2.8499999999999998e-05,1.0
-0.06518550000000001,1.0,-4.322815e-09,1.0,-5.993028000000001,1.0,-2.8699999999999996e-05,1.0
-0.06555180000000001,1.0,-5.43825e-09,1.0,33.629148,1.0,-2.8800000000000002e-05,1.0
-0.06591799999999999,1.0,-6.96105e-09,1.0,105.6996,1.0,-2.8499999999999998e-05,1.0
-0.0663757,1.0,-7.2418e-09,1.0,-307.36440000000005,1.0,-2.94e-05,1.0
-0.06671139999999999,1.0,-6.11725e-09,1.0,-190.92024,1.0,-2.94e-05,1.0
-0.0671387,1.0,-3.964235e-09,1.0,-129.73752,1.0,-2.95e-05,1.0
-0.06750489999999999,1.0,-1.7456049999999998e-09,1.0,-97.25112,1.0,-2.95e-05,1.0
-0.06793210000000001,1.0,-1.8768299999999997e-10,1.0,-74.27844000000002,1.0,-2.9600000000000005e-05,1.0
-0.0682983,1.0,1.68e-11,1.0,-50.438159999999996,1.0,-2.97e-05,1.0
-0.06872560000000001,1.0,-4.2724599999999996e-10,1.0,-19.404036,1.0,-2.98e-05,1.0
-0.0691528,1.0,-1.708985e-09,1.0,14.878800000000002,1.0,-2.99e-05,1.0
-0.0695496,1.0,-2.383425e-09,1.0,50.98752,1.0,-2.99e-05,1.0
-0.0699158,1.0,-3.0105599999999996e-09,1.0,86.51736,1.0,-2.99e-05,1.0
-0.07028200000000001,1.0,-4.289245e-09,1.0,105.47963999999999,1.0,-2.97e-05,1.0
-0.0707092,1.0,-5.81205e-09,1.0,96.19632,1.0,-2.9999999999999997e-05,1.0
-0.0711365,1.0,-6.401050000000001e-09,1.0,-60.01848,1.0,-3.04e-05,1.0
-0.0715637,1.0,-4.522705e-09,1.0,-127.39751999999999,1.0,-3.07e-05,1.0
-0.07189939999999999,1.0,-2.69165e-09,1.0,-122.40972,1.0,-3.07e-05,1.0
-0.07226560000000001,1.0,-1.76544e-09,1.0,-108.65484000000001,1.0,-3.1e-05,1.0
-0.07266239999999999,1.0,-1.771545e-09,1.0,-92.77956,1.0,-3.1e-05,1.0
-0.0731812,1.0,-3.0593849999999998e-09,1.0,-76.6188,1.0,-3.1e-05,1.0
-0.0734558,1.0,-4.7698949999999995e-09,1.0,-67.90644,1.0,-3.11e-05,1.0
-0.0739441,1.0,-6.3400499999999994e-09,1.0,-127.38636,1.0,-3.13e-05,1.0
-0.0743408,1.0,-5.2368e-09,1.0,-237.11795999999998,1.0,-3.14e-05,1.0
-0.0747681,1.0,-3.41797e-09,1.0,-233.64612000000002,1.0,-3.15e-05,1.0
-0.0751038,1.0,-1.62506e-09,1.0,-214.49699999999999,1.0,-3.17e-05,1.0
-0.075531,1.0,-4.7299999999999994e-11,1.0,-192.65616,1.0,-3.17e-05,1.0
-0.0758972,1.0,1.2573249999999999e-09,1.0,-174.14424000000002,1.0,-3.17e-05,1.0
-0.0762939,1.0,1.208495e-09,1.0,-159.56531999999999,1.0,-3.18e-05,1.0
-0.0767212,1.0,6.5613e-10,1.0,-142.80012,1.0,-3.2e-05,1.0
-0.07714839999999999,1.0,-1.856995e-09,1.0,-113.247,1.0,-3.2e-05,1.0
-0.0775757,1.0,-4.18854e-09,1.0,-60.67764000000001,1.0,-3.2e-05,1.0
-0.0779724,1.0,-5.55265e-09,1.0,15.725844,1.0,-3.19e-05,1.0
-0.07833860000000001,1.0,-6.08825e-09,1.0,97.07508,1.0,-3.17e-05,1.0
-0.0787354,1.0,-7.00225e-09,1.0,156.79691999999997,1.0,-3.16e-05,1.0
-0.07910160000000001,1.0,-7.193e-09,1.0,-180.50544000000002,1.0,-3.229999999999999e-05,1.0
-0.0795288,1.0,-5.26885e-09,1.0,-166.27824000000004,1.0,-3.2500000000000004e-05,1.0
-0.0799255,1.0,-3.80554e-09,1.0,-143.66808,1.0,-3.2500000000000004e-05,1.0
-0.08032230000000001,1.0,-2.4749749999999997e-09,1.0,-124.17839999999998,1.0,-3.2500000000000004e-05,1.0
-0.0807495,1.0,-1.628115e-09,1.0,-97.02036,1.0,-3.26e-05,1.0
-0.0811157,1.0,-7.0343e-10,1.0,-67.9284,1.0,-3.2500000000000004e-05,1.0
-0.0815125,1.0,-9.5978e-10,1.0,-36.56268,1.0,-3.26e-05,1.0
-0.0819702,1.0,-1.88904e-09,1.0,-0.5366808,1.0,-3.28e-05,1.0
-0.0823975,1.0,-2.9418949999999996e-09,1.0,38.78172000000001,1.0,-3.27e-05,1.0
-0.0827637,1.0,-4.402159999999999e-09,1.0,97.05312,1.0,-3.26e-05,1.0
-0.0831909,1.0,-5.76935e-09,1.0,170.61768,1.0,-3.24e-05,1.0
-0.08355710000000001,1.0,-6.5628e-09,1.0,279.7668,1.0,-3.229999999999999e-05,1.0
-0.0839233,1.0,-6.390399999999999e-09,1.0,-289.41299999999995,1.0,-3.34e-05,1.0
-0.08432010000000001,1.0,-5.676249999999999e-09,1.0,-198.01764,1.0,-3.34e-05,1.0
-0.0847778,1.0,-4.804995e-09,1.0,-127.39751999999999,1.0,-3.35e-05,1.0
-0.085083,1.0,-3.15094e-09,1.0,-76.97015999999999,1.0,-3.34e-05,1.0
-0.0855408,1.0,-1.750185e-09,1.0,-45.296640000000004,1.0,-3.34e-05,1.0
-0.08590700000000001,1.0,-9.56725e-10,1.0,-23.163588,1.0,-3.34e-05,1.0
-0.0862732,1.0,-1.5228249999999999e-09,1.0,-6.565428,1.0,-3.35e-05,1.0
-0.0867004,1.0,-3.05023e-09,1.0,3.4211411999999997,1.0,-3.3600000000000004e-05,1.0
-0.08712769999999999,1.0,-5.1361e-09,1.0,-21.801275999999998,1.0,-3.37e-05,1.0
-0.0874634,1.0,-5.54655e-09,1.0,-127.38636,1.0,-3.39e-05,1.0
-0.0879517,1.0,-3.87268e-09,1.0,-154.90728000000001,1.0,-3.41e-05,1.0
-0.08831789999999999,1.0,-2.8106699999999998e-09,1.0,-146.0412,1.0,-3.41e-05,1.0
-0.0886841,1.0,-1.701355e-09,1.0,-127.38636,1.0,-3.4200000000000005e-05,1.0
-0.0890808,1.0,-9.994499999999999e-10,1.0,-100.55772,1.0,-3.4200000000000005e-05,1.0
-0.089447,1.0,-5.43215e-10,1.0,-77.44248,1.0,-3.41e-05,1.0
-0.0898743,1.0,-9.872450000000001e-10,1.0,-60.01848,1.0,-3.4200000000000005e-05,1.0
-0.09030149999999999,1.0,-2.075195e-09,1.0,-41.64912,1.0,-3.43e-05,1.0
-0.0906677,1.0,-3.66516e-09,1.0,-14.230583999999999,1.0,-3.43e-05,1.0
-0.09106449999999999,1.0,-4.87976e-09,1.0,19.498536,1.0,-3.4399999999999996e-05,1.0
-0.0914917,1.0,-6.2088e-09,1.0,36.32076,1.0,-3.4399999999999996e-05,1.0
-0.0918884,1.0,-6.602500000000001e-09,1.0,-90.51624000000001,1.0,-3.45e-05,1.0
-0.09231569999999999,1.0,-5.096449999999999e-09,1.0,-188.15184000000002,1.0,-3.48e-05,1.0
-0.0926819,1.0,-3.3752449999999995e-09,1.0,-193.68900000000002,1.0,-3.48e-05,1.0
-0.0931091,1.0,-2.279665e-09,1.0,-184.08708,1.0,-3.47e-05,1.0
-0.0935059,1.0,-2.653505e-09,1.0,-161.60904,1.0,-3.4899999999999995e-05,1.0
-0.0938721,1.0,-3.845215e-09,1.0,-121.02551999999999,1.0,-3.4899999999999995e-05,1.0
-0.0942993,1.0,-4.70581e-09,1.0,-76.8492,1.0,-3.48e-05,1.0
-0.0946655,1.0,-5.51605e-09,1.0,8.276003999999999,1.0,-3.48e-05,1.0
-0.0950928,1.0,-5.0995e-09,1.0,94.878,1.0,-3.45e-05,1.0
-0.0954285,1.0,-5.1162499999999996e-09,1.0,122.81616,1.0,-3.4399999999999996e-05,1.0
-0.0958252,1.0,-5.99975e-09,1.0,126.30996,1.0,-3.45e-05,1.0
-0.09625239999999999,1.0,-6.541450000000001e-09,1.0,36.309960000000004,1.0,-3.4899999999999995e-05,1.0
-0.09667970000000001,1.0,-5.723549999999999e-09,1.0,-83.85875999999999,1.0,-3.52e-05,1.0
-0.09704589999999999,1.0,-4.37622e-09,1.0,-98.69004,1.0,-3.52e-05,1.0
-0.0974426,1.0,-3.79181e-09,1.0,-90.51624000000001,1.0,-3.52e-05,1.0
-0.0978088,1.0,-3.7323e-09,1.0,-70.48835999999999,1.0,-3.5100000000000006e-05,1.0
-0.09826660000000001,1.0,-3.738405e-09,1.0,-35.837388,1.0,-3.52e-05,1.0
-0.09863279999999999,1.0,-4.301455e-09,1.0,-6.558840000000001,1.0,-3.52e-05,1.0
-0.098999,1.0,-5.68695e-09,1.0,18.420768000000002,1.0,-3.52e-05,1.0
-0.0994568,1.0,-6.9626e-09,1.0,89.45063999999999,1.0,-3.5e-05,1.0
-0.0999146,1.0,-6.74135e-09,1.0,-337.76352,1.0,-3.570000000000001e-05,1.0
-0.10022,1.0,-5.40925e-09,1.0,-276.49296,1.0,-3.570000000000001e-05,1.0
-0.100616,1.0,-4.05884e-09,1.0,-230.24051999999998,1.0,-3.570000000000001e-05,1.0
-0.10104400000000001,1.0,-2.9235849999999995e-09,1.0,-205.55424,1.0,-3.5600000000000005e-05,1.0
-0.10141,1.0,-2.9312149999999998e-09,1.0,-180.48348000000001,1.0,-3.5600000000000005e-05,1.0
-0.101837,1.0,-2.8823849999999997e-09,1.0,-156.31343999999999,1.0,-3.5600000000000005e-05,1.0
-0.102173,1.0,-3.294375e-09,1.0,-131.25384,1.0,-3.5600000000000005e-05,1.0
-0.102631,1.0,-4.1626000000000005e-09,1.0,-124.99128,1.0,-3.5600000000000005e-05,1.0
-0.102997,1.0,-5.6366e-09,1.0,-152.43516,1.0,-3.570000000000001e-05,1.0
-0.103394,1.0,-6.323249999999999e-09,1.0,-270.47231999999997,1.0,-3.5799999999999996e-05,1.0
-0.10379000000000001,1.0,-5.09035e-09,1.0,-323.59139999999996,1.0,-3.59e-05,1.0
-0.104218,1.0,-3.518675e-09,1.0,-317.71368,1.0,-3.59e-05,1.0
-0.10461400000000001,1.0,-2.731325e-09,1.0,-305.6616,1.0,-3.59e-05,1.0
-0.105011,1.0,-2.19879e-09,1.0,-288.14939999999996,1.0,-3.59e-05,1.0
-0.10540799999999999,1.0,-3.0899049999999998e-09,1.0,-270.48348,1.0,-3.59e-05,1.0
-0.10583499999999998,1.0,-4.80194e-09,1.0,-230.60304000000002,1.0,-3.59e-05,1.0
-0.106171,1.0,-6.304949999999999e-09,1.0,-121.02551999999999,1.0,-3.570000000000001e-05,1.0
-0.106628,1.0,-5.8974999999999995e-09,1.0,20.101679999999998,1.0,-3.5600000000000005e-05,1.0
-0.10708599999999999,1.0,-5.0674499999999995e-09,1.0,74.58624,1.0,-3.54e-05,1.0
-0.107422,1.0,-4.403685e-09,1.0,115.42248,1.0,-3.52e-05,1.0
-0.10781900000000001,1.0,-4.345705e-09,1.0,161.47691999999998,1.0,-3.5100000000000006e-05,1.0
-0.108276,1.0,-4.6402e-09,1.0,218.3094,1.0,-3.5e-05,1.0
-0.108643,1.0,-5.02775e-09,1.0,299.89368,1.0,-3.4899999999999995e-05,1.0
-0.10903900000000001,1.0,-4.44031e-09,1.0,-325.41516,1.0,-3.6099999999999997e-05,1.0
-0.109375,1.0,-3.468325e-09,1.0,-270.46151999999995,1.0,-3.6e-05,1.0
-0.10977200000000001,1.0,-3.0120849999999997e-09,1.0,-243.17136000000005,1.0,-3.59e-05,1.0
-0.110229,1.0,-4.307555e-09,1.0,-220.97916,1.0,-3.59e-05,1.0
-0.110596,1.0,-5.3726e-09,1.0,-163.0152,1.0,-3.59e-05,1.0
-0.11099200000000001,1.0,-6.2744e-09,1.0,-80.13419999999999,1.0,-3.570000000000001e-05,1.0
-0.11142,1.0,-6.5155000000000005e-09,1.0,52.58052,1.0,-3.5600000000000005e-05,1.0
-0.111786,1.0,-6.2271e-09,1.0,165.15756,1.0,-3.5100000000000006e-05,1.0
-0.112122,1.0,-5.867e-09,1.0,261.77112,1.0,-3.5e-05,1.0
-0.11264,1.0,-5.1941e-09,1.0,343.125,1.0,-3.5e-05,1.0
-0.113007,1.0,-4.510499999999999e-09,1.0,-315.70308,1.0,-3.6099999999999997e-05,1.0
-0.113403,1.0,-3.67584e-09,1.0,-256.24512,1.0,-3.59e-05,1.0
-0.11383099999999999,1.0,-2.8060899999999998e-09,1.0,-213.53040000000001,1.0,-3.5799999999999996e-05,1.0
-0.114258,1.0,-2.49939e-09,1.0,-176.81400000000002,1.0,-3.5799999999999996e-05,1.0
-0.114685,1.0,-2.6885999999999996e-09,1.0,-141.21828000000002,1.0,-3.59e-05,1.0
-0.115021,1.0,-3.785704999999999e-09,1.0,-97.27308,1.0,-3.570000000000001e-05,1.0
-0.115479,1.0,-4.829405e-09,1.0,-35.266104,1.0,-3.570000000000001e-05,1.0
-0.115845,1.0,-5.22155e-09,1.0,59.974199999999996,1.0,-3.5499999999999996e-05,1.0
-0.11624100000000001,1.0,-5.0415e-09,1.0,151.35876000000002,1.0,-3.5e-05,1.0
-0.116638,1.0,-4.71344e-09,1.0,220.5504,1.0,-3.5e-05,1.0
-0.116974,1.0,-4.24347e-09,1.0,311.45148,1.0,-3.48e-05,1.0
-0.117371,1.0,-2.7542099999999997e-09,1.0,-323.97588,1.0,-3.59e-05,1.0
-0.117798,1.0,-6.46975e-10,1.0,-282.26088,1.0,-3.59e-05,1.0
-0.118225,1.0,-2.4399999999999998e-11,1.0,-261.67248000000006,1.0,-3.5799999999999996e-05,1.0
-0.11856099999999999,1.0,-7.0801e-10,1.0,-247.11551999999998,1.0,-3.5799999999999996e-05,1.0
-0.119019,1.0,-2.861025e-09,1.0,-235.46988000000002,1.0,-3.570000000000001e-05,1.0
