Potential,potstdev,Photocurrent (nA),pcstdev,Phase (°),phstdev,DC Current (µA),dcCurrstdev
0.296112,1.0,4.089355e-07,1.0,-72.82835999999999,1.0,3.6700000000000004e-05,1.0
0.295715,1.0,4.092405e-07,1.0,-72.67464000000001,1.0,3.6200000000000006e-05,1.0
0.295319,1.0,4.1015649999999997e-07,1.0,-72.72936,1.0,3.64e-05,1.0
0.29489099999999996,1.0,4.1046149999999997e-07,1.0,-72.81756,1.0,3.6099999999999997e-05,1.0
0.294525,1.0,4.1046149999999997e-07,1.0,-72.72936,1.0,3.5499999999999996e-05,1.0
0.294098,1.0,4.107665e-07,1.0,-72.55368,1.0,3.6e-05,1.0
0.29370100000000005,1.0,4.1015649999999997e-07,1.0,-72.34488,1.0,3.54e-05,1.0
0.293274,1.0,4.09546e-07,1.0,-72.1692,1.0,3.52e-05,1.0
0.292908,1.0,4.08478e-07,1.0,-72.05940000000001,1.0,3.52e-05,1.0
0.292511,1.0,4.081725e-07,1.0,-72.0702,1.0,3.47e-05,1.0
0.292084,1.0,4.0740949999999995e-07,1.0,-72.19116,1.0,3.47e-05,1.0
0.291687,1.0,4.0740949999999995e-07,1.0,-72.35604,1.0,3.48e-05,1.0
0.291321,1.0,4.0801999999999997e-07,1.0,-72.49860000000001,1.0,3.41e-05,1.0
0.29092399999999996,1.0,4.081725e-07,1.0,-72.71856,1.0,3.45e-05,1.0
0.290497,1.0,4.08478e-07,1.0,-72.89424,1.0,3.37e-05,1.0
0.29007,1.0,4.08783e-07,1.0,-72.9054,1.0,3.3299999999999996e-05,1.0
0.289734,1.0,4.081725e-07,1.0,-72.86148,1.0,3.37e-05,1.0
0.289337,1.0,4.081725e-07,1.0,-72.71856,1.0,3.37e-05,1.0
0.28891,1.0,4.075625e-07,1.0,-72.64152,1.0,3.3e-05,1.0
0.288483,1.0,4.0771499999999997e-07,1.0,-72.49860000000001,1.0,3.28e-05,1.0
0.288086,1.0,4.0725700000000003e-07,1.0,-72.31212,1.0,3.2500000000000004e-05,1.0
0.287689,1.0,4.078675e-07,1.0,-72.14724000000001,1.0,3.2500000000000004e-05,1.0
0.287292,1.0,4.0771499999999997e-07,1.0,-71.92764000000001,1.0,3.2500000000000004e-05,1.0
0.286896,1.0,4.0679949999999995e-07,1.0,-71.72964,1.0,3.229999999999999e-05,1.0
0.286499,1.0,4.0557849999999997e-07,1.0,-71.57592000000001,1.0,3.229999999999999e-05,1.0
0.286102,1.0,4.0298449999999994e-07,1.0,-71.41104,1.0,3.2e-05,1.0
0.285706,1.0,4.00696e-07,1.0,-71.34515999999999,1.0,3.19e-05,1.0
0.285248,1.0,3.98102e-07,1.0,-71.33435999999999,1.0,3.2e-05,1.0
0.284882,1.0,3.959655e-07,1.0,-71.45496,1.0,3.14e-05,1.0
0.284515,1.0,3.9505e-07,1.0,-71.76275999999999,1.0,3.14e-05,1.0
0.284088,1.0,3.93982e-07,1.0,-72.11411999999999,1.0,3.12e-05,1.0
0.283661,1.0,3.93677e-07,1.0,-72.42192,1.0,3.11e-05,1.0
0.283325,1.0,3.93677e-07,1.0,-72.46584,1.0,3.0799999999999996e-05,1.0
0.282837,1.0,3.9443949999999996e-07,1.0,-72.27900000000001,1.0,3.06e-05,1.0
0.282471,1.0,3.947449999999999e-07,1.0,-71.9496,1.0,3.04e-05,1.0
0.282104,1.0,3.95355e-07,1.0,-71.78472000000001,1.0,3.01e-05,1.0
0.281647,1.0,3.9505e-07,1.0,-71.60904000000001,1.0,2.98e-05,1.0
0.281281,1.0,3.9413449999999996e-07,1.0,-71.59788,1.0,2.99e-05,1.0
0.280884,1.0,3.9413449999999996e-07,1.0,-71.48808,1.0,2.9999999999999997e-05,1.0
0.280548,1.0,3.9413449999999996e-07,1.0,-71.27928,1.0,2.97e-05,1.0
0.28009,1.0,3.93982e-07,1.0,-71.08164000000001,1.0,2.9299999999999997e-05,1.0
0.279694,1.0,3.93677e-07,1.0,-70.9938,1.0,2.98e-05,1.0
0.27923600000000004,1.0,3.9321899999999994e-07,1.0,-70.88364000000001,1.0,2.97e-05,1.0
0.2789,1.0,3.9199850000000003e-07,1.0,-70.7958,1.0,2.9199999999999998e-05,1.0
0.278473,1.0,3.907775e-07,1.0,-70.81775999999999,1.0,2.8999999999999997e-05,1.0
0.278046,1.0,3.8970949999999995e-07,1.0,-70.98264,1.0,2.8499999999999998e-05,1.0
0.27771,1.0,3.88336e-07,1.0,-71.24616,1.0,2.84e-05,1.0
0.277252,1.0,3.8711549999999997e-07,1.0,-71.61984,1.0,2.84e-05,1.0
0.276886,1.0,3.8589499999999995e-07,1.0,-71.97156,1.0,2.84e-05,1.0
0.276459,1.0,3.860475e-07,1.0,-72.29016,1.0,2.8600000000000004e-05,1.0
0.276093,1.0,3.85132e-07,1.0,-72.58680000000001,1.0,2.8499999999999998e-05,1.0
0.275696,1.0,3.85132e-07,1.0,-72.78444,1.0,2.7899999999999997e-05,1.0
0.27533,1.0,3.8467399999999997e-07,1.0,-72.88344,1.0,2.8199999999999998e-05,1.0
0.274841,1.0,3.85132e-07,1.0,-72.87227999999999,1.0,2.7699999999999996e-05,1.0
0.274506,1.0,3.842165e-07,1.0,-72.61956,1.0,2.7600000000000003e-05,1.0
0.274048,1.0,3.840635e-07,1.0,-72.34488,1.0,2.72e-05,1.0
0.27365100000000003,1.0,3.842165e-07,1.0,-72.11411999999999,1.0,2.71e-05,1.0
0.273285,1.0,3.840635e-07,1.0,-71.87256,1.0,2.72e-05,1.0
0.272858,1.0,3.840635e-07,1.0,-71.6418,1.0,2.6899999999999997e-05,1.0
0.272491,1.0,3.8330099999999997e-07,1.0,-71.38907999999999,1.0,2.6600000000000003e-05,1.0
0.272095,1.0,3.8299549999999996e-07,1.0,-71.16948,1.0,2.6899999999999997e-05,1.0
0.271667,1.0,3.8177499999999994e-07,1.0,-71.00460000000001,1.0,2.65e-05,1.0
0.271271,1.0,3.804015e-07,1.0,-71.00460000000001,1.0,2.64e-05,1.0
0.270905,1.0,3.7918099999999996e-07,1.0,-70.9938,1.0,2.61e-05,1.0
0.270447,1.0,3.782655e-07,1.0,-70.96068,1.0,2.6300000000000002e-05,1.0
0.270111,1.0,3.7735000000000003e-07,1.0,-71.05967999999999,1.0,2.62e-05,1.0
0.26968400000000003,1.0,3.764345e-07,1.0,-71.14752,1.0,2.61e-05,1.0
0.269287,1.0,3.7521350000000003e-07,1.0,-71.36712,1.0,2.56e-05,1.0
0.26886,1.0,3.7493899999999997e-07,1.0,-71.69688,1.0,2.58e-05,1.0
0.268433,1.0,3.74481e-07,1.0,-71.99352,1.0,2.58e-05,1.0
0.268097,1.0,3.74481e-07,1.0,-72.13607999999999,1.0,2.54e-05,1.0
0.2677,1.0,3.7451149999999997e-07,1.0,-72.14724000000001,1.0,2.51e-05,1.0
0.267273,1.0,3.7443549999999994e-07,1.0,-72.04824,1.0,2.48e-05,1.0
0.266876,1.0,3.7446599999999993e-07,1.0,-71.91648,1.0,2.51e-05,1.0
0.266449,1.0,3.7387099999999997e-07,1.0,-71.70768,1.0,2.57e-05,1.0
0.266052,1.0,3.7324499999999995e-07,1.0,-71.45496,1.0,2.49e-05,1.0
0.265656,1.0,3.7281799999999997e-07,1.0,-71.3124,1.0,2.46e-05,1.0
0.265289,1.0,3.71948e-07,1.0,-71.23535999999999,1.0,2.45e-05,1.0
0.264893,1.0,3.713225e-07,1.0,-71.15832,1.0,2.44e-05,1.0
0.264435,1.0,3.7001050000000003e-07,1.0,-71.23535999999999,1.0,2.45e-05,1.0
0.264069,1.0,3.68698e-07,1.0,-71.33435999999999,1.0,2.45e-05,1.0
0.26367199999999996,1.0,3.6738599999999995e-07,1.0,-71.37827999999999,1.0,2.4100000000000003e-05,1.0
0.263275,1.0,3.6582950000000003e-07,1.0,-71.4222,1.0,2.4100000000000003e-05,1.0
0.262909,1.0,3.6416649999999997e-07,1.0,-71.34515999999999,1.0,2.3899999999999998e-05,1.0
0.26245100000000005,1.0,3.6308299999999997e-07,1.0,-71.3124,1.0,2.4e-05,1.0
0.262115,1.0,3.6201500000000003e-07,1.0,-71.36712,1.0,2.3899999999999998e-05,1.0
0.26168800000000003,1.0,3.6157249999999994e-07,1.0,-71.41104,1.0,2.34e-05,1.0
0.261261,1.0,3.611605e-07,1.0,-71.49888,1.0,2.3800000000000003e-05,1.0
0.260864,1.0,3.6094649999999997e-07,1.0,-71.66376,1.0,2.37e-05,1.0
0.260437,1.0,3.6090100000000004e-07,1.0,-71.81748,1.0,2.36e-05,1.0
0.260071,1.0,3.60428e-07,1.0,-71.82864000000001,1.0,2.34e-05,1.0
0.25967399999999996,1.0,3.6025999999999997e-07,1.0,-71.77356,1.0,2.3e-05,1.0
0.259308,1.0,3.59848e-07,1.0,-71.58707999999999,1.0,2.33e-05,1.0
0.258881,1.0,3.5916149999999993e-07,1.0,-71.40024000000001,1.0,2.3100000000000002e-05,1.0
0.25845300000000004,1.0,3.5862749999999996e-07,1.0,-71.30124,1.0,2.2899999999999998e-05,1.0
0.258087,1.0,3.57544e-07,1.0,-71.1036,1.0,2.3100000000000002e-05,1.0
0.25766,1.0,3.566435e-07,1.0,-70.97184,1.0,2.27e-05,1.0
0.257263,1.0,3.5560599999999994e-07,1.0,-70.72992,1.0,2.25e-05,1.0
0.256927,1.0,3.54538e-07,1.0,-70.62012,1.0,2.24e-05,1.0
0.25647,1.0,3.531645e-07,1.0,-70.63127999999999,1.0,2.26e-05,1.0
0.256073,1.0,3.5194399999999997e-07,1.0,-70.80695999999999,1.0,2.2e-05,1.0
0.255676,1.0,3.507995e-07,1.0,-71.03772000000001,1.0,2.22e-05,1.0
0.25528,1.0,3.5003649999999993e-07,1.0,-71.3124,1.0,2.26e-05,1.0
0.254913,1.0,3.4941100000000003e-07,1.0,-71.38907999999999,1.0,2.1899999999999997e-05,1.0
0.254517,1.0,3.48999e-07,1.0,-71.48808,1.0,2.2e-05,1.0
0.254089,1.0,3.485415e-07,1.0,-71.36712,1.0,2.2e-05,1.0
0.253693,1.0,3.48175e-07,1.0,-71.27928,1.0,2.2100000000000002e-05,1.0
0.253235,1.0,3.4768699999999993e-07,1.0,-71.26848,1.0,2.13e-05,1.0
0.25293000000000004,1.0,3.47046e-07,1.0,-71.26848,1.0,2.18e-05,1.0
0.252533,1.0,3.4664899999999997e-07,1.0,-71.2242,1.0,2.1600000000000003e-05,1.0
0.25204499999999996,1.0,3.4637449999999996e-07,1.0,-71.20224,1.0,2.13e-05,1.0
0.251617,1.0,3.4639e-07,1.0,-71.24616,1.0,2.17e-05,1.0
0.251282,1.0,3.464205e-07,1.0,-71.29044,1.0,2.15e-05,1.0
0.250854,1.0,3.4576399999999995e-07,1.0,-71.44416,1.0,2.1e-05,1.0
0.250488,1.0,3.4509299999999995e-07,1.0,-71.36712,1.0,2.11e-05,1.0
0.250031,1.0,3.439635e-07,1.0,-71.34515999999999,1.0,2.09e-05,1.0
0.24969499999999997,1.0,3.4255999999999997e-07,1.0,-71.24616,1.0,2.0399999999999998e-05,1.0
0.249329,1.0,3.40988e-07,1.0,-71.12556,1.0,2.1e-05,1.0
0.248871,1.0,3.3978249999999995e-07,1.0,-71.1036,1.0,2.08e-05,1.0
0.24850500000000003,1.0,3.3837899999999996e-07,1.0,-71.03772000000001,1.0,2.05e-05,1.0
0.248138,1.0,3.3729549999999996e-07,1.0,-70.92756,1.0,2.0300000000000002e-05,1.0
0.24768099999999998,1.0,3.361815e-07,1.0,-70.96068,1.0,2.07e-05,1.0
0.24725300000000003,1.0,3.350985e-07,1.0,-71.03772000000001,1.0,2.0399999999999998e-05,1.0
0.246887,1.0,3.34442e-07,1.0,-71.20224,1.0,2.0300000000000002e-05,1.0
0.24645999999999998,1.0,3.3380149999999997e-07,1.0,-71.4222,1.0,2.05e-05,1.0
0.246094,1.0,3.328705e-07,1.0,-71.6418,1.0,1.99e-05,1.0
0.24569699999999997,1.0,3.3274849999999997e-07,1.0,-71.81748,1.0,1.99e-05,1.0
0.24527,1.0,3.32306e-07,1.0,-71.79552,1.0,2.01e-05,1.0
0.24490399999999998,1.0,3.3247399999999996e-07,1.0,-71.77356,1.0,2.0300000000000002e-05,1.0
0.24447600000000003,1.0,3.329315e-07,1.0,-71.75160000000001,1.0,1.99e-05,1.0
0.24411,1.0,3.329165e-07,1.0,-71.66376,1.0,2e-05,1.0
0.24368299999999998,1.0,3.32901e-07,1.0,-71.59788,1.0,1.99e-05,1.0
0.243225,1.0,3.31787e-07,1.0,-71.36712,1.0,1.93e-05,1.0
0.24285900000000002,1.0,3.30948e-07,1.0,-71.1036,1.0,1.92e-05,1.0
0.24246199999999998,1.0,3.29941e-07,1.0,-70.81775999999999,1.0,1.9600000000000002e-05,1.0
0.242065,1.0,3.2864399999999996e-07,1.0,-70.59816,1.0,1.91e-05,1.0
0.24169899999999997,1.0,3.27286e-07,1.0,-70.62012,1.0,1.92e-05,1.0
0.241302,1.0,3.260195e-07,1.0,-70.71912,1.0,1.95e-05,1.0
0.240875,1.0,3.24692e-07,1.0,-70.87284,1.0,1.9e-05,1.0
0.240448,1.0,3.2366949999999997e-07,1.0,-70.92756,1.0,1.87e-05,1.0
0.24008200000000002,1.0,3.2279949999999994e-07,1.0,-70.94988,1.0,1.85e-05,1.0
0.23962399999999998,1.0,3.2223499999999997e-07,1.0,-70.9056,1.0,1.85e-05,1.0
0.239258,1.0,3.21167e-07,1.0,-70.94988,1.0,1.85e-05,1.0
0.23886100000000002,1.0,3.203125e-07,1.0,-71.08164000000001,1.0,1.8100000000000003e-05,1.0
0.23840300000000003,1.0,3.19397e-07,1.0,-71.30124,1.0,1.84e-05,1.0
0.238098,1.0,3.185425e-07,1.0,-71.52083999999999,1.0,1.85e-05,1.0
0.23770100000000002,1.0,3.17917e-07,1.0,-71.631,1.0,1.85e-05,1.0
0.237335,1.0,3.17215e-07,1.0,-71.59788,1.0,1.7899999999999998e-05,1.0
0.23684699999999997,1.0,3.16681e-07,1.0,-71.44416,1.0,1.86e-05,1.0
0.23645,1.0,3.161165e-07,1.0,-71.26848,1.0,1.82e-05,1.0
0.236053,1.0,3.1529250000000003e-07,1.0,-71.01576,1.0,1.7899999999999998e-05,1.0
0.23568699999999998,1.0,3.1485e-07,1.0,-70.785,1.0,1.82e-05,1.0
0.23526,1.0,3.1422399999999997e-07,1.0,-70.63127999999999,1.0,1.74e-05,1.0
0.234894,1.0,3.137815e-07,1.0,-70.44444000000001,1.0,1.7899999999999998e-05,1.0
0.234375,1.0,3.129425e-07,1.0,-70.3566,1.0,1.7199999999999998e-05,1.0
0.2341,1.0,3.119965e-07,1.0,-70.30152000000001,1.0,1.77e-05,1.0
0.233612,1.0,3.10684e-07,1.0,-70.24644,1.0,1.73e-05,1.0
0.233246,1.0,3.09677e-07,1.0,-70.32347999999999,1.0,1.75e-05,1.0
0.23284899999999997,1.0,3.085175e-07,1.0,-70.33464000000001,1.0,1.7199999999999998e-05,1.0
0.232452,1.0,3.07846e-07,1.0,-70.52112,1.0,1.76e-05,1.0
0.23205599999999998,1.0,3.0682350000000003e-07,1.0,-70.66404000000001,1.0,1.73e-05,1.0
0.231659,1.0,3.05954e-07,1.0,-70.80695999999999,1.0,1.73e-05,1.0
0.231262,1.0,3.050535e-07,1.0,-70.86168,1.0,1.7199999999999998e-05,1.0
0.23086500000000001,1.0,3.0393999999999995e-07,1.0,-71.02655999999999,1.0,1.7100000000000002e-05,1.0
0.230408,1.0,3.0331399999999993e-07,1.0,-71.12556,1.0,1.6800000000000002e-05,1.0
0.230042,1.0,3.02948e-07,1.0,-71.18028,1.0,1.7199999999999998e-05,1.0
0.22961399999999998,1.0,3.0245949999999996e-07,1.0,-71.33435999999999,1.0,1.7e-05,1.0
0.229248,1.0,3.0184949999999995e-07,1.0,-71.38907999999999,1.0,1.6899999999999997e-05,1.0
0.22888200000000003,1.0,3.01178e-07,1.0,-71.16948,1.0,1.6899999999999997e-05,1.0
0.228485,1.0,3.005525e-07,1.0,-70.88364000000001,1.0,1.66e-05,1.0
0.22805799999999998,1.0,2.99896e-07,1.0,-70.6752,1.0,1.66e-05,1.0
0.227631,1.0,2.995455e-07,1.0,-70.4664,1.0,1.6800000000000002e-05,1.0
0.227264,1.0,2.98401e-07,1.0,-70.2576,1.0,1.62e-05,1.0
0.226868,1.0,2.97226e-07,1.0,-70.07075999999999,1.0,1.65e-05,1.0
0.226471,1.0,2.957765e-07,1.0,-69.939,1.0,1.64e-05,1.0
0.226044,1.0,2.94586e-07,1.0,-69.939,1.0,1.64e-05,1.0
0.225647,1.0,2.931215e-07,1.0,-70.07075999999999,1.0,1.59e-05,1.0
0.22525,1.0,2.920225e-07,1.0,-70.27955999999999,1.0,1.64e-05,1.0
0.224823,1.0,2.9132099999999997e-07,1.0,-70.54308,1.0,1.6100000000000002e-05,1.0
0.224396,1.0,2.90619e-07,1.0,-70.86168,1.0,1.58e-05,1.0
0.22405999999999998,1.0,2.898255e-07,1.0,-71.16948,1.0,1.6e-05,1.0
0.223663,1.0,2.8897099999999995e-07,1.0,-71.46612,1.0,1.57e-05,1.0
0.22326700000000002,1.0,2.885435e-07,1.0,-71.79552,1.0,1.58e-05,1.0
0.22283899999999998,1.0,2.8810099999999997e-07,1.0,-71.87256,1.0,1.55e-05,1.0
0.22244299999999997,1.0,2.885435e-07,1.0,-71.80668,1.0,1.57e-05,1.0
0.222046,1.0,2.887575e-07,1.0,-71.77356,1.0,1.53e-05,1.0
0.221619,1.0,2.88742e-07,1.0,-71.69688,1.0,1.53e-05,1.0
0.221252,1.0,2.885435e-07,1.0,-71.56512000000001,1.0,1.49e-05,1.0
0.220886,1.0,2.8813149999999996e-07,1.0,-71.35632000000001,1.0,1.4999999999999999e-05,1.0
0.220428,1.0,2.872465e-07,1.0,-70.9938,1.0,1.55e-05,1.0
0.22006199999999998,1.0,2.85904e-07,1.0,-70.55424000000001,1.0,1.51e-05,1.0
0.21966599999999997,1.0,2.8459149999999997e-07,1.0,-70.18055999999999,1.0,1.5399999999999998e-05,1.0
0.219269,1.0,2.8355399999999997e-07,1.0,-69.8292,1.0,1.53e-05,1.0
0.218811,1.0,2.822875e-07,1.0,-69.6312,1.0,1.4300000000000002e-05,1.0
0.218414,1.0,2.809295e-07,1.0,-69.59844000000001,1.0,1.4800000000000002e-05,1.0
0.218079,1.0,2.79999e-07,1.0,-69.66432,1.0,1.52e-05,1.0
0.217651,1.0,2.7882399999999996e-07,1.0,-69.8292,1.0,1.4800000000000002e-05,1.0
0.21722399999999997,1.0,2.7719099999999993e-07,1.0,-70.01604,1.0,1.4999999999999999e-05,1.0
0.216888,1.0,2.75955e-07,1.0,-70.20252,1.0,1.4300000000000002e-05,1.0
0.21643099999999998,1.0,2.75055e-07,1.0,-70.33464000000001,1.0,1.4800000000000002e-05,1.0
0.21600300000000003,1.0,2.74185e-07,1.0,-70.54308,1.0,1.4400000000000001e-05,1.0
0.215637,1.0,2.737425e-07,1.0,-70.70795999999999,1.0,1.4499999999999998e-05,1.0
0.21524000000000001,1.0,2.735445e-07,1.0,-70.76304,1.0,1.4300000000000002e-05,1.0
0.214783,1.0,2.7355949999999996e-07,1.0,-70.82892000000001,1.0,1.4499999999999998e-05,1.0
0.21438600000000002,1.0,2.73346e-07,1.0,-70.76304,1.0,1.39e-05,1.0
0.214081,1.0,2.7287299999999996e-07,1.0,-70.6752,1.0,1.4099999999999999e-05,1.0
0.21365399999999998,1.0,2.7224749999999995e-07,1.0,-70.5762,1.0,1.4300000000000002e-05,1.0
0.21322600000000003,1.0,2.71866e-07,1.0,-70.32347999999999,1.0,1.4300000000000002e-05,1.0
0.21283000000000002,1.0,2.7066050000000003e-07,1.0,-70.09272,1.0,1.4300000000000002e-05,1.0
0.21243299999999998,1.0,2.69806e-07,1.0,-69.80724000000001,1.0,1.4300000000000002e-05,1.0
0.212036,1.0,2.6879899999999994e-07,1.0,-69.41159999999999,1.0,1.42e-05,1.0
0.21166999999999997,1.0,2.6763899999999995e-07,1.0,-69.14808,1.0,1.39e-05,1.0
0.211182,1.0,2.66266e-07,1.0,-68.9832,1.0,1.3699999999999998e-05,1.0
0.210815,1.0,2.644045e-07,1.0,-69.02712,1.0,1.36e-05,1.0
0.21048000000000003,1.0,2.630465e-07,1.0,-69.14808,1.0,1.39e-05,1.0
0.210083,1.0,2.61963e-07,1.0,-69.3018,1.0,1.3800000000000002e-05,1.0
0.209625,1.0,2.6090999999999997e-07,1.0,-69.41159999999999,1.0,1.3300000000000001e-05,1.0
0.20929,1.0,2.602235e-07,1.0,-69.69744,1.0,1.3300000000000001e-05,1.0
0.20880100000000001,1.0,2.596895e-07,1.0,-69.939,1.0,1.32e-05,1.0
0.20846599999999998,1.0,2.59445e-07,1.0,-70.19172,1.0,1.32e-05,1.0
0.208038,1.0,2.5898749999999995e-07,1.0,-70.4664,1.0,1.32e-05,1.0
0.207581,1.0,2.587585e-07,1.0,-70.60896,1.0,1.31e-05,1.0
0.20724499999999998,1.0,2.582855e-07,1.0,-70.66404000000001,1.0,1.34e-05,1.0
0.206848,1.0,2.58255e-07,1.0,-70.65324000000001,1.0,1.31e-05,1.0
0.20645100000000002,1.0,2.576295e-07,1.0,-70.62012,1.0,1.31e-05,1.0
0.206085,1.0,2.57187e-07,1.0,-70.60896,1.0,1.28e-05,1.0
0.205688,1.0,2.568205e-07,1.0,-70.45524,1.0,1.3000000000000001e-05,1.0
0.205261,1.0,2.559355e-07,1.0,-70.30152000000001,1.0,1.28e-05,1.0
0.20483400000000002,1.0,2.5485249999999995e-07,1.0,-70.16976,1.0,1.27e-05,1.0
0.20443699999999998,1.0,2.53662e-07,1.0,-69.939,1.0,1.25e-05,1.0
0.20401,1.0,2.5256349999999997e-07,1.0,-69.9498,1.0,1.26e-05,1.0
0.203705,1.0,2.510375e-07,1.0,-69.91704000000001,1.0,1.27e-05,1.0
0.203247,1.0,2.49695e-07,1.0,-69.98292000000001,1.0,1.28e-05,1.0
0.202942,1.0,2.4842849999999997e-07,1.0,-70.02684,1.0,1.25e-05,1.0
0.202484,1.0,2.473295e-07,1.0,-70.13664000000001,1.0,1.26e-05,1.0
0.202087,1.0,2.462465e-07,1.0,-70.18055999999999,1.0,1.25e-05,1.0
0.20165999999999998,1.0,2.45636e-07,1.0,-70.29035999999999,1.0,1.28e-05,1.0
0.201294,1.0,2.449645e-07,1.0,-70.27955999999999,1.0,1.23e-05,1.0
0.20086700000000002,1.0,2.443085e-07,1.0,-70.22448,1.0,1.21e-05,1.0
0.20047,1.0,2.4386599999999997e-07,1.0,-70.20252,1.0,1.21e-05,1.0
0.200165,1.0,2.4339299999999993e-07,1.0,-70.21368,1.0,1.22e-05,1.0
0.199646,1.0,2.432405e-07,1.0,-70.30152000000001,1.0,1.18e-05,1.0
0.19927999999999998,1.0,2.42996e-07,1.0,-70.3566,1.0,1.21e-05,1.0
0.198853,1.0,2.4263e-07,1.0,-70.40052,1.0,1.18e-05,1.0
0.198486,1.0,2.4188249999999996e-07,1.0,-70.40052,1.0,1.18e-05,1.0
0.19805899999999999,1.0,2.4108899999999997e-07,1.0,-70.30152000000001,1.0,1.17e-05,1.0
0.197693,1.0,2.398985e-07,1.0,-70.16976,1.0,1.2e-05,1.0
0.197296,1.0,2.388e-07,1.0,-70.00488,1.0,1.17e-05,1.0
0.196899,1.0,2.37503e-07,1.0,-69.86196,1.0,1.1400000000000001e-05,1.0
0.196442,1.0,2.3666399999999998e-07,1.0,-69.75216,1.0,1.1e-05,1.0
0.196045,1.0,2.357485e-07,1.0,-69.65316,1.0,1.1900000000000001e-05,1.0
0.195679,1.0,2.3448200000000002e-07,1.0,-69.64236,1.0,1.1599999999999999e-05,1.0
0.19528199999999998,1.0,2.336275e-07,1.0,-69.68628,1.0,1.21e-05,1.0
0.194916,1.0,2.325895e-07,1.0,-69.74135999999999,1.0,1.13e-05,1.0
0.194427,1.0,2.312315e-07,1.0,-69.86196,1.0,1.15e-05,1.0
0.19409200000000001,1.0,2.3039250000000003e-07,1.0,-69.89508,1.0,1.1599999999999999e-05,1.0
0.193695,1.0,2.2932449999999998e-07,1.0,-69.939,1.0,1.09e-05,1.0
0.193298,1.0,2.2872899999999998e-07,1.0,-69.90588,1.0,1.13e-05,1.0
0.192902,1.0,2.278595e-07,1.0,-69.89508,1.0,1.12e-05,1.0
0.19250499999999998,1.0,2.269135e-07,1.0,-69.87312,1.0,1.09e-05,1.0
0.192108,1.0,2.262725e-07,1.0,-69.88392,1.0,1.12e-05,1.0
0.191772,1.0,2.2602849999999998e-07,1.0,-69.8292,1.0,1.1e-05,1.0
0.19128399999999998,1.0,2.257385e-07,1.0,-69.79607999999999,1.0,1.05e-05,1.0
0.190918,1.0,2.2535700000000002e-07,1.0,-69.74135999999999,1.0,1.11e-05,1.0
0.190521,1.0,2.248995e-07,1.0,-69.54335999999999,1.0,1.1e-05,1.0
0.190094,1.0,2.2424299999999995e-07,1.0,-69.33456,1.0,1.09e-05,1.0
0.189697,1.0,2.2334299999999996e-07,1.0,-69.25788,1.0,1.07e-05,1.0
0.18924000000000002,1.0,2.2261049999999997e-07,1.0,-69.23592000000001,1.0,1.05e-05,1.0
0.188904,1.0,2.2132849999999997e-07,1.0,-69.14808,1.0,1.04e-05,1.0
0.188568,1.0,2.203065e-07,1.0,-69.17004,1.0,1.0300000000000001e-05,1.0
0.18808,1.0,2.19177e-07,1.0,-69.17004,1.0,1.04e-05,1.0
0.187622,1.0,2.184145e-07,1.0,-69.21396,1.0,1.04e-05,1.0
0.187256,1.0,2.17575e-07,1.0,-69.25788,1.0,1.0199999999999999e-05,1.0
0.18692,1.0,2.1690349999999998e-07,1.0,-69.37884,1.0,9.99e-06,1.0
0.186554,1.0,2.1644599999999998e-07,1.0,-69.46668,1.0,1.01e-05,1.0
0.186096,1.0,2.162325e-07,1.0,-69.49944,1.0,1.0199999999999999e-05,1.0
0.185638,1.0,2.15332e-07,1.0,-69.49944,1.0,1.0199999999999999e-05,1.0
0.185272,1.0,2.1473699999999997e-07,1.0,-69.41159999999999,1.0,1.0300000000000001e-05,1.0
0.184937,1.0,2.14081e-07,1.0,-69.56532000000001,1.0,9.98e-06,1.0
0.18450899999999998,1.0,2.1344e-07,1.0,-69.68628,1.0,9.95e-06,1.0
0.184113,1.0,2.1299749999999997e-07,1.0,-69.68628,1.0,1e-05,1.0
0.18365499999999998,1.0,2.1232600000000002e-07,1.0,-69.59844000000001,1.0,9.84e-06,1.0
0.183228,1.0,2.1200549999999999e-07,1.0,-69.4008,1.0,9.48e-06,1.0
0.182861,1.0,2.1153249999999998e-07,1.0,-69.23592000000001,1.0,9.62e-06,1.0
0.18249500000000002,1.0,2.1105949999999997e-07,1.0,-69.12612,1.0,9.81e-06,1.0
0.182068,1.0,2.1025100000000002e-07,1.0,-69.09299999999999,1.0,9.76e-06,1.0
0.181671,1.0,2.0922849999999999e-07,1.0,-69.03792000000001,1.0,9.38e-06,1.0
0.181305,1.0,2.08084e-07,1.0,-68.994,1.0,9.87e-06,1.0
0.18093900000000002,1.0,2.0678699999999998e-07,1.0,-68.994,1.0,1e-05,1.0
0.18051099999999998,1.0,2.0568850000000002e-07,1.0,-69.09299999999999,1.0,9.62e-06,1.0
0.180023,1.0,2.044525e-07,1.0,-69.27984000000001,1.0,9.63e-06,1.0
0.17968800000000001,1.0,2.03125e-07,1.0,-69.43356,1.0,9.71e-06,1.0
0.179291,1.0,2.0252999999999997e-07,1.0,-69.48864,1.0,9.32e-06,1.0
0.178894,1.0,2.0184349999999998e-07,1.0,-69.47748,1.0,9.09e-06,1.0
0.178528,1.0,2.0118699999999996e-07,1.0,-69.46668,1.0,9.29e-06,1.0
0.17813099999999998,1.0,2.0051549999999998e-07,1.0,-69.5106,1.0,9.45e-06,1.0
0.177673,1.0,1.999665e-07,1.0,-69.38964000000001,1.0,9.1e-06,1.0
0.177307,1.0,1.99463e-07,1.0,-69.34572,1.0,8.96e-06,1.0
0.17687999999999998,1.0,1.99234e-07,1.0,-69.33456,1.0,8.91e-06,1.0
0.176483,1.0,1.98761e-07,1.0,-69.24672000000001,1.0,9.14e-06,1.0
0.176178,1.0,1.97891e-07,1.0,-68.89536,1.0,9.39e-06,1.0
0.17572000000000002,1.0,1.9705199999999998e-07,1.0,-68.54364000000001,1.0,9.18e-06,1.0
0.175293,1.0,1.9636549999999999e-07,1.0,-68.32404,1.0,9.1e-06,1.0
0.174927,1.0,1.9551099999999998e-07,1.0,-68.14836,1.0,9.29e-06,1.0
0.1745,1.0,1.9487e-07,1.0,-68.0274,1.0,9.02e-06,1.0
0.174103,1.0,1.94107e-07,1.0,-67.93956,1.0,8.71e-06,1.0
0.173737,1.0,1.93451e-07,1.0,-67.88448,1.0,8.82e-06,1.0
0.173279,1.0,1.92627e-07,1.0,-67.89564,1.0,8.74e-06,1.0
0.17288199999999998,1.0,1.913755e-07,1.0,-68.09328,1.0,8.68e-06,1.0
0.172485,1.0,1.905365e-07,1.0,-68.37875999999999,1.0,8.07e-06,1.0
0.172119,1.0,1.8984999999999997e-07,1.0,-68.75244,1.0,8.79e-06,1.0
0.17166099999999998,1.0,1.891325e-07,1.0,-69.17004,1.0,8.23e-06,1.0
0.171265,1.0,1.8830849999999998e-07,1.0,-69.34572,1.0,8.18e-06,1.0
0.170807,1.0,1.8768299999999997e-07,1.0,-69.60924,1.0,8.3e-06,1.0
0.170502,1.0,1.870115e-07,1.0,-69.74135999999999,1.0,8.22e-06,1.0
0.170044,1.0,1.8638599999999999e-07,1.0,-69.89508,1.0,8.53e-06,1.0
0.169647,1.0,1.856535e-07,1.0,-69.91704000000001,1.0,7.8e-06,1.0
0.16925,1.0,1.85089e-07,1.0,-69.81804000000001,1.0,8.6e-06,1.0
0.168854,1.0,1.845855e-07,1.0,-69.86196,1.0,8.31e-06,1.0
0.168488,1.0,1.843565e-07,1.0,-69.7194,1.0,7.82e-06,1.0
0.16809100000000002,1.0,1.8367e-07,1.0,-69.5106,1.0,8.55e-06,1.0
0.167694,1.0,1.8322750000000002e-07,1.0,-69.0822,1.0,8.21e-06,1.0
0.167267,1.0,1.826325e-07,1.0,-68.79635999999999,1.0,7.9e-06,1.0
0.166901,1.0,1.8196099999999997e-07,1.0,-68.48892000000001,1.0,7.88e-06,1.0
0.16650399999999999,1.0,1.8127449999999997e-07,1.0,-68.19228,1.0,8.44e-06,1.0
0.166138,1.0,1.8034349999999998e-07,1.0,-67.9284,1.0,7.67e-06,1.0
0.16568,1.0,1.795045e-07,1.0,-67.74155999999999,1.0,7.81e-06,1.0
0.16528299999999999,1.0,1.789095e-07,1.0,-67.89564,1.0,7.98e-06,1.0
0.164917,1.0,1.7854299999999999e-07,1.0,-68.08212,1.0,8.21e-06,1.0
0.16449,1.0,1.780245e-07,1.0,-68.18111999999999,1.0,7.68e-06,1.0
0.16409300000000002,1.0,1.77429e-07,1.0,-68.35679999999999,1.0,7.58e-06,1.0
0.163696,1.0,1.765595e-07,1.0,-68.52167999999999,1.0,7.5e-06,1.0
0.1633,1.0,1.7547599999999998e-07,1.0,-68.53284,1.0,7.53e-06,1.0
0.162903,1.0,1.74469e-07,1.0,-68.63148,1.0,7.53e-06,1.0
0.162476,1.0,1.735075e-07,1.0,-68.91732,1.0,7.8e-06,1.0
0.162109,1.0,1.7266849999999998e-07,1.0,-69.02712,1.0,7.6e-06,1.0
0.161743,1.0,1.717835e-07,1.0,-69.25788,1.0,7.84e-06,1.0
0.16128499999999998,1.0,1.711425e-07,1.0,-69.21396,1.0,7.45e-06,1.0
0.16095,1.0,1.701815e-07,1.0,-69.37884,1.0,7.05e-06,1.0
0.160461,1.0,1.6975399999999997e-07,1.0,-69.49944,1.0,7.54e-06,1.0
0.160065,1.0,1.6935749999999999e-07,1.0,-69.44472,1.0,7.49e-06,1.0
0.159668,1.0,1.68915e-07,1.0,-69.3126,1.0,7.53e-06,1.0
0.15924100000000002,1.0,1.684725e-07,1.0,-69.14808,1.0,7.74e-06,1.0
0.158966,1.0,1.6802999999999998e-07,1.0,-69.01595999999999,1.0,7.45e-06,1.0
0.158478,1.0,1.671905e-07,1.0,-69.00516,1.0,7.44e-06,1.0
0.158081,1.0,1.6635150000000002e-07,1.0,-68.96124,1.0,7.19e-06,1.0
0.157745,1.0,1.65039e-07,1.0,-69.10416000000001,1.0,7.2e-06,1.0
0.157318,1.0,1.639555e-07,1.0,-69.21396,1.0,6.98e-06,1.0
0.156891,1.0,1.631315e-07,1.0,-69.5214,1.0,7.15e-06,1.0
0.15646400000000002,1.0,1.622315e-07,1.0,-69.65316,1.0,7.53e-06,1.0
0.156097,1.0,1.61148e-07,1.0,-69.70824,1.0,6.88e-06,1.0
0.15567,1.0,1.60095e-07,1.0,-69.7194,1.0,7.21e-06,1.0
0.155334,1.0,1.589965e-07,1.0,-69.42276,1.0,6.87e-06,1.0
0.154877,1.0,1.5830999999999997e-07,1.0,-69.33456,1.0,7.18e-06,1.0
0.15457200000000001,1.0,1.5768449999999999e-07,1.0,-69.13692,1.0,6.65e-06,1.0
0.154083,1.0,1.57074e-07,1.0,-68.9832,1.0,7.15e-06,1.0
0.153778,1.0,1.5682999999999998e-07,1.0,-68.71932000000001,1.0,6.67e-06,1.0
0.15332,1.0,1.5666199999999998e-07,1.0,-68.42267999999999,1.0,6.45e-06,1.0
0.152924,1.0,1.558535e-07,1.0,-68.33484,1.0,6.52e-06,1.0
0.15246600000000002,1.0,1.554415e-07,1.0,-68.22504,1.0,6.6e-06,1.0
0.152069,1.0,1.5478499999999997e-07,1.0,-68.26895999999999,1.0,6.63e-06,1.0
0.151703,1.0,1.539e-07,1.0,-68.1372,1.0,6.54e-06,1.0
0.151276,1.0,1.5330499999999998e-07,1.0,-68.0274,1.0,6.7e-06,1.0
0.15094000000000002,1.0,1.5240499999999997e-07,1.0,-67.73076,1.0,6.39e-06,1.0
0.150513,1.0,1.51306e-07,1.0,-67.65371999999999,1.0,6.79e-06,1.0
0.150146,1.0,1.50421e-07,1.0,-67.79664000000001,1.0,6.16e-06,1.0
0.14968900000000002,1.0,1.4967349999999998e-07,1.0,-67.84056,1.0,6.41e-06,1.0
0.14935299999999999,1.0,1.4944449999999999e-07,1.0,-68.07132,1.0,6.23e-06,1.0
0.148895,1.0,1.48758e-07,1.0,-68.25816,1.0,6.03e-06,1.0
0.14846800000000002,1.0,1.48712e-07,1.0,-68.51088,1.0,6.06e-06,1.0
0.14813199999999999,1.0,1.480865e-07,1.0,-68.62068,1.0,6.11e-06,1.0
0.147675,1.0,1.4784249999999997e-07,1.0,-68.81832,1.0,6.06e-06,1.0
0.147369,1.0,1.474915e-07,1.0,-68.95007999999999,1.0,6.04e-06,1.0
0.14694200000000002,1.0,1.47232e-07,1.0,-69.03792000000001,1.0,5.97e-06,1.0
0.146515,1.0,1.4695749999999997e-07,1.0,-69.05987999999999,1.0,6.38e-06,1.0
0.146118,1.0,1.466065e-07,1.0,-68.9832,1.0,5.96e-06,1.0
0.14565999999999998,1.0,1.461335e-07,1.0,-68.75244,1.0,6.01e-06,1.0
0.145325,1.0,1.455535e-07,1.0,-68.48892000000001,1.0,6.06e-06,1.0
0.144928,1.0,1.4505000000000002e-07,1.0,-68.35679999999999,1.0,6.21e-06,1.0
0.144501,1.0,1.443785e-07,1.0,-67.90644,1.0,6.04e-06,1.0
0.144104,1.0,1.4353949999999999e-07,1.0,-67.2912,1.0,5.87e-06,1.0
0.143707,1.0,1.423035e-07,1.0,-66.76379999999999,1.0,5.72e-06,1.0
0.143341,1.0,1.4097599999999998e-07,1.0,-66.34656,1.0,5.83e-06,1.0
0.142914,1.0,1.397095e-07,1.0,-66.30264000000001,1.0,5.87e-06,1.0
0.142517,1.0,1.384125e-07,1.0,-66.58812,1.0,6.33e-06,1.0
0.14212,1.0,1.37512e-07,1.0,-66.78576,1.0,5.76e-06,1.0
0.141754,1.0,1.3642899999999998e-07,1.0,-67.10436,1.0,5.64e-06,1.0
0.14135699999999998,1.0,1.3603199999999998e-07,1.0,-67.52195999999999,1.0,6e-06,1.0
0.14093,1.0,1.3591e-07,1.0,-67.67568,1.0,5.99e-06,1.0
0.14056400000000002,1.0,1.355895e-07,1.0,-67.75272,1.0,6.11e-06,1.0
0.140167,1.0,1.35391e-07,1.0,-67.88448,1.0,5.84e-06,1.0
0.13974,1.0,1.3497899999999998e-07,1.0,-67.74155999999999,1.0,5.74e-06,1.0
0.139374,1.0,1.34964e-07,1.0,-67.44492,1.0,6.3e-06,1.0
0.138916,1.0,1.3475050000000003e-07,1.0,-67.21452000000001,1.0,6.07e-06,1.0
0.138489,1.0,1.3472e-07,1.0,-67.00572,1.0,6.02e-06,1.0
0.13809200000000002,1.0,1.3433849999999998e-07,1.0,-66.66516,1.0,6.02e-06,1.0
0.137665,1.0,1.34079e-07,1.0,-66.45635999999999,1.0,6.09e-06,1.0
0.13735999999999998,1.0,1.336515e-07,1.0,-66.18168,1.0,5.75e-06,1.0
0.136902,1.0,1.33133e-07,1.0,-65.89583999999999,1.0,5.62e-06,1.0
0.136536,1.0,1.3258349999999998e-07,1.0,-65.88504,1.0,5.76e-06,1.0
0.136047,1.0,1.318815e-07,1.0,-65.76407999999999,1.0,5.44e-06,1.0
0.135712,1.0,1.31424e-07,1.0,-65.66544,1.0,5.44e-06,1.0
0.13531500000000002,1.0,1.3096599999999998e-07,1.0,-65.67624,1.0,5.39e-06,1.0
0.134857,1.0,1.303255e-07,1.0,-65.7972,1.0,5.34e-06,1.0
0.13446,1.0,1.299135e-07,1.0,-65.86308,1.0,5.71e-06,1.0
0.13409400000000002,1.0,1.290435e-07,1.0,-66.14856,1.0,5.49e-06,1.0
0.133606,1.0,1.287385e-07,1.0,-66.4452,1.0,5.18e-06,1.0
0.133209,1.0,1.281435e-07,1.0,-66.9618,1.0,5.33e-06,1.0
0.13284300000000002,1.0,1.27655e-07,1.0,-67.37904,1.0,4.94e-06,1.0
0.132477,1.0,1.274565e-07,1.0,-68.06016,1.0,5.69e-06,1.0
0.13198900000000002,1.0,1.270295e-07,1.0,-68.33484,1.0,5.29e-06,1.0
0.131683,1.0,1.2693800000000002e-07,1.0,-68.62068,1.0,5.42e-06,1.0
0.131226,1.0,1.26236e-07,1.0,-68.48892000000001,1.0,4.92e-06,1.0
0.130859,1.0,1.257935e-07,1.0,-68.30207999999999,1.0,5.32e-06,1.0
0.130493,1.0,1.2486249999999998e-07,1.0,-67.93956,1.0,4.9e-06,1.0
0.13006600000000001,1.0,1.2400799999999998e-07,1.0,-67.7088,1.0,5.25e-06,1.0
0.129639,1.0,1.230775e-07,1.0,-67.51115999999999,1.0,5.29e-06,1.0
0.129272,1.0,1.2208549999999999e-07,1.0,-67.45608,1.0,4.62e-06,1.0
0.12884500000000002,1.0,1.21002e-07,1.0,-67.37904,1.0,4.33e-06,1.0
0.128418,1.0,1.202085e-07,1.0,-67.41216,1.0,4.56e-06,1.0
0.128021,1.0,1.1885050000000001e-07,1.0,-67.31316,1.0,4.4e-06,1.0
0.127625,1.0,1.1824049999999999e-07,1.0,-67.401,1.0,4.52e-06,1.0
0.12725799999999998,1.0,1.1781300000000001e-07,1.0,-67.63176,1.0,4.64e-06,1.0
0.126892,1.0,1.173095e-07,1.0,-67.77468,1.0,4.53e-06,1.0
0.12646500000000002,1.0,1.168825e-07,1.0,-67.82976,1.0,4.08e-06,1.0
0.126068,1.0,1.1668399999999999e-07,1.0,-67.86252,1.0,4.52e-06,1.0
0.125702,1.0,1.160585e-07,1.0,-67.84056,1.0,4.64e-06,1.0
0.125275,1.0,1.1566149999999999e-07,1.0,-67.89564,1.0,4.8e-06,1.0
0.12493900000000001,1.0,1.1541749999999998e-07,1.0,-67.95035999999999,1.0,4.55e-06,1.0
0.124481,1.0,1.1489849999999997e-07,1.0,-68.00544,1.0,3.99e-06,1.0
0.124115,1.0,1.1445599999999999e-07,1.0,-67.90644,1.0,4.26e-06,1.0
0.123779,1.0,1.1379999999999999e-07,1.0,-67.62096,1.0,4.65e-06,1.0
0.123322,1.0,1.137545e-07,1.0,-67.48884000000001,1.0,4.53e-06,1.0
0.122925,1.0,1.136015e-07,1.0,-67.30236,1.0,4.31e-06,1.0
0.12262,1.0,1.132355e-07,1.0,-66.8628,1.0,4.97e-06,1.0
0.12216199999999999,1.0,1.1297599999999999e-07,1.0,-66.56616,1.0,4.47e-06,1.0
0.12176500000000001,1.0,1.123045e-07,1.0,-66.58812,1.0,4.46e-06,1.0
0.121307,1.0,1.1167899999999999e-07,1.0,-66.42324,1.0,4.23e-06,1.0
0.120972,1.0,1.1074849999999998e-07,1.0,-66.29148,1.0,4.56e-06,1.0
0.12054400000000001,1.0,1.10138e-07,1.0,-66.14856,1.0,4.62e-06,1.0
0.120148,1.0,1.0946649999999998e-07,1.0,-66.21444,1.0,4.1e-06,1.0
0.119751,1.0,1.0859699999999999e-07,1.0,-66.30264000000001,1.0,4.4e-06,1.0
0.119324,1.0,1.0792550000000001e-07,1.0,-66.47832000000001,1.0,4.69e-06,1.0
0.11898800000000001,1.0,1.07254e-07,1.0,-66.62124000000001,1.0,4.56e-06,1.0
0.11853,1.0,1.065065e-07,1.0,-67.03847999999999,1.0,4.41e-06,1.0
0.118103,1.0,1.0581949999999999e-07,1.0,-67.39020000000001,1.0,4.53e-06,1.0
0.11770599999999999,1.0,1.05118e-07,1.0,-67.88448,1.0,3.93e-06,1.0
0.117432,1.0,1.042025e-07,1.0,-68.30207999999999,1.0,3.98e-06,1.0
0.116974,1.0,1.0314949999999998e-07,1.0,-68.36796,1.0,4.34e-06,1.0
0.11651600000000001,1.0,1.0249349999999999e-07,1.0,-67.97232,1.0,4.16e-06,1.0
0.116119,1.0,1.0165399999999999e-07,1.0,-67.53312,1.0,4.09e-06,1.0
0.115723,1.0,1.011355e-07,1.0,-66.88476,1.0,4.33e-06,1.0
0.115356,1.0,1.00235e-07,1.0,-66.15972000000001,1.0,4.06e-06,1.0
0.114899,1.0,9.98385e-08,1.0,-65.78604,1.0,3.72e-06,1.0
0.114594,1.0,9.9457e-08,1.0,-65.66544,1.0,4.29e-06,1.0
0.114197,1.0,9.88005e-08,1.0,-65.56644,1.0,4.01e-06,1.0
0.11377000000000001,1.0,9.85565e-08,1.0,-65.20392000000001,1.0,4.23e-06,1.0
0.11334200000000001,1.0,9.78395e-08,1.0,-64.81944000000001,1.0,3.77e-06,1.0
0.113007,1.0,9.721349999999999e-08,1.0,-64.78632,1.0,3.88e-06,1.0
0.112518,1.0,9.6802e-08,1.0,-64.92924000000001,1.0,3.81e-06,1.0
0.112152,1.0,9.634399999999999e-08,1.0,-65.21472,1.0,4.17e-06,1.0
0.11181600000000001,1.0,9.60235e-08,1.0,-65.54448,1.0,4.11e-06,1.0
0.11138900000000002,1.0,9.59625e-08,1.0,-65.808,1.0,3.7e-06,1.0
0.11096199999999999,1.0,9.577949999999999e-08,1.0,-65.9178,1.0,4.19e-06,1.0
0.110535,1.0,9.582499999999999e-08,1.0,-66.0168,1.0,4.03e-06,1.0
0.110168,1.0,9.577949999999999e-08,1.0,-65.86308,1.0,3.75e-06,1.0
0.10971099999999999,1.0,9.559649999999999e-08,1.0,-65.70935999999999,1.0,3.92e-06,1.0
0.10931400000000001,1.0,9.5413e-08,1.0,-65.63232,1.0,3.65e-06,1.0
0.108948,1.0,9.48945e-08,1.0,-65.53332,1.0,3.45e-06,1.0
0.108582,1.0,9.4284e-08,1.0,-65.51136,1.0,3.97e-06,1.0
0.108154,1.0,9.3628e-08,1.0,-65.77524000000001,1.0,3.9e-06,1.0
0.10775799999999999,1.0,9.301749999999998e-08,1.0,-65.76407999999999,1.0,4.14e-06,1.0
0.10739100000000001,1.0,9.256e-08,1.0,-65.90700000000001,1.0,3.74e-06,1.0
0.106964,1.0,9.20565e-08,1.0,-66.06072,1.0,3.84e-06,1.0
0.10653699999999999,1.0,9.147649999999999e-08,1.0,-65.86308,1.0,3.76e-06,1.0
0.10614000000000001,1.0,9.0805e-08,1.0,-65.4786,1.0,3.21e-06,1.0
0.105774,1.0,9.05455e-08,1.0,-65.32488,1.0,3.52e-06,1.0
0.105316,1.0,8.992e-08,1.0,-65.33568,1.0,3.43e-06,1.0
0.10495,1.0,8.934e-08,1.0,-65.5992,1.0,3.81e-06,1.0
0.104523,1.0,8.8623e-08,1.0,-65.87388,1.0,3.84e-06,1.0
0.104156,1.0,8.79975e-08,1.0,-66.03876,1.0,3.12e-06,1.0
0.10375999999999999,1.0,8.7082e-08,1.0,-66.11580000000001,1.0,3.59e-06,1.0
0.103394,1.0,8.616649999999999e-08,1.0,-65.94012000000001,1.0,3.49e-06,1.0
0.102905,1.0,8.5327e-08,1.0,-65.87388,1.0,3.39e-06,1.0
0.10257000000000001,1.0,8.465599999999999e-08,1.0,-66.09384,1.0,3.39e-06,1.0
0.102142,1.0,8.37555e-08,1.0,-66.18168,1.0,2.93e-06,1.0
0.101746,1.0,8.31605e-08,1.0,-66.29148,1.0,2.97e-06,1.0
0.101379,1.0,8.255e-08,1.0,-66.28067999999999,1.0,3.65e-06,1.0
0.100952,1.0,8.20465e-08,1.0,-66.17052,1.0,3.13e-06,1.0
0.100525,1.0,8.1604e-08,1.0,-65.92895999999999,1.0,3.37e-06,1.0
0.100189,1.0,8.1421e-08,1.0,-65.4894,1.0,3.39e-06,1.0
0.0997314,1.0,8.0765e-08,1.0,-65.44548,1.0,3.1e-06,1.0
0.09936519999999999,1.0,8.039849999999999e-08,1.0,-65.30256,1.0,2.92e-06,1.0
0.0989685,1.0,7.96815e-08,1.0,-64.98396,1.0,3.16e-06,1.0
0.0985413,1.0,7.8827e-08,1.0,-64.57752,1.0,3.23e-06,1.0
0.0982056,1.0,7.821649999999999e-08,1.0,-63.8856,1.0,3.13e-06,1.0
0.09774780000000001,1.0,7.77895e-08,1.0,-63.54504000000001,1.0,3.03e-06,1.0
0.0973816,1.0,7.739249999999998e-08,1.0,-63.06156,1.0,2.83e-06,1.0
0.09695430000000001,1.0,7.69195e-08,1.0,-63.116279999999996,1.0,2.95e-06,1.0
0.0965271,1.0,7.66905e-08,1.0,-63.21527999999999,1.0,2.91e-06,1.0
0.0960693,1.0,7.6462e-08,1.0,-63.79776,1.0,2.62e-06,1.0
0.0957336,1.0,7.621749999999999e-08,1.0,-63.709559999999996,1.0,2.81e-06,1.0
0.09533689999999999,1.0,7.6187e-08,1.0,-63.72072000000001,1.0,3.15e-06,1.0
0.0950012,1.0,7.60195e-08,1.0,-63.52307999999999,1.0,3.06e-06,1.0
0.09454349999999999,1.0,7.605000000000001e-08,1.0,-63.65484,1.0,2.44e-06,1.0
0.09417719999999999,1.0,7.579049999999999e-08,1.0,-63.54504000000001,1.0,2.71e-06,1.0
0.09375,1.0,7.510399999999998e-08,1.0,-63.94032000000001,1.0,3.18e-06,1.0
0.0933533,1.0,7.51495e-08,1.0,-64.413,1.0,2.68e-06,1.0
0.0929871,1.0,7.469199999999999e-08,1.0,-64.61064000000002,1.0,2.75e-06,1.0
0.09255980000000001,1.0,7.49055e-08,1.0,-65.10492,1.0,2.52e-06,1.0
0.0921936,1.0,7.470700000000001e-08,1.0,-65.2698,1.0,2.65e-06,1.0
0.0917664,1.0,7.429499999999999e-08,1.0,-65.46744,1.0,2.67e-06,1.0
0.09140010000000001,1.0,7.365399999999999e-08,1.0,-65.30256,1.0,2.95e-06,1.0
0.09094239999999999,1.0,7.31355e-08,1.0,-65.25864000000001,1.0,2.51e-06,1.0
0.09054569999999999,1.0,7.2708e-08,1.0,-65.29176,1.0,2.64e-06,1.0
0.09021,1.0,7.191449999999999e-08,1.0,-65.1708,1.0,2.75e-06,1.0
0.0897827,1.0,7.1121e-08,1.0,-65.14884,1.0,2.59e-06,1.0
0.089325,1.0,7.054149999999998e-08,1.0,-64.91808,1.0,2.13e-06,1.0
0.08898930000000001,1.0,7.006849999999999e-08,1.0,-65.12688,1.0,2.12e-06,1.0
0.08859249999999999,1.0,6.944249999999998e-08,1.0,-65.2698,1.0,2.45e-06,1.0
0.08813480000000001,1.0,6.92595e-08,1.0,-65.9178,1.0,2.63e-06,1.0
0.0877686,1.0,6.881699999999999e-08,1.0,-66.70908,1.0,2.1e-06,1.0
0.0873413,1.0,6.857299999999999e-08,1.0,-67.53312,1.0,2.05e-06,1.0
0.08697510000000001,1.0,6.8146e-08,1.0,-67.97232,1.0,2.26e-06,1.0
0.0865479,1.0,6.72605e-08,1.0,-68.33484,1.0,2.22e-06,1.0
0.0861816,1.0,6.6864e-08,1.0,-68.89536,1.0,2.57e-06,1.0
0.0858154,1.0,6.625349999999999e-08,1.0,-69.27984000000001,1.0,2.39e-06,1.0
0.0853271,1.0,6.55975e-08,1.0,-69.07104000000001,1.0,2.5e-06,1.0
0.0849915,1.0,6.51855e-08,1.0,-68.69735999999999,1.0,2.41e-06,1.0
0.0845337,1.0,6.452949999999998e-08,1.0,-68.36796,1.0,1.99e-06,1.0
0.084198,1.0,6.40715e-08,1.0,-68.04936,1.0,2.28e-06,1.0
0.0837708,1.0,6.413250000000001e-08,1.0,-68.21424,1.0,2.16e-06,1.0
0.083374,1.0,6.376649999999999e-08,1.0,-68.88419999999999,1.0,2.3e-06,1.0
0.08300779999999999,1.0,6.3385e-08,1.0,-68.79635999999999,1.0,1.99e-06,1.0
0.0826721,1.0,6.318650000000001e-08,1.0,-69.09299999999999,1.0,2.24e-06,1.0
0.08221439999999999,1.0,6.29425e-08,1.0,-68.79635999999999,1.0,2.4e-06,1.0
0.08178710000000002,1.0,6.23015e-08,1.0,-68.68656,1.0,2.38e-06,1.0
0.08132930000000001,1.0,6.18745e-08,1.0,-68.1264,1.0,2.06e-06,1.0
0.08096310000000001,1.0,6.18745e-08,1.0,-68.28012,1.0,2.14e-06,1.0
0.0805359,1.0,6.150800000000001e-08,1.0,-68.82948,1.0,2.02e-06,1.0
0.0802002,1.0,6.14625e-08,1.0,-69.6312,1.0,2.25e-06,1.0
0.0797729,1.0,6.15235e-08,1.0,-70.01604,1.0,2.09e-06,1.0
0.0794067,1.0,6.1432e-08,1.0,-70.16976,1.0,2.19e-06,1.0
0.07901,1.0,6.1493e-08,1.0,-70.18055999999999,1.0,1.65e-06,1.0
0.07855219999999999,1.0,6.150800000000001e-08,1.0,-70.19172,1.0,1.79e-06,1.0
0.078186,1.0,6.12335e-08,1.0,-69.69744,1.0,1.75e-06,1.0
0.0778198,1.0,6.079099999999999e-08,1.0,-68.7636,1.0,2.38e-06,1.0
0.0773621,1.0,6.03335e-08,1.0,-67.60979999999999,1.0,2.4e-06,1.0
0.0769653,1.0,5.99215e-08,1.0,-66.63204,1.0,2.15e-06,1.0
0.0765686,1.0,5.9417499999999996e-08,1.0,-66.06072,1.0,2.2e-06,1.0
0.07620239999999999,1.0,5.896e-08,1.0,-65.64348,1.0,1.87e-06,1.0
0.07577510000000001,1.0,5.86245e-08,1.0,-65.2806,1.0,1.96e-06,1.0
0.0754089,1.0,5.8365e-08,1.0,-64.9512,1.0,1.96e-06,1.0
0.0749817,1.0,5.7907000000000004e-08,1.0,-64.99512,1.0,1.86e-06,1.0
0.07455439999999999,1.0,5.74495e-08,1.0,-65.21472,1.0,1.4e-06,1.0
0.0741577,1.0,5.70375e-08,1.0,-65.56644,1.0,1.76e-06,1.0
0.073822,1.0,5.68235e-08,1.0,-65.65428,1.0,2.4e-06,1.0
0.0733337,1.0,5.6473e-08,1.0,-65.88504,1.0,2.23e-06,1.0
0.072937,1.0,5.5771e-08,1.0,-66.37932,1.0,2.12e-06,1.0
0.07260130000000001,1.0,5.5511499999999994e-08,1.0,-66.69792000000001,1.0,2.14e-06,1.0
0.0721436,1.0,5.5511499999999994e-08,1.0,-66.85164,1.0,1.26e-06,1.0
0.0717163,1.0,5.50995e-08,1.0,-66.79692000000001,1.0,1.48e-06,1.0
0.07135010000000001,1.0,5.491649999999999e-08,1.0,-67.30236,1.0,1.48e-06,1.0
0.0709534,1.0,5.4245e-08,1.0,-67.56588,1.0,1.74e-06,1.0
0.07052610000000001,1.0,5.3603999999999995e-08,1.0,-68.26895999999999,1.0,1.57e-06,1.0
0.07022089999999999,1.0,5.3161499999999996e-08,1.0,-68.51088,1.0,1.71e-06,1.0
0.0697632,1.0,5.2963499999999996e-08,1.0,-68.90616,1.0,1.51e-06,1.0
0.0693665,1.0,5.27345e-08,1.0,-68.80752,1.0,1.58e-06,1.0
0.0690002,1.0,5.227649999999999e-08,1.0,-68.4558,1.0,1.56e-06,1.0
0.068573,1.0,5.1696999999999996e-08,1.0,-68.64264,1.0,1.78e-06,1.0
0.0681458,1.0,5.0812e-08,1.0,-68.82948,1.0,1.23e-06,1.0
0.067749,1.0,5.03235e-08,1.0,-69.3126,1.0,1.46e-06,1.0
0.0673523,1.0,4.9530050000000004e-08,1.0,-69.5214,1.0,1.07e-06,1.0
0.0669861,1.0,4.84314e-08,1.0,-70.59816,1.0,1.54e-06,1.0
0.06658939999999999,1.0,4.774475e-08,1.0,-71.14752,1.0,1.45e-06,1.0
0.0661316,1.0,4.73633e-08,1.0,-71.48808,1.0,1.46e-06,1.0
0.0657349,1.0,4.6859750000000004e-08,1.0,-71.88372000000001,1.0,1.45e-06,1.0
0.06539919999999999,1.0,4.69208e-08,1.0,-72.32292000000001,1.0,1.67e-06,1.0
0.0649719,1.0,4.66461e-08,1.0,-72.49860000000001,1.0,1.58e-06,1.0
0.0645447,1.0,4.62799e-08,1.0,-72.42192,1.0,1.25e-06,1.0
0.0641785,1.0,4.6188349999999995e-08,1.0,-72.1692,1.0,8.98e-07,1.0
0.0637512,1.0,4.60205e-08,1.0,-72.0702,1.0,1.71e-06,1.0
0.063385,1.0,4.605105e-08,1.0,-72.30095999999999,1.0,1.49e-06,1.0
0.0629883,1.0,4.5944199999999995e-08,1.0,-72.4878,1.0,1.24e-06,1.0
0.0625916,1.0,4.5761099999999994e-08,1.0,-72.3888,1.0,1.79e-06,1.0
0.062194799999999995,1.0,4.5745849999999997e-08,1.0,-72.11411999999999,1.0,1.23e-06,1.0
0.0618286,1.0,4.53644e-08,1.0,-71.71884,1.0,1.37e-06,1.0
0.06137080000000001,1.0,4.4891349999999994e-08,1.0,-71.34515999999999,1.0,1.17e-06,1.0
0.06100459999999999,1.0,4.493715e-08,1.0,-70.70795999999999,1.0,1.06e-06,1.0
0.0606384,1.0,4.4296249999999995e-08,1.0,-70.53228,1.0,1.29e-06,1.0
0.0602112,1.0,4.4052099999999995e-08,1.0,-70.14779999999999,1.0,1.58e-06,1.0
0.0598145,1.0,4.40216e-08,1.0,-69.64236,1.0,1.39e-06,1.0
0.059417700000000004,1.0,4.3624899999999996e-08,1.0,-69.2028,1.0,1.47e-06,1.0
0.058990499999999994,1.0,4.3670649999999995e-08,1.0,-68.88419999999999,1.0,1.78e-06,1.0
0.058624300000000004,1.0,4.3197649999999995e-08,1.0,-68.14836,1.0,1.16e-06,1.0
0.058197000000000006,1.0,4.273985e-08,1.0,-67.401,1.0,1.35e-06,1.0
0.057800300000000006,1.0,4.270935e-08,1.0,-66.753,1.0,1.48e-06,1.0
0.057373,1.0,4.228209999999999e-08,1.0,-66.29148,1.0,1.38e-06,1.0
0.057006799999999996,1.0,4.2099e-08,1.0,-65.07216,1.0,1.1e-06,1.0
0.05664059999999999,1.0,4.1717550000000006e-08,1.0,-63.929520000000004,1.0,1.12e-06,1.0
0.056213400000000004,1.0,4.116819999999999e-08,1.0,-61.88616,1.0,1.81e-06,1.0
0.0557251,1.0,4.05731e-08,1.0,-59.414040000000014,1.0,1.07e-06,1.0
0.0553894,1.0,3.997805e-08,1.0,-57.27167999999999,1.0,1.54e-06,1.0
0.054962199999999996,1.0,3.930665e-08,1.0,-56.21688,1.0,8.2e-07,1.0
0.054657000000000004,1.0,3.840635e-08,1.0,-55.28303999999999,1.0,1.34e-06,1.0
0.054260300000000004,1.0,3.778075e-08,1.0,-54.94248,1.0,1.59e-06,1.0
0.053802499999999996,1.0,3.778075e-08,1.0,-54.349199999999996,1.0,1.09e-06,1.0
0.053405799999999996,1.0,3.746034999999999e-08,1.0,-54.217439999999996,1.0,1.29e-06,1.0
0.052948,1.0,3.73993e-08,1.0,-54.16272,1.0,1.13e-06,1.0
0.0526428,1.0,3.73993e-08,1.0,-54.16272,1.0,1.62e-06,1.0
0.052215599999999994,1.0,3.753659999999999e-08,1.0,-53.96472,1.0,1.03e-06,1.0
0.0518188,1.0,3.78113e-08,1.0,-53.778240000000004,1.0,9.97e-07,1.0
0.051391599999999996,1.0,3.782655e-08,1.0,-53.76708,1.0,1.05e-06,1.0
0.0510559,1.0,3.738405e-08,1.0,-54.173519999999996,1.0,1.36e-06,1.0
0.0505981,1.0,3.694155e-08,1.0,-54.53604,1.0,1.13e-06,1.0
0.0502319,1.0,3.67279e-08,1.0,-55.16243999999999,1.0,1.3e-06,1.0
0.0497406,1.0,3.627015e-08,1.0,-55.79964,1.0,1.2e-06,1.0
0.04933169999999999,1.0,3.5583499999999996e-08,1.0,-56.00843999999999,1.0,9.959999999999999e-07,1.0
0.0489441,1.0,3.512574999999999e-08,1.0,-56.64564,1.0,1.2e-06,1.0
0.0485291,1.0,3.515625e-08,1.0,-56.656439999999996,1.0,7.359999999999999e-07,1.0
0.048138400000000005,1.0,3.5141000000000003e-08,1.0,-56.27196,1.0,6.06e-07,1.0
0.0477386,1.0,3.4942650000000005e-08,1.0,-55.85436,1.0,5.95e-07,1.0
0.047345,1.0,3.4683249999999994e-08,1.0,-55.87632000000001,1.0,1.06e-06,1.0
0.046948199999999995,1.0,3.4286499999999994e-08,1.0,-55.90944,1.0,6.31e-07,1.0
0.046551499999999996,1.0,3.3843999999999995e-08,1.0,-56.129039999999996,1.0,9.43e-07,1.0
0.0461395,1.0,3.34625e-08,1.0,-56.38176,1.0,8.42e-07,1.0
0.0457458,1.0,3.256225e-08,1.0,-56.854079999999996,1.0,4.1e-07,1.0
0.0453522,1.0,3.2577499999999995e-08,1.0,-56.86524000000001,1.0,1.15e-06,1.0
0.0449463,1.0,3.25012e-08,1.0,-56.20608,1.0,1.05e-06,1.0
0.044549599999999995,1.0,3.2760599999999996e-08,1.0,-55.975319999999996,1.0,6.970000000000001e-07,1.0
0.044164999999999996,1.0,3.30353e-08,1.0,-55.75572,1.0,8.28e-07,1.0
0.0437317,1.0,3.329469999999999e-08,1.0,-55.94256,1.0,3.94e-07,1.0
0.043353300000000004,1.0,3.320315e-08,1.0,-55.953359999999996,1.0,3.41e-07,1.0
0.0429596,1.0,3.34625e-08,1.0,-55.30499999999999,1.0,5.74e-07,1.0
0.0425385,1.0,3.341675e-08,1.0,-55.30499999999999,1.0,6.86e-07,1.0
0.0421417,1.0,3.3493050000000004e-08,1.0,-55.7226,1.0,4.91e-07,1.0
0.041741900000000005,1.0,3.3432e-08,1.0,-55.73376,1.0,7.009999999999999e-07,1.0
0.0413483,1.0,3.3401499999999996e-08,1.0,-56.16215999999999,1.0,6.87e-07,1.0
0.0409485,1.0,3.338625e-08,1.0,-56.57976,1.0,1.3800000000000002e-07,1.0
0.040563999999999996,1.0,3.341675e-08,1.0,-56.57976,1.0,3.56e-07,1.0
0.0401489,1.0,3.341675e-08,1.0,-56.5686,1.0,4.14e-07,1.0
0.0397614,1.0,3.341675e-08,1.0,-56.55744,1.0,5.65e-07,1.0
0.0393707,1.0,3.3432e-08,1.0,-56.150999999999996,1.0,8.45e-07,1.0
0.0389496,1.0,3.344725e-08,1.0,-55.30499999999999,1.0,4.01e-07,1.0
0.038555900000000004,1.0,3.320315e-08,1.0,-54.437400000000004,1.0,3.64e-07,1.0
0.038137800000000006,1.0,3.29895e-08,1.0,-54.0198,1.0,-8.789999999999999e-08,1.0
0.0377594,1.0,3.3004749999999996e-08,1.0,-53.55828,1.0,1.57e-07,1.0
0.037347399999999996,1.0,3.28064e-08,1.0,-53.10792,1.0,3.42e-07,1.0
0.0369629,1.0,3.259275e-08,1.0,-52.26192000000001,1.0,1.08e-07,1.0
0.036584500000000006,1.0,3.259275e-08,1.0,-51.82236,1.0,8.109999999999999e-07,1.0
0.0361603,1.0,3.259275e-08,1.0,-51.37199999999999,1.0,5.29e-07,1.0
0.0357635,1.0,3.259275e-08,1.0,-50.482079999999996,1.0,-1.59e-08,1.0
0.0353485,1.0,3.1997700000000003e-08,1.0,-49.119839999999996,1.0,2.56e-07,1.0
0.034964,1.0,3.173829999999999e-08,1.0,-47.29608,1.0,1.04e-07,1.0
0.034558099999999994,1.0,3.1478899999999995e-08,1.0,-44.966879999999996,1.0,1.51e-07,1.0
0.0341614,1.0,3.11432e-08,1.0,-42.15456,1.0,3.09e-07,1.0
0.0337555,1.0,3.089905e-08,1.0,-39.74867999999999,1.0,1.83e-07,1.0
0.033367900000000006,1.0,3.0502299999999994e-08,1.0,-36.815039999999996,1.0,-2.66e-07,1.0
0.0329559,1.0,3.02429e-08,1.0,-34.332264,1.0,1.35e-07,1.0
0.0325806,1.0,2.978515e-08,1.0,-29.794932,1.0,1.23e-07,1.0
0.0321808,1.0,2.96173e-08,1.0,-25.13124,1.0,2.21e-07,1.0
0.0317657,1.0,2.915955e-08,1.0,-18.840456,1.0,-3.05e-09,1.0
0.031384300000000004,1.0,2.8945899999999998e-08,1.0,-12.925404,1.0,4.0300000000000004e-08,1.0
0.0309723,1.0,2.8762799999999997e-08,1.0,-8.06616,1.0,3.07e-07,1.0
0.030545,1.0,2.874755e-08,1.0,-5.320692,1.0,-8.150000000000001e-08,1.0
0.030160500000000003,1.0,2.871705e-08,1.0,-3.1530744,1.0,3.5e-07,1.0
0.029769900000000002,1.0,2.86865e-08,1.0,-2.0753171999999998,1.0,8.67e-08,1.0
0.0293579,1.0,2.86865e-08,1.0,-0.9540539999999998,1.0,-1.04e-08,1.0
0.0289764,1.0,2.8701799999999994e-08,1.0,-0.9599868,1.0,-5.76e-07,1.0
0.028573599999999998,1.0,2.8671249999999996e-08,1.0,-0.421326,1.0,-2.43e-07,1.0
0.0281616,1.0,2.8671249999999996e-08,1.0,-0.423414,1.0,-3.53e-07,1.0
0.0277557,1.0,2.8762799999999997e-08,1.0,-0.421434,1.0,-1.59e-08,1.0
0.027377299999999997,1.0,2.8701799999999994e-08,1.0,-0.42264360000000006,1.0,-1.4e-07,1.0
0.0269836,1.0,2.86865e-08,1.0,-0.955152,1.0,-3.34e-07,1.0
0.026577800000000002,1.0,2.871705e-08,1.0,-2.0720232,1.0,-2.67e-07,1.0
0.026187099999999998,1.0,2.8671249999999996e-08,1.0,-5.882076,1.0,-2.66e-07,1.0
0.0257813,1.0,2.893065e-08,1.0,-11.309327999999999,1.0,-6.740000000000001e-08,1.0
0.0253967,1.0,2.8884899999999998e-08,1.0,-17.295768000000002,1.0,2.51e-07,1.0
0.024996900000000002,1.0,2.874755e-08,1.0,-22.748292,1.0,-2.01e-07,1.0
0.0245728,1.0,2.7832049999999997e-08,1.0,-27.564695999999998,1.0,-3.56e-07,1.0
0.0241821,1.0,2.6824949999999998e-08,1.0,-32.003172,1.0,-1.1e-07,1.0
0.0237854,1.0,2.549745e-08,1.0,-35.200188,1.0,-4.34e-07,1.0
0.0233887,1.0,2.42157e-08,1.0,-38.089439999999996,1.0,-1.3800000000000002e-07,1.0
0.0229736,1.0,2.2909549999999997e-08,1.0,-39.77064,1.0,-3.89e-07,1.0
0.022580000000000003,1.0,2.17987e-08,1.0,-40.48452,1.0,-6.04e-07,1.0
0.022177099999999998,1.0,2.0960999999999998e-08,1.0,-40.62743999999999,1.0,-4.7200000000000004e-07,1.0
0.0217682,1.0,1.96396e-08,1.0,-41.72616,1.0,-3.95e-07,1.0
0.0213867,1.0,1.8997200000000002e-08,1.0,-43.74756000000001,1.0,-4.1200000000000004e-07,1.0
0.020993,1.0,1.83609e-08,1.0,-46.60415999999999,1.0,-2.37e-07,1.0
0.0205933,1.0,1.8060299999999997e-08,1.0,-49.317479999999996,1.0,-4.86e-07,1.0
0.020202599999999998,1.0,1.78543e-08,1.0,-51.43787999999999,1.0,-5.45e-07,1.0
0.0197815,1.0,1.766205e-08,1.0,-52.82243999999999,1.0,-3.6e-07,1.0
0.0193878,1.0,1.742095e-08,1.0,-54.99756000000001,1.0,-6.67e-07,1.0
0.018991099999999997,1.0,1.725465e-08,1.0,-56.48076,1.0,-4.51e-07,1.0
0.0185883,1.0,1.740265e-08,1.0,-57.19500000000001,1.0,-7.85e-07,1.0
0.0181946,1.0,1.7410299999999995e-08,1.0,-59.007600000000004,1.0,-5.35e-07,1.0
0.0177887,1.0,1.734925e-08,1.0,-59.72184,1.0,-4.870000000000001e-07,1.0
0.0173737,1.0,1.739805e-08,1.0,-60.43572,1.0,-1.3e-06,1.0
0.0169891,1.0,1.7385849999999996e-08,1.0,-62.22672,1.0,-6.77e-07,1.0
0.0165833,1.0,1.73935e-08,1.0,-63.74267999999999,1.0,-6.54e-07,1.0
0.0162018,1.0,1.74179e-08,1.0,-65.54448,1.0,-5.93e-07,1.0
0.015808100000000002,1.0,1.740875e-08,1.0,-67.36824,1.0,-8.12e-07,1.0
0.015390000000000001,1.0,1.7451499999999996e-08,1.0,-68.48892000000001,1.0,-1.33e-06,1.0
0.015011600000000002,1.0,1.724395e-08,1.0,-69.43356,1.0,-7.49e-07,1.0
0.014621,1.0,1.67618e-08,1.0,-70.3674,1.0,-6.95e-07,1.0
0.014199799999999999,1.0,1.6568e-08,1.0,-70.63127999999999,1.0,-8.68e-07,1.0
0.0138123,1.0,1.6081249999999997e-08,1.0,-71.57592000000001,1.0,-1.02e-06,1.0
0.0133942,1.0,1.5911850000000002e-08,1.0,-71.4222,1.0,-7.359999999999999e-07,1.0
0.0129944,1.0,1.59012e-08,1.0,-71.91648,1.0,-1.22e-06,1.0
0.0126068,1.0,1.594085e-08,1.0,-72.60875999999999,1.0,-1.15e-06,1.0
0.0121918,1.0,1.5878299999999998e-08,1.0,-73.13615999999999,1.0,-9.709999999999999e-07,1.0
0.0118011,1.0,1.5895099999999997e-08,1.0,-73.13615999999999,1.0,-1.01e-06,1.0
0.011413600000000001,1.0,1.59088e-08,1.0,-73.125,1.0,-1.24e-06,1.0
0.0110016,1.0,1.57089e-08,1.0,-72.42192,1.0,-1.12e-06,1.0
0.0105988,1.0,1.524965e-08,1.0,-70.2684,1.0,-9.679999999999999e-07,1.0
0.0101959,1.0,1.5007e-08,1.0,-68.58756,1.0,-1.35e-06,1.0
0.00980835,1.0,1.475985e-08,1.0,-67.80744000000001,1.0,-1.16e-06,1.0
0.00942078,1.0,1.4610299999999998e-08,1.0,-66.78576,1.0,-9.279999999999999e-07,1.0
0.00901794,1.0,1.41495e-08,1.0,-63.63288,1.0,-8.109999999999999e-07,1.0
0.008596799999999998,1.0,1.3731399999999999e-08,1.0,-58.74372000000001,1.0,-1.52e-06,1.0
0.00820007,1.0,1.327055e-08,1.0,-54.459360000000004,1.0,-9.22e-07,1.0
0.00782776,1.0,1.304625e-08,1.0,-49.998599999999996,1.0,-7.78e-07,1.0
0.00742493,1.0,1.263125e-08,1.0,-47.252159999999996,1.0,-1.37e-06,1.0
0.00698853,1.0,1.2655649999999999e-08,1.0,-45.36252,1.0,-1.59e-06,1.0
0.0065979,1.0,1.2426749999999999e-08,1.0,-43.472879999999996,1.0,-1.26e-06,1.0
0.00621948,1.0,1.2210099999999999e-08,1.0,-42.48396,1.0,-9.959999999999999e-07,1.0
0.00581665,1.0,1.221315e-08,1.0,-40.56156,1.0,-1.59e-06,1.0
0.00542603,1.0,1.154325e-08,1.0,-39.078359999999996,1.0,-1.23e-06,1.0
0.00502319,1.0,1.0498049999999999e-08,1.0,-37.672200000000004,1.0,-1.06e-06,1.0
0.00459595,1.0,9.605399999999999e-09,1.0,-37.28772,1.0,-1.82e-06,1.0
0.00421448,1.0,9.01185e-09,1.0,-37.694160000000004,1.0,-1.48e-06,1.0
0.00381165,1.0,8.76925e-09,1.0,-37.28772,1.0,-1.27e-06,1.0
0.00342712,1.0,7.925399999999998e-09,1.0,-37.29852,1.0,-1.46e-06,1.0
0.00301208,1.0,7.6477e-09,1.0,-38.16647999999999,1.0,-1.44e-06,1.0
0.00262451,1.0,7.449349999999999e-09,1.0,-39.078359999999996,1.0,-8.179999999999999e-07,1.0
0.00222473,1.0,7.258599999999999e-09,1.0,-39.53988,1.0,-1.39e-06,1.0
0.00182495,1.0,7.009899999999998e-09,1.0,-38.68272,1.0,-1.31e-06,1.0
0.00139465,1.0,6.6146999999999995e-09,1.0,-36.8262,1.0,-1.85e-06,1.0
0.00101318,1.0,6.57805e-09,1.0,-34.98047999999999,1.0,-1.8e-06,1.0
0.000610352,1.0,6.65285e-09,1.0,-33.519276000000005,1.0,-1.91e-06,1.0
0.000228882,1.0,6.59945e-09,1.0,-33.541272000000006,1.0,-1.77e-06,1.0
-0.00017395,1.0,6.642149999999999e-09,1.0,-33.530255999999994,1.0,-1.77e-06,1.0
-0.0005615230000000001,1.0,6.817649999999999e-09,1.0,-31.695552,1.0,-1.31e-06,1.0
-0.0009704589999999999,1.0,7.019049999999999e-09,1.0,-31.311036,1.0,-1.57e-06,1.0
-0.00137329,1.0,7.19145e-09,1.0,-30.948479999999996,1.0,-1.43e-06,1.0
-0.00177002,1.0,7.27385e-09,1.0,-33.277572,1.0,-1.91e-06,1.0
-0.00216675,1.0,7.9117e-09,1.0,-37.716120000000004,1.0,-1.86e-06,1.0
-0.00257568,1.0,8.107e-09,1.0,-38.57292,1.0,-1.46e-06,1.0
-0.00299988,1.0,8.3435e-09,1.0,-38.1114,1.0,-1.98e-06,1.0
-0.0033844,1.0,8.589149999999998e-09,1.0,-37.72692,1.0,-1.97e-06,1.0
-0.00378418,1.0,8.5861e-09,1.0,-38.95739999999999,1.0,-2.26e-06,1.0
-0.00418396,1.0,8.80735e-09,1.0,-39.74867999999999,1.0,-2.4e-06,1.0
-0.00457764,1.0,8.80735e-09,1.0,-43.32996,1.0,-2.04e-06,1.0
-0.00497131,1.0,9.426899999999999e-09,1.0,-47.48292,1.0,-1.92e-06,1.0
-0.00538635,1.0,9.24685e-09,1.0,-50.77872,1.0,-2.22e-06,1.0
-0.00577698,1.0,9.1812e-09,1.0,-54.69012,1.0,-2.22e-06,1.0
-0.00616455,1.0,9.37195e-09,1.0,-56.238839999999996,1.0,-2.25e-06,1.0
-0.00657043,1.0,9.42385e-09,1.0,-57.96396,1.0,-2.06e-06,1.0
-0.00697327,1.0,9.359749999999999e-09,1.0,-57.359519999999996,1.0,-2.25e-06,1.0
-0.0073822,1.0,9.6161e-09,1.0,-55.75572,1.0,-2.1e-06,1.0
-0.00776978,1.0,9.3582e-09,1.0,-52.459559999999996,1.0,-1.93e-06,1.0
-0.00818176,1.0,9.001149999999999e-09,1.0,-49.63608,1.0,-2.61e-06,1.0
-0.00856323,1.0,8.7921e-09,1.0,-44.97804,1.0,-2.2e-06,1.0
-0.00898438,1.0,8.799749999999999e-09,1.0,-39.74867999999999,1.0,-2.26e-06,1.0
-0.0093811,1.0,8.587649999999998e-09,1.0,-34.859628,1.0,-2.72e-06,1.0
-0.00975952,1.0,8.386249999999998e-09,1.0,-32.321772,1.0,-2.31e-06,1.0
-0.0101685,1.0,8.33895e-09,1.0,-29.805912,1.0,-2.58e-06,1.0
-0.010571299999999999,1.0,8.16195e-09,1.0,-28.828116,1.0,-2.81e-06,1.0
-0.0109741,1.0,7.618699999999999e-09,1.0,-25.490484,1.0,-2.56e-06,1.0
-0.01138,1.0,7.03735e-09,1.0,-23.912855999999998,1.0,-2.71e-06,1.0
-0.0117889,1.0,5.95095e-09,1.0,-22.452768,1.0,-2.98e-06,1.0
-0.0121735,1.0,5.05675e-09,1.0,-22.407732000000003,1.0,-3.03e-06,1.0
-0.0125824,1.0,4.61426e-09,1.0,-23.407488,1.0,-2.95e-06,1.0
-0.0129608,1.0,3.933715e-09,1.0,-23.055912,1.0,-2.82e-06,1.0
-0.0133606,1.0,3.5217299999999996e-09,1.0,-25.712387999999997,1.0,-2.73e-06,1.0
-0.0137665,1.0,3.25165e-09,1.0,-27.026351999999996,1.0,-2.97e-06,1.0
-0.0141876,1.0,2.812195e-09,1.0,-30.025620000000004,1.0,-2.79e-06,1.0
-0.014581299999999998,1.0,2.58484e-09,1.0,-29.025863999999995,1.0,-3.04e-06,1.0
-0.014968899999999999,1.0,2.2003149999999998e-09,1.0,-27.993168000000004,1.0,-3.36e-06,1.0
-0.0153687,1.0,1.76544e-09,1.0,-26.77806,1.0,-2.95e-06,1.0
-0.0157562,1.0,1.34735e-09,1.0,-25.499267999999997,1.0,-3.23e-06,1.0
-0.0161804,1.0,1.31836e-09,1.0,-26.059571999999996,1.0,-3.7e-06,1.0
-0.016568,1.0,8.270249999999999e-10,1.0,-24.620364,1.0,-3.2e-06,1.0
-0.016955599999999998,1.0,6.759650000000001e-10,1.0,-25.193844000000002,1.0,-3.64e-06,1.0
-0.017361500000000002,1.0,6.19505e-10,1.0,-23.056992,1.0,-3.42e-06,1.0
-0.0177734,1.0,6.042500000000001e-10,1.0,-19.818251999999998,1.0,-3.63e-06,1.0
-0.0181641,1.0,8.087149999999999e-10,1.0,-19.3689,1.0,-3.68e-06,1.0
-0.018563800000000002,1.0,8.239749999999999e-10,1.0,-19.365588,1.0,-3.27e-06,1.0
-0.018972799999999998,1.0,1.065065e-09,1.0,-18.933839999999996,1.0,-3.85e-06,1.0
-0.0193726,1.0,1.094055e-09,1.0,-15.970824000000002,1.0,-3.58e-06,1.0
-0.0197601,1.0,1.3320899999999999e-09,1.0,-10.36998,1.0,-4.12e-06,1.0
-0.0201385,1.0,1.4190649999999998e-09,1.0,-7.7552639999999995,1.0,-3.49e-06,1.0
-0.020575,1.0,1.9103999999999995e-09,1.0,-5.100948000000001,1.0,-3.72e-06,1.0
-0.0209595,1.0,2.5436399999999997e-09,1.0,-4.757076,1.0,-3.55e-06,1.0
-0.021334799999999998,1.0,3.02582e-09,1.0,-8.607780000000002,1.0,-3.84e-06,1.0
-0.021749900000000003,1.0,3.48816e-09,1.0,-8.323236,1.0,-3.95e-06,1.0
-0.022116099999999996,1.0,3.463745e-09,1.0,-8.181504,1.0,-4.02e-06,1.0
-0.022522,1.0,3.63312e-09,1.0,-6.1644239999999995,1.0,-4.17e-06,1.0
-0.022943099999999998,1.0,3.6178599999999997e-09,1.0,-6.16662,1.0,-4.28e-06,1.0
-0.023349,1.0,3.6666849999999995e-09,1.0,-4.250628,1.0,-3.86e-06,1.0
-0.023712200000000003,1.0,3.861999999999999e-09,1.0,-2.3214096,1.0,-4.21e-06,1.0
-0.0241364,1.0,4.042055e-09,1.0,-0.4271472,1.0,-4.29e-06,1.0
-0.024527,1.0,4.29077e-09,1.0,-2.2313232,1.0,-4.18e-06,1.0
-0.024917599999999998,1.0,4.33502e-09,1.0,-2.2269276000000002,1.0,-4.45e-06,1.0
-0.025296000000000003,1.0,4.107664999999999e-09,1.0,-5.978772,1.0,-4.05e-06,1.0
-0.025714099999999997,1.0,3.2012949999999997e-09,1.0,-10.483163999999999,1.0,-4.02e-06,1.0
-0.0261108,1.0,2.137755e-09,1.0,-11.627928,1.0,-4.39e-06,1.0
-0.0265106,1.0,1.26343e-09,1.0,-13.115484,1.0,-4.08e-06,1.0
-0.0269135,1.0,3.9825449999999993e-10,1.0,-14.681016,1.0,-4.53e-06,1.0
-0.027310200000000003,1.0,-2.7160650000000003e-10,1.0,-16.24986,1.0,-4.36e-06,1.0
-0.0277283,1.0,-9.01795e-10,1.0,-18.21204,1.0,-4.62e-06,1.0
-0.0281128,1.0,-1.283265e-09,1.0,-15.630264,1.0,-4.52e-06,1.0
-0.028509500000000004,1.0,-1.57776e-09,1.0,-12.663936000000001,1.0,-4.59e-06,1.0
-0.028897100000000002,1.0,-1.74103e-09,1.0,-4.660416,1.0,-4.84e-06,1.0
-0.029306,1.0,-1.9515999999999998e-09,1.0,-0.4262688,1.0,-4.68e-06,1.0
-0.029699700000000002,1.0,-1.9897449999999997e-09,1.0,-0.4273668,1.0,-4.76e-06,1.0
-0.030102499999999997,1.0,-1.96991e-09,1.0,3.9704760000000006,1.0,-5.25e-06,1.0
-0.030502299999999996,1.0,-2.22168e-09,1.0,4.162716,1.0,-4.79e-06,1.0
-0.030883799999999996,1.0,-2.4627699999999998e-09,1.0,4.3538760000000005,1.0,-4.61e-06,1.0
-0.0312927,1.0,-2.41852e-09,1.0,-0.4273668,1.0,-5.25e-06,1.0
-0.0316833,1.0,-2.459715e-09,1.0,4.357187999999999,1.0,-5.15e-06,1.0
-0.0320709,1.0,-2.197265e-09,1.0,4.167108,1.0,-4.81e-06,1.0
-0.032486,1.0,-2.1697999999999997e-09,1.0,4.162716,1.0,-5.3e-06,1.0
-0.0328766,1.0,-2.064515e-09,1.0,8.375976,1.0,-5.23e-06,1.0
-0.0332825,1.0,-1.5686049999999999e-09,1.0,11.382948,1.0,-5.22e-06,1.0
-0.033663900000000004,1.0,-1.0833749999999999e-09,1.0,14.266836000000001,1.0,-5.19e-06,1.0
-0.0340759,1.0,-8.377099999999999e-10,1.0,17.336412000000003,1.0,-5.52e-06,1.0
-0.034442099999999996,1.0,-6.866450000000001e-10,1.0,20.209356,1.0,-5.1e-06,1.0
-0.0348419,1.0,-6.98855e-10,1.0,16.319088,1.0,-5.82e-06,1.0
-0.0352264,1.0,-6.97325e-10,1.0,16.321284,1.0,-5.3e-06,1.0
-0.0356445,1.0,-9.170549999999999e-10,1.0,16.820064,1.0,-5.46e-06,1.0
-0.03603819999999999,1.0,-1.1322e-09,1.0,17.894519999999996,1.0,-5.62e-06,1.0
-0.036441,1.0,-1.75934e-09,1.0,16.442136,1.0,-5.98e-06,1.0
-0.036831699999999995,1.0,-2.479555e-09,1.0,14.45472,1.0,-5.82e-06,1.0
-0.0372375,1.0,-2.653505e-09,1.0,15.12378,1.0,-5.97e-06,1.0
-0.037619,1.0,-2.7481099999999995e-09,1.0,15.121583999999999,1.0,-5.52e-06,1.0
-0.038031,1.0,-2.5894149999999996e-09,1.0,20.208239999999996,1.0,-5.72e-06,1.0
-0.0384186,1.0,-2.4734499999999996e-09,1.0,34.859628,1.0,-5.83e-06,1.0
-0.038797000000000005,1.0,-2.2140500000000002e-09,1.0,42.30828,1.0,-6.06e-06,1.0
-0.0392181,1.0,-2.2384649999999997e-09,1.0,46.571039999999996,1.0,-6e-06,1.0
-0.0396118,1.0,-2.2003149999999998e-09,1.0,46.571039999999996,1.0,-6.13e-06,1.0
-0.0400055,1.0,-2.137755e-09,1.0,46.60415999999999,1.0,-6.12e-06,1.0
-0.040396100000000004,1.0,-2.21863e-09,1.0,52.69032000000001,1.0,-5.99e-06,1.0
-0.04080809999999999,1.0,-2.4627699999999998e-09,1.0,61.50132000000001,1.0,-6.3e-06,1.0
-0.041180400000000006,1.0,-2.8686500000000004e-09,1.0,74.36627999999999,1.0,-5.61e-06,1.0
-0.04158630000000001,1.0,-3.0410749999999997e-09,1.0,85.34195999999999,1.0,-5.53e-06,1.0
-0.0420258,1.0,-3.5827649999999997e-09,1.0,99.06372,1.0,-5.71e-06,1.0
-0.042385900000000004,1.0,-3.7124649999999998e-09,1.0,104.42519999999999,1.0,-6.26e-06,1.0
-0.0427734,1.0,-3.75519e-09,1.0,105.83135999999999,1.0,-5.41e-06,1.0
-0.0431885,1.0,-3.6972049999999995e-09,1.0,105.8202,1.0,-5.77e-06,1.0
-0.0435883,1.0,-3.71704e-09,1.0,105.8202,1.0,-5.63e-06,1.0
-0.044000199999999996,1.0,-3.90167e-09,1.0,107.50139999999999,1.0,-6.1e-06,1.0
-0.044409199999999996,1.0,-4.370115e-09,1.0,109.54476,1.0,-6.08e-06,1.0
-0.04479980000000001,1.0,-3.933715e-09,1.0,107.5122,1.0,-5.77e-06,1.0
-0.0452148,1.0,-3.69568e-09,1.0,84.5838,1.0,-6.15e-06,1.0
-0.0456268,1.0,-2.8533949999999997e-09,1.0,77.75027999999999,1.0,-6.27e-06,1.0
-0.046038800000000005,1.0,-1.948545e-09,1.0,74.1798,1.0,-6.68e-06,1.0
-0.0464294,1.0,-1.09253e-09,1.0,76.32216,1.0,-6.83e-06,1.0
-0.0468475,1.0,-8.86535e-10,1.0,76.88231999999999,1.0,-6.88e-06,1.0
-0.047262599999999995,1.0,-9.033199999999999e-10,1.0,84.5946,1.0,-6.65e-06,1.0
-0.047641,1.0,-1.10321e-09,1.0,94.79016,1.0,-6.47e-06,1.0
-0.048043800000000005,1.0,-1.5563949999999998e-09,1.0,100.96452000000001,1.0,-6.56e-06,1.0
-0.0484375,1.0,-1.756285e-09,1.0,110.97288,1.0,-6.25e-06,1.0
-0.0488403,1.0,-1.99127e-09,1.0,118.41048,1.0,-6.8e-06,1.0
-0.049252300000000006,1.0,-2.22931e-09,1.0,122.35463999999999,1.0,-7.21e-06,1.0
-0.0496979,1.0,-2.4246200000000003e-09,1.0,120.05855999999999,1.0,-7.03e-06,1.0
-0.050048800000000004,1.0,-2.8244e-09,1.0,124.05744,1.0,-6.92e-06,1.0
-0.050476099999999996,1.0,-3.030395e-09,1.0,129.1662,1.0,-6.59e-06,1.0
-0.0509033,1.0,-3.7094099999999995e-09,1.0,126.43055999999999,1.0,-7.45e-06,1.0
-0.051330600000000004,1.0,-3.678895e-09,1.0,116.34515999999999,1.0,-7.17e-06,1.0
-0.05169680000000001,1.0,-4.098509999999999e-09,1.0,95.58108,1.0,-7.64e-06,1.0
-0.052093499999999994,1.0,-4.273985e-09,1.0,69.55452,1.0,-7.69e-06,1.0
-0.052490199999999994,1.0,-4.0740949999999995e-09,1.0,44.813159999999996,1.0,-7.79e-06,1.0
-0.052948,1.0,-3.897095e-09,1.0,41.627159999999996,1.0,-7.9e-06,1.0
-0.053283699999999996,1.0,-3.9093e-09,1.0,49.119839999999996,1.0,-7.99e-06,1.0
-0.0537415,1.0,-3.674315e-09,1.0,68.9832,1.0,-7.94e-06,1.0
-0.054077099999999996,1.0,-2.97699e-09,1.0,93.77928,1.0,-7.86e-06,1.0
-0.054473900000000006,1.0,-2.3086550000000002e-09,1.0,103.82075999999999,1.0,-7.69e-06,1.0
-0.054931600000000004,1.0,-1.6815199999999998e-09,1.0,107.5122,1.0,-8.01e-06,1.0
-0.055297900000000004,1.0,-1.0314949999999999e-09,1.0,113.18112,1.0,-7.75e-06,1.0
-0.055694600000000004,1.0,-8.2245e-10,1.0,128.01276000000001,1.0,-8.38e-06,1.0
-0.0560303,1.0,-8.773799999999999e-10,1.0,140.5152,1.0,-8.26e-06,1.0
-0.056488,1.0,-1.09558e-09,1.0,153.28116,1.0,-8.54e-06,1.0
-0.056884800000000006,1.0,-1.3015749999999998e-09,1.0,164.36628000000002,1.0,-8.19e-06,1.0
-0.057312,1.0,-1.57318e-09,1.0,163.27872,1.0,-8.32e-06,1.0
-0.0577087,1.0,-2.04468e-09,1.0,159.33455999999998,1.0,-8.33e-06,1.0
-0.058075,1.0,-2.4581899999999998e-09,1.0,153.96228000000002,1.0,-8.17e-06,1.0
-0.0584717,1.0,-3.0410749999999997e-09,1.0,155.78604,1.0,-8.18e-06,1.0
-0.058898900000000004,1.0,-3.297425e-09,1.0,154.50083999999998,1.0,-7.96e-06,1.0
-0.0592957,1.0,-3.52783e-09,1.0,153.06156000000001,1.0,-8.58e-06,1.0
-0.0597229,1.0,-3.39203e-09,1.0,146.7774,1.0,-8.69e-06,1.0
-0.0600891,1.0,-3.3844e-09,1.0,146.76623999999998,1.0,-9.16e-06,1.0
-0.060485800000000006,1.0,-3.58429e-09,1.0,153.07236,1.0,-8.97e-06,1.0
-0.0609131,1.0,-3.4805299999999998e-09,1.0,153.08352,1.0,-9.07e-06,1.0
-0.0612793,1.0,-3.5522449999999997e-09,1.0,144.86579999999998,1.0,-8.97e-06,1.0
-0.061676,1.0,-3.733825e-09,1.0,142.70148,1.0,-9.09e-06,1.0
-0.0621033,1.0,-3.54767e-09,1.0,138.47184000000001,1.0,-9.18e-06,1.0
-0.062469500000000004,1.0,-3.09906e-09,1.0,129.13344,1.0,-9.48e-06,1.0
-0.0628052,1.0,-2.885435e-09,1.0,128.88072,1.0,-9.52e-06,1.0
-0.06329349999999999,1.0,-2.2781350000000002e-09,1.0,132.56099999999998,1.0,-9.19e-06,1.0
-0.0636292,1.0,-1.582335e-09,1.0,133.69248,1.0,-9.48e-06,1.0
-0.0640564,1.0,-1.3580300000000001e-09,1.0,140.26248,1.0,-9.59e-06,1.0
-0.0644531,1.0,-1.55792e-09,1.0,147.65616,1.0,-9.37e-06,1.0
-0.0648193,1.0,-1.57776e-09,1.0,154.52280000000002,1.0,-9.45e-06,1.0
-0.06527709999999999,1.0,-2.227785e-09,1.0,170.40888,1.0,-9.5e-06,1.0
-0.0656433,1.0,-2.659605e-09,1.0,189.95364,1.0,-9.94e-06,1.0
-0.0660095,1.0,-3.01819e-09,1.0,202.19256000000001,1.0,-9.57e-06,1.0
-0.0664368,1.0,-2.9983499999999997e-09,1.0,197.49024000000003,1.0,-9.76e-06,1.0
-0.06689450000000001,1.0,-3.460695e-09,1.0,199.56672,1.0,-1e-05,1.0
-0.06726069999999999,1.0,-3.689575e-09,1.0,186.70176,1.0,-9.97e-06,1.0
-0.067688,1.0,-3.852845e-09,1.0,171.36468,1.0,-9.71e-06,1.0
-0.0680542,1.0,-4.37317e-09,1.0,170.03555999999998,1.0,-1e-05,1.0
-0.0684814,1.0,-4.165649999999999e-09,1.0,170.73864,1.0,-1.0199999999999999e-05,1.0
-0.0688171,1.0,-3.87726e-09,1.0,163.15812,1.0,-1.0199999999999999e-05,1.0
-0.0691833,1.0,-3.73993e-09,1.0,164.35548,1.0,-1.0300000000000001e-05,1.0
-0.06964110000000001,1.0,-3.723145e-09,1.0,172.37555999999998,1.0,-1.06e-05,1.0
-0.0700684,1.0,-3.302e-09,1.0,166.87115999999997,1.0,-1.04e-05,1.0
-0.0704956,1.0,-2.64435e-09,1.0,169.15644,1.0,-1.0800000000000002e-05,1.0
-0.0708923,1.0,-2.03247e-09,1.0,170.74944000000002,1.0,-1.04e-05,1.0
-0.0712585,1.0,-1.21765e-09,1.0,168.48648,1.0,-1.0199999999999999e-05,1.0
-0.0717163,1.0,-7.69045e-10,1.0,172.80396000000002,1.0,-1.0800000000000002e-05,1.0
-0.072113,1.0,-4.0435799999999997e-10,1.0,176.37444000000002,1.0,-1.06e-05,1.0
-0.0724792,1.0,-3.341675e-10,1.0,182.63664,1.0,-1.1e-05,1.0
-0.072876,1.0,-5.17275e-10,1.0,189.3492,1.0,-1.12e-05,1.0
-0.0732727,1.0,-9.277349999999999e-10,1.0,193.80996,1.0,-1.1e-05,1.0
-0.0736694,1.0,-1.6326899999999999e-09,1.0,195.27084000000002,1.0,-1.11e-05,1.0
-0.0740967,1.0,-2.241515e-09,1.0,202.20336,1.0,-1.13e-05,1.0
-0.0744934,1.0,-2.8091449999999996e-09,1.0,212.94791999999998,1.0,-1.1599999999999999e-05,1.0
-0.07492069999999999,1.0,-3.04718e-09,1.0,227.49372,1.0,-1.1599999999999999e-05,1.0
-0.07531739999999999,1.0,-3.263855e-09,1.0,232.67952,1.0,-1.1599999999999999e-05,1.0
-0.07577510000000001,1.0,-3.5079949999999995e-09,1.0,226.80180000000001,1.0,-1.17e-05,1.0
-0.0761414,1.0,-3.282165e-09,1.0,218.45231999999996,1.0,-1.21e-05,1.0
-0.0765991,1.0,-3.07312e-09,1.0,203.346,1.0,-1.18e-05,1.0
-0.07693480000000001,1.0,-2.40326e-09,1.0,194.4252,1.0,-1.24e-05,1.0
-0.07733150000000001,1.0,-1.6037e-09,1.0,187.75619999999998,1.0,-1.25e-05,1.0
-0.0777588,1.0,-8.78905e-10,1.0,186.50376,1.0,-1.21e-05,1.0
-0.078125,1.0,-3.082275e-10,1.0,195.36984,1.0,-1.26e-05,1.0
-0.0785217,1.0,-5.0353999999999995e-11,1.0,200.98404,1.0,-1.26e-05,1.0
-0.078949,1.0,-5.6457499999999996e-11,1.0,209.817,1.0,-1.3300000000000001e-05,1.0
-0.0792847,1.0,-3.234865e-10,1.0,217.39752,1.0,-1.27e-05,1.0
-0.07971189999999999,1.0,-3.082275e-10,1.0,225.54935999999998,1.0,-1.31e-05,1.0
-0.0801392,1.0,-5.09645e-10,1.0,223.79148,1.0,-1.36e-05,1.0
-0.08047489999999999,1.0,-7.644649999999999e-10,1.0,225.06588000000002,1.0,-1.3300000000000001e-05,1.0
-0.0809021,1.0,-9.6588e-10,1.0,227.84544,1.0,-1.32e-05,1.0
-0.0812988,1.0,-1.58386e-09,1.0,223.90127999999999,1.0,-1.3300000000000001e-05,1.0
-0.08172610000000001,1.0,-2.220155e-09,1.0,222.30828000000002,1.0,-1.3500000000000001e-05,1.0
-0.0820923,1.0,-2.58484e-09,1.0,223.16544,1.0,-1.32e-05,1.0
-0.082428,1.0,-3.082275e-09,1.0,222.05556,1.0,-1.3500000000000001e-05,1.0
-0.0827942,1.0,-3.2592749999999996e-09,1.0,204.60924000000003,1.0,-1.36e-05,1.0
-0.08325199999999999,1.0,-3.3203149999999996e-09,1.0,185.91048,1.0,-1.3800000000000002e-05,1.0
-0.0836792,1.0,-3.007505e-09,1.0,168.14592,1.0,-1.36e-05,1.0
-0.08404539999999999,1.0,-2.43683e-09,1.0,145.7118,1.0,-1.4099999999999999e-05,1.0
-0.0844421,1.0,-1.789855e-09,1.0,132.08868,1.0,-1.3699999999999998e-05,1.0
-0.0847778,1.0,-1.7425549999999999e-09,1.0,132.06671999999998,1.0,-1.4000000000000001e-05,1.0
-0.0851746,1.0,-1.779175e-09,1.0,139.95468,1.0,-1.42e-05,1.0
-0.0856018,1.0,-1.7608649999999998e-09,1.0,149.41404,1.0,-1.4000000000000001e-05,1.0
-0.0860596,1.0,-1.5899649999999999e-09,1.0,163.28988,1.0,-1.4499999999999998e-05,1.0
-0.0863953,1.0,-1.6113299999999999e-09,1.0,179.56044000000003,1.0,-1.4000000000000001e-05,1.0
-0.086792,1.0,-1.701355e-09,1.0,196.43544000000003,1.0,-1.4400000000000001e-05,1.0
-0.0871887,1.0,-1.52588e-09,1.0,212.56343999999999,1.0,-1.4300000000000002e-05,1.0
-0.08755489999999999,1.0,-2.0355199999999996e-09,1.0,228.80124,1.0,-1.4800000000000002e-05,1.0
-0.0879517,1.0,-2.19116e-09,1.0,246.92868000000004,1.0,-1.4400000000000001e-05,1.0
-0.0884094,1.0,-2.1942149999999995e-09,1.0,269.54963999999995,1.0,-1.47e-05,1.0
-0.08877560000000001,1.0,-1.7181399999999998e-09,1.0,281.55743999999993,1.0,-1.4599999999999999e-05,1.0
-0.08914180000000001,1.0,-1.6586299999999999e-09,1.0,289.87416,1.0,-1.51e-05,1.0
-0.0895691,1.0,-1.8631e-09,1.0,293.31288,1.0,-1.49e-05,1.0
-0.0899658,1.0,-1.628115e-09,1.0,299.00376000000006,1.0,-1.4800000000000002e-05,1.0
-0.0903931,1.0,-2.038575e-09,1.0,300.53087999999997,1.0,-1.49e-05,1.0
-0.0907593,1.0,-2.4551400000000003e-09,1.0,300.04776000000004,1.0,-1.49e-05,1.0
-0.0911865,1.0,-2.687075e-09,1.0,292.15944,1.0,-1.49e-05,1.0
-0.09161380000000001,1.0,-3.09143e-09,1.0,273.77928,1.0,-1.55e-05,1.0
-0.09197999999999999,1.0,-3.512575e-09,1.0,260.00244,1.0,-1.56e-05,1.0
-0.0924072,1.0,-3.5018899999999998e-09,1.0,235.73376000000002,1.0,-1.59e-05,1.0
-0.092804,1.0,-3.2546999999999995e-09,1.0,224.31888000000004,1.0,-1.58e-05,1.0
-0.0931702,1.0,-2.581785e-09,1.0,211.46472,1.0,-1.6e-05,1.0
-0.0936279,1.0,-2.26288e-09,1.0,207.65268,1.0,-1.6100000000000002e-05,1.0
-0.0939941,1.0,-1.7807000000000003e-09,1.0,205.53228000000004,1.0,-1.62e-05,1.0
-0.0943604,1.0,-1.3031e-09,1.0,202.9176,1.0,-1.66e-05,1.0
-0.0947571,1.0,-9.902949999999998e-10,1.0,202.19256000000001,1.0,-1.58e-05,1.0
-0.0951538,1.0,-1.016235e-09,1.0,205.83972,1.0,-1.63e-05,1.0
-0.0955811,1.0,-1.065065e-09,1.0,209.3994,1.0,-1.64e-05,1.0
-0.0959778,1.0,-1.4953599999999999e-09,1.0,215.18928,1.0,-1.64e-05,1.0
-0.09640499999999999,1.0,-1.730345e-09,1.0,227.04335999999998,1.0,-1.67e-05,1.0
-0.0967407,1.0,-2.168275e-09,1.0,243.06156000000004,1.0,-1.65e-05,1.0
-0.09716799999999999,1.0,-2.7481099999999995e-09,1.0,261.90324,1.0,-1.66e-05,1.0
-0.09756469999999999,1.0,-3.416445e-09,1.0,269.56043999999997,1.0,-1.64e-05,1.0
-0.0980225,1.0,-3.645325e-09,1.0,264.10031999999995,1.0,-1.6899999999999997e-05,1.0
-0.09835819999999999,1.0,-3.67737e-09,1.0,264.10031999999995,1.0,-1.7199999999999998e-05,1.0
-0.0988159,1.0,-3.7033099999999997e-09,1.0,269.56043999999997,1.0,-1.76e-05,1.0
-0.09918210000000001,1.0,-3.6178599999999997e-09,1.0,264.57264,1.0,-1.75e-05,1.0
-0.0995483,1.0,-3.0151349999999996e-09,1.0,252.04824,1.0,-1.75e-05,1.0
-0.100006,1.0,-2.82898e-09,1.0,230.26248,1.0,-1.7199999999999998e-05,1.0
-0.10040299999999999,1.0,-1.95465e-09,1.0,220.66055999999998,1.0,-1.76e-05,1.0
-0.10082999999999999,1.0,-1.275635e-09,1.0,214.0686,1.0,-1.77e-05,1.0
-0.101135,1.0,-4.3792699999999993e-10,1.0,209.21256000000002,1.0,-1.8e-05,1.0
-0.10159299999999999,1.0,4.30298e-10,1.0,208.33379999999997,1.0,-1.8100000000000003e-05,1.0
-0.10202,1.0,1.01013e-09,1.0,216.43056,1.0,-1.85e-05,1.0
-0.102325,1.0,1.4831550000000001e-09,1.0,227.25216,1.0,-1.85e-05,1.0
-0.102783,1.0,2.171325e-09,1.0,239.89752,1.0,-1.86e-05,1.0
-0.10318,1.0,2.14386e-09,1.0,248.2362,1.0,-1.86e-05,1.0
-0.103577,1.0,1.1856099999999998e-09,1.0,260.45279999999997,1.0,-1.86e-05,1.0
-0.10391199999999999,1.0,-9.76565e-11,1.0,269.53848000000005,1.0,-1.86e-05,1.0
-0.10430899999999999,1.0,-1.1550899999999998e-09,1.0,274.74624,1.0,-1.87e-05,1.0
-0.104736,1.0,-2.204895e-09,1.0,272.80152,1.0,-1.89e-05,1.0
-0.105072,1.0,-2.775575e-09,1.0,265.59432,1.0,-1.86e-05,1.0
-0.10553,1.0,-3.279115e-09,1.0,255.86063999999996,1.0,-1.89e-05,1.0
-0.10583499999999998,1.0,-3.614805e-09,1.0,232.70148,1.0,-1.9e-05,1.0
-0.10635399999999999,1.0,-3.878785e-09,1.0,203.74128000000002,1.0,-1.92e-05,1.0
-0.106781,1.0,-3.64685e-09,1.0,179.54964,1.0,-1.91e-05,1.0
-0.107178,1.0,-3.3035299999999997e-09,1.0,166.86036000000001,1.0,-1.9399999999999997e-05,1.0
-0.107544,1.0,-2.99225e-09,1.0,155.80800000000002,1.0,-1.99e-05,1.0
-0.10790999999999999,1.0,-2.63977e-09,1.0,164.04768,1.0,-1.95e-05,1.0
-0.10833699999999999,1.0,-2.0065299999999997e-09,1.0,175.16591999999997,1.0,-2e-05,1.0
-0.108704,1.0,-1.141355e-09,1.0,186.92136,1.0,-2e-05,1.0
-0.10907,1.0,-2.975465e-10,1.0,198.48996,1.0,-2e-05,1.0
-0.10946700000000001,1.0,2.91443e-10,1.0,205.56504,1.0,-1.99e-05,1.0
-0.10986300000000002,1.0,5.661e-10,1.0,212.95908,1.0,-2.0300000000000002e-05,1.0
-0.11029100000000001,1.0,5.31005e-10,1.0,224.17595999999998,1.0,-2.0399999999999998e-05,1.0
-0.11071800000000001,1.0,5.72205e-10,1.0,235.20636,1.0,-2.0300000000000002e-05,1.0
-0.111115,1.0,1.602175e-10,1.0,248.47776,1.0,-2.07e-05,1.0
-0.111481,1.0,-6.2561e-11,1.0,258.73884,1.0,-2.01e-05,1.0
-0.111877,1.0,-7.827749999999999e-10,1.0,269.53848000000005,1.0,-2.05e-05,1.0
-0.112305,1.0,-1.408385e-09,1.0,280.42596000000003,1.0,-2.0600000000000003e-05,1.0
-0.11264,1.0,-2.033995e-09,1.0,282.22776,1.0,-2.08e-05,1.0
-0.113098,1.0,-2.435305e-09,1.0,276.6798,1.0,-2.11e-05,1.0
-0.113434,1.0,-3.048705e-09,1.0,253.28988000000004,1.0,-2.0600000000000003e-05,1.0
-0.11386099999999999,1.0,-2.63672e-09,1.0,223.16544,1.0,-2.09e-05,1.0
-0.114197,1.0,-2.2552499999999996e-09,1.0,203.09328000000002,1.0,-2.09e-05,1.0
-0.11465499999999999,1.0,-1.612855e-09,1.0,183.63636,1.0,-2.09e-05,1.0
-0.115051,1.0,-9.7809e-10,1.0,172.59516000000002,1.0,-2.15e-05,1.0
-0.115479,1.0,-1.2664799999999998e-10,1.0,179.52768,1.0,-2.11e-05,1.0
-0.115845,1.0,9.56725e-10,1.0,182.17512,1.0,-2.1e-05,1.0
-0.11624100000000001,1.0,1.6235349999999998e-09,1.0,186.69060000000002,1.0,-2.15e-05,1.0
-0.11666900000000001,1.0,1.905825e-09,1.0,191.20608,1.0,-2.12e-05,1.0
