Potential,potstdev,Photocurrent (nA),pcstdev,Phase (°),phstdev,DC Current (µA),dcCurrstdev
0.296051,1.0,4.1275e-07,1.0,-71.60904000000001,1.0,3.78e-05,1.0
0.29586799999999996,1.0,4.14276e-07,1.0,-71.8614,1.0,3.78e-05,1.0
0.295471,1.0,4.15039e-07,1.0,-72.13607999999999,1.0,3.76e-05,1.0
0.295074,1.0,4.1473399999999996e-07,1.0,-72.24624,1.0,3.68e-05,1.0
0.294617,1.0,4.153439999999999e-07,1.0,-72.32292000000001,1.0,3.64e-05,1.0
0.294281,1.0,4.1580200000000006e-07,1.0,-72.29016,1.0,3.65e-05,1.0
0.29388400000000003,1.0,4.1610699999999996e-07,1.0,-72.19116,1.0,3.65e-05,1.0
0.293427,1.0,4.1626e-07,1.0,-71.99352,1.0,3.570000000000001e-05,1.0
0.293091,1.0,4.159545e-07,1.0,-71.65296,1.0,3.59e-05,1.0
0.292664,1.0,4.156495e-07,1.0,-71.34515999999999,1.0,3.6e-05,1.0
0.292267,1.0,4.151915e-07,1.0,-71.14752,1.0,3.52e-05,1.0
0.29186999999999996,1.0,4.1442849999999994e-07,1.0,-71.01576,1.0,3.5100000000000006e-05,1.0
0.291504,1.0,4.13513e-07,1.0,-70.98264,1.0,3.54e-05,1.0
0.291138,1.0,4.129029999999999e-07,1.0,-71.02655999999999,1.0,3.53e-05,1.0
0.29068,1.0,4.11682e-07,1.0,-71.02655999999999,1.0,3.48e-05,1.0
0.29025300000000004,1.0,4.1137700000000004e-07,1.0,-71.09244,1.0,3.5e-05,1.0
0.289917,1.0,4.1107200000000004e-07,1.0,-71.13636,1.0,3.46e-05,1.0
0.289459,1.0,4.1107200000000004e-07,1.0,-71.26848,1.0,3.45e-05,1.0
0.289093,1.0,4.1137700000000004e-07,1.0,-71.47692,1.0,3.4399999999999996e-05,1.0
0.288696,1.0,4.1152949999999997e-07,1.0,-71.6418,1.0,3.41e-05,1.0
0.28833000000000003,1.0,4.1122449999999996e-07,1.0,-71.76275999999999,1.0,3.41e-05,1.0
0.287933,1.0,4.1091899999999995e-07,1.0,-71.8506,1.0,3.34e-05,1.0
0.287445,1.0,4.1046149999999997e-07,1.0,-71.89452,1.0,3.37e-05,1.0
0.287109,1.0,4.09851e-07,1.0,-71.81748,1.0,3.3799999999999995e-05,1.0
0.286682,1.0,4.08478e-07,1.0,-71.72964,1.0,3.34e-05,1.0
0.286346,1.0,4.081725e-07,1.0,-71.60904000000001,1.0,3.3299999999999996e-05,1.0
0.285889,1.0,4.075625e-07,1.0,-71.35632000000001,1.0,3.289999999999999e-05,1.0
0.285461,1.0,4.075625e-07,1.0,-71.08164000000001,1.0,3.27e-05,1.0
0.285065,1.0,4.0725700000000003e-07,1.0,-70.81775999999999,1.0,3.26e-05,1.0
0.284698,1.0,4.063415e-07,1.0,-70.64207999999999,1.0,3.19e-05,1.0
0.28433200000000003,1.0,4.0496849999999996e-07,1.0,-70.43328,1.0,3.26e-05,1.0
0.283936,1.0,4.0420549999999997e-07,1.0,-70.2684,1.0,3.229999999999999e-05,1.0
0.283508,1.0,4.026795e-07,1.0,-70.14779999999999,1.0,3.19e-05,1.0
0.283051,1.0,4.01001e-07,1.0,-70.21368,1.0,3.2200000000000003e-05,1.0
0.28274499999999997,1.0,4.0023800000000004e-07,1.0,-70.40052,1.0,3.16e-05,1.0
0.28225700000000004,1.0,3.9932249999999997e-07,1.0,-70.62012,1.0,3.13e-05,1.0
0.281891,1.0,3.9916999999999994e-07,1.0,-70.93872,1.0,3.11e-05,1.0
0.281433,1.0,3.9916999999999994e-07,1.0,-71.12556,1.0,3.09e-05,1.0
0.28112800000000004,1.0,3.9932249999999997e-07,1.0,-71.26848,1.0,3.12e-05,1.0
0.28064,1.0,3.9932249999999997e-07,1.0,-71.25732,1.0,3.06e-05,1.0
0.280304,1.0,3.9932249999999997e-07,1.0,-71.16948,1.0,3.06e-05,1.0
0.279938,1.0,3.98712e-07,1.0,-71.00460000000001,1.0,2.9999999999999997e-05,1.0
0.27951,1.0,3.977965e-07,1.0,-70.94988,1.0,2.95e-05,1.0
0.279114,1.0,3.971865e-07,1.0,-70.9056,1.0,3.02e-05,1.0
0.278717,1.0,3.96576e-07,1.0,-70.88364000000001,1.0,3.01e-05,1.0
0.27829,1.0,3.967285e-07,1.0,-70.85087999999999,1.0,2.9999999999999997e-05,1.0
0.277924,1.0,3.956605e-07,1.0,-70.85087999999999,1.0,2.95e-05,1.0
0.277557,1.0,3.947449999999999e-07,1.0,-70.87284,1.0,2.99e-05,1.0
0.2771,1.0,3.9382949999999996e-07,1.0,-70.81775999999999,1.0,2.98e-05,1.0
0.276733,1.0,3.9199850000000003e-07,1.0,-70.785,1.0,2.95e-05,1.0
0.276337,1.0,3.9092999999999997e-07,1.0,-70.785,1.0,2.9299999999999997e-05,1.0
0.275909,1.0,3.9001449999999995e-07,1.0,-70.80695999999999,1.0,2.8999999999999997e-05,1.0
0.275482,1.0,3.8925149999999996e-07,1.0,-70.88364000000001,1.0,2.8899999999999998e-05,1.0
0.27508499999999997,1.0,3.8864149999999995e-07,1.0,-70.94988,1.0,2.8499999999999998e-05,1.0
0.27468899999999996,1.0,3.87726e-07,1.0,-70.97184,1.0,2.84e-05,1.0
0.274323,1.0,3.87268e-07,1.0,-71.02655999999999,1.0,2.8699999999999996e-05,1.0
0.273926,1.0,3.8742049999999997e-07,1.0,-70.93872,1.0,2.8300000000000003e-05,1.0
0.273468,1.0,3.87573e-07,1.0,-71.02655999999999,1.0,2.8100000000000002e-05,1.0
0.273102,1.0,3.87573e-07,1.0,-71.16948,1.0,2.84e-05,1.0
0.272675,1.0,3.8787849999999996e-07,1.0,-71.2242,1.0,2.8100000000000002e-05,1.0
0.272308,1.0,3.88031e-07,1.0,-71.2242,1.0,2.7899999999999997e-05,1.0
0.271881,1.0,3.881835e-07,1.0,-71.1144,1.0,2.8100000000000002e-05,1.0
0.271454,1.0,3.8787849999999996e-07,1.0,-70.93872,1.0,2.7699999999999996e-05,1.0
0.271057,1.0,3.86963e-07,1.0,-70.7958,1.0,2.7699999999999996e-05,1.0
0.270569,1.0,3.866575e-07,1.0,-70.62012,1.0,2.7000000000000002e-05,1.0
0.270355,1.0,3.8558949999999993e-07,1.0,-70.40052,1.0,2.7600000000000003e-05,1.0
0.269867,1.0,3.837585e-07,1.0,-70.27955999999999,1.0,2.68e-05,1.0
0.26944,1.0,3.8299549999999996e-07,1.0,-70.24644,1.0,2.6700000000000002e-05,1.0
0.269043,1.0,3.81317e-07,1.0,-70.32347999999999,1.0,2.72e-05,1.0
0.268646,1.0,3.797915e-07,1.0,-70.42248,1.0,2.61e-05,1.0
0.26825,1.0,3.7857049999999994e-07,1.0,-70.45524,1.0,2.68e-05,1.0
0.267822,1.0,3.77655e-07,1.0,-70.587,1.0,2.61e-05,1.0
0.267487,1.0,3.76892e-07,1.0,-70.785,1.0,2.62e-05,1.0
0.266998,1.0,3.76129e-07,1.0,-71.02655999999999,1.0,2.58e-05,1.0
0.266663,1.0,3.75519e-07,1.0,-71.29044,1.0,2.58e-05,1.0
0.266266,1.0,3.7475599999999994e-07,1.0,-71.52083999999999,1.0,2.59e-05,1.0
0.265869,1.0,3.7490849999999997e-07,1.0,-71.57592000000001,1.0,2.57e-05,1.0
0.26550300000000004,1.0,3.7475599999999994e-07,1.0,-71.51004,1.0,2.54e-05,1.0
0.26507600000000003,1.0,3.7490849999999997e-07,1.0,-71.37827999999999,1.0,2.5300000000000002e-05,1.0
0.264679,1.0,3.749695e-07,1.0,-71.27928,1.0,2.56e-05,1.0
0.264252,1.0,3.7470999999999995e-07,1.0,-71.19144,1.0,2.46e-05,1.0
0.263855,1.0,3.74527e-07,1.0,-71.02655999999999,1.0,2.45e-05,1.0
0.263519,1.0,3.736875e-07,1.0,-70.85087999999999,1.0,2.48e-05,1.0
0.26306199999999996,1.0,3.727875e-07,1.0,-70.76304,1.0,2.51e-05,1.0
0.262726,1.0,3.7152099999999996e-07,1.0,-70.64207999999999,1.0,2.45e-05,1.0
0.262299,1.0,3.70651e-07,1.0,-70.54308,1.0,2.45e-05,1.0
0.261932,1.0,3.6938499999999997e-07,1.0,-70.49915999999999,1.0,2.4299999999999998e-05,1.0
0.26150500000000004,1.0,3.67798e-07,1.0,-70.55424000000001,1.0,2.4100000000000003e-05,1.0
0.261108,1.0,3.6654649999999997e-07,1.0,-70.49915999999999,1.0,2.4e-05,1.0
0.260773,1.0,3.654635e-07,1.0,-70.47720000000001,1.0,2.4299999999999998e-05,1.0
0.260376,1.0,3.644255e-07,1.0,-70.4664,1.0,2.4299999999999998e-05,1.0
0.259949,1.0,3.637545e-07,1.0,-70.45524,1.0,2.3100000000000002e-05,1.0
0.259552,1.0,3.628845e-07,1.0,-70.45524,1.0,2.3899999999999998e-05,1.0
0.259125,1.0,3.622435e-07,1.0,-70.53228,1.0,2.3800000000000003e-05,1.0
0.258759,1.0,3.6138899999999995e-07,1.0,-70.72992,1.0,2.3899999999999998e-05,1.0
0.258362,1.0,3.61145e-07,1.0,-70.9938,1.0,2.36e-05,1.0
0.257965,1.0,3.6071799999999996e-07,1.0,-71.25732,1.0,2.36e-05,1.0
0.257538,1.0,3.605195e-07,1.0,-71.433,1.0,2.35e-05,1.0
0.257233,1.0,3.6033649999999997e-07,1.0,-71.49888,1.0,2.3800000000000003e-05,1.0
0.256836,1.0,3.6007699999999995e-07,1.0,-71.36712,1.0,2.33e-05,1.0
0.256378,1.0,3.5963449999999996e-07,1.0,-71.21340000000001,1.0,2.3800000000000003e-05,1.0
0.25595100000000004,1.0,3.5926799999999996e-07,1.0,-71.12556,1.0,2.3100000000000002e-05,1.0
0.25561500000000004,1.0,3.5878000000000004e-07,1.0,-70.94988,1.0,2.35e-05,1.0
0.255127,1.0,3.579405e-07,1.0,-70.72992,1.0,2.2899999999999998e-05,1.0
0.254669,1.0,3.571775e-07,1.0,-70.52112,1.0,2.2899999999999998e-05,1.0
0.254333,1.0,3.560485e-07,1.0,-70.3566,1.0,2.2899999999999998e-05,1.0
0.25387600000000005,1.0,3.545225e-07,1.0,-70.32347999999999,1.0,2.27e-05,1.0
0.253479,1.0,3.5301199999999996e-07,1.0,-70.20252,1.0,2.2100000000000002e-05,1.0
0.25311300000000003,1.0,3.519895e-07,1.0,-70.37856,1.0,2.23e-05,1.0
0.252686,1.0,3.5052499999999997e-07,1.0,-70.65324000000001,1.0,2.24e-05,1.0
0.252228,1.0,3.494265e-07,1.0,-70.92756,1.0,2.2100000000000002e-05,1.0
0.25183099999999997,1.0,3.4876999999999997e-07,1.0,-71.15832,1.0,2.24e-05,1.0
0.251434,1.0,3.47931e-07,1.0,-71.24616,1.0,2.1899999999999997e-05,1.0
0.25116,1.0,3.47519e-07,1.0,-71.29044,1.0,2.1899999999999997e-05,1.0
0.250641,1.0,3.472595e-07,1.0,-71.29044,1.0,2.13e-05,1.0
0.250214,1.0,3.46756e-07,1.0,-71.19144,1.0,2.13e-05,1.0
0.24984699999999999,1.0,3.4571849999999996e-07,1.0,-71.1036,1.0,2.13e-05,1.0
0.24945100000000003,1.0,3.452605e-07,1.0,-71.07048,1.0,2.0600000000000003e-05,1.0
0.249115,1.0,3.4509299999999995e-07,1.0,-71.08164000000001,1.0,2.14e-05,1.0
0.24868800000000002,1.0,3.448945e-07,1.0,-70.98264,1.0,2.09e-05,1.0
0.24823,1.0,3.446505e-07,1.0,-70.87284,1.0,2.1600000000000003e-05,1.0
0.247864,1.0,3.4397899999999996e-07,1.0,-70.74108,1.0,2.07e-05,1.0
0.247437,1.0,3.436735e-07,1.0,-70.6752,1.0,2.07e-05,1.0
0.24704,1.0,3.42621e-07,1.0,-70.587,1.0,2.08e-05,1.0
0.246704,1.0,3.4173600000000004e-07,1.0,-70.59816,1.0,2.1e-05,1.0
0.246246,1.0,3.40561e-07,1.0,-70.5762,1.0,2.05e-05,1.0
0.24585,1.0,3.392945e-07,1.0,-70.587,1.0,2.0399999999999998e-05,1.0
0.24545300000000003,1.0,3.38394e-07,1.0,-70.62012,1.0,2.01e-05,1.0
0.245087,1.0,3.37555e-07,1.0,-70.71912,1.0,2.01e-05,1.0
0.24469000000000002,1.0,3.361815e-07,1.0,-70.6752,1.0,2.02e-05,1.0
0.24429299999999998,1.0,3.35266e-07,1.0,-70.62012,1.0,2.02e-05,1.0
0.243927,1.0,3.3427449999999995e-07,1.0,-70.62012,1.0,2.0300000000000002e-05,1.0
0.2435,1.0,3.33328e-07,1.0,-70.6752,1.0,2.02e-05,1.0
0.243073,1.0,3.3248899999999995e-07,1.0,-70.75188,1.0,2.0600000000000003e-05,1.0
0.24264499999999997,1.0,3.317565e-07,1.0,-70.85087999999999,1.0,1.98e-05,1.0
0.24224899999999996,1.0,3.3152750000000004e-07,1.0,-70.80695999999999,1.0,1.93e-05,1.0
0.241852,1.0,3.3152750000000004e-07,1.0,-70.81775999999999,1.0,1.9399999999999997e-05,1.0
0.241486,1.0,3.315735e-07,1.0,-70.70795999999999,1.0,1.91e-05,1.0
0.241058,1.0,3.315735e-07,1.0,-70.60896,1.0,1.9699999999999998e-05,1.0
0.24069200000000002,1.0,3.313295e-07,1.0,-70.52112,1.0,1.91e-05,1.0
0.240265,1.0,3.3070349999999995e-07,1.0,-70.33464000000001,1.0,1.9399999999999997e-05,1.0
0.23989899999999997,1.0,3.29895e-07,1.0,-70.20252,1.0,1.93e-05,1.0
0.239502,1.0,3.28766e-07,1.0,-70.10388,1.0,1.89e-05,1.0
0.239044,1.0,3.2777399999999993e-07,1.0,-70.12584000000001,1.0,1.92e-05,1.0
0.23864699999999997,1.0,3.264315e-07,1.0,-70.16976,1.0,1.9e-05,1.0
0.23825100000000002,1.0,3.255465e-07,1.0,-70.21368,1.0,1.86e-05,1.0
0.23788499999999999,1.0,3.2424949999999994e-07,1.0,-70.19172,1.0,1.88e-05,1.0
0.237427,1.0,3.2304399999999996e-07,1.0,-70.22448,1.0,1.83e-05,1.0
0.237152,1.0,3.2199099999999996e-07,1.0,-70.38935999999998,1.0,1.86e-05,1.0
0.236603,1.0,3.211515e-07,1.0,-70.59816,1.0,1.85e-05,1.0
0.236267,1.0,3.20297e-07,1.0,-70.785,1.0,1.8100000000000003e-05,1.0
0.23590100000000003,1.0,3.200075e-07,1.0,-70.97184,1.0,1.84e-05,1.0
0.23544299999999999,1.0,3.1942750000000003e-07,1.0,-71.03772000000001,1.0,1.7899999999999998e-05,1.0
0.235138,1.0,3.18527e-07,1.0,-71.09244,1.0,1.84e-05,1.0
0.23468000000000003,1.0,3.17581e-07,1.0,-71.03772000000001,1.0,1.7899999999999998e-05,1.0
0.234314,1.0,3.16757e-07,1.0,-70.87284,1.0,1.83e-05,1.0
0.233948,1.0,3.1578049999999995e-07,1.0,-70.74108,1.0,1.7800000000000002e-05,1.0
0.233551,1.0,3.15155e-07,1.0,-70.4664,1.0,1.7899999999999998e-05,1.0
0.233154,1.0,3.144685e-07,1.0,-70.30152000000001,1.0,1.77e-05,1.0
0.232697,1.0,3.143005e-07,1.0,-70.05995999999999,1.0,1.84e-05,1.0
0.23233,1.0,3.140565e-07,1.0,-69.92784,1.0,1.8100000000000003e-05,1.0
0.23190300000000003,1.0,3.1361399999999997e-07,1.0,-69.8292,1.0,1.7899999999999998e-05,1.0
0.23147600000000002,1.0,3.1254599999999997e-07,1.0,-69.77412000000001,1.0,1.7800000000000002e-05,1.0
0.23110999999999998,1.0,3.114625e-07,1.0,-69.67512,1.0,1.8e-05,1.0
0.23074299999999998,1.0,3.0970749999999997e-07,1.0,-69.67512,1.0,1.82e-05,1.0
0.23028600000000002,1.0,3.08151e-07,1.0,-69.77412000000001,1.0,1.75e-05,1.0
0.22985799999999998,1.0,3.07068e-07,1.0,-69.96095999999999,1.0,1.73e-05,1.0
0.229462,1.0,3.0682350000000003e-07,1.0,-70.1586,1.0,1.7199999999999998e-05,1.0
0.22906500000000002,1.0,3.0599999999999996e-07,1.0,-70.31268,1.0,1.7199999999999998e-05,1.0
0.22866799999999998,1.0,3.05252e-07,1.0,-70.52112,1.0,1.7199999999999998e-05,1.0
0.22824099999999997,1.0,3.043825e-07,1.0,-70.72992,1.0,1.7100000000000002e-05,1.0
0.227875,1.0,3.032835e-07,1.0,-70.98264,1.0,1.7199999999999998e-05,1.0
0.227478,1.0,3.0226149999999994e-07,1.0,-71.12556,1.0,1.7199999999999998e-05,1.0
0.227081,1.0,3.011625e-07,1.0,-71.19144,1.0,1.73e-05,1.0
0.226593,1.0,3.0078149999999996e-07,1.0,-71.15832,1.0,1.66e-05,1.0
0.226257,1.0,3.00293e-07,1.0,-71.13636,1.0,1.67e-05,1.0
0.2258,1.0,3.0015549999999994e-07,1.0,-71.07048,1.0,1.65e-05,1.0
0.225433,1.0,2.99713e-07,1.0,-70.86168,1.0,1.65e-05,1.0
0.225098,1.0,2.99057e-07,1.0,-70.65324000000001,1.0,1.6899999999999997e-05,1.0
0.22464,1.0,2.983855e-07,1.0,-70.47720000000001,1.0,1.65e-05,1.0
0.22418200000000002,1.0,2.97699e-07,1.0,-70.2576,1.0,1.65e-05,1.0
0.22384600000000002,1.0,2.9687499999999996e-07,1.0,-69.96095999999999,1.0,1.65e-05,1.0
0.22348,1.0,2.960665e-07,1.0,-69.78528,1.0,1.63e-05,1.0
0.22302199999999997,1.0,2.9521199999999996e-07,1.0,-69.76332,1.0,1.65e-05,1.0
0.222656,1.0,2.93976e-07,1.0,-69.74135999999999,1.0,1.64e-05,1.0
0.222198,1.0,2.928315e-07,1.0,-69.7194,1.0,1.57e-05,1.0
0.221802,1.0,2.9154949999999997e-07,1.0,-69.88392,1.0,1.6e-05,1.0
0.221375,1.0,2.90451e-07,1.0,-70.02684,1.0,1.58e-05,1.0
0.220978,1.0,2.8941350000000004e-07,1.0,-70.1586,1.0,1.55e-05,1.0
0.220642,1.0,2.8852849999999996e-07,1.0,-70.3674,1.0,1.59e-05,1.0
0.22021500000000002,1.0,2.87445e-07,1.0,-70.60896,1.0,1.52e-05,1.0
0.219788,1.0,2.871245e-07,1.0,-70.76304,1.0,1.6e-05,1.0
0.219421,1.0,2.8639199999999996e-07,1.0,-70.87284,1.0,1.49e-05,1.0
0.218964,1.0,2.85919e-07,1.0,-70.81775999999999,1.0,1.51e-05,1.0
0.218567,1.0,2.855835e-07,1.0,-70.71912,1.0,1.52e-05,1.0
0.21820100000000003,1.0,2.852785e-07,1.0,-70.55424000000001,1.0,1.4999999999999999e-05,1.0
0.217743,1.0,2.85095e-07,1.0,-70.42248,1.0,1.4800000000000002e-05,1.0
0.217377,1.0,2.846525e-07,1.0,-70.27955999999999,1.0,1.47e-05,1.0
0.21698,1.0,2.84195e-07,1.0,-70.09272,1.0,1.4499999999999998e-05,1.0
0.216614,1.0,2.83539e-07,1.0,-69.91704000000001,1.0,1.49e-05,1.0
0.216156,1.0,2.82486e-07,1.0,-69.68628,1.0,1.42e-05,1.0
0.21581999999999998,1.0,2.81418e-07,1.0,-69.58727999999999,1.0,1.4099999999999999e-05,1.0
0.21548499999999998,1.0,2.8006e-07,1.0,-69.48864,1.0,1.4300000000000002e-05,1.0
0.21505700000000003,1.0,2.785185e-07,1.0,-69.38964000000001,1.0,1.47e-05,1.0
0.21463000000000002,1.0,2.7700799999999996e-07,1.0,-69.43356,1.0,1.4400000000000001e-05,1.0
0.21426399999999998,1.0,2.754975e-07,1.0,-69.5106,1.0,1.4300000000000002e-05,1.0
0.213806,1.0,2.742005e-07,1.0,-69.65316,1.0,1.42e-05,1.0
0.21340900000000002,1.0,2.73285e-07,1.0,-69.78528,1.0,1.4000000000000001e-05,1.0
0.21307399999999999,1.0,2.7247599999999996e-07,1.0,-69.9498,1.0,1.3800000000000002e-05,1.0
0.212646,1.0,2.72003e-07,1.0,-70.0488,1.0,1.4000000000000001e-05,1.0
0.21225,1.0,2.715455e-07,1.0,-70.19172,1.0,1.4400000000000001e-05,1.0
0.21188400000000002,1.0,2.711335e-07,1.0,-70.20252,1.0,1.4099999999999999e-05,1.0
0.211456,1.0,2.7095050000000004e-07,1.0,-70.09272,1.0,1.3800000000000002e-05,1.0
0.21106,1.0,2.7047749999999995e-07,1.0,-70.038,1.0,1.3800000000000002e-05,1.0
0.21066300000000002,1.0,2.700805e-07,1.0,-69.96095999999999,1.0,1.4000000000000001e-05,1.0
0.21026599999999998,1.0,2.69806e-07,1.0,-69.89508,1.0,1.3800000000000002e-05,1.0
0.2099,1.0,2.6922600000000003e-07,1.0,-69.74135999999999,1.0,1.3800000000000002e-05,1.0
0.209473,1.0,2.6838699999999995e-07,1.0,-69.59844000000001,1.0,1.3699999999999998e-05,1.0
0.209137,1.0,2.676695e-07,1.0,-69.43356,1.0,1.36e-05,1.0
0.208679,1.0,2.66342e-07,1.0,-69.24672000000001,1.0,1.39e-05,1.0
0.20828200000000002,1.0,2.65045e-07,1.0,-69.14808,1.0,1.36e-05,1.0
0.207855,1.0,2.634735e-07,1.0,-69.2028,1.0,1.32e-05,1.0
0.20751999999999998,1.0,2.61795e-07,1.0,-69.33456,1.0,1.32e-05,1.0
0.207062,1.0,2.6028449999999996e-07,1.0,-69.41159999999999,1.0,1.34e-05,1.0
0.20666500000000002,1.0,2.590025e-07,1.0,-69.5106,1.0,1.3300000000000001e-05,1.0
0.20620700000000003,1.0,2.57904e-07,1.0,-69.66432,1.0,1.34e-05,1.0
0.205933,1.0,2.5744650000000003e-07,1.0,-69.79607999999999,1.0,1.3300000000000001e-05,1.0
0.205475,1.0,2.565615e-07,1.0,-69.99372000000001,1.0,1.3300000000000001e-05,1.0
0.205078,1.0,2.5637799999999997e-07,1.0,-70.08192,1.0,1.3000000000000001e-05,1.0
0.20471199999999998,1.0,2.5614949999999996e-07,1.0,-70.09272,1.0,1.32e-05,1.0
0.204315,1.0,2.5589e-07,1.0,-70.13664000000001,1.0,1.31e-05,1.0
0.203888,1.0,2.555235e-07,1.0,-70.08192,1.0,1.31e-05,1.0
0.203491,1.0,2.550965e-07,1.0,-70.01604,1.0,1.29e-05,1.0
0.203125,1.0,2.5465399999999997e-07,1.0,-70.09272,1.0,1.31e-05,1.0
0.202759,1.0,2.546385e-07,1.0,-70.14779999999999,1.0,1.27e-05,1.0
0.20224,1.0,2.545775e-07,1.0,-70.08192,1.0,1.25e-05,1.0
0.201904,1.0,2.538605e-07,1.0,-69.9498,1.0,1.27e-05,1.0
0.201508,1.0,2.53189e-07,1.0,-69.77412000000001,1.0,1.26e-05,1.0
0.20114100000000001,1.0,2.5233449999999995e-07,1.0,-69.64236,1.0,1.26e-05,1.0
0.200684,1.0,2.509615e-07,1.0,-69.57648,1.0,1.26e-05,1.0
0.200256,1.0,2.496645e-07,1.0,-69.44472,1.0,1.27e-05,1.0
0.19992100000000002,1.0,2.48337e-07,1.0,-69.36768,1.0,1.25e-05,1.0
0.199554,1.0,2.4729899999999997e-07,1.0,-69.2028,1.0,1.24e-05,1.0
0.199158,1.0,2.46216e-07,1.0,-69.0822,1.0,1.26e-05,1.0
0.1987,1.0,2.4520849999999997e-07,1.0,-69.03792000000001,1.0,1.21e-05,1.0
0.198242,1.0,2.4429299999999995e-07,1.0,-69.00516,1.0,1.24e-05,1.0
0.197906,1.0,2.436675e-07,1.0,-69.17004,1.0,1.2e-05,1.0
0.197479,1.0,2.42996e-07,1.0,-69.34572,1.0,1.21e-05,1.0
0.197052,1.0,2.4217199999999995e-07,1.0,-69.49944,1.0,1.18e-05,1.0
0.196716,1.0,2.421875e-07,1.0,-69.55452,1.0,1.21e-05,1.0
0.19632,1.0,2.41501e-07,1.0,-69.55452,1.0,1.23e-05,1.0
0.19586199999999998,1.0,2.410585e-07,1.0,-69.46668,1.0,1.1599999999999999e-05,1.0
0.195465,1.0,2.404635e-07,1.0,-69.42276,1.0,1.17e-05,1.0
0.19516,1.0,2.39807e-07,1.0,-69.21396,1.0,1.1900000000000001e-05,1.0
0.194794,1.0,2.3883049999999994e-07,1.0,-69.09299999999999,1.0,1.18e-05,1.0
0.194366,1.0,2.3803699999999998e-07,1.0,-69.04907999999999,1.0,1.1900000000000001e-05,1.0
0.19399999999999998,1.0,2.366485e-07,1.0,-69.09299999999999,1.0,1.22e-05,1.0
0.193512,1.0,2.352295e-07,1.0,-69.0822,1.0,1.18e-05,1.0
0.19308499999999998,1.0,2.3393249999999997e-07,1.0,-69.0822,1.0,1.13e-05,1.0
0.192688,1.0,2.325895e-07,1.0,-69.04907999999999,1.0,1.1400000000000001e-05,1.0
0.192261,1.0,2.315215e-07,1.0,-68.9832,1.0,1.15e-05,1.0
0.191895,1.0,2.3040749999999997e-07,1.0,-68.88419999999999,1.0,1.13e-05,1.0
0.191467,1.0,2.29309e-07,1.0,-68.7636,1.0,1.1400000000000001e-05,1.0
0.191101,1.0,2.2825599999999998e-07,1.0,-68.60952,1.0,1.1400000000000001e-05,1.0
0.19070399999999998,1.0,2.2714250000000002e-07,1.0,-68.58756,1.0,1.1400000000000001e-05,1.0
0.190308,1.0,2.2654699999999997e-07,1.0,-68.47775999999999,1.0,1.17e-05,1.0
0.18988,1.0,2.25769e-07,1.0,-68.46696,1.0,1.13e-05,1.0
0.18951400000000002,1.0,2.25586e-07,1.0,-68.42267999999999,1.0,1.0800000000000002e-05,1.0
0.189117,1.0,2.248995e-07,1.0,-68.46696,1.0,1.12e-05,1.0
0.188721,1.0,2.247465e-07,1.0,-68.59872,1.0,1.13e-05,1.0
0.18829300000000002,1.0,2.243345e-07,1.0,-68.62068,1.0,1.09e-05,1.0
0.187927,1.0,2.23633e-07,1.0,-68.62068,1.0,1.12e-05,1.0
0.187531,1.0,2.23175e-07,1.0,-68.58756,1.0,1.1e-05,1.0
0.187134,1.0,2.227175e-07,1.0,-68.47775999999999,1.0,1.12e-05,1.0
0.18670699999999998,1.0,2.2251899999999998e-07,1.0,-68.43384,1.0,1.0800000000000002e-05,1.0
0.18631,1.0,2.21863e-07,1.0,-68.5656,1.0,1.11e-05,1.0
0.18591300000000002,1.0,2.207795e-07,1.0,-68.57676,1.0,1.04e-05,1.0
0.18551600000000001,1.0,2.19467e-07,1.0,-68.51088,1.0,1.04e-05,1.0
0.18515,1.0,2.180025e-07,1.0,-68.42267999999999,1.0,1.06e-05,1.0
0.184753,1.0,2.1652199999999998e-07,1.0,-68.40072,1.0,1.06e-05,1.0
0.184265,1.0,2.1501149999999995e-07,1.0,-68.52167999999999,1.0,1.09e-05,1.0
0.183868,1.0,2.1412649999999998e-07,1.0,-68.60952,1.0,1.0199999999999999e-05,1.0
0.183502,1.0,2.13455e-07,1.0,-68.81832,1.0,1.0300000000000001e-05,1.0
0.183105,1.0,2.1256999999999998e-07,1.0,-69.01595999999999,1.0,1.0300000000000001e-05,1.0
0.18270899999999998,1.0,2.1205149999999996e-07,1.0,-69.18084,1.0,1.0199999999999999e-05,1.0
0.182251,1.0,2.1138e-07,1.0,-69.46668,1.0,9.92e-06,1.0
0.181885,1.0,2.1092199999999996e-07,1.0,-69.62039999999999,1.0,1.01e-05,1.0
0.181488,1.0,2.1054099999999998e-07,1.0,-69.67512,1.0,9.94e-06,1.0
0.181091,1.0,2.09961e-07,1.0,-69.70824,1.0,9.44e-06,1.0
0.180725,1.0,2.095945e-07,1.0,-69.67512,1.0,1.0199999999999999e-05,1.0
0.180267,1.0,2.0941149999999996e-07,1.0,-69.65316,1.0,1.01e-05,1.0
0.17993199999999998,1.0,2.0899949999999997e-07,1.0,-69.55452,1.0,9.44e-06,1.0
0.179474,1.0,2.0837399999999996e-07,1.0,-69.42276,1.0,9.59e-06,1.0
0.179016,1.0,2.07443e-07,1.0,-69.4008,1.0,9.39e-06,1.0
0.17868,1.0,2.0657350000000002e-07,1.0,-69.35652,1.0,9.6e-06,1.0
0.178284,1.0,2.05353e-07,1.0,-69.37884,1.0,9.63e-06,1.0
0.177948,1.0,2.03995e-07,1.0,-69.44472,1.0,9.63e-06,1.0
0.17745999999999998,1.0,2.0252999999999997e-07,1.0,-69.6312,1.0,9.42e-06,1.0
0.177094,1.0,2.013395e-07,1.0,-69.86196,1.0,9.73e-06,1.0
0.176697,1.0,2.00302e-07,1.0,-70.01604,1.0,9.48e-06,1.0
0.176361,1.0,1.9927999999999997e-07,1.0,-69.92784,1.0,9.39e-06,1.0
0.175903,1.0,1.980285e-07,1.0,-69.91704000000001,1.0,9.33e-06,1.0
0.175507,1.0,1.9720449999999998e-07,1.0,-69.85116,1.0,9.56e-06,1.0
0.17511,1.0,1.9676199999999997e-07,1.0,-69.75216,1.0,9.08e-06,1.0
0.174713,1.0,1.9662499999999998e-07,1.0,-69.45552,1.0,9.23e-06,1.0
0.174286,1.0,1.9664e-07,1.0,-69.09299999999999,1.0,9.24e-06,1.0
0.17392,1.0,1.96945e-07,1.0,-68.86224000000001,1.0,9.29e-06,1.0
0.173523,1.0,1.96747e-07,1.0,-68.5656,1.0,9.34e-06,1.0
0.173126,1.0,1.9651799999999999e-07,1.0,-68.43384,1.0,9.27e-06,1.0
0.172699,1.0,1.961515e-07,1.0,-68.1372,1.0,9.32e-06,1.0
0.17236300000000002,1.0,1.9543450000000002e-07,1.0,-67.97232,1.0,8.92e-06,1.0
0.171967,1.0,1.945955e-07,1.0,-67.73076,1.0,8.77e-06,1.0
0.171509,1.0,1.93924e-07,1.0,-67.36824,1.0,8.9e-06,1.0
0.171173,1.0,1.9326799999999998e-07,1.0,-67.21452000000001,1.0,8.69e-06,1.0
0.170746,1.0,1.925965e-07,1.0,-67.00572,1.0,8.79e-06,1.0
0.17038,1.0,1.915285e-07,1.0,-67.01652,1.0,8.69e-06,1.0
0.16989100000000001,1.0,1.9058250000000002e-07,1.0,-67.24728,1.0,8.4e-06,1.0
0.16955599999999998,1.0,1.8984999999999997e-07,1.0,-67.58784,1.0,8.2e-06,1.0
0.169128,1.0,1.88843e-07,1.0,-67.86252,1.0,8.72e-06,1.0
0.168701,1.0,1.8763750000000002e-07,1.0,-68.17032,1.0,8.67e-06,1.0
0.16833499999999998,1.0,1.8704200000000001e-07,1.0,-68.48892000000001,1.0,8.65e-06,1.0
0.167938,1.0,1.861115e-07,1.0,-68.86224000000001,1.0,8.33e-06,1.0
0.167572,1.0,1.8548599999999997e-07,1.0,-69.04907999999999,1.0,8.22e-06,1.0
0.16714500000000002,1.0,1.8487549999999998e-07,1.0,-69.3018,1.0,8.26e-06,1.0
0.16680899999999999,1.0,1.846315e-07,1.0,-69.4008,1.0,8.4e-06,1.0
0.166351,1.0,1.8441749999999996e-07,1.0,-69.53256,1.0,8.22e-06,1.0
0.165955,1.0,1.84067e-07,1.0,-69.46668,1.0,8.37e-06,1.0
0.16555799999999998,1.0,1.83441e-07,1.0,-69.192,1.0,8.01e-06,1.0
0.165192,1.0,1.825715e-07,1.0,-68.86224000000001,1.0,8.13e-06,1.0
0.164795,1.0,1.81473e-07,1.0,-68.38992,1.0,7.91e-06,1.0
0.16433699999999998,1.0,1.80435e-07,1.0,-67.87368,1.0,7.97e-06,1.0
0.163971,1.0,1.793365e-07,1.0,-67.35708,1.0,7.06e-06,1.0
0.163574,1.0,1.77994e-07,1.0,-66.99456,1.0,7.7e-06,1.0
0.163208,1.0,1.7698649999999998e-07,1.0,-66.69792000000001,1.0,8.04e-06,1.0
0.16278099999999998,1.0,1.758575e-07,1.0,-66.70908,1.0,7.75e-06,1.0
0.162354,1.0,1.748655e-07,1.0,-66.69792000000001,1.0,8.03e-06,1.0
0.161957,1.0,1.7387399999999999e-07,1.0,-66.82968,1.0,7.59e-06,1.0
0.16155999999999998,1.0,1.730955e-07,1.0,-67.17024,1.0,7.62e-06,1.0
0.161133,1.0,1.722105e-07,1.0,-67.52195999999999,1.0,7.47e-06,1.0
0.16076700000000002,1.0,1.7157e-07,1.0,-67.84056,1.0,7.63e-06,1.0
0.160431,1.0,1.7111199999999998e-07,1.0,-68.21424,1.0,7.67e-06,1.0
0.160004,1.0,1.7002849999999998e-07,1.0,-68.73048,1.0,8.06e-06,1.0
0.159546,1.0,1.69464e-07,1.0,-69.24672000000001,1.0,7.41e-06,1.0
0.159149,1.0,1.68991e-07,1.0,-69.45552,1.0,7.62e-06,1.0
0.15878299999999998,1.0,1.6850299999999998e-07,1.0,-69.56532000000001,1.0,7.65e-06,1.0
0.158417,1.0,1.68045e-07,1.0,-69.75216,1.0,7.49e-06,1.0
0.15799000000000002,1.0,1.675415e-07,1.0,-69.77412000000001,1.0,7.22e-06,1.0
0.157623,1.0,1.6744999999999998e-07,1.0,-69.75216,1.0,7.74e-06,1.0
0.157166,1.0,1.6716e-07,1.0,-69.62039999999999,1.0,7.53e-06,1.0
0.156799,1.0,1.667635e-07,1.0,-69.35652,1.0,7.82e-06,1.0
0.156403,1.0,1.662905e-07,1.0,-69.192,1.0,6.84e-06,1.0
0.156006,1.0,1.65863e-07,1.0,-69.14808,1.0,7.79e-06,1.0
0.155579,1.0,1.6520699999999998e-07,1.0,-69.04907999999999,1.0,7.49e-06,1.0
0.15524300000000002,1.0,1.643525e-07,1.0,-69.03792000000001,1.0,7.24e-06,1.0
0.15478499999999998,1.0,1.63727e-07,1.0,-68.92812,1.0,7.41e-06,1.0
0.154449,1.0,1.6290299999999999e-07,1.0,-68.90616,1.0,6.86e-06,1.0
0.15399200000000002,1.0,1.617585e-07,1.0,-68.92812,1.0,7.02e-06,1.0
0.153595,1.0,1.6097999999999998e-07,1.0,-68.85144,1.0,7.28e-06,1.0
0.15325899999999998,1.0,1.5956099999999998e-07,1.0,-68.59872,1.0,7.16e-06,1.0
0.152802,1.0,1.5873699999999997e-07,1.0,-68.36796,1.0,7.35e-06,1.0
0.152435,1.0,1.5743999999999999e-07,1.0,-68.06016,1.0,7.51e-06,1.0
0.152069,1.0,1.566315e-07,1.0,-67.86252,1.0,7.34e-06,1.0
0.151642,1.0,1.5623449999999998e-07,1.0,-67.67568,1.0,7.27e-06,1.0
0.15121500000000002,1.0,1.555175e-07,1.0,-67.58784,1.0,7.09e-06,1.0
0.150848,1.0,1.549375e-07,1.0,-67.60979999999999,1.0,7.21e-06,1.0
0.150421,1.0,1.5434249999999998e-07,1.0,-67.67568,1.0,7.14e-06,1.0
0.150024,1.0,1.53198e-07,1.0,-67.7088,1.0,7.08e-06,1.0
0.149628,1.0,1.523745e-07,1.0,-67.82976,1.0,7e-06,1.0
0.149231,1.0,1.514895e-07,1.0,-67.86252,1.0,6.97e-06,1.0
0.148865,1.0,1.5094e-07,1.0,-67.90644,1.0,7.11e-06,1.0
0.14840699999999998,1.0,1.49994e-07,1.0,-67.84056,1.0,7.21e-06,1.0
0.148041,1.0,1.49399e-07,1.0,-67.65371999999999,1.0,6.45e-06,1.0
0.147644,1.0,1.48941e-07,1.0,-67.75272,1.0,7e-06,1.0
0.147278,1.0,1.4848349999999998e-07,1.0,-67.58784,1.0,6.78e-06,1.0
0.146851,1.0,1.4805599999999999e-07,1.0,-67.44492,1.0,6.7e-06,1.0
0.146423,1.0,1.47827e-07,1.0,-67.31316,1.0,6.59e-06,1.0
0.146027,1.0,1.47232e-07,1.0,-67.23648,1.0,7.07e-06,1.0
0.145599,1.0,1.46744e-07,1.0,-67.32432,1.0,6.71e-06,1.0
0.145264,1.0,1.45874e-07,1.0,-67.58784,1.0,7.2e-06,1.0
0.144836,1.0,1.451415e-07,1.0,-67.82976,1.0,7.38e-06,1.0
0.144379,1.0,1.44562e-07,1.0,-68.10408,1.0,7.27e-06,1.0
0.144012,1.0,1.4421099999999997e-07,1.0,-68.20307999999999,1.0,6.67e-06,1.0
0.143585,1.0,1.435545e-07,1.0,-68.0382,1.0,6.47e-06,1.0
0.143188,1.0,1.4328e-07,1.0,-67.89564,1.0,6.87e-06,1.0
0.142731,1.0,1.42639e-07,1.0,-67.64292,1.0,6.62e-06,1.0
0.142334,1.0,1.4268499999999998e-07,1.0,-67.35708,1.0,6.78e-06,1.0
0.141998,1.0,1.4202899999999998e-07,1.0,-67.1814,1.0,6.76e-06,1.0
0.141541,1.0,1.411285e-07,1.0,-67.14828,1.0,6.66e-06,1.0
0.141205,1.0,1.3986199999999999e-07,1.0,-67.32432,1.0,6.64e-06,1.0
0.140778,1.0,1.3851949999999999e-07,1.0,-67.09356,1.0,6.6e-06,1.0
0.14035,1.0,1.372225e-07,1.0,-66.98375999999999,1.0,6.64e-06,1.0
0.139954,1.0,1.359405e-07,1.0,-66.92868,1.0,6.49e-06,1.0
0.139557,1.0,1.346285e-07,1.0,-67.03847999999999,1.0,6.45e-06,1.0
0.139252,1.0,1.33545e-07,1.0,-67.13748,1.0,6.3e-06,1.0
0.138702,1.0,1.3273599999999998e-07,1.0,-67.30236,1.0,5.71e-06,1.0
0.13830599999999998,1.0,1.32324e-07,1.0,-67.401,1.0,5.86e-06,1.0
0.137909,1.0,1.3185099999999998e-07,1.0,-67.51115999999999,1.0,6.02e-06,1.0
0.137512,1.0,1.31439e-07,1.0,-67.55508,1.0,6.16e-06,1.0
0.13711500000000001,1.0,1.31027e-07,1.0,-67.599,1.0,6.19e-06,1.0
0.136719,1.0,1.30783e-07,1.0,-67.53312,1.0,5.76e-06,1.0
0.136261,1.0,1.30417e-07,1.0,-67.5,1.0,6.42e-06,1.0
0.135925,1.0,1.2989800000000002e-07,1.0,-67.52195999999999,1.0,5.79e-06,1.0
0.135437,1.0,1.295015e-07,1.0,-67.33511999999999,1.0,5.54e-06,1.0
0.135101,1.0,1.2907399999999998e-07,1.0,-67.17024,1.0,5.63e-06,1.0
0.134735,1.0,1.28952e-07,1.0,-66.92868,1.0,5.7e-06,1.0
0.134338,1.0,1.28723e-07,1.0,-66.55499999999999,1.0,5.46e-06,1.0
0.133972,1.0,1.28525e-07,1.0,-66.33539999999999,1.0,5.93e-06,1.0
0.133545,1.0,1.283265e-07,1.0,-66.41244,1.0,5.97e-06,1.0
0.13308699999999998,1.0,1.280825e-07,1.0,-66.45635999999999,1.0,5.32e-06,1.0
0.132721,1.0,1.275025e-07,1.0,-66.4452,1.0,5.59e-06,1.0
0.132355,1.0,1.2684649999999998e-07,1.0,-66.64320000000001,1.0,5.66e-06,1.0
0.131958,1.0,1.262205e-07,1.0,-66.82968,1.0,5.67e-06,1.0
0.13156099999999998,1.0,1.256865e-07,1.0,-66.93984,1.0,5.05e-06,1.0
0.131104,1.0,1.253815e-07,1.0,-66.9726,1.0,5.6e-06,1.0
0.130737,1.0,1.246645e-07,1.0,-66.9726,1.0,5.4e-06,1.0
0.130341,1.0,1.2400799999999998e-07,1.0,-67.17024,1.0,5.47e-06,1.0
0.129944,1.0,1.23352e-07,1.0,-67.37904,1.0,5.29e-06,1.0
0.12951700000000002,1.0,1.2264999999999998e-07,1.0,-67.46688,1.0,5.21e-06,1.0
0.12915,1.0,1.220705e-07,1.0,-67.66488000000001,1.0,5.21e-06,1.0
0.128754,1.0,1.217345e-07,1.0,-67.69764,1.0,5.24e-06,1.0
0.128418,1.0,1.211855e-07,1.0,-67.53312,1.0,5.28e-06,1.0
0.12796,1.0,1.2098699999999997e-07,1.0,-67.56588,1.0,5.11e-06,1.0
0.12753299999999998,1.0,1.20819e-07,1.0,-67.76352,1.0,4.87e-06,1.0
0.127167,1.0,1.19919e-07,1.0,-67.60979999999999,1.0,5.26e-06,1.0
0.126709,1.0,1.1880499999999998e-07,1.0,-67.53312,1.0,4.65e-06,1.0
0.12631199999999998,1.0,1.18088e-07,1.0,-67.2912,1.0,4.79e-06,1.0
0.125946,1.0,1.17874e-07,1.0,-66.91788,1.0,4.63e-06,1.0
0.125519,1.0,1.1749249999999999e-07,1.0,-66.71988,1.0,4.98e-06,1.0
0.125153,1.0,1.168825e-07,1.0,-66.70908,1.0,5.23e-06,1.0
0.124695,1.0,1.1602799999999999e-07,1.0,-66.61008,1.0,5.32e-06,1.0
0.124298,1.0,1.146545e-07,1.0,-66.9726,1.0,5.04e-06,1.0
0.123901,1.0,1.1376949999999999e-07,1.0,-67.10436,1.0,4.94e-06,1.0
0.12350499999999999,1.0,1.1329649999999998e-07,1.0,-67.36824,1.0,4.41e-06,1.0
0.123108,1.0,1.133425e-07,1.0,-67.401,1.0,4.99e-06,1.0
0.122742,1.0,1.13571e-07,1.0,-67.44492,1.0,4.96e-06,1.0
0.12234500000000001,1.0,1.135255e-07,1.0,-67.43412,1.0,4.59e-06,1.0
0.121948,1.0,1.135405e-07,1.0,-67.52195999999999,1.0,4.77e-06,1.0
0.121521,1.0,1.1329649999999998e-07,1.0,-67.599,1.0,4.54e-06,1.0
0.12118499999999999,1.0,1.131285e-07,1.0,-67.44492,1.0,4.98e-06,1.0
0.12075799999999999,1.0,1.1244200000000001e-07,1.0,-67.32432,1.0,4.28e-06,1.0
0.120361,1.0,1.122895e-07,1.0,-67.14828,1.0,4.8e-06,1.0
0.119965,1.0,1.1186199999999999e-07,1.0,-66.9726,1.0,4.11e-06,1.0
0.119598,1.0,1.115875e-07,1.0,-66.66516,1.0,4.71e-06,1.0
0.11914100000000001,1.0,1.111755e-07,1.0,-66.45635999999999,1.0,4.77e-06,1.0
0.118744,1.0,1.1084e-07,1.0,-66.42324,1.0,4.6e-06,1.0
0.11834700000000001,1.0,1.10138e-07,1.0,-66.29148,1.0,4.4e-06,1.0
0.11795,1.0,1.0948199999999999e-07,1.0,-66.13775999999999,1.0,4.9e-06,1.0
0.117523,1.0,1.08795e-07,1.0,-66.02796,1.0,4.64e-06,1.0
0.117157,1.0,1.077575e-07,1.0,-66.11580000000001,1.0,4.68e-06,1.0
0.116791,1.0,1.0690299999999999e-07,1.0,-66.29148,1.0,4.68e-06,1.0
0.11633299999999999,1.0,1.0597249999999999e-07,1.0,-66.45635999999999,1.0,4.6e-06,1.0
0.115967,1.0,1.05118e-07,1.0,-66.79692000000001,1.0,4.42e-06,1.0
0.11554,1.0,1.04645e-07,1.0,-67.15944,1.0,4.41e-06,1.0
0.11514300000000001,1.0,1.0424800000000001e-07,1.0,-67.45608,1.0,4.83e-06,1.0
0.114685,1.0,1.033325e-07,1.0,-67.77468,1.0,4.33e-06,1.0
0.114319,1.0,1.026305e-07,1.0,-68.1264,1.0,4.89e-06,1.0
0.11389200000000001,1.0,1.0168449999999999e-07,1.0,-68.17032,1.0,4.02e-06,1.0
0.113495,1.0,1.008605e-07,1.0,-68.21424,1.0,4.4e-06,1.0
0.113098,1.0,1.000215e-07,1.0,-67.9284,1.0,4.74e-06,1.0
0.11267100000000001,1.0,9.91365e-08,1.0,-67.5,1.0,4.44e-06,1.0
0.11233499999999999,1.0,9.852599999999999e-08,1.0,-66.74184,1.0,4.22e-06,1.0
0.111908,1.0,9.782399999999999e-08,1.0,-65.90700000000001,1.0,4.57e-06,1.0
0.111481,1.0,9.76565e-08,1.0,-65.25864000000001,1.0,4.66e-06,1.0
0.111053,1.0,9.716799999999999e-08,1.0,-65.00627999999999,1.0,4.22e-06,1.0
0.11065699999999999,1.0,9.678649999999999e-08,1.0,-64.77552,1.0,3.97e-06,1.0
0.11026,1.0,9.63595e-08,1.0,-64.72044000000001,1.0,4.27e-06,1.0
0.10983299999999999,1.0,9.6054e-08,1.0,-64.7424,1.0,4.07e-06,1.0
0.10940599999999999,1.0,9.568799999999999e-08,1.0,-64.6434,1.0,3.96e-06,1.0
0.10907,1.0,9.500099999999999e-08,1.0,-64.7424,1.0,4.07e-06,1.0
0.108643,1.0,9.44215e-08,1.0,-64.59948,1.0,4.04e-06,1.0
0.10824600000000001,1.0,9.4177e-08,1.0,-64.6326,1.0,3.97e-06,1.0
0.10787999999999999,1.0,9.37345e-08,1.0,-64.70964000000001,1.0,4.07e-06,1.0
0.10745199999999999,1.0,9.3338e-08,1.0,-64.83024,1.0,3.75e-06,1.0
0.10708599999999999,1.0,9.28955e-08,1.0,-64.9512,1.0,3.85e-06,1.0
0.106628,1.0,9.246849999999999e-08,1.0,-65.1708,1.0,3.14e-06,1.0
0.10629300000000001,1.0,9.198e-08,1.0,-65.23668,1.0,3.58e-06,1.0
0.105927,1.0,9.2041e-08,1.0,-65.32488,1.0,3.24e-06,1.0
0.10546900000000001,1.0,9.15835e-08,1.0,-65.35764,1.0,3.17e-06,1.0
0.10513299999999999,1.0,9.15985e-08,1.0,-65.37960000000001,1.0,3.42e-06,1.0
0.104645,1.0,9.141549999999999e-08,1.0,-65.50056,1.0,3.04e-06,1.0
0.10430899999999999,1.0,9.13085e-08,1.0,-65.14884,1.0,3.16e-06,1.0
0.10391199999999999,1.0,9.09425e-08,1.0,-64.91808,1.0,3.46e-06,1.0
0.103546,1.0,9.066749999999999e-08,1.0,-64.97316,1.0,3.35e-06,1.0
0.103119,1.0,8.9813e-08,1.0,-64.67652000000001,1.0,3.24e-06,1.0
0.102783,1.0,8.935549999999998e-08,1.0,-64.65455999999999,1.0,3.66e-06,1.0
0.102325,1.0,8.85315e-08,1.0,-64.58868,1.0,2.96e-06,1.0
0.10192899999999999,1.0,8.789049999999999e-08,1.0,-64.81944000000001,1.0,3.56e-06,1.0
0.101563,1.0,8.695999999999999e-08,1.0,-65.09412,1.0,3.43e-06,1.0
0.101135,1.0,8.636449999999999e-08,1.0,-65.64348,1.0,3.17e-06,1.0
0.1008,1.0,8.5663e-08,1.0,-66.2364,1.0,3.44e-06,1.0
0.100372,1.0,8.482349999999999e-08,1.0,-66.77496,1.0,3.51e-06,1.0
0.09997560000000001,1.0,8.4137e-08,1.0,-67.06044,1.0,3.27e-06,1.0
0.0995789,1.0,8.374e-08,1.0,-67.35708,1.0,3.45e-06,1.0
0.0991516,1.0,8.311449999999999e-08,1.0,-67.53312,1.0,3.5e-06,1.0
0.09875489999999999,1.0,8.2428e-08,1.0,-67.63176,1.0,2.95e-06,1.0
0.0984802,1.0,8.172599999999999e-08,1.0,-67.53312,1.0,3.61e-06,1.0
0.09796139999999999,1.0,8.11615e-08,1.0,-67.15944,1.0,3.1e-06,1.0
0.09756469999999999,1.0,8.048999999999999e-08,1.0,-66.39048,1.0,3.35e-06,1.0
0.0971375,1.0,7.9529e-08,1.0,-65.4786,1.0,3.44e-06,1.0
0.0967407,1.0,7.916249999999999e-08,1.0,-64.67652000000001,1.0,3.05e-06,1.0
0.09640499999999999,1.0,7.871999999999999e-08,1.0,-63.709559999999996,1.0,3.69e-06,1.0
0.0959778,1.0,7.8186e-08,1.0,-62.753759999999986,1.0,3.34e-06,1.0
0.0955811,1.0,7.76825e-08,1.0,-61.91892,1.0,3.5e-06,1.0
0.0951538,1.0,7.730099999999999e-08,1.0,-61.43544000000001,1.0,3.06e-06,1.0
0.09472660000000001,1.0,7.6599e-08,1.0,-61.38072,1.0,3.12e-06,1.0
0.0943604,1.0,7.612599999999999e-08,1.0,-61.534440000000004,1.0,3.6e-06,1.0
0.09396360000000001,1.0,7.576e-08,1.0,-61.88616,1.0,3.04e-06,1.0
0.0935059,1.0,7.5302e-08,1.0,-62.259479999999996,1.0,2.6e-06,1.0
0.0931702,1.0,7.4951e-08,1.0,-62.60004,1.0,3.06e-06,1.0
0.092804,1.0,7.450850000000001e-08,1.0,-62.64395999999999,1.0,2.86e-06,1.0
0.09237669999999999,1.0,7.428e-08,1.0,-62.699040000000004,1.0,3.19e-06,1.0
0.09197999999999999,1.0,7.37e-08,1.0,-62.70984,1.0,3.46e-06,1.0
0.0915833,1.0,7.365399999999999e-08,1.0,-62.65512,1.0,3.2e-06,1.0
0.0911255,1.0,7.360850000000001e-08,1.0,-62.764920000000004,1.0,3.06e-06,1.0
0.0907593,1.0,7.35475e-08,1.0,-62.764920000000004,1.0,3.04e-06,1.0
0.0903931,1.0,7.330299999999999e-08,1.0,-62.68787999999999,1.0,2.99e-06,1.0
0.08993530000000001,1.0,7.3181e-08,1.0,-62.51220000000001,1.0,3.02e-06,1.0
0.08953860000000001,1.0,7.310499999999999e-08,1.0,-62.4024,1.0,2.79e-06,1.0
0.08914180000000001,1.0,7.269299999999999e-08,1.0,-62.11655999999999,1.0,3.07e-06,1.0
0.08874510000000001,1.0,7.24485e-08,1.0,-62.16047999999999,1.0,2.98e-06,1.0
0.0883789,1.0,7.17775e-08,1.0,-62.33652000000001,1.0,2.81e-06,1.0
0.0879517,1.0,7.118250000000001e-08,1.0,-62.10576,1.0,3.02e-06,1.0
0.0875854,1.0,7.054149999999998e-08,1.0,-62.05068,1.0,3.04e-06,1.0
0.0871887,1.0,7.012949999999999e-08,1.0,-62.20476,1.0,2.84e-06,1.0
0.0867615,1.0,6.9397e-08,1.0,-62.589240000000004,1.0,3.01e-06,1.0
0.0863342,1.0,6.91985e-08,1.0,-62.61120000000001,1.0,2.77e-06,1.0
0.0859375,1.0,6.8802e-08,1.0,-63.01764000000001,1.0,2.66e-06,1.0
0.0856018,1.0,6.81765e-08,1.0,-63.204480000000004,1.0,2.5e-06,1.0
0.08514400000000001,1.0,6.7703e-08,1.0,-63.50112,1.0,2.68e-06,1.0
0.0847778,1.0,6.7108e-08,1.0,-63.86364000000001,1.0,2.55e-06,1.0
0.08432010000000001,1.0,6.665049999999999e-08,1.0,-64.27008,1.0,2.5e-06,1.0
0.0839233,1.0,6.5933e-08,1.0,-64.43495999999999,1.0,2.65e-06,1.0
0.08358760000000001,1.0,6.555199999999999e-08,1.0,-64.8414,1.0,2.78e-06,1.0
0.0831604,1.0,6.48805e-08,1.0,-64.97316,1.0,2.4e-06,1.0
0.0827637,1.0,6.396499999999999e-08,1.0,-65.21472,1.0,2.07e-06,1.0
0.082428,1.0,6.3095e-08,1.0,-65.37960000000001,1.0,2.96e-06,1.0
0.0819702,1.0,6.26525e-08,1.0,-65.61035999999999,1.0,2.19e-06,1.0
0.08154299999999999,1.0,6.2454e-08,1.0,-65.76407999999999,1.0,2.45e-06,1.0
0.08117680000000001,1.0,6.23015e-08,1.0,-65.66544,1.0,2.38e-06,1.0
0.08077999999999999,1.0,6.20115e-08,1.0,-65.31372,1.0,2.18e-06,1.0
0.08032230000000001,1.0,6.158449999999999e-08,1.0,-65.02824000000001,1.0,2.5e-06,1.0
0.0799866,1.0,6.1386e-08,1.0,-64.90728,1.0,2.37e-06,1.0
0.0796509,1.0,6.092849999999999e-08,1.0,-64.98396,1.0,2.52e-06,1.0
0.0792236,1.0,6.072999999999999e-08,1.0,-64.89612,1.0,2.04e-06,1.0
0.0787659,1.0,6.05315e-08,1.0,-65.20392000000001,1.0,2.25e-06,1.0
0.07839969999999999,1.0,6.00585e-08,1.0,-65.29176,1.0,2.05e-06,1.0
0.07803339999999999,1.0,5.9845e-08,1.0,-64.9512,1.0,2.34e-06,1.0
0.0776062,1.0,5.986e-08,1.0,-65.31372,1.0,2.22e-06,1.0
0.0772095,1.0,6.01195e-08,1.0,-65.5992,1.0,2.04e-06,1.0
0.0769043,1.0,6.008899999999999e-08,1.0,-66.46716,1.0,2.45e-06,1.0
0.0764465,1.0,6.01045e-08,1.0,-67.5,1.0,1.72e-06,1.0
0.0760498,1.0,5.96465e-08,1.0,-68.21424,1.0,2.17e-06,1.0
0.0756531,1.0,5.91585e-08,1.0,-68.70852,1.0,2.35e-06,1.0
0.0752563,1.0,5.85325e-08,1.0,-67.8186,1.0,2.43e-06,1.0
0.0748596,1.0,5.7601999999999995e-08,1.0,-66.006,1.0,2.03e-06,1.0
0.0744324,1.0,5.7022e-08,1.0,-64.413,1.0,1.94e-06,1.0
0.0740662,1.0,5.6304999999999994e-08,1.0,-62.99567999999999,1.0,2.22e-06,1.0
0.0736389,1.0,5.5663999999999995e-08,1.0,-62.4024,1.0,2.13e-06,1.0
0.0732727,1.0,5.54505e-08,1.0,-61.75404000000001,1.0,2.04e-06,1.0
0.072876,1.0,5.477899999999999e-08,1.0,-61.50132000000001,1.0,2.18e-06,1.0
0.0724792,1.0,5.4733500000000005e-08,1.0,-61.688159999999996,1.0,2.37e-06,1.0
0.071991,1.0,5.4641499999999993e-08,1.0,-61.84188,1.0,2.22e-06,1.0
0.0717163,1.0,5.436699999999999e-08,1.0,-62.42435999999999,1.0,2.28e-06,1.0
0.0711975,1.0,5.4184e-08,1.0,-63.02844,1.0,2.59e-06,1.0
0.0708008,1.0,5.4184e-08,1.0,-63.30312,1.0,2.16e-06,1.0
0.07040410000000001,1.0,5.43975e-08,1.0,-63.973440000000004,1.0,2.44e-06,1.0
0.0700684,1.0,5.441299999999999e-08,1.0,-64.68768,1.0,2.37e-06,1.0
0.06961060000000001,1.0,5.4596e-08,1.0,-65.19275999999999,1.0,1.82e-06,1.0
0.0692139,1.0,5.4611e-08,1.0,-65.65428,1.0,2.32e-06,1.0
0.0688171,1.0,5.436699999999999e-08,1.0,-65.81916,1.0,2.02e-06,1.0
0.06842039999999999,1.0,5.42145e-08,1.0,-65.89583999999999,1.0,2.1e-06,1.0
0.0679932,1.0,5.3527999999999995e-08,1.0,-65.98404000000001,1.0,1.91e-06,1.0
0.0675964,1.0,5.346699999999999e-08,1.0,-66.17052,1.0,1.94e-06,1.0
0.0672302,1.0,5.3176999999999994e-08,1.0,-66.2364,1.0,2.2e-06,1.0
0.0668335,1.0,5.2658e-08,1.0,-66.61008,1.0,1.67e-06,1.0
0.0663757,1.0,5.2489999999999996e-08,1.0,-66.84084,1.0,1.64e-06,1.0
0.06594850000000001,1.0,5.1834e-08,1.0,-66.82968,1.0,1.92e-06,1.0
0.06555180000000001,1.0,5.1239e-08,1.0,-67.2912,1.0,1.65e-06,1.0
0.06515499999999999,1.0,5.0354e-08,1.0,-67.9284,1.0,1.62e-06,1.0
0.06488039999999999,1.0,4.974365e-08,1.0,-68.58756,1.0,1.69e-06,1.0
0.0643921,1.0,4.8736550000000004e-08,1.0,-69.25788,1.0,2e-06,1.0
0.06399540000000001,1.0,4.818725e-08,1.0,-69.77412000000001,1.0,1.78e-06,1.0
0.0635681,1.0,4.7302249999999996e-08,1.0,-70.48835999999999,1.0,1.3e-06,1.0
0.0631409,1.0,4.6859750000000004e-08,1.0,-71.01576,1.0,1.54e-06,1.0
0.06277469999999999,1.0,4.62494e-08,1.0,-71.56512000000001,1.0,1.51e-06,1.0
0.0623169,1.0,4.56543e-08,1.0,-72.17999999999999,1.0,1.61e-06,1.0
0.0619812,1.0,4.56543e-08,1.0,-72.11411999999999,1.0,1.48e-06,1.0
0.061614999999999996,1.0,4.551695e-08,1.0,-71.82864000000001,1.0,1.57e-06,1.0
0.0611877,1.0,4.5272849999999996e-08,1.0,-71.72964,1.0,1.7e-06,1.0
0.0607605,1.0,4.50592e-08,1.0,-71.433,1.0,1.84e-06,1.0
0.0603638,1.0,4.4845599999999995e-08,1.0,-71.35632000000001,1.0,1.52e-06,1.0
0.0599976,1.0,4.4891349999999994e-08,1.0,-71.03772000000001,1.0,1.55e-06,1.0
0.0596008,1.0,4.4693e-08,1.0,-70.37856,1.0,1.94e-06,1.0
0.0592346,1.0,4.4631949999999996e-08,1.0,-70.11467999999999,1.0,1.54e-06,1.0
0.0587769,1.0,4.418945e-08,1.0,-70.038,1.0,1.77e-06,1.0
0.0583496,1.0,4.3868999999999994e-08,1.0,-70.18055999999999,1.0,1.23e-06,1.0
0.057983400000000004,1.0,4.348755000000001e-08,1.0,-69.42276,1.0,1.51e-06,1.0
0.0575562,1.0,4.3106099999999994e-08,1.0,-69.21396,1.0,1.49e-06,1.0
0.057128899999999996,1.0,4.2633050000000005e-08,1.0,-69.01595999999999,1.0,1.54e-06,1.0
0.0568237,1.0,4.1976949999999997e-08,1.0,-68.247,1.0,1.28e-06,1.0
0.056366,1.0,4.1717550000000006e-08,1.0,-67.5,1.0,1.48e-06,1.0
0.0560303,1.0,4.1336049999999996e-08,1.0,-67.06044,1.0,1.48e-06,1.0
0.055572500000000004,1.0,4.1320800000000006e-08,1.0,-66.37932,1.0,1.05e-06,1.0
0.055175800000000004,1.0,4.1107199999999996e-08,1.0,-65.73132000000001,1.0,8.88e-07,1.0
0.0547791,1.0,4.0710449999999996e-08,1.0,-65.21472,1.0,1.46e-06,1.0
0.054412800000000004,1.0,4.038999999999999e-08,1.0,-64.18224000000001,1.0,8.31e-07,1.0
0.05395509999999999,1.0,4.051209999999999e-08,1.0,-62.9406,1.0,1.4e-06,1.0
0.0536194,1.0,3.9855949999999994e-08,1.0,-62.072640000000014,1.0,1.37e-06,1.0
0.0532227,1.0,3.9855949999999994e-08,1.0,-61.00704,1.0,1.05e-06,1.0
0.052795400000000006,1.0,3.91693e-08,1.0,-60.15024000000001,1.0,1.17e-06,1.0
0.0523376,1.0,3.89862e-08,1.0,-59.26032,1.0,1.61e-06,1.0
0.052002,1.0,3.82843e-08,1.0,-57.99672,1.0,1.32e-06,1.0
0.051574699999999994,1.0,3.8101199999999996e-08,1.0,-56.49156000000001,1.0,9.88e-07,1.0
0.051208500000000004,1.0,3.764344999999999e-08,1.0,-55.92024,1.0,1.18e-06,1.0
0.0508423,1.0,3.762815e-08,1.0,-54.744839999999996,1.0,1.2e-06,1.0
0.050414999999999995,1.0,3.744505e-08,1.0,-53.97588,1.0,6.890000000000001e-07,1.0
0.049987800000000006,1.0,3.723144999999999e-08,1.0,-53.75627999999999,1.0,1.51e-06,1.0
0.049514800000000005,1.0,3.69568e-08,1.0,-53.96472,1.0,1.06e-06,1.0
0.0491211,1.0,3.6804199999999994e-08,1.0,-53.96472,1.0,1.47e-06,1.0
0.0487335,1.0,3.6575300000000005e-08,1.0,-54.16272,1.0,1.33e-06,1.0
0.048324599999999995,1.0,3.6132800000000006e-08,1.0,-54.57996000000001,1.0,1.35e-06,1.0
0.047934,1.0,3.616335e-08,1.0,-55.1844,1.0,9.9e-07,1.0
0.047537199999999995,1.0,3.6132800000000006e-08,1.0,-55.3932,1.0,1.59e-06,1.0
0.04713130000000001,1.0,3.588865e-08,1.0,-55.579679999999996,1.0,1.48e-06,1.0
0.0467041,1.0,3.575134999999999e-08,1.0,-55.81043999999999,1.0,5.82e-07,1.0
0.0463226,1.0,3.546145e-08,1.0,-56.62367999999999,1.0,9.740000000000001e-07,1.0
0.0459167,1.0,3.507995e-08,1.0,-56.656439999999996,1.0,9.959999999999999e-07,1.0
0.045498699999999996,1.0,3.47748e-08,1.0,-57.08484,1.0,7.47e-07,1.0
0.04512940000000001,1.0,3.416445e-08,1.0,-58.018679999999996,1.0,9.81e-07,1.0
0.044696,1.0,3.329469999999999e-08,1.0,-59.39208,1.0,2.12e-07,1.0
0.044314599999999996,1.0,3.1555200000000005e-08,1.0,-61.18272,1.0,5.64e-07,1.0
0.0438995,1.0,3.053285e-08,1.0,-62.82000000000001,1.0,1.03e-06,1.0
0.0435211,1.0,2.99225e-08,1.0,-63.4572,1.0,5.33e-07,1.0
0.0431213,1.0,2.9403700000000003e-08,1.0,-63.55584,1.0,5.91e-07,1.0
0.042736800000000005,1.0,2.89612e-08,1.0,-63.94032000000001,1.0,3.2200000000000005e-07,1.0
0.0423523,1.0,2.8533949999999997e-08,1.0,-64.3248,1.0,7.559999999999999e-07,1.0
0.041925,1.0,2.8350849999999995e-08,1.0,-64.6434,1.0,5.83e-07,1.0
0.0415161,1.0,2.81372e-08,1.0,-64.16028,1.0,3.5700000000000003e-07,1.0
0.04113769999999999,1.0,2.8579700000000002e-08,1.0,-63.116279999999996,1.0,5.74e-07,1.0
0.0407349,1.0,2.87781e-08,1.0,-62.56728,1.0,5.78e-07,1.0
0.0403412,1.0,2.87323e-08,1.0,-62.578079999999986,1.0,3.4899999999999996e-07,1.0
0.039947500000000004,1.0,2.8808599999999998e-08,1.0,-62.28144000000001,1.0,5.18e-07,1.0
0.0395569,1.0,2.8808599999999998e-08,1.0,-61.81992,1.0,6.78e-07,1.0
0.0391296,1.0,2.9113749999999995e-08,1.0,-60.67764000000001,1.0,6.3e-07,1.0
0.0387482,1.0,2.9663099999999998e-08,1.0,-58.31532000000001,1.0,4.3100000000000003e-07,1.0
0.038336199999999994,1.0,3.0548099999999995e-08,1.0,-56.349000000000004,1.0,5.04e-07,1.0
0.0379578,1.0,3.118895e-08,1.0,-54.70092000000001,1.0,2.26e-07,1.0
0.0375305,1.0,3.15857e-08,1.0,-53.55828,1.0,6.909999999999999e-07,1.0
0.037146,1.0,3.163145e-08,1.0,-52.66836000000001,1.0,2.5399999999999997e-07,1.0
0.036737099999999995,1.0,3.22113e-08,1.0,-51.81156000000001,1.0,2.43e-07,1.0
0.036343400000000005,1.0,3.216555e-08,1.0,-51.1632,1.0,1.15e-07,1.0
0.0359222,1.0,3.1814599999999996e-08,1.0,-50.25132000000001,1.0,2.3800000000000001e-07,1.0
0.0355469,1.0,3.184509999999999e-08,1.0,-49.119839999999996,1.0,4.25e-07,1.0
0.035141000000000006,1.0,3.18756e-08,1.0,-49.10904,1.0,5.6e-07,1.0
0.0347534,1.0,3.17993e-08,1.0,-48.65832,1.0,8.35e-07,1.0
0.0343567,1.0,3.1723e-08,1.0,-48.197160000000004,1.0,3.2299999999999997e-07,1.0
0.033956900000000005,1.0,3.186035e-08,1.0,-48.20796,1.0,3.48e-07,1.0
0.0335693,1.0,3.1600950000000003e-08,1.0,-47.77956,1.0,5.25e-07,1.0
0.03315119999999999,1.0,3.1600950000000003e-08,1.0,-47.318039999999996,1.0,3.74e-07,1.0
0.032751499999999996,1.0,3.164674999999999e-08,1.0,-46.82376,1.0,-4.91e-08,1.0
0.0323578,1.0,3.1600950000000003e-08,1.0,-46.84572000000001,1.0,2.66e-07,1.0
0.031964099999999995,1.0,3.1600950000000003e-08,1.0,-45.92267999999999,1.0,5.49e-07,1.0
0.0315308,1.0,3.1326299999999995e-08,1.0,-44.97804,1.0,-4.839999999999999e-07,1.0
0.031152299999999997,1.0,3.09601e-08,1.0,-42.61608,1.0,1.5299999999999999e-09,1.0
0.0307495,1.0,3.071595e-08,1.0,-39.2652,1.0,-1.13e-07,1.0
0.0303711,1.0,3.01361e-08,1.0,-35.33202000000001,1.0,-1.24e-07,1.0
0.0299469,1.0,2.9891950000000005e-08,1.0,-30.827627999999997,1.0,-1.47e-07,1.0
0.0295746,1.0,2.948e-08,1.0,-28.278792000000003,1.0,-3.02e-07,1.0
0.0291748,1.0,2.9434199999999995e-08,1.0,-25.692624000000002,1.0,-2.01e-07,1.0
0.0287567,1.0,2.9022199999999998e-08,1.0,-19.374372,1.0,-5.1900000000000005e-09,1.0
0.028360000000000003,1.0,2.8808599999999998e-08,1.0,-12.939696000000001,1.0,-2.21e-07,1.0
0.027960200000000004,1.0,2.8823849999999996e-08,1.0,-8.613288,1.0,-3.6299999999999995e-07,1.0
0.027578700000000005,1.0,2.8579700000000002e-08,1.0,-5.331672,1.0,2.96e-07,1.0
0.0271515,1.0,2.859495e-08,1.0,-3.1662612,1.0,-1.8800000000000002e-07,1.0
0.026767000000000003,1.0,2.85187e-08,1.0,-2.0830068,1.0,-1.7699999999999998e-07,1.0
0.0263885,1.0,2.85492e-08,1.0,-0.9743760000000001,1.0,2.3199999999999999e-07,1.0
0.0259888,1.0,2.859495e-08,1.0,-0.9686627999999999,1.0,3.97e-09,1.0
0.025592,1.0,2.859495e-08,1.0,-0.42638039999999994,1.0,1.1e-07,1.0
0.025174000000000002,1.0,2.8579700000000002e-08,1.0,-0.43044479999999996,1.0,6.1e-09,1.0
0.0247894,1.0,2.859495e-08,1.0,-0.4325328,1.0,2.3199999999999999e-07,1.0
0.024383500000000002,1.0,2.8564449999999998e-08,1.0,-0.43308,1.0,-4.85e-08,1.0
0.0239685,1.0,2.8656e-08,1.0,-0.43055279999999996,1.0,-1.55e-07,1.0
0.023587,1.0,2.8610250000000003e-08,1.0,-0.43022520000000003,1.0,3.65e-07,1.0
0.023193400000000003,1.0,2.8610250000000003e-08,1.0,-0.4325328,1.0,2.3199999999999999e-07,1.0
0.022781400000000004,1.0,2.8625499999999997e-08,1.0,-0.9613043999999998,1.0,-4.43e-07,1.0
0.022384599999999998,1.0,2.833555e-08,1.0,-2.0994876000000002,1.0,2.24e-07,1.0
0.021991,1.0,2.7313249999999998e-08,1.0,-6.105096,1.0,-2.84e-08,1.0
0.021582,1.0,2.5726299999999995e-08,1.0,-12.379392,1.0,-2.87e-07,1.0
0.021191400000000003,1.0,2.4095150000000003e-08,1.0,-18.025272000000005,1.0,4.66e-07,1.0
0.0207825,1.0,2.2808849999999998e-08,1.0,-23.57118,1.0,2.26e-07,1.0
0.020388800000000002,1.0,2.14203e-08,1.0,-28.674324000000002,1.0,-3.65e-07,1.0
0.0199982,1.0,2.0608500000000002e-08,1.0,-32.618412,1.0,-8.240000000000001e-09,1.0
0.0195648,1.0,1.974335e-08,1.0,-35.95824,1.0,-2.37e-07,1.0
0.0191711,1.0,1.907655e-08,1.0,-39.430080000000004,1.0,-3.56e-07,1.0
0.018768299999999998,1.0,1.8440250000000002e-08,1.0,-42.17652,1.0,-3.25e-07,1.0
0.0183685,1.0,1.7842099999999997e-08,1.0,-44.791199999999996,1.0,-7.41e-07,1.0
0.017974900000000002,1.0,1.7478949999999998e-08,1.0,-47.47176,1.0,1.6799999999999998e-08,1.0
0.0175446,1.0,1.7344650000000002e-08,1.0,-49.94387999999999,1.0,-4.01e-07,1.0
0.017157,1.0,1.70807e-08,1.0,-52.08624,1.0,-7.22e-07,1.0
0.0167664,1.0,1.6854849999999996e-08,1.0,-54.305279999999996,1.0,-6.06e-07,1.0
0.016354399999999998,1.0,1.6627499999999998e-08,1.0,-55.78847999999999,1.0,-3.79e-07,1.0
0.0159576,1.0,1.6625999999999996e-08,1.0,-58.07375999999999,1.0,-4.47e-07,1.0
0.0155609,1.0,1.6645799999999998e-08,1.0,-59.94144,1.0,-1.45e-07,1.0
0.015136700000000001,1.0,1.663665e-08,1.0,-61.08407999999999,1.0,-7.41e-07,1.0
0.014749100000000001,1.0,1.658935e-08,1.0,-62.95175999999999,1.0,-3.35e-07,1.0
0.0143402,1.0,1.6601549999999998e-08,1.0,-62.52335999999999,1.0,-7.1e-07,1.0
0.013949600000000001,1.0,1.6612249999999997e-08,1.0,-61.80911999999999,1.0,-4.99e-07,1.0
0.0135376,1.0,1.66794e-08,1.0,-61.80911999999999,1.0,-6.490000000000001e-07,1.0
0.0131226,1.0,1.64047e-08,1.0,-62.22672,1.0,-4.51e-07,1.0
0.0127106,1.0,1.6412349999999997e-08,1.0,-63.380160000000004,1.0,-7.559999999999999e-07,1.0
0.012335200000000001,1.0,1.60431e-08,1.0,-64.27008,1.0,-4.85e-07,1.0
0.0119171,1.0,1.5722649999999996e-08,1.0,-65.16,1.0,-7.38e-07,1.0
0.0115234,1.0,1.58249e-08,1.0,-65.63232,1.0,-8.21e-07,1.0
0.0111115,1.0,1.5782149999999997e-08,1.0,-67.599,1.0,-1.05e-06,1.0
0.010687299999999999,1.0,1.5794349999999998e-08,1.0,-68.31287999999999,1.0,-1.43e-06,1.0
0.0103027,1.0,1.600495e-08,1.0,-69.75216,1.0,-1.09e-06,1.0
0.00992126,1.0,1.6012549999999998e-08,1.0,-70.42248,1.0,-8.78e-07,1.0
0.00951233,1.0,1.6037e-08,1.0,-71.61984,1.0,-1.04e-06,1.0
0.00912476,1.0,1.5774549999999996e-08,1.0,-72.10332000000001,1.0,-1.21e-06,1.0
0.00871887,1.0,1.576235e-08,1.0,-72.60875999999999,1.0,-1.28e-06,1.0
0.00831299,1.0,1.531525e-08,1.0,-72.93816,1.0,-1.57e-06,1.0
0.00794678,1.0,1.5116899999999997e-08,1.0,-70.785,1.0,-9.940000000000001e-07,1.0
0.00753479,1.0,1.4677450000000001e-08,1.0,-66.57732000000001,1.0,-1.36e-06,1.0
0.00715027,1.0,1.43051e-08,1.0,-63.12744,1.0,-1.59e-06,1.0
0.00677185,1.0,1.384275e-08,1.0,-60.765480000000004,1.0,-1.92e-06,1.0
0.00637817,1.0,1.36032e-08,1.0,-58.29336000000001,1.0,-1.59e-06,1.0
0.0059845,1.0,1.31714e-08,1.0,-55.33812,1.0,-1.53e-06,1.0
0.00559998,1.0,1.3012699999999999e-08,1.0,-52.66836000000001,1.0,-1.22e-06,1.0
0.0052124,1.0,1.295625e-08,1.0,-50.91048,1.0,-1.03e-06,1.0
0.00479431,1.0,1.249845e-08,1.0,-47.252159999999996,1.0,-1.91e-06,1.0
0.00442505,1.0,1.2297049999999999e-08,1.0,-44.42868,1.0,-1.23e-06,1.0
0.0039978,1.0,1.20651e-08,1.0,-41.57244,1.0,-1.66e-06,1.0
0.00362244,1.0,1.1822499999999999e-08,1.0,-38.99052,1.0,-1.88e-06,1.0
0.00322266,1.0,1.164245e-08,1.0,-38.33136,1.0,-1.54e-06,1.0
0.00283508,1.0,1.09848e-08,1.0,-36.25488,1.0,-1.34e-06,1.0
0.00243225,1.0,9.91365e-09,1.0,-36.76032,1.0,-1.8e-06,1.0
0.00202332,1.0,9.06525e-09,1.0,-37.29852,1.0,-1.4e-06,1.0
0.00162048,1.0,7.8003e-09,1.0,-37.27656,1.0,-1.25e-06,1.0
0.00123291,1.0,7.0465000000000004e-09,1.0,-36.84816,1.0,-1.83e-06,1.0
0.000848389,1.0,6.483449999999999e-09,1.0,-37.27656,1.0,-1.68e-06,1.0
0.00043335,1.0,5.5984499999999994e-09,1.0,-39.319919999999996,1.0,-1.92e-06,1.0
4.270000000000001e-05,1.0,5.557249999999999e-09,1.0,-38.36412,1.0,-1.69e-06,1.0
-0.00034789999999999995,1.0,5.5023e-09,1.0,-37.847879999999996,1.0,-1.86e-06,1.0
-0.0007690430000000001,1.0,5.969250000000001e-09,1.0,-36.837,1.0,-1.59e-06,1.0
-0.00112915,1.0,6.394949999999999e-09,1.0,-32.541515999999994,1.0,-1.67e-06,1.0
-0.00155029,1.0,6.849649999999999e-09,1.0,-28.157976,1.0,-1.65e-06,1.0
-0.00195923,1.0,7.26775e-09,1.0,-25.817867999999997,1.0,-1.92e-06,1.0
-0.00236816,1.0,7.5363e-09,1.0,-24.153444,1.0,-1.28e-06,1.0
-0.00275269,1.0,7.7362e-09,1.0,-23.875488,1.0,-1.86e-06,1.0
-0.00316162,1.0,7.7072e-09,1.0,-23.877684,1.0,-2.07e-06,1.0
-0.0035553000000000004,1.0,7.7194e-09,1.0,-23.877684,1.0,-1.64e-06,1.0
-0.00394592,1.0,7.77435e-09,1.0,-22.538448000000002,1.0,-2.25e-06,1.0
-0.00432434,1.0,7.345600000000001e-09,1.0,-21.424428,1.0,-1.61e-06,1.0
-0.00475769,1.0,7.1396e-09,1.0,-20.543327999999995,1.0,-1.89e-06,1.0
-0.00515137,1.0,6.727600000000001e-09,1.0,-21.062988,1.0,-1.86e-06,1.0
-0.0055481,1.0,6.6757e-09,1.0,-19.610604000000002,1.0,-1.88e-06,1.0
-0.00593262,1.0,6.909199999999999e-09,1.0,-20.799324000000002,1.0,-2.14e-06,1.0
-0.0063324,1.0,6.8801999999999995e-09,1.0,-22.229748000000004,1.0,-2.03e-06,1.0
-0.00672607,1.0,6.878649999999999e-09,1.0,-23.921639999999996,1.0,-1.85e-06,1.0
-0.00714111,1.0,6.907649999999999e-09,1.0,-28.168956,1.0,-2.41e-06,1.0
-0.00753479,1.0,7.1167e-09,1.0,-32.343768,1.0,-1.61e-06,1.0
-0.00794067,1.0,7.12435e-09,1.0,-38.22156,1.0,-2.16e-06,1.0
-0.00834656,1.0,7.2983e-09,1.0,-44.83512,1.0,-1.98e-06,1.0
-0.0087616,1.0,7.522599999999999e-09,1.0,-48.63636,1.0,-2.34e-06,1.0
-0.00915833,1.0,7.78655e-09,1.0,-53.53632,1.0,-2.61e-06,1.0
-0.0095459,1.0,7.975749999999998e-09,1.0,-52.964999999999996,1.0,-2.92e-06,1.0
-0.0099762,1.0,7.749949999999999e-09,1.0,-51.78960000000001,1.0,-2.89e-06,1.0
-0.010360700000000002,1.0,7.701100000000001e-09,1.0,-51.13044000000001,1.0,-2.47e-06,1.0
-0.010760500000000001,1.0,7.4341e-09,1.0,-47.38392,1.0,-2.86e-06,1.0
-0.011145,1.0,7.41425e-09,1.0,-44.29692000000001,1.0,-2.9e-06,1.0
-0.0115387,1.0,7.330299999999999e-09,1.0,-40.39667999999999,1.0,-2.63e-06,1.0
-0.0119354,1.0,7.313550000000001e-09,1.0,-35.969255999999994,1.0,-2.72e-06,1.0
-0.012326,1.0,7.075499999999999e-09,1.0,-31.937255999999998,1.0,-2.63e-06,1.0
-0.0127136,1.0,7.073949999999998e-09,1.0,-30.9375,1.0,-2.64e-06,1.0
-0.013134799999999999,1.0,6.376649999999999e-09,1.0,-31.080312000000003,1.0,-2.99e-06,1.0
-0.013503999999999999,1.0,5.6152500000000004e-09,1.0,-31.673591999999996,1.0,-2.84e-06,1.0
-0.0139221,1.0,4.681394999999999e-09,1.0,-31.860360000000004,1.0,-3.02e-06,1.0
-0.0143036,1.0,4.206849999999999e-09,1.0,-29.37744,1.0,-3.06e-06,1.0
-0.014697299999999998,1.0,3.982545e-09,1.0,-26.727551999999996,1.0,-3.39e-06,1.0
-0.015090899999999999,1.0,4.008485e-09,1.0,-22.705452,1.0,-3.54e-06,1.0
-0.0154602,1.0,3.718565e-09,1.0,-21.220092,1.0,-3.08e-06,1.0
-0.015875200000000003,1.0,3.468325e-09,1.0,-19.691892000000003,1.0,-3.21e-06,1.0
-0.0162445,1.0,3.35846e-09,1.0,-18.406512,1.0,-3.45e-06,1.0
-0.016650400000000003,1.0,2.59857e-09,1.0,-21.426624,1.0,-3.18e-06,1.0
-0.017025799999999997,1.0,2.015685e-09,1.0,-23.068008,1.0,-3.28e-06,1.0
-0.0174255,1.0,1.57318e-09,1.0,-26.790156000000003,1.0,-3.26e-06,1.0
-0.0178314,1.0,1.4251699999999997e-09,1.0,-30.33324,1.0,-3.07e-06,1.0
-0.0182343,1.0,1.130675e-09,1.0,-33.343488,1.0,-3.12e-06,1.0
-0.0186462,1.0,9.582499999999999e-10,1.0,-32.332752,1.0,-3.04e-06,1.0
-0.019046,1.0,7.5226e-10,1.0,-33.068844,1.0,-3.05e-06,1.0
-0.019464099999999998,1.0,2.8076150000000003e-10,1.0,-29.212632000000003,1.0,-2.93e-06,1.0
-0.01987,1.0,-3.6926249999999994e-10,1.0,-28.509516,1.0,-3.33e-06,1.0
-0.020275900000000003,1.0,-3.9520249999999996e-10,1.0,-26.207891999999998,1.0,-2.68e-06,1.0
-0.0206451,1.0,-3.997805e-10,1.0,-22.462632,1.0,-3.07e-06,1.0
-0.0210724,1.0,1.375e-11,1.0,-21.315672,1.0,-2.77e-06,1.0
-0.021502700000000003,1.0,4.623415e-10,1.0,-20.299428,1.0,-3.31e-06,1.0
-0.021896400000000003,1.0,5.2643e-10,1.0,-16.701407999999997,1.0,-3.07e-06,1.0
-0.0223236,1.0,9.262099999999999e-10,1.0,-13.4055,1.0,-3.29e-06,1.0
-0.0227173,1.0,1.2069699999999998e-09,1.0,-10.613880000000002,1.0,-3.71e-06,1.0
-0.0231262,1.0,1.24817e-09,1.0,-10.379880000000002,1.0,-3.65e-06,1.0
-0.023526,1.0,1.239015e-09,1.0,-10.379880000000002,1.0,-3.65e-06,1.0
-0.023925799999999997,1.0,1.18866e-09,1.0,-12.840804,1.0,-3.85e-06,1.0
-0.024313400000000002,1.0,1.657105e-09,1.0,-19.768788,1.0,-3.66e-06,1.0
-0.0247467,1.0,1.864625e-09,1.0,-26.266104000000002,1.0,-4.06e-06,1.0
-0.0251282,1.0,2.0370499999999997e-09,1.0,-25.250976,1.0,-3.99e-06,1.0
-0.025543200000000002,1.0,2.49939e-09,1.0,-22.233024,1.0,-4.07e-06,1.0
-0.025915499999999998,1.0,2.72064e-09,1.0,-15.20838,1.0,-3.94e-06,1.0
-0.0263214,1.0,2.92206e-09,1.0,-10.649052000000001,1.0,-3.93e-06,1.0
-0.026715100000000002,1.0,3.1585699999999998e-09,1.0,-4.45824,1.0,-3.66e-06,1.0
-0.0271149,1.0,3.1860349999999995e-09,1.0,-0.425502,1.0,-3.86e-06,1.0
-0.0275238,1.0,3.01819e-09,1.0,3.6683280000000003,1.0,-3.86e-06,1.0
-0.0279175,1.0,2.9434199999999997e-09,1.0,7.753068000000001,1.0,-3.86e-06,1.0
-0.028320299999999996,1.0,2.5009149999999997e-09,1.0,12.495852,1.0,-4.48e-06,1.0
-0.028720099999999995,1.0,2.0813000000000002e-09,1.0,18.110951999999997,1.0,-3.79e-06,1.0
-0.029122900000000004,1.0,1.21002e-09,1.0,24.651108,1.0,-4.28e-06,1.0
-0.0294983,1.0,5.4474e-10,1.0,29.586167999999997,1.0,-4.51e-06,1.0
-0.029907200000000002,1.0,1.28174e-10,1.0,29.003904,1.0,-4.44e-06,1.0
-0.0303101,1.0,-3.616335e-10,1.0,30.618899999999996,1.0,-3.95e-06,1.0
-0.0306885,1.0,-3.662109999999999e-10,1.0,25.318008,1.0,-4.31e-06,1.0
-0.031103500000000003,1.0,-9.6588e-10,1.0,13.386852,1.0,-4.21e-06,1.0
-0.0315186,1.0,-1.182555e-09,1.0,2.1654036,1.0,-4.01e-06,1.0
-0.0319183,1.0,-1.46637e-09,1.0,-8.070552000000001,1.0,-4.77e-06,1.0
-0.0322937,1.0,-1.7120349999999999e-09,1.0,-16.706916,1.0,-4.78e-06,1.0
-0.032696499999999996,1.0,-1.74713e-09,1.0,-20.698236,1.0,-4.89e-06,1.0
-0.033093300000000006,1.0,-1.6967749999999999e-09,1.0,-20.700432,1.0,-5.14e-06,1.0
-0.0334961,1.0,-1.6540549999999998e-09,1.0,-16.704720000000002,1.0,-5.18e-06,1.0
-0.0338989,1.0,-1.904295e-09,1.0,-13.126464000000002,1.0,-4.76e-06,1.0
-0.0342865,1.0,-1.708985e-09,1.0,-8.61768,1.0,-4.76e-06,1.0
-0.0346954,1.0,-1.6448949999999998e-09,1.0,-0.4338504,1.0,-5.37e-06,1.0
-0.0350922,1.0,-1.6906749999999999e-09,1.0,7.458624,1.0,-4.96e-06,1.0
-0.035479699999999996,1.0,-1.2313849999999999e-09,1.0,14.260247999999999,1.0,-5.22e-06,1.0
-0.0358917,1.0,-1.01013e-09,1.0,20.824596,1.0,-5.03e-06,1.0
-0.036294599999999996,1.0,-7.6599e-10,1.0,26.844012,1.0,-4.96e-06,1.0
-0.036682099999999995,1.0,-6.13405e-10,1.0,29.201652000000003,1.0,-5.68e-06,1.0
-0.0370972,1.0,-1.6784650000000002e-10,1.0,26.917596000000003,1.0,-5.6e-06,1.0
-0.037469499999999996,1.0,9.613049999999999e-11,1.0,20.451060000000002,1.0,-5.21e-06,1.0
-0.0378784,1.0,6.2561e-11,1.0,14.18004,1.0,-5.42e-06,1.0
-0.0382721,1.0,6.5613e-11,1.0,8.36388,1.0,-5.78e-06,1.0
-0.0386505,1.0,3.815e-11,1.0,2.5125732,1.0,-5.61e-06,1.0
-0.0390625,1.0,2.6245099999999997e-10,1.0,-0.43527960000000004,1.0,-5.23e-06,1.0
-0.0394562,1.0,9.002700000000001e-11,1.0,-3.377196,1.0,-5.36e-06,1.0
-0.039856,1.0,7.01905e-11,1.0,-3.375,1.0,-5.76e-06,1.0
-0.0402405,1.0,-3.05176e-10,1.0,-3.613392,1.0,-5.56e-06,1.0
-0.040655500000000004,1.0,-9.2926e-10,1.0,-3.9122280000000003,1.0,-5.56e-06,1.0
-0.0410736,1.0,-1.382445e-09,1.0,-0.4292352000000001,1.0,-5.75e-06,1.0
-0.0414581,1.0,-1.96533e-09,1.0,8.371584,1.0,-5.9e-06,1.0
-0.041864,1.0,-2.49481e-09,1.0,24.109488,1.0,-5.36e-06,1.0
-0.042254599999999996,1.0,-2.6931749999999996e-09,1.0,41.26464,1.0,-5.62e-06,1.0
-0.042660500000000004,1.0,-2.53601e-09,1.0,54.854639999999996,1.0,-5.94e-06,1.0
-0.0430786,1.0,-2.53601e-09,1.0,65.5992,1.0,-5.93e-06,1.0
-0.0434753,1.0,-2.44751e-09,1.0,75.31128,1.0,-6.17e-06,1.0
-0.0438751,1.0,-2.685545e-09,1.0,85.8582,1.0,-5.81e-06,1.0
-0.0443054,1.0,-3.13568e-09,1.0,93.77928,1.0,-6.11e-06,1.0
-0.0446838,1.0,-3.3325199999999996e-09,1.0,103.22748000000001,1.0,-5.72e-06,1.0
-0.045089699999999996,1.0,-3.6132799999999997e-09,1.0,108.47915999999998,1.0,-5.74e-06,1.0
-0.0454834,1.0,-3.822325e-09,1.0,110.16,1.0,-6.29e-06,1.0
-0.045886199999999995,1.0,-4.0329e-09,1.0,112.23648,1.0,-5.93e-06,1.0
-0.046283,1.0,-4.2541499999999994e-09,1.0,102.22775999999999,1.0,-5.8e-06,1.0
-0.0466888,1.0,-4.240415e-09,1.0,83.54016,1.0,-6.05e-06,1.0
-0.0470856,1.0,-3.816225e-09,1.0,59.051520000000004,1.0,-5.97e-06,1.0
-0.0474884,1.0,-3.074645e-09,1.0,39.99024,1.0,-6.28e-06,1.0
-0.047897300000000004,1.0,-2.2583000000000004e-09,1.0,27.608652,1.0,-6.59e-06,1.0
-0.0482971,1.0,-1.620485e-09,1.0,23.767812,1.0,-6.9e-06,1.0
-0.0486847,1.0,-9.872450000000001e-10,1.0,24.252336000000003,1.0,-6.38e-06,1.0
-0.0491028,1.0,-6.21035e-10,1.0,32.321772,1.0,-6.69e-06,1.0
-0.049508699999999996,1.0,-2.86865e-10,1.0,37.39752,1.0,-6.82e-06,1.0
-0.0498962,1.0,-3.326415e-10,1.0,45.5382,1.0,-6.8e-06,1.0
-0.0503235,1.0,-5.87465e-10,1.0,49.778999999999996,1.0,-6.82e-06,1.0
-0.0507202,1.0,-9.4452e-10,1.0,49.60332000000001,1.0,-7.07e-06,1.0
-0.051177999999999994,1.0,-1.428225e-09,1.0,50.97672,1.0,-7.08e-06,1.0
-0.0514832,1.0,-2.28729e-09,1.0,56.7774,1.0,-6.72e-06,1.0
-0.0519409,1.0,-2.703855e-09,1.0,59.67755999999999,1.0,-6.97e-06,1.0
-0.0524597,1.0,-3.1494149999999997e-09,1.0,68.57676,1.0,-7.46e-06,1.0
-0.05273440000000001,1.0,-3.80249e-09,1.0,74.69604000000001,1.0,-7.1e-06,1.0
-0.053161599999999996,1.0,-3.796385e-09,1.0,84.11148,1.0,-7.11e-06,1.0
-0.0535889,1.0,-4.177855e-09,1.0,83.54016,1.0,-7.26e-06,1.0
-0.05395509999999999,1.0,-4.34723e-09,1.0,69.5214,1.0,-7.53e-06,1.0
-0.054443399999999996,1.0,-4.377744999999999e-09,1.0,61.47936,1.0,-7.31e-06,1.0
-0.0546875,1.0,-4.219055e-09,1.0,44.791199999999996,1.0,-7.93e-06,1.0
-0.055175800000000004,1.0,-3.97644e-09,1.0,41.627159999999996,1.0,-7.71e-06,1.0
-0.055572500000000004,1.0,-3.982545e-09,1.0,41.61636,1.0,-8.01e-06,1.0
-0.055969200000000004,1.0,-4.200745e-09,1.0,56.7774,1.0,-7.86e-06,1.0
-0.056366,1.0,-4.249575e-09,1.0,89.54964000000001,1.0,-8.37e-06,1.0
-0.05676269999999999,1.0,-3.81775e-09,1.0,105.80940000000001,1.0,-8.09e-06,1.0
-0.057128899999999996,1.0,-3.36609e-09,1.0,112.17023999999999,1.0,-8.16e-06,1.0
-0.0575562,1.0,-2.667235e-09,1.0,114.98292000000001,1.0,-8.46e-06,1.0
-0.057983400000000004,1.0,-2.0965599999999996e-09,1.0,118.39968000000002,1.0,-8.07e-06,1.0
-0.05838009999999999,1.0,-2.105715e-09,1.0,124.44228000000001,1.0,-8.43e-06,1.0
-0.0587158,1.0,-2.1225e-09,1.0,138.43872,1.0,-8.67e-06,1.0
-0.0591125,1.0,-2.5222799999999997e-09,1.0,145.7118,1.0,-8.66e-06,1.0
-0.0595703,1.0,-2.5054949999999997e-09,1.0,159.81804000000002,1.0,-8.94e-06,1.0
-0.05996699999999999,1.0,-2.65503e-09,1.0,169.13448000000002,1.0,-8.58e-06,1.0
-0.060302699999999994,1.0,-3.1265249999999996e-09,1.0,173.49624,1.0,-8.83e-06,1.0
-0.06072999999999999,1.0,-3.820799999999999e-09,1.0,165.28931999999998,1.0,-8.63e-06,1.0
-0.0610352,1.0,-4.293825e-09,1.0,162.04824,1.0,-8.51e-06,1.0
-0.061492899999999996,1.0,-4.6462999999999996e-09,1.0,156.91788000000003,1.0,-8.65e-06,1.0
-0.0619202,1.0,-4.893495e-09,1.0,126.45251999999998,1.0,-9.38e-06,1.0
-0.0623169,1.0,-4.850769999999999e-09,1.0,126.4086,1.0,-9.13e-06,1.0
-0.0626831,1.0,-4.65851e-09,1.0,131.5944,1.0,-9.52e-06,1.0
-0.0630493,1.0,-4.45099e-09,1.0,117.60875999999999,1.0,-9.26e-06,1.0
-0.063446,1.0,-4.19159e-09,1.0,114.62039999999999,1.0,-9.46e-06,1.0
-0.0639038,1.0,-4.05426e-09,1.0,100.95335999999999,1.0,-9.36e-06,1.0
-0.0642395,1.0,-3.83148e-09,1.0,99.96444,1.0,-9.43e-06,1.0
-0.0646667,1.0,-3.5446149999999998e-09,1.0,114.07104000000001,1.0,-9.28e-06,1.0
-0.06503300000000001,1.0,-3.1585699999999998e-09,1.0,118.63044,1.0,-9.4e-06,1.0
-0.0654907,1.0,-2.5314349999999997e-09,1.0,124.26624000000001,1.0,-9.45e-06,1.0
-0.0658569,1.0,-1.6922e-09,1.0,133.67051999999998,1.0,-9.49e-06,1.0
-0.0661926,1.0,-1.019285e-09,1.0,142.70148,1.0,-9.6e-06,1.0
-0.0666809,1.0,-7.8583e-10,1.0,149.04036000000002,1.0,-9.58e-06,1.0
-0.0670471,1.0,-8.255e-10,1.0,155.5884,1.0,-9.46e-06,1.0
-0.0674438,1.0,-9.79615e-10,1.0,165.26736,1.0,-9.74e-06,1.0
-0.06781010000000001,1.0,-1.4617899999999998e-09,1.0,175.70448,1.0,-9.7e-06,1.0
-0.0682983,1.0,-1.6967749999999999e-09,1.0,187.41564,1.0,-9.88e-06,1.0
-0.068634,1.0,-1.88446e-09,1.0,192.21696,1.0,-1.0199999999999999e-05,1.0
-0.0690002,1.0,-2.18506e-09,1.0,192.71124,1.0,-9.93e-06,1.0
-0.0694275,1.0,-2.52533e-09,1.0,193.80996,1.0,-1.0199999999999999e-05,1.0
-0.0698547,1.0,-2.757265e-09,1.0,195.0624,1.0,-1.01e-05,1.0
-0.0702515,1.0,-2.5589e-09,1.0,189.45936,1.0,-9.99e-06,1.0
-0.0706482,1.0,-2.549745e-09,1.0,184.30668,1.0,-1.04e-05,1.0
-0.07101439999999999,1.0,-2.5482199999999997e-09,1.0,179.53848,1.0,-1.01e-05,1.0
-0.0714111,1.0,-2.9724099999999997e-09,1.0,179.52768,1.0,-1.0300000000000001e-05,1.0
-0.0718079,1.0,-3.4240699999999997e-09,1.0,166.8492,1.0,-1.09e-05,1.0
-0.07220460000000001,1.0,-3.793335e-09,1.0,142.70148,1.0,-1.06e-05,1.0
-0.0726318,1.0,-3.6010749999999998e-09,1.0,123.39828000000003,1.0,-1.1e-05,1.0
-0.072937,1.0,-3.18146e-09,1.0,123.73884000000001,1.0,-1.04e-05,1.0
-0.07336430000000001,1.0,-2.752685e-09,1.0,137.84544,1.0,-1.1e-05,1.0
-0.0737915,1.0,-2.1209699999999996e-09,1.0,148.28256,1.0,-1.12e-05,1.0
-0.0741882,1.0,-1.6876199999999998e-09,1.0,154.51164,1.0,-1.1400000000000001e-05,1.0
-0.0746155,1.0,-1.6906749999999999e-09,1.0,163.26792,1.0,-1.1400000000000001e-05,1.0
-0.0750427,1.0,-1.8783549999999998e-09,1.0,166.86036000000001,1.0,-1.1400000000000001e-05,1.0
-0.0754089,1.0,-2.0965599999999996e-09,1.0,166.39884,1.0,-1.18e-05,1.0
-0.0758057,1.0,-2.5726299999999996e-09,1.0,169.58484,1.0,-1.13e-05,1.0
-0.07623289999999999,1.0,-3.227235e-09,1.0,173.82564000000002,1.0,-1.11e-05,1.0
-0.0766296,1.0,-3.808595e-09,1.0,172.54044000000002,1.0,-1.1400000000000001e-05,1.0
-0.0769958,1.0,-4.61426e-09,1.0,189.04175999999998,1.0,-1.1400000000000001e-05,1.0
-0.0773926,1.0,-4.9438500000000005e-09,1.0,204.58728000000002,1.0,-1.1599999999999999e-05,1.0
-0.0777588,1.0,-5.39855e-09,1.0,211.43195999999998,1.0,-1.1599999999999999e-05,1.0
-0.078186,1.0,-5.42295e-09,1.0,211.4208,1.0,-1.17e-05,1.0
-0.0786438,1.0,-4.977415e-09,1.0,192.21696,1.0,-1.1599999999999999e-05,1.0
-0.07901,1.0,-4.737855e-09,1.0,189.94248,1.0,-1.1599999999999999e-05,1.0
-0.0794067,1.0,-3.89099e-09,1.0,193.78799999999995,1.0,-1.22e-05,1.0
-0.0798035,1.0,-2.760315e-09,1.0,189.95364,1.0,-1.2e-05,1.0
-0.0802307,1.0,-1.8997199999999997e-09,1.0,188.00892,1.0,-1.21e-05,1.0
-0.0805664,1.0,-1.4770499999999998e-09,1.0,190.84356,1.0,-1.26e-05,1.0
-0.08105470000000001,1.0,-1.33362e-09,1.0,197.86392,1.0,-1.24e-05,1.0
-0.08142089999999999,1.0,-1.0848999999999998e-09,1.0,211.92624,1.0,-1.29e-05,1.0
-0.08178710000000002,1.0,-1.5289299999999998e-09,1.0,218.85876000000002,1.0,-1.23e-05,1.0
-0.08221439999999999,1.0,-1.9470199999999998e-09,1.0,223.15428000000003,1.0,-1.28e-05,1.0
-0.0826721,1.0,-1.9943249999999997e-09,1.0,223.14348,1.0,-1.28e-05,1.0
-0.0830688,1.0,-1.7456049999999998e-09,1.0,221.61636,1.0,-1.28e-05,1.0
-0.0834656,1.0,-1.4862049999999998e-09,1.0,218.83679999999998,1.0,-1.29e-05,1.0
-0.0838318,1.0,-1.72577e-09,1.0,211.43195999999998,1.0,-1.29e-05,1.0
-0.0842285,1.0,-1.652525e-09,1.0,208.60848000000001,1.0,-1.32e-05,1.0
-0.0846252,1.0,-1.904295e-09,1.0,205.53228000000004,1.0,-1.3800000000000002e-05,1.0
-0.0849915,1.0,-2.581785e-09,1.0,204.05988,1.0,-1.32e-05,1.0
-0.0853882,1.0,-2.7114849999999998e-09,1.0,206.32319999999999,1.0,-1.39e-05,1.0
-0.0858154,1.0,-3.1799299999999998e-09,1.0,196.58952,1.0,-1.3500000000000001e-05,1.0
-0.0861816,1.0,-2.7801499999999998e-09,1.0,179.52768,1.0,-1.39e-05,1.0
-0.0865784,1.0,-2.571105e-09,1.0,165.26736,1.0,-1.4099999999999999e-05,1.0
-0.08697510000000001,1.0,-2.3910500000000003e-09,1.0,156.03876,1.0,-1.4400000000000001e-05,1.0
-0.0874023,1.0,-2.622985e-09,1.0,155.03904,1.0,-1.42e-05,1.0
-0.0877686,1.0,-2.5649999999999997e-09,1.0,164.65212,1.0,-1.4000000000000001e-05,1.0
-0.0881958,1.0,-2.5741599999999997e-09,1.0,174.55068,1.0,-1.4300000000000002e-05,1.0
-0.0885315,1.0,-2.555845e-09,1.0,179.54964,1.0,-1.3699999999999998e-05,1.0
-0.0889282,1.0,-2.511595e-09,1.0,174.57264,1.0,-1.3800000000000002e-05,1.0
-0.089325,1.0,-2.6336649999999997e-09,1.0,179.53848,1.0,-1.4400000000000001e-05,1.0
-0.08975219999999999,1.0,-3.0578599999999996e-09,1.0,185.58108,1.0,-1.4300000000000002e-05,1.0
-0.09017939999999999,1.0,-3.788755e-09,1.0,216.40860000000004,1.0,-1.4099999999999999e-05,1.0
-0.0905151,1.0,-3.771975e-09,1.0,248.92811999999998,1.0,-1.4099999999999999e-05,1.0
-0.09106449999999999,1.0,-3.3767699999999997e-09,1.0,278.31672,1.0,-1.4099999999999999e-05,1.0
-0.0913391,1.0,-2.713015e-09,1.0,287.85276,1.0,-1.4599999999999999e-05,1.0
-0.0917664,1.0,-2.5161749999999995e-09,1.0,289.54476000000005,1.0,-1.4800000000000002e-05,1.0
-0.0921936,1.0,-2.334595e-09,1.0,292.12632,1.0,-1.47e-05,1.0
-0.0925903,1.0,-1.8493649999999998e-09,1.0,290.94012,1.0,-1.4599999999999999e-05,1.0
-0.0929871,1.0,-2.1514899999999996e-09,1.0,284.89752,1.0,-1.4800000000000002e-05,1.0
-0.0933533,1.0,-2.32239e-09,1.0,269.52768000000003,1.0,-1.51e-05,1.0
-0.09378049999999999,1.0,-2.5146499999999998e-09,1.0,245.61036,1.0,-1.57e-05,1.0
-0.0941162,1.0,-2.0813000000000002e-09,1.0,224.79120000000003,1.0,-1.58e-05,1.0
-0.0946045,1.0,-1.646425e-09,1.0,211.44276,1.0,-1.56e-05,1.0
-0.0949097,1.0,-9.5978e-10,1.0,201.45636,1.0,-1.56e-05,1.0
-0.09533689999999999,1.0,-9.963999999999998e-10,1.0,193.39236,1.0,-1.57e-05,1.0
-0.09570310000000001,1.0,-1.02234e-09,1.0,196.776,1.0,-1.56e-05,1.0
-0.0961914,1.0,-5.9662e-10,1.0,202.84055999999998,1.0,-1.55e-05,1.0
-0.0966187,1.0,-3.341675e-10,1.0,215.40888,1.0,-1.6e-05,1.0
-0.0969849,1.0,-3.02124e-10,1.0,221.37444,1.0,-1.62e-05,1.0
-0.09735110000000001,1.0,-5.661e-10,1.0,223.75871999999998,1.0,-1.58e-05,1.0
-0.09774780000000001,1.0,-8.239749999999999e-10,1.0,225.05508000000003,1.0,-1.66e-05,1.0
-0.098175,1.0,-1.0375999999999998e-09,1.0,227.81268000000006,1.0,-1.59e-05,1.0
-0.0985413,1.0,-1.3885500000000001e-09,1.0,236.12903999999997,1.0,-1.6e-05,1.0
-0.0989685,1.0,-1.879885e-09,1.0,245.77524,1.0,-1.64e-05,1.0
-0.0993347,1.0,-1.872255e-09,1.0,251.56511999999998,1.0,-1.6e-05,1.0
-0.09979249999999999,1.0,-2.105715e-09,1.0,254.14668,1.0,-1.62e-05,1.0
-0.100189,1.0,-2.0935049999999998e-09,1.0,240.72156,1.0,-1.6800000000000002e-05,1.0
-0.100586,1.0,-2.32239e-09,1.0,222.30828000000002,1.0,-1.67e-05,1.0
-0.100983,1.0,-2.5222799999999997e-09,1.0,210.05856,1.0,-1.7100000000000002e-05,1.0
-0.101349,1.0,-2.50702e-09,1.0,199.28088000000002,1.0,-1.7199999999999998e-05,1.0
-0.101746,1.0,-2.5146499999999998e-09,1.0,193.7988,1.0,-1.73e-05,1.0
-0.102142,1.0,-2.090455e-09,1.0,188.36064,1.0,-1.75e-05,1.0
-0.102539,1.0,-1.6738899999999999e-09,1.0,183.62555999999998,1.0,-1.7100000000000002e-05,1.0
-0.10293599999999999,1.0,-1.4053349999999999e-09,1.0,179.52768,1.0,-1.7199999999999998e-05,1.0
-0.103333,1.0,-9.76565e-10,1.0,183.12012,1.0,-1.75e-05,1.0
-0.10379000000000001,1.0,-8.071899999999999e-10,1.0,182.90051999999997,1.0,-1.74e-05,1.0
-0.104126,1.0,-3.9520249999999996e-10,1.0,182.71368,1.0,-1.83e-05,1.0
-0.10461400000000001,1.0,-4.0435799999999997e-10,1.0,185.724,1.0,-1.8100000000000003e-05,1.0
-0.10491900000000001,1.0,-3.40271e-10,1.0,191.89835999999997,1.0,-1.77e-05,1.0
-0.105377,1.0,-4.1046149999999996e-10,1.0,210.5748,1.0,-1.85e-05,1.0
-0.105774,1.0,-3.7536599999999993e-10,1.0,234.06371999999996,1.0,-1.87e-05,1.0
-0.106201,1.0,-1.38855e-10,1.0,254.47643999999997,1.0,-1.88e-05,1.0
-0.106628,1.0,-2.0599349999999998e-10,1.0,273.75732,1.0,-1.83e-05,1.0
-0.106964,1.0,-4.1809099999999996e-10,1.0,280.7118,1.0,-1.83e-05,1.0
-0.10733,1.0,-8.49915e-10,1.0,283.76604,1.0,-1.83e-05,1.0
-0.107727,1.0,-1.223755e-09,1.0,269.53848000000005,1.0,-1.85e-05,1.0
-0.108215,1.0,-1.893615e-09,1.0,257.51952,1.0,-1.9e-05,1.0
-0.108551,1.0,-2.3513800000000002e-09,1.0,243.0396,1.0,-1.89e-05,1.0
-0.109009,1.0,-2.7771000000000003e-09,1.0,232.69031999999999,1.0,-1.89e-05,1.0
-0.10934400000000001,1.0,-2.77405e-09,1.0,211.44276,1.0,-1.95e-05,1.0
-0.109741,1.0,-2.7496349999999997e-09,1.0,195.05124,1.0,-1.92e-05,1.0
-0.110107,1.0,-2.5589e-09,1.0,184.29552,1.0,-1.95e-05,1.0
-0.11056500000000001,1.0,-1.9210799999999997e-09,1.0,183.79044000000002,1.0,-1.9699999999999998e-05,1.0
-0.11096199999999999,1.0,-1.4770499999999998e-09,1.0,190.87632,1.0,-1.98e-05,1.0
-0.11135899999999999,1.0,-8.956899999999999e-10,1.0,200.17079999999999,1.0,-1.98e-05,1.0
-0.111755,1.0,0.0,1.0,212.65127999999999,1.0,-1.99e-05,1.0
-0.11209100000000001,1.0,2.593995e-10,1.0,219.99024000000003,1.0,-1.9600000000000002e-05,1.0
-0.112518,1.0,2.2888199999999998e-10,1.0,217.30968000000001,1.0,-2.01e-05,1.0
-0.11291500000000002,1.0,-3.997805e-10,1.0,217.38635999999997,1.0,-2.01e-05,1.0
-0.113373,1.0,-1.06201e-09,1.0,223.14348,1.0,-2.02e-05,1.0
-0.113647,1.0,-1.6738899999999999e-09,1.0,230.83379999999997,1.0,-2.01e-05,1.0
-0.11413599999999999,1.0,-2.5833149999999998e-09,1.0,234.82188000000002,1.0,-2.02e-05,1.0
-0.114532,1.0,-3.178405e-09,1.0,232.65755999999996,1.0,-2.08e-05,1.0
-0.114899,1.0,-3.811645e-09,1.0,239.02956000000003,1.0,-2.0600000000000003e-05,1.0
-0.115326,1.0,-4.060364999999999e-09,1.0,240.05123999999995,1.0,-2.05e-05,1.0
-0.115631,1.0,-4.5318600000000005e-09,1.0,249.54336000000004,1.0,-2.1e-05,1.0
-0.11608900000000001,1.0,-4.57306e-09,1.0,260.82648,1.0,-2.0600000000000003e-05,1.0
-0.11648599999999999,1.0,-4.3060299999999994e-09,1.0,256.8384,1.0,-2.1e-05,1.0
