Potential,potstdev,Photocurrent (nA),pcstdev,Phase (°),phstdev,DC Current (µA),dcCurrstdev
0.183624,1.0,9.98075e-08,1.0,-45.45036,1.0,1.3500000000000001e-05,1.0
0.183594,1.0,1.0139449999999999e-07,1.0,-44.60436,1.0,1.34e-05,1.0
0.183228,1.0,1.0331749999999999e-07,1.0,-43.1982,1.0,1.3300000000000001e-05,1.0
0.182831,1.0,1.0499549999999998e-07,1.0,-42.1434,1.0,1.31e-05,1.0
0.18240399999999998,1.0,1.06003e-07,1.0,-41.42952000000001,1.0,1.32e-05,1.0
0.181976,1.0,1.0552999999999999e-07,1.0,-41.714999999999996,1.0,1.29e-05,1.0
0.18161,1.0,1.046905e-07,1.0,-42.7806,1.0,1.29e-05,1.0
0.18118299999999998,1.0,1.0340899999999998e-07,1.0,-44.27496,1.0,1.29e-05,1.0
0.180817,1.0,1.01822e-07,1.0,-46.07676,1.0,1.27e-05,1.0
0.18042,1.0,1.0066199999999999e-07,1.0,-47.439,1.0,1.28e-05,1.0
0.17993199999999998,1.0,9.98075e-08,1.0,-48.6036,1.0,1.27e-05,1.0
0.179596,1.0,9.95485e-08,1.0,-49.383720000000004,1.0,1.27e-05,1.0
0.179199,1.0,9.90905e-08,1.0,-49.383720000000004,1.0,1.25e-05,1.0
0.17886400000000002,1.0,9.844949999999998e-08,1.0,-49.08708,1.0,1.24e-05,1.0
0.178345,1.0,9.76255e-08,1.0,-48.680279999999996,1.0,1.24e-05,1.0
0.178009,1.0,9.698499999999999e-08,1.0,-48.64752,1.0,1.25e-05,1.0
0.177643,1.0,9.632849999999999e-08,1.0,-48.75732000000001,1.0,1.23e-05,1.0
0.17718499999999998,1.0,9.610000000000001e-08,1.0,-48.74616,1.0,1.23e-05,1.0
0.176788,1.0,9.60845e-08,1.0,-48.65832,1.0,1.22e-05,1.0
0.17639200000000002,1.0,9.6573e-08,1.0,-47.62584,1.0,1.21e-05,1.0
0.175995,1.0,9.674049999999999e-08,1.0,-46.527120000000004,1.0,1.21e-05,1.0
0.175598,1.0,9.671e-08,1.0,-45.5382,1.0,1.1900000000000001e-05,1.0
0.17514000000000002,1.0,9.6283e-08,1.0,-44.92296,1.0,1.2e-05,1.0
0.174774,1.0,9.584049999999999e-08,1.0,-44.29692000000001,1.0,1.18e-05,1.0
0.174347,1.0,9.5459e-08,1.0,-43.7256,1.0,1.1900000000000001e-05,1.0
0.17395,1.0,9.48335e-08,1.0,-43.0884,1.0,1.18e-05,1.0
0.173523,1.0,9.460449999999999e-08,1.0,-42.47316,1.0,1.17e-05,1.0
0.173126,1.0,9.39635e-08,1.0,-41.714999999999996,1.0,1.18e-05,1.0
0.17276,1.0,9.3338e-08,1.0,-40.81428,1.0,1.17e-05,1.0
0.17236300000000002,1.0,9.2499e-08,1.0,-39.92436,1.0,1.15e-05,1.0
0.171967,1.0,9.112549999999999e-08,1.0,-39.33108,1.0,1.1400000000000001e-05,1.0
0.17157,1.0,9.030149999999998e-08,1.0,-39.1554,1.0,1.15e-05,1.0
0.171173,1.0,8.93705e-08,1.0,-39.66048,1.0,1.15e-05,1.0
0.170776,1.0,8.8913e-08,1.0,-40.71527999999999,1.0,1.1400000000000001e-05,1.0
0.17038,1.0,8.91875e-08,1.0,-41.26464,1.0,1.1400000000000001e-05,1.0
0.169983,1.0,8.9615e-08,1.0,-41.736959999999996,1.0,1.15e-05,1.0
0.169586,1.0,9.00575e-08,1.0,-41.75892,1.0,1.13e-05,1.0
0.16925,1.0,8.982849999999999e-08,1.0,-41.63832,1.0,1.13e-05,1.0
0.168762,1.0,8.958449999999999e-08,1.0,-41.5944,1.0,1.11e-05,1.0
0.16836500000000001,1.0,8.868399999999999e-08,1.0,-42.15456,1.0,1.12e-05,1.0
0.167938,1.0,8.80585e-08,1.0,-42.81372,1.0,1.11e-05,1.0
0.167572,1.0,8.7631e-08,1.0,-44.0442,1.0,1.1e-05,1.0
0.167175,1.0,8.7982e-08,1.0,-44.813159999999996,1.0,1.1e-05,1.0
0.166748,1.0,8.8257e-08,1.0,-45.1098,1.0,1.1e-05,1.0
0.166351,1.0,8.8333e-08,1.0,-44.91216,1.0,1.09e-05,1.0
0.165985,1.0,8.80585e-08,1.0,-44.53848,1.0,1.07e-05,1.0
0.165527,1.0,8.7616e-08,1.0,-44.05499999999999,1.0,1.07e-05,1.0
0.165131,1.0,8.692949999999998e-08,1.0,-43.96716000000001,1.0,1.07e-05,1.0
0.164734,1.0,8.58765e-08,1.0,-44.241839999999996,1.0,1.07e-05,1.0
0.16433699999999998,1.0,8.520499999999999e-08,1.0,-44.813159999999996,1.0,1.06e-05,1.0
0.163971,1.0,8.5037e-08,1.0,-45.428399999999996,1.0,1.07e-05,1.0
0.163544,1.0,8.47475e-08,1.0,-45.92267999999999,1.0,1.07e-05,1.0
0.163116,1.0,8.517449999999999e-08,1.0,-45.516239999999996,1.0,1.04e-05,1.0
0.16281099999999998,1.0,8.560199999999999e-08,1.0,-44.31887999999999,1.0,1.04e-05,1.0
0.162262,1.0,8.630349999999999e-08,1.0,-42.95663999999999,1.0,1.0300000000000001e-05,1.0
0.161926,1.0,8.56325e-08,1.0,-42.09948,1.0,1.04e-05,1.0
0.16153,1.0,8.502199999999999e-08,1.0,-41.37444,1.0,1.0199999999999999e-05,1.0
0.161163,1.0,8.3893e-08,1.0,-41.165639999999996,1.0,1.0300000000000001e-05,1.0
0.160736,1.0,8.29925e-08,1.0,-41.539320000000004,1.0,1.0199999999999999e-05,1.0
0.16030899999999998,1.0,8.265700000000001e-08,1.0,-41.780879999999996,1.0,1e-05,1.0
0.159973,1.0,8.2382e-08,1.0,-42.330239999999996,1.0,1.01e-05,1.0
0.15945399999999998,1.0,8.25805e-08,1.0,-42.52824,1.0,1e-05,1.0
0.15918,1.0,8.2596e-08,1.0,-42.05556,1.0,1e-05,1.0
0.158752,1.0,8.2184e-08,1.0,-41.72616,1.0,9.84e-06,1.0
0.158295,1.0,8.193949999999999e-08,1.0,-41.45148,1.0,9.77e-06,1.0
0.157959,1.0,8.11155e-08,1.0,-41.58324,1.0,9.82e-06,1.0
0.15756199999999998,1.0,8.091749999999998e-08,1.0,-41.934960000000004,1.0,9.72e-06,1.0
0.157135,1.0,8.091749999999998e-08,1.0,-42.42924,1.0,9.79e-06,1.0
0.15673800000000002,1.0,8.07345e-08,1.0,-42.50627999999999,1.0,9.62e-06,1.0
0.156342,1.0,8.052050000000001e-08,1.0,-41.96772,1.0,9.72e-06,1.0
0.155945,1.0,8.00325e-08,1.0,-41.13288,1.0,9.64e-06,1.0
0.15551800000000002,1.0,8.010849999999999e-08,1.0,-40.69332000000001,1.0,9.6e-06,1.0
0.155121,1.0,7.986450000000001e-08,1.0,-40.84703999999999,1.0,9.49e-06,1.0
0.154755,1.0,7.9193e-08,1.0,-41.605199999999996,1.0,9.45e-06,1.0
0.154358,1.0,7.90255e-08,1.0,-42.462,1.0,9.32e-06,1.0
0.15393099999999998,1.0,7.8995e-08,1.0,-43.36308,1.0,9.52e-06,1.0
0.153534,1.0,7.92235e-08,1.0,-44.02224,1.0,9.33e-06,1.0
0.153137,1.0,7.92085e-08,1.0,-44.42868,1.0,9.47e-06,1.0
0.152771,1.0,7.896399999999999e-08,1.0,-44.879039999999996,1.0,9.09e-06,1.0
0.152344,1.0,7.766699999999999e-08,1.0,-45.274680000000004,1.0,9.17e-06,1.0
0.151947,1.0,7.6538e-08,1.0,-45.97776,1.0,9.32e-06,1.0
0.151581,1.0,7.557699999999999e-08,1.0,-46.417320000000004,1.0,9.15e-06,1.0
0.15118399999999999,1.0,7.470700000000001e-08,1.0,-46.86767999999999,1.0,9.25e-06,1.0
0.150696,1.0,7.4219e-08,1.0,-46.84572000000001,1.0,8.98e-06,1.0
0.15033,1.0,7.40355e-08,1.0,-46.8018,1.0,8.8e-06,1.0
0.149963,1.0,7.36845e-08,1.0,-46.21932,1.0,8.82e-06,1.0
0.149567,1.0,7.3517e-08,1.0,-45.648360000000004,1.0,8.79e-06,1.0
0.14913900000000002,1.0,7.282999999999998e-08,1.0,-44.62632000000001,1.0,8.8e-06,1.0
0.14868199999999998,1.0,7.23265e-08,1.0,-43.59383999999999,1.0,8.74e-06,1.0
0.148315,1.0,7.17315e-08,1.0,-43.16544,1.0,8.79e-06,1.0
0.147919,1.0,7.101449999999999e-08,1.0,-43.07724,1.0,8.81e-06,1.0
0.147552,1.0,7.0648e-08,1.0,-43.26407999999999,1.0,8.66e-06,1.0
0.147095,1.0,7.086199999999999e-08,1.0,-43.16544,1.0,8.59e-06,1.0
0.146759,1.0,7.130449999999999e-08,1.0,-42.9894,1.0,8.75e-06,1.0
0.146362,1.0,7.12585e-08,1.0,-42.81372,1.0,8.6e-06,1.0
0.145966,1.0,7.127400000000001e-08,1.0,-42.01164,1.0,8.53e-06,1.0
0.145569,1.0,7.127400000000001e-08,1.0,-40.86900000000001,1.0,8.45e-06,1.0
0.14514200000000002,1.0,7.067849999999999e-08,1.0,-40.36392,1.0,8.67e-06,1.0
0.144714,1.0,7.00075e-08,1.0,-39.9024,1.0,8.44e-06,1.0
0.144348,1.0,6.9748e-08,1.0,-40.25376,1.0,8.3e-06,1.0
0.143982,1.0,6.9763e-08,1.0,-41.02308,1.0,8.37e-06,1.0
0.143524,1.0,6.997699999999999e-08,1.0,-41.24267999999999,1.0,8.3e-06,1.0
0.14315799999999998,1.0,6.996149999999999e-08,1.0,-41.23152,1.0,8.33e-06,1.0
0.142731,1.0,6.9763e-08,1.0,-40.8582,1.0,8.31e-06,1.0
0.142334,1.0,6.953449999999999e-08,1.0,-40.133160000000004,1.0,8.12e-06,1.0
0.14193699999999998,1.0,6.887799999999999e-08,1.0,-40.0122,1.0,8.27e-06,1.0
0.141479,1.0,6.755049999999999e-08,1.0,-40.6386,1.0,8.13e-06,1.0
0.14111300000000002,1.0,6.671150000000001e-08,1.0,-41.52816,1.0,8.22e-06,1.0
0.140717,1.0,6.581099999999999e-08,1.0,-42.00084,1.0,8.12e-06,1.0
0.14035,1.0,6.546e-08,1.0,-42.79176,1.0,7.94e-06,1.0
0.139954,1.0,6.550599999999999e-08,1.0,-42.61608,1.0,8.08e-06,1.0
0.139557,1.0,6.541449999999999e-08,1.0,-42.61608,1.0,7.99e-06,1.0
0.13915999999999998,1.0,6.4972e-08,1.0,-42.49512,1.0,7.98e-06,1.0
0.138702,1.0,6.49565e-08,1.0,-42.22044,1.0,7.93e-06,1.0
0.13830599999999998,1.0,6.48195e-08,1.0,-42.53904,1.0,7.87e-06,1.0
0.137909,1.0,6.47735e-08,1.0,-42.660000000000004,1.0,7.63e-06,1.0
0.137543,1.0,6.4804e-08,1.0,-43.5168,1.0,7.69e-06,1.0
0.137054,1.0,6.4926e-08,1.0,-43.91244,1.0,7.79e-06,1.0
0.136719,1.0,6.5399e-08,1.0,-44.52768,1.0,7.81e-06,1.0
0.136322,1.0,6.584149999999999e-08,1.0,-44.60436,1.0,7.77e-06,1.0
0.135956,1.0,6.59025e-08,1.0,-45.07704,1.0,7.69e-06,1.0
0.135468,1.0,6.5674e-08,1.0,-45.19764,1.0,7.59e-06,1.0
0.13516199999999998,1.0,6.5613e-08,1.0,-45.274680000000004,1.0,7.52e-06,1.0
0.134766,1.0,6.549049999999999e-08,1.0,-45.516239999999996,1.0,7.47e-06,1.0
0.134338,1.0,6.4972e-08,1.0,-45.71424,1.0,7.58e-06,1.0
0.133972,1.0,6.4728e-08,1.0,-45.81287999999999,1.0,7.51e-06,1.0
0.13351400000000002,1.0,6.4789e-08,1.0,-45.68112000000001,1.0,7.32e-06,1.0
0.133179,1.0,6.43615e-08,1.0,-45.28548,1.0,7.48e-06,1.0
0.132751,1.0,6.4224e-08,1.0,-44.857079999999996,1.0,7.39e-06,1.0
0.132324,1.0,6.378150000000001e-08,1.0,-43.95636,1.0,7.42e-06,1.0
0.131927,1.0,6.329349999999998e-08,1.0,-43.38504,1.0,7.38e-06,1.0
0.13153099999999998,1.0,6.2668e-08,1.0,-42.81372,1.0,7.34e-06,1.0
0.131165,1.0,6.2149e-08,1.0,-42.48396,1.0,7.29e-06,1.0
0.130737,1.0,6.173699999999999e-08,1.0,-42.440039999999996,1.0,7.44e-06,1.0
0.130402,1.0,6.1569e-08,1.0,-42.38532,1.0,7.42e-06,1.0
0.129974,1.0,6.11115e-08,1.0,-42.681960000000004,1.0,7.25e-06,1.0
0.12951700000000002,1.0,6.0211e-08,1.0,-42.29748,1.0,7.11e-06,1.0
0.12912,1.0,5.892949999999999e-08,1.0,-41.57244,1.0,7.18e-06,1.0
0.128723,1.0,5.7677999999999995e-08,1.0,-41.45148,1.0,7.16e-06,1.0
0.128357,1.0,5.6533999999999995e-08,1.0,-41.9238,1.0,7.2e-06,1.0
0.12793,1.0,5.59235e-08,1.0,-42.73668,1.0,7.03e-06,1.0
0.12753299999999998,1.0,5.5206500000000005e-08,1.0,-43.07724,1.0,7e-06,1.0
0.127167,1.0,5.5374e-08,1.0,-43.36308,1.0,6.94e-06,1.0
0.12674000000000002,1.0,5.5297999999999997e-08,1.0,-43.07724,1.0,6.9e-06,1.0
0.126343,1.0,5.5267499999999995e-08,1.0,-42.418079999999996,1.0,6.82e-06,1.0
0.125946,1.0,5.525199999999999e-08,1.0,-41.934960000000004,1.0,6.84e-06,1.0
0.125519,1.0,5.47945e-08,1.0,-41.12172,1.0,6.65e-06,1.0
0.125122,1.0,5.4626499999999996e-08,1.0,-40.6494,1.0,6.7e-06,1.0
0.12475599999999999,1.0,5.42145e-08,1.0,-40.58352000000001,1.0,6.76e-06,1.0
0.124298,1.0,5.39705e-08,1.0,-40.98996,1.0,6.52e-06,1.0
0.123993,1.0,5.39705e-08,1.0,-41.08896,1.0,6.66e-06,1.0
0.12356600000000001,1.0,5.43215e-08,1.0,-41.165639999999996,1.0,6.62e-06,1.0
0.12313800000000001,1.0,5.436699999999999e-08,1.0,-40.770360000000004,1.0,6.5e-06,1.0
0.12271099999999999,1.0,5.45805e-08,1.0,-40.660560000000004,1.0,6.55e-06,1.0
0.12234500000000001,1.0,5.43215e-08,1.0,-40.18787999999999,1.0,6.6e-06,1.0
0.121887,1.0,5.39245e-08,1.0,-39.979079999999996,1.0,6.36e-06,1.0
0.121582,1.0,5.3954999999999996e-08,1.0,-39.68244,1.0,6.51e-06,1.0
0.121155,1.0,5.3954999999999996e-08,1.0,-39.99024,1.0,6.56e-06,1.0
0.120728,1.0,5.4123e-08,1.0,-40.308840000000004,1.0,6.53e-06,1.0
0.120331,1.0,5.3909500000000004e-08,1.0,-40.51763999999999,1.0,6.28e-06,1.0
0.119965,1.0,5.326849999999999e-08,1.0,-40.82508,1.0,6.51e-06,1.0
0.11956800000000001,1.0,5.28105e-08,1.0,-40.14396000000001,1.0,6.49e-06,1.0
0.11907999999999999,1.0,5.238350000000001e-08,1.0,-39.45204,1.0,6.41e-06,1.0
0.118744,1.0,5.20325e-08,1.0,-38.628,1.0,6.35e-06,1.0
0.11834700000000001,1.0,5.1986499999999994e-08,1.0,-38.616839999999996,1.0,6.45e-06,1.0
0.11792000000000001,1.0,5.22615e-08,1.0,-39.24324,1.0,6.58e-06,1.0
0.117584,1.0,5.2489999999999996e-08,1.0,-40.35276,1.0,6.33e-06,1.0
0.11718800000000001,1.0,5.26275e-08,1.0,-41.30856000000001,1.0,6.34e-06,1.0
0.11673,1.0,5.2840999999999997e-08,1.0,-41.48424,1.0,6.5e-06,1.0
0.116272,1.0,5.2535999999999995e-08,1.0,-40.97915999999999,1.0,6.27e-06,1.0
0.115997,1.0,5.2215499999999995e-08,1.0,-40.29767999999999,1.0,6.38e-06,1.0
0.115601,1.0,5.1346e-08,1.0,-40.111200000000004,1.0,6.25e-06,1.0
0.11523399999999999,1.0,5.06895e-08,1.0,-40.682520000000004,1.0,6.34e-06,1.0
0.11480699999999999,1.0,5.0247e-08,1.0,-41.814,1.0,6.3e-06,1.0
0.114349,1.0,4.959105e-08,1.0,-42.48396,1.0,6.23e-06,1.0
0.11398299999999999,1.0,4.917909999999999e-08,1.0,-43.30800000000001,1.0,6.2e-06,1.0
0.11355599999999999,1.0,4.870605e-08,1.0,-43.231320000000004,1.0,6.27e-06,1.0
0.113159,1.0,4.833985e-08,1.0,-43.297200000000004,1.0,6.16e-06,1.0
0.112793,1.0,4.7454849999999996e-08,1.0,-42.82487999999999,1.0,6.2e-06,1.0
0.11245699999999999,1.0,4.66156e-08,1.0,-42.681960000000004,1.0,6.18e-06,1.0
0.11199999999999999,1.0,4.62494e-08,1.0,-42.72588,1.0,6.36e-06,1.0
0.111572,1.0,4.579165e-08,1.0,-42.4512,1.0,6.24e-06,1.0
0.11123699999999999,1.0,4.5410149999999996e-08,1.0,-42.20964,1.0,6.29e-06,1.0
0.11080899999999999,1.0,4.53949e-08,1.0,-41.87988,1.0,6.23e-06,1.0
0.110443,1.0,4.5608499999999994e-08,1.0,-41.37444,1.0,6.24e-06,1.0
0.110046,1.0,4.5547500000000005e-08,1.0,-40.5504,1.0,6.29e-06,1.0
0.10961900000000001,1.0,4.5578e-08,1.0,-40.57236,1.0,6.28e-06,1.0
0.109222,1.0,4.518125e-08,1.0,-40.4406,1.0,6.18e-06,1.0
0.108856,1.0,4.49524e-08,1.0,-41.077799999999996,1.0,6.1e-06,1.0
0.108429,1.0,4.449465e-08,1.0,-41.48424,1.0,6.09e-06,1.0
0.108063,1.0,4.4509899999999994e-08,1.0,-41.97888,1.0,5.83e-06,1.0
0.10760499999999999,1.0,4.44641e-08,1.0,-42.660000000000004,1.0,5.7e-06,1.0
0.107269,1.0,4.4693e-08,1.0,-42.40728,1.0,5.63e-06,1.0
0.10681199999999999,1.0,4.515074999999999e-08,1.0,-42.15456,1.0,5.55e-06,1.0
0.106445,1.0,4.518125e-08,1.0,-40.9572,1.0,5.4e-06,1.0
0.10611,1.0,4.493715e-08,1.0,-39.88044000000001,1.0,5.44e-06,1.0
0.105652,1.0,4.467774999999999e-08,1.0,-39.166199999999996,1.0,5.19e-06,1.0
0.10528599999999999,1.0,4.4509899999999994e-08,1.0,-39.430080000000004,1.0,5.33e-06,1.0
0.10485799999999999,1.0,4.4509899999999994e-08,1.0,-40.27572,1.0,4.9e-06,1.0
0.104431,1.0,4.449465e-08,1.0,-40.97915999999999,1.0,5.05e-06,1.0
0.10403399999999999,1.0,4.470824999999999e-08,1.0,-41.187599999999996,1.0,5.1e-06,1.0
0.10360699999999999,1.0,4.4967650000000004e-08,1.0,-40.70448,1.0,4.9e-06,1.0
0.10324100000000001,1.0,4.5166e-08,1.0,-40.57236,1.0,4.93e-06,1.0
0.10281400000000002,1.0,4.475405e-08,1.0,-40.84703999999999,1.0,4.95e-06,1.0
0.102386,1.0,4.455565e-08,1.0,-40.7484,1.0,4.8e-06,1.0
0.10199,1.0,4.41284e-08,1.0,-41.02308,1.0,4.9e-06,1.0
0.10159299999999999,1.0,4.3685900000000006e-08,1.0,-41.802839999999996,1.0,4.6e-06,1.0
0.101227,1.0,4.299925e-08,1.0,-41.85792,1.0,4.85e-06,1.0
0.1008,1.0,4.27246e-08,1.0,-42.15456,1.0,4.78e-06,1.0
0.10040299999999999,1.0,4.23279e-08,1.0,-42.40728,1.0,4.88e-06,1.0
0.100037,1.0,4.234315e-08,1.0,-42.01164,1.0,4.74e-06,1.0
0.0995483,1.0,4.2114249999999996e-08,1.0,-41.407560000000004,1.0,4.73e-06,1.0
0.0991516,1.0,4.16565e-08,1.0,-40.45176,1.0,4.83e-06,1.0
0.09872439999999999,1.0,4.1534399999999995e-08,1.0,-39.94632,1.0,4.79e-06,1.0
0.0983887,1.0,4.1000349999999996e-08,1.0,-40.242960000000004,1.0,4.91e-06,1.0
0.09799189999999999,1.0,4.075625e-08,1.0,-40.49567999999999,1.0,4.89e-06,1.0
0.09756469999999999,1.0,4.037475e-08,1.0,-41.165639999999996,1.0,4.86e-06,1.0
0.0971375,1.0,4.0206900000000005e-08,1.0,-41.64912,1.0,4.97e-06,1.0
0.09680180000000001,1.0,3.95355e-08,1.0,-42.05556,1.0,4.76e-06,1.0
0.0963745,1.0,3.892515e-08,1.0,-42.264359999999996,1.0,4.8e-06,1.0
0.0959778,1.0,3.829955e-08,1.0,-42.49512,1.0,4.56e-06,1.0
0.09552000000000001,1.0,3.759765e-08,1.0,-42.70392,1.0,4.79e-06,1.0
0.0952148,1.0,3.7155150000000006e-08,1.0,-42.47316,1.0,4.78e-06,1.0
0.09472660000000001,1.0,3.712465e-08,1.0,-42.47316,1.0,4.67e-06,1.0
0.0943298,1.0,3.71399e-08,1.0,-42.01164,1.0,4.66e-06,1.0
0.0939331,1.0,3.730775e-08,1.0,-41.87988,1.0,4.58e-06,1.0
0.0935669,1.0,3.718565e-08,1.0,-41.00112,1.0,4.47e-06,1.0
0.0931702,1.0,3.7155150000000006e-08,1.0,-39.386160000000004,1.0,4.39e-06,1.0
0.092804,1.0,3.674315e-08,1.0,-37.85904,1.0,4.42e-06,1.0
0.0923462,1.0,3.65448e-08,1.0,-37.144800000000004,1.0,4.35e-06,1.0
0.0919495,1.0,3.6041250000000005e-08,1.0,-37.39752,1.0,4.34e-06,1.0
0.09155269999999999,1.0,3.582765e-08,1.0,-37.694160000000004,1.0,4.16e-06,1.0
0.0911255,1.0,3.541565e-08,1.0,-37.5732,1.0,4.35e-06,1.0
0.09069819999999999,1.0,3.511044999999999e-08,1.0,-36.397800000000004,1.0,4.31e-06,1.0
0.0903625,1.0,3.5064699999999994e-08,1.0,-35.068355999999994,1.0,4.24e-06,1.0
0.0898743,1.0,3.459165e-08,1.0,-33.870852,1.0,4.09e-06,1.0
0.08953860000000001,1.0,3.4622199999999995e-08,1.0,-32.947992,1.0,4.41e-06,1.0
0.0891724,1.0,3.460695e-08,1.0,-32.947992,1.0,4.26e-06,1.0
0.0886841,1.0,3.437805e-08,1.0,-33.519276000000005,1.0,4.38e-06,1.0
0.0883484,1.0,3.4194949999999993e-08,1.0,-35.760492,1.0,4.29e-06,1.0
0.0879211,1.0,3.4256e-08,1.0,-37.90296000000001,1.0,4.24e-06,1.0
0.08752439999999999,1.0,3.3966050000000004e-08,1.0,-39.561840000000004,1.0,4.23e-06,1.0
0.0871887,1.0,3.37982e-08,1.0,-40.32000000000001,1.0,4.25e-06,1.0
0.086792,1.0,3.37677e-08,1.0,-40.75920000000001,1.0,4.11e-06,1.0
0.08636469999999999,1.0,3.373719999999999e-08,1.0,-40.93487999999999,1.0,4.38e-06,1.0
0.08596799999999999,1.0,3.3782949999999996e-08,1.0,-41.3964,1.0,4.29e-06,1.0
0.0855713,1.0,3.3569349999999993e-08,1.0,-42.022800000000004,1.0,4.38e-06,1.0
0.0851746,1.0,3.3538799999999996e-08,1.0,-43.12116,1.0,4.43e-06,1.0
0.0848083,1.0,3.334045e-08,1.0,-44.3628,1.0,4.43e-06,1.0
0.0843811,1.0,3.286745e-08,1.0,-44.75844,1.0,4.34e-06,1.0
0.08398439999999999,1.0,3.295899999999999e-08,1.0,-44.27496,1.0,4.38e-06,1.0
0.08358760000000001,1.0,3.297425e-08,1.0,-43.81344,1.0,4.43e-06,1.0
0.08312989999999999,1.0,3.3065799999999996e-08,1.0,-41.9238,1.0,4.19e-06,1.0
0.0827637,1.0,3.3065799999999996e-08,1.0,-40.83624,1.0,4.23e-06,1.0
0.08233639999999999,1.0,3.3355699999999995e-08,1.0,-39.72672,1.0,4.31e-06,1.0
0.0820007,1.0,3.28827e-08,1.0,-39.44088,1.0,4.27e-06,1.0
0.08157350000000001,1.0,3.2714850000000004e-08,1.0,-39.28716,1.0,4.22e-06,1.0
0.0812073,1.0,3.295899999999999e-08,1.0,-39.79260000000001,1.0,4.21e-06,1.0
0.08077999999999999,1.0,3.268435e-08,1.0,-39.94632,1.0,4.24e-06,1.0
0.08041380000000001,1.0,3.234865000000001e-08,1.0,-40.56156,1.0,4.35e-06,1.0
0.08001710000000001,1.0,3.208925e-08,1.0,-40.92408,1.0,4.17e-06,1.0
0.07955930000000001,1.0,3.1600950000000003e-08,1.0,-40.792320000000004,1.0,4.25e-06,1.0
0.0791931,1.0,3.12805e-08,1.0,-40.19904,1.0,4.13e-06,1.0
0.07879639999999999,1.0,3.0777e-08,1.0,-40.69332000000001,1.0,4.04e-06,1.0
0.07839969999999999,1.0,2.9891950000000005e-08,1.0,-40.4406,1.0,3.99e-06,1.0
0.07803339999999999,1.0,2.9693599999999996e-08,1.0,-40.308840000000004,1.0,3.9e-06,1.0
0.0775757,1.0,2.93274e-08,1.0,-40.69332000000001,1.0,3.91e-06,1.0
0.077179,1.0,2.90985e-08,1.0,-40.5504,1.0,3.91e-06,1.0
0.0768433,1.0,2.85492e-08,1.0,-40.92408,1.0,4.05e-06,1.0
0.0763855,1.0,2.819825e-08,1.0,-41.51736,1.0,3.97e-06,1.0
0.07598880000000001,1.0,2.7923599999999997e-08,1.0,-42.462,1.0,3.72e-06,1.0
0.07562260000000001,1.0,2.7328500000000002e-08,1.0,-43.25328,1.0,3.76e-06,1.0
0.07519529999999999,1.0,2.713015e-08,1.0,-43.692479999999996,1.0,3.62e-06,1.0
0.0747375,1.0,2.7160650000000005e-08,1.0,-44.74728,1.0,3.76e-06,1.0
0.0744324,1.0,2.7069099999999998e-08,1.0,-44.01108,1.0,3.67e-06,1.0
0.07397460000000002,1.0,2.7465800000000002e-08,1.0,-42.31944,1.0,3.68e-06,1.0
0.0735474,1.0,2.7786250000000002e-08,1.0,-40.682520000000004,1.0,3.44e-06,1.0
0.07321169999999999,1.0,2.8213499999999997e-08,1.0,-39.19932,1.0,3.49e-06,1.0
0.0727844,1.0,2.8015149999999998e-08,1.0,-38.14452000000001,1.0,3.43e-06,1.0
0.07244869999999999,1.0,2.79846e-08,1.0,-36.89208,1.0,3.42e-06,1.0
0.071991,1.0,2.79999e-08,1.0,-36.37584,1.0,3.45e-06,1.0
0.0715637,1.0,2.8060900000000003e-08,1.0,-35.123292,1.0,3.49e-06,1.0
0.071167,1.0,2.8243999999999998e-08,1.0,-33.91480800000001,1.0,3.39e-06,1.0
0.0708008,1.0,2.804565e-08,1.0,-32.299812,1.0,3.32e-06,1.0
0.0703735,1.0,2.781675e-08,1.0,-30.695796,1.0,3.23e-06,1.0
0.07003780000000001,1.0,2.7603149999999997e-08,1.0,-29.168712,1.0,3.29e-06,1.0
0.06961060000000001,1.0,2.734375e-08,1.0,-26.951652000000003,1.0,3.12e-06,1.0
0.0692444,1.0,2.7328500000000002e-08,1.0,-25.860708,1.0,3.28e-06,1.0
0.0688477,1.0,2.708435e-08,1.0,-24.955452,1.0,3.27e-06,1.0
0.0684509,1.0,2.6626599999999996e-08,1.0,-25.218,1.0,3.18e-06,1.0
0.06802369999999999,1.0,2.6458749999999995e-08,1.0,-25.326792,1.0,3.32e-06,1.0
0.0675964,1.0,2.6245099999999997e-08,1.0,-26.183699999999998,1.0,3.17e-06,1.0
0.06726069999999999,1.0,2.601625e-08,1.0,-25.750871999999998,1.0,3.11e-06,1.0
0.0668335,1.0,2.5741599999999998e-08,1.0,-25.877195999999998,1.0,2.93e-06,1.0
0.0664368,1.0,2.54822e-08,1.0,-25.266348,1.0,3.19e-06,1.0
0.06604,1.0,2.5344849999999998e-08,1.0,-25.690428000000004,1.0,3.08e-06,1.0
0.0656128,1.0,2.4700949999999998e-08,1.0,-25.469604,1.0,3.05e-06,1.0
0.0652161,1.0,2.4058549999999996e-08,1.0,-25.893683999999997,1.0,2.92e-06,1.0
0.0648499,1.0,2.378845e-08,1.0,-25.534439999999996,1.0,2.93e-06,1.0
0.0643921,1.0,2.3342899999999997e-08,1.0,-25.834355999999996,1.0,2.87e-06,1.0
0.0640564,1.0,2.336275e-08,1.0,-25.972776,1.0,2.87e-06,1.0
0.0635986,1.0,2.3205549999999998e-08,1.0,-25.469604,1.0,2.75e-06,1.0
0.0631714,1.0,2.2946149999999997e-08,1.0,-24.959843999999997,1.0,2.84e-06,1.0
0.06277469999999999,1.0,2.27371e-08,1.0,-24.467651999999998,1.0,2.62e-06,1.0
0.0623779,1.0,2.2258e-08,1.0,-25.532244,1.0,2.65e-06,1.0
0.0619812,1.0,2.186735e-08,1.0,-26.513316000000003,1.0,2.57e-06,1.0
0.0615845,1.0,2.1836849999999997e-08,1.0,-28.157976,1.0,2.58e-06,1.0
0.0611877,1.0,2.117005e-08,1.0,-29.311524,1.0,2.61e-06,1.0
0.0608215,1.0,2.118075e-08,1.0,-31.036392,1.0,2.48e-06,1.0
0.0603943,1.0,2.09793e-08,1.0,-32.596452,1.0,2.55e-06,1.0
0.0599976,1.0,2.07138e-08,1.0,-34.36524,1.0,2.5e-06,1.0
0.059539800000000004,1.0,2.0790099999999998e-08,1.0,-35.94726,1.0,2.45e-06,1.0
0.059082,1.0,2.0376599999999996e-08,1.0,-37.96883999999999,1.0,2.51e-06,1.0
0.0587158,1.0,2.011415e-08,1.0,-40.73724,1.0,2.47e-06,1.0
0.05838009999999999,1.0,1.96808e-08,1.0,-43.84656,1.0,2.41e-06,1.0
0.057983400000000004,1.0,1.9233700000000002e-08,1.0,-46.790639999999996,1.0,2.56e-06,1.0
0.0576172,1.0,1.92505e-08,1.0,-49.4604,1.0,2.45e-06,1.0
0.0571899,1.0,1.9223e-08,1.0,-51.1632,1.0,2.49e-06,1.0
0.0567932,1.0,1.90155e-08,1.0,-50.811840000000004,1.0,2.43e-06,1.0
0.0563965,1.0,1.878355e-08,1.0,-51.13044000000001,1.0,2.33e-06,1.0
0.055938699999999994,1.0,1.85837e-08,1.0,-50.767920000000004,1.0,2.18e-06,1.0
0.055603,1.0,1.8550099999999996e-08,1.0,-50.07564,1.0,2.35e-06,1.0
0.055175800000000004,1.0,1.86264e-08,1.0,-50.06484,1.0,2.28e-06,1.0
0.0547485,1.0,1.85196e-08,1.0,-49.3614,1.0,2.24e-06,1.0
0.054412800000000004,1.0,1.8580650000000004e-08,1.0,-50.78988,1.0,2.36e-06,1.0
0.0539856,1.0,1.8577599999999998e-08,1.0,-50.77872,1.0,2.3e-06,1.0
0.0536194,1.0,1.85379e-08,1.0,-50.75676,1.0,2.22e-06,1.0
0.053253199999999994,1.0,1.8464649999999998e-08,1.0,-50.416199999999996,1.0,2.34e-06,1.0
0.052795400000000006,1.0,1.8254099999999998e-08,1.0,-48.966120000000004,1.0,2.28e-06,1.0
0.0524597,1.0,1.80435e-08,1.0,-48.87828,1.0,2.19e-06,1.0
0.0520325,1.0,1.75949e-08,1.0,-49.57019999999999,1.0,2.29e-06,1.0
0.051605200000000004,1.0,1.7663549999999997e-08,1.0,-48.834360000000004,1.0,2.21e-06,1.0
0.051177999999999994,1.0,1.769255e-08,1.0,-47.339999999999996,1.0,2.2e-06,1.0
0.0508423,1.0,1.74774e-08,1.0,-45.85680000000001,1.0,2.12e-06,1.0
0.05044559999999999,1.0,1.726835e-08,1.0,-45.07704,1.0,2.04e-06,1.0
0.049987800000000006,1.0,1.729125e-08,1.0,-42.47316,1.0,2.02e-06,1.0
0.0495453,1.0,1.702575e-08,1.0,-40.14396000000001,1.0,2.15e-06,1.0
0.0491394,1.0,1.70517e-08,1.0,-38.57292,1.0,1.97e-06,1.0
0.04874880000000001,1.0,1.7069999999999997e-08,1.0,-36.73836,1.0,1.86e-06,1.0
0.048336800000000006,1.0,1.6952500000000002e-08,1.0,-33.321527999999994,1.0,1.88e-06,1.0
0.0479492,1.0,1.7018150000000002e-08,1.0,-29.09178,1.0,1.93e-06,1.0
0.0475403,1.0,1.682585e-08,1.0,-25.847532,1.0,1.85e-06,1.0
0.047146600000000004,1.0,1.6775499999999997e-08,1.0,-23.373396,1.0,1.82e-06,1.0
0.046746800000000005,1.0,1.6819749999999997e-08,1.0,-22.558212,1.0,1.86e-06,1.0
0.0463501,1.0,1.6600049999999996e-08,1.0,-22.703256000000003,1.0,1.82e-06,1.0
0.045938099999999996,1.0,1.615145e-08,1.0,-23.029524,1.0,1.83e-06,1.0
0.0455505,1.0,1.6001899999999998e-08,1.0,-22.357188,1.0,1.77e-06,1.0
0.0451538,1.0,1.614685e-08,1.0,-21.328848,1.0,1.77e-06,1.0
0.044757099999999994,1.0,1.6113299999999996e-08,1.0,-20.343384,1.0,1.65e-06,1.0
0.04435119999999999,1.0,1.66107e-08,1.0,-20.053332,1.0,1.6e-06,1.0
0.0439575,1.0,1.6758749999999998e-08,1.0,-19.896228,1.0,1.65e-06,1.0
0.043560800000000004,1.0,1.7041e-08,1.0,-18.780012,1.0,1.53e-06,1.0
0.0431641,1.0,1.7471299999999998e-08,1.0,-18.548208,1.0,1.59e-06,1.0
0.0427826,1.0,1.722105e-08,1.0,-20.297232,1.0,1.56e-06,1.0
0.0423615,1.0,1.6600049999999996e-08,1.0,-21.713364,1.0,1.59e-06,1.0
0.04198,1.0,1.6128549999999997e-08,1.0,-23.035032,1.0,1.56e-06,1.0
0.041549699999999995,1.0,1.5565499999999998e-08,1.0,-23.73156,1.0,1.4e-06,1.0
0.0411652,1.0,1.492155e-08,1.0,-24.662124,1.0,1.52e-06,1.0
