Potential,potstdev,Photocurrent (nA),pcstdev,Phase (°),phstdev,DC Current (µA),dcCurrstdev
0.296021,1.0,3.04306e-07,1.0,-64.79748,1.0,7.211e-05,1.0
0.29586799999999996,1.0,3.0349749999999997e-07,1.0,-65.86308,1.0,7.17316e-05,1.0
0.295502,1.0,3.0226149999999994e-07,1.0,-66.63204,1.0,7.10754e-05,1.0
0.294983,1.0,3.01819e-07,1.0,-67.03847999999999,1.0,7.052e-05,1.0
0.294586,1.0,3.0313099999999996e-07,1.0,-67.23648,1.0,7.02179e-05,1.0
0.294159,1.0,3.0662549999999997e-07,1.0,-66.8736,1.0,6.87866e-05,1.0
0.293854,1.0,3.11203e-07,1.0,-66.0168,1.0,6.84692e-05,1.0
0.293427,1.0,3.1578049999999995e-07,1.0,-64.91808,1.0,6.80817e-05,1.0
0.292969,1.0,3.19687e-07,1.0,-63.643679999999996,1.0,6.79718e-05,1.0
0.292664,1.0,3.213655e-07,1.0,-62.52335999999999,1.0,6.801149999999999e-05,1.0
0.292267,1.0,3.2095349999999996e-07,1.0,-61.94088000000001,1.0,6.66656e-05,1.0
0.29184,1.0,3.19e-07,1.0,-62.0838,1.0,6.67023e-05,1.0
0.291412,1.0,3.1640649999999997e-07,1.0,-62.82000000000001,1.0,6.651609999999999e-05,1.0
0.291016,1.0,3.1423949999999997e-07,1.0,-63.951480000000004,1.0,6.5567e-05,1.0
0.290619,1.0,3.12958e-07,1.0,-65.11608,1.0,6.52283e-05,1.0
0.290192,1.0,3.13202e-07,1.0,-66.2364,1.0,6.50879e-05,1.0
0.289825,1.0,3.1457499999999997e-07,1.0,-67.04964000000001,1.0,6.40991e-05,1.0
0.289429,1.0,3.166045e-07,1.0,-67.46688,1.0,6.38824e-05,1.0
0.289063,1.0,3.18634e-07,1.0,-67.34628000000001,1.0,6.33789e-05,1.0
0.288635,1.0,3.196715e-07,1.0,-66.70908,1.0,6.36261e-05,1.0
0.288208,1.0,3.1976300000000003e-07,1.0,-65.73132000000001,1.0,6.27411e-05,1.0
0.287781,1.0,3.18527e-07,1.0,-64.58868,1.0,6.288149999999999e-05,1.0
0.287445,1.0,3.1661999999999993e-07,1.0,-63.39095999999999,1.0,6.279300000000001e-05,1.0
0.286987,1.0,3.138275e-07,1.0,-62.56728,1.0,6.174010000000001e-05,1.0
0.286621,1.0,3.10776e-07,1.0,-62.479079999999996,1.0,6.17371e-05,1.0
0.286224,1.0,3.07556e-07,1.0,-63.01764000000001,1.0,6.15906e-05,1.0
0.285828,1.0,3.055575e-07,1.0,-64.17107999999999,1.0,6.06598e-05,1.0
0.285492,1.0,3.0554199999999997e-07,1.0,-65.63232,1.0,6.04553e-05,1.0
0.285034,1.0,3.0702199999999995e-07,1.0,-66.9618,1.0,5.96619e-05,1.0
0.284607,1.0,3.098905e-07,1.0,-67.93956,1.0,5.96924e-05,1.0
0.28421,1.0,3.1253049999999997e-07,1.0,-68.18111999999999,1.0,5.8981300000000004e-05,1.0
0.28381300000000004,1.0,3.1387350000000003e-07,1.0,-67.56588,1.0,5.88501e-05,1.0
0.28341700000000003,1.0,3.135985e-07,1.0,-66.4452,1.0,5.8554099999999996e-05,1.0
0.283051,1.0,3.1184399999999997e-07,1.0,-65.09412,1.0,5.84717e-05,1.0
0.282593,1.0,3.0871599999999997e-07,1.0,-63.951480000000004,1.0,5.78613e-05,1.0
0.282196,1.0,3.0508400000000003e-07,1.0,-63.292320000000004,1.0,5.72296e-05,1.0
0.28179899999999997,1.0,3.00888e-07,1.0,-63.292320000000004,1.0,5.69031e-05,1.0
0.281464,1.0,2.97302e-07,1.0,-64.08324,1.0,5.66467e-05,1.0
0.281036,1.0,2.95273e-07,1.0,-65.31372,1.0,5.6054700000000004e-05,1.0
0.28064,1.0,2.947845e-07,1.0,-66.47832000000001,1.0,5.5538900000000005e-05,1.0
0.280212,1.0,2.9579149999999997e-07,1.0,-67.45608,1.0,5.53864e-05,1.0
0.279877,1.0,2.983855e-07,1.0,-68.0382,1.0,5.51239e-05,1.0
0.279449,1.0,3.014375e-07,1.0,-68.1372,1.0,5.45471e-05,1.0
0.279114,1.0,3.0375649999999997e-07,1.0,-67.64292,1.0,5.545350000000001e-05,1.0
0.278748,1.0,3.05252e-07,1.0,-66.74184,1.0,5.5072e-05,1.0
0.27831999999999996,1.0,3.0442800000000003e-07,1.0,-65.37960000000001,1.0,5.41107e-05,1.0
0.277863,1.0,3.0188e-07,1.0,-64.07244,1.0,5.41962e-05,1.0
0.277496,1.0,2.981415e-07,1.0,-63.292320000000004,1.0,5.34027e-05,1.0
0.2771,1.0,2.9374699999999996e-07,1.0,-63.1386,1.0,5.33417e-05,1.0
0.276672,1.0,2.893065e-07,1.0,-63.47916,1.0,5.36346e-05,1.0
0.276306,1.0,2.86148e-07,1.0,-64.39104,1.0,5.32593e-05,1.0
0.275848,1.0,2.8572099999999997e-07,1.0,-65.77524000000001,1.0,5.26764e-05,1.0
0.275482,1.0,2.87918e-07,1.0,-67.0716,1.0,5.1956199999999996e-05,1.0
0.275055,1.0,2.9197699999999997e-07,1.0,-67.96152000000001,1.0,5.1904300000000004e-05,1.0
0.274719,1.0,2.96448e-07,1.0,-68.09328,1.0,5.22888e-05,1.0
0.274292,1.0,2.99698e-07,1.0,-67.75272,1.0,5.18097e-05,1.0
0.273895,1.0,3.012085e-07,1.0,-66.88476,1.0,5.18036e-05,1.0
0.273499,1.0,3.00949e-07,1.0,-65.9178,1.0,5.1965299999999995e-05,1.0
0.273102,1.0,2.9923999999999997e-07,1.0,-64.7424,1.0,5.13336e-05,1.0
0.27270500000000003,1.0,2.9568499999999994e-07,1.0,-63.74267999999999,1.0,5.09369e-05,1.0
0.272278,1.0,2.9130549999999996e-07,1.0,-63.226440000000004,1.0,5.05493e-05,1.0
0.271851,1.0,2.868345e-07,1.0,-63.21527999999999,1.0,5.05737e-05,1.0
0.271393,1.0,2.83539e-07,1.0,-63.907560000000004,1.0,5.0524899999999995e-05,1.0
0.271027,1.0,2.80945e-07,1.0,-65.02824000000001,1.0,4.97375e-05,1.0
0.27066,1.0,2.7983099999999996e-07,1.0,-66.63204,1.0,4.92889e-05,1.0
0.270233,1.0,2.80731e-07,1.0,-68.00544,1.0,4.960939999999999e-05,1.0
0.269836,1.0,2.8356950000000003e-07,1.0,-68.7744,1.0,4.9221800000000004e-05,1.0
0.26944,1.0,2.867735e-07,1.0,-68.60952,1.0,4.89136e-05,1.0
0.268982,1.0,2.89444e-07,1.0,-67.87368,1.0,4.82697e-05,1.0
0.26855500000000004,1.0,2.9019149999999997e-07,1.0,-66.84084,1.0,4.8223900000000004e-05,1.0
0.268158,1.0,2.89444e-07,1.0,-65.75327999999999,1.0,4.82269e-05,1.0
0.26779200000000003,1.0,2.870635e-07,1.0,-64.72044000000001,1.0,4.71008e-05,1.0
0.267426,1.0,2.83325e-07,1.0,-64.17107999999999,1.0,4.73022e-05,1.0
0.266968,1.0,2.792055e-07,1.0,-64.08324,1.0,4.7048999999999996e-05,1.0
0.266602,1.0,2.7577199999999994e-07,1.0,-64.72044000000001,1.0,4.6936000000000006e-05,1.0
0.266235,1.0,2.742155e-07,1.0,-65.73132000000001,1.0,4.67499e-05,1.0
0.265808,1.0,2.749175e-07,1.0,-66.66516,1.0,4.6334799999999996e-05,1.0
0.265381,1.0,2.76886e-07,1.0,-67.26924,1.0,4.5819099999999996e-05,1.0
0.265045,1.0,2.7908349999999997e-07,1.0,-67.5,1.0,4.59503e-05,1.0
0.264648,1.0,2.8065500000000005e-07,1.0,-67.14828,1.0,4.5575e-05,1.0
0.264252,1.0,2.81418e-07,1.0,-66.51107999999999,1.0,4.5581099999999996e-05,1.0
0.263855,1.0,2.8112800000000003e-07,1.0,-65.4786,1.0,4.5043900000000004e-05,1.0
0.263397,1.0,2.8009050000000003e-07,1.0,-64.52279999999999,1.0,4.47998e-05,1.0
0.263031,1.0,2.777405e-07,1.0,-63.94032000000001,1.0,4.4921899999999994e-05,1.0
0.26254299999999997,1.0,2.746885e-07,1.0,-63.80856,1.0,4.42505e-05,1.0
0.262238,1.0,2.71225e-07,1.0,-63.96228,1.0,4.4406099999999995e-05,1.0
0.261871,1.0,2.683565e-07,1.0,-64.54476,1.0,4.444270000000001e-05,1.0
0.261444,1.0,2.668915e-07,1.0,-65.45664000000001,1.0,4.4424399999999994e-05,1.0
0.260986,1.0,2.662965e-07,1.0,-66.37932,1.0,4.32983e-05,1.0
0.26059,1.0,2.6698299999999995e-07,1.0,-67.0716,1.0,4.27979e-05,1.0
0.260162,1.0,2.68524e-07,1.0,-67.45608,1.0,4.26514e-05,1.0
0.259766,1.0,2.70523e-07,1.0,-67.35708,1.0,4.2688e-05,1.0
0.25943,1.0,2.72293e-07,1.0,-66.8736,1.0,4.24622e-05,1.0
0.258942,1.0,2.7275100000000003e-07,1.0,-66.19248,1.0,4.1983e-05,1.0
0.258606,1.0,2.7159099999999993e-07,1.0,-65.3688,1.0,4.28375e-05,1.0
0.258209,1.0,2.69516e-07,1.0,-64.68768,1.0,4.251100000000001e-05,1.0
0.257843,1.0,2.6698299999999995e-07,1.0,-64.27008,1.0,4.17847e-05,1.0
0.257416,1.0,2.6339699999999996e-07,1.0,-64.314,1.0,4.13055e-05,1.0
0.256927,1.0,2.598115e-07,1.0,-64.75356,1.0,4.1107200000000005e-05,1.0
0.256653,1.0,2.56958e-07,1.0,-65.58840000000001,1.0,4.1406300000000004e-05,1.0
0.256195,1.0,2.561645e-07,1.0,-66.30264000000001,1.0,4.10004e-05,1.0
0.255798,1.0,2.5614949999999996e-07,1.0,-66.80772,1.0,4.09729e-05,1.0
0.255402,1.0,2.568205e-07,1.0,-67.10436,1.0,4.06921e-05,1.0
0.255035,1.0,2.5769050000000004e-07,1.0,-67.10436,1.0,4.06036e-05,1.0
0.254608,1.0,2.5898749999999995e-07,1.0,-66.79692000000001,1.0,3.9749099999999995e-05,1.0
0.254211,1.0,2.598265e-07,1.0,-66.14856,1.0,4.0450999999999996e-05,1.0
0.253845,1.0,2.607115e-07,1.0,-65.16,1.0,3.9798e-05,1.0
0.253448,1.0,2.60559e-07,1.0,-64.07244,1.0,3.93585e-05,1.0
0.253021,1.0,2.59201e-07,1.0,-63.226440000000004,1.0,3.96515e-05,1.0
0.252655,1.0,2.5793449999999995e-07,1.0,-63.06156,1.0,3.96149e-05,1.0
0.252197,1.0,2.56363e-07,1.0,-63.39095999999999,1.0,3.96179e-05,1.0
0.25183099999999997,1.0,2.5468449999999997e-07,1.0,-64.07244,1.0,3.88123e-05,1.0
0.251404,1.0,2.532045e-07,1.0,-65.02824000000001,1.0,3.93768e-05,1.0
0.25100700000000004,1.0,2.523955e-07,1.0,-65.9178,1.0,3.9035e-05,1.0
0.250641,1.0,2.521974999999999e-07,1.0,-66.57732000000001,1.0,3.89069e-05,1.0
0.250244,1.0,2.5274650000000005e-07,1.0,-67.11552,1.0,3.82141e-05,1.0
0.24987800000000002,1.0,2.531585e-07,1.0,-67.23648,1.0,3.8797e-05,1.0
0.24939,1.0,2.532045e-07,1.0,-67.04964000000001,1.0,3.75458e-05,1.0
0.249023,1.0,2.525025e-07,1.0,-66.654,1.0,3.75519e-05,1.0
0.24865700000000002,1.0,2.510375e-07,1.0,-66.28067999999999,1.0,3.79089e-05,1.0
0.24823,1.0,2.489775e-07,1.0,-65.88504,1.0,3.78723e-05,1.0
0.24780300000000002,1.0,2.47055e-07,1.0,-65.39076,1.0,3.69263e-05,1.0
0.24746700000000002,1.0,2.45651e-07,1.0,-65.18195999999999,1.0,3.71338e-05,1.0
0.246979,1.0,2.443235e-07,1.0,-65.21472,1.0,3.70636e-05,1.0
0.246613,1.0,2.4348449999999997e-07,1.0,-65.65428,1.0,3.6819499999999995e-05,1.0
0.246216,1.0,2.422945e-07,1.0,-66.37932,1.0,3.6734e-05,1.0
0.24578899999999998,1.0,2.41867e-07,1.0,-67.20335999999999,1.0,3.59344e-05,1.0
0.245392,1.0,2.416685e-07,1.0,-67.85172,1.0,3.61176e-05,1.0
0.244995,1.0,2.41913e-07,1.0,-68.20307999999999,1.0,3.65204e-05,1.0
0.24462899999999999,1.0,2.4208049999999997e-07,1.0,-68.04936,1.0,3.56903e-05,1.0
0.244141,1.0,2.4209599999999997e-07,1.0,-67.51115999999999,1.0,3.54706e-05,1.0
0.243774,1.0,2.4212649999999997e-07,1.0,-66.78576,1.0,3.55072e-05,1.0
0.24340799999999999,1.0,2.41287e-07,1.0,-65.98404000000001,1.0,3.57086e-05,1.0
0.242981,1.0,2.40265e-07,1.0,-65.2806,1.0,3.51013e-05,1.0
0.24258400000000002,1.0,2.3883049999999994e-07,1.0,-64.86335999999999,1.0,3.56201e-05,1.0
0.242157,1.0,2.372435e-07,1.0,-64.6326,1.0,3.48907e-05,1.0
0.24176,1.0,2.3571799999999997e-07,1.0,-64.62144,1.0,3.49854e-05,1.0
0.241364,1.0,2.34253e-07,1.0,-64.94004000000001,1.0,3.41766e-05,1.0
0.24096700000000001,1.0,2.3316950000000003e-07,1.0,-65.64348,1.0,3.42133e-05,1.0
0.24054,1.0,2.3260499999999998e-07,1.0,-66.55499999999999,1.0,3.37799e-05,1.0
0.240173,1.0,2.3210149999999998e-07,1.0,-67.20335999999999,1.0,3.3901999999999995e-05,1.0
0.23971599999999998,1.0,2.3187249999999996e-07,1.0,-67.63176,1.0,3.39264e-05,1.0
0.23934899999999998,1.0,2.3143e-07,1.0,-67.90644,1.0,3.34869e-05,1.0
0.23892199999999997,1.0,2.31476e-07,1.0,-67.93956,1.0,3.28522e-05,1.0
0.238525,1.0,2.3106399999999998e-07,1.0,-67.88448,1.0,3.28613e-05,1.0
0.238159,1.0,2.308045e-07,1.0,-67.48884000000001,1.0,3.32001e-05,1.0
0.23773200000000003,1.0,2.30194e-07,1.0,-66.81888000000001,1.0,3.19702e-05,1.0
0.23730500000000002,1.0,2.29248e-07,1.0,-66.10464,1.0,3.2565300000000005e-05,1.0
0.236938,1.0,2.2802750000000002e-07,1.0,-65.54448,1.0,3.2122800000000004e-05,1.0
0.23657199999999998,1.0,2.26486e-07,1.0,-65.19275999999999,1.0,3.19611e-05,1.0
0.236145,1.0,2.248995e-07,1.0,-65.14884,1.0,3.13812e-05,1.0
0.235748,1.0,2.2402950000000001e-07,1.0,-65.33568,1.0,3.11218e-05,1.0
0.235352,1.0,2.2335799999999998e-07,1.0,-65.7972,1.0,3.18329e-05,1.0
0.234894,1.0,2.2335799999999998e-07,1.0,-66.36852,1.0,3.07404e-05,1.0
0.234589,1.0,2.23648e-07,1.0,-66.84084,1.0,3.0917399999999996e-05,1.0
0.234192,1.0,2.2464e-07,1.0,-66.92868,1.0,3.12744e-05,1.0
0.23379499999999998,1.0,2.2514349999999998e-07,1.0,-66.654,1.0,3.0941799999999996e-05,1.0
0.233368,1.0,2.2557049999999996e-07,1.0,-66.25872000000001,1.0,3.06763e-05,1.0
0.232971,1.0,2.2488400000000002e-07,1.0,-65.90700000000001,1.0,3.0215500000000002e-05,1.0
0.232605,1.0,2.233885e-07,1.0,-65.74212,1.0,3.04413e-05,1.0
0.23217800000000002,1.0,2.2140500000000002e-07,1.0,-65.56644,1.0,3.0069e-05,1.0
0.23175,1.0,2.19223e-07,1.0,-65.77524000000001,1.0,3.02979e-05,1.0
0.231384,1.0,2.1759050000000002e-07,1.0,-66.2364,1.0,2.9861500000000002e-05,1.0
0.23095700000000002,1.0,2.15637e-07,1.0,-66.76379999999999,1.0,3.00446e-05,1.0
0.23056,1.0,2.14035e-07,1.0,-67.24728,1.0,2.95288e-05,1.0
0.23028600000000002,1.0,2.1315e-07,1.0,-67.77468,1.0,3.0236799999999998e-05,1.0
0.22985799999999998,1.0,2.1315e-07,1.0,-68.09328,1.0,3.0184899999999996e-05,1.0
0.229431,1.0,2.138215e-07,1.0,-68.51088,1.0,2.93793e-05,1.0
0.22903400000000002,1.0,2.14752e-07,1.0,-68.62068,1.0,2.9617300000000002e-05,1.0
0.228607,1.0,2.153625e-07,1.0,-68.247,1.0,2.90436e-05,1.0
0.22821,1.0,2.15332e-07,1.0,-67.48884000000001,1.0,2.99225e-05,1.0
0.227814,1.0,2.1495050000000002e-07,1.0,-66.68712000000001,1.0,2.9299899999999997e-05,1.0
0.227386,1.0,2.131805e-07,1.0,-65.94012000000001,1.0,2.93762e-05,1.0
0.22699,1.0,2.1109e-07,1.0,-65.45664000000001,1.0,2.86377e-05,1.0
0.226593,1.0,2.08313e-07,1.0,-65.35764,1.0,2.84454e-05,1.0
0.226257,1.0,2.061005e-07,1.0,-65.33568,1.0,2.8418e-05,1.0
0.22583000000000003,1.0,2.0443749999999998e-07,1.0,-65.39076,1.0,2.78076e-05,1.0
0.225433,1.0,2.031555e-07,1.0,-65.54448,1.0,2.77344e-05,1.0
0.225037,1.0,2.028505e-07,1.0,-65.78604,1.0,2.7557399999999998e-05,1.0
0.224731,1.0,2.03125e-07,1.0,-66.07188,1.0,2.82013e-05,1.0
0.22424299999999997,1.0,2.0396399999999999e-07,1.0,-66.08268,1.0,2.8018200000000002e-05,1.0
0.22384600000000002,1.0,2.0504749999999998e-07,1.0,-65.89583999999999,1.0,2.7795399999999998e-05,1.0
0.22345,1.0,2.0574949999999999e-07,1.0,-65.65428,1.0,2.77008e-05,1.0
0.22305300000000003,1.0,2.0545949999999997e-07,1.0,-65.40155999999999,1.0,2.71637e-05,1.0
0.22262600000000002,1.0,2.04605e-07,1.0,-65.14884,1.0,2.7301e-05,1.0
0.22225999999999999,1.0,2.029265e-07,1.0,-64.81944000000001,1.0,2.71454e-05,1.0
0.22183200000000003,1.0,2.00699e-07,1.0,-64.56672,1.0,2.7133200000000003e-05,1.0
0.221466,1.0,1.9851699999999998e-07,1.0,-64.51164000000001,1.0,2.75024e-05,1.0
0.22103899999999999,1.0,1.9631949999999996e-07,1.0,-64.90728,1.0,2.64709e-05,1.0
0.220703,1.0,1.9502249999999997e-07,1.0,-65.73132000000001,1.0,2.6803600000000002e-05,1.0
0.22021500000000002,1.0,1.948395e-07,1.0,-66.66516,1.0,2.6583899999999998e-05,1.0
0.219849,1.0,1.9564799999999998e-07,1.0,-67.36824,1.0,2.6095599999999998e-05,1.0
0.219482,1.0,1.9619749999999998e-07,1.0,-67.62096,1.0,2.6574699999999998e-05,1.0
0.219025,1.0,1.96884e-07,1.0,-67.30236,1.0,2.5756799999999997e-05,1.0
0.218689,1.0,1.964415e-07,1.0,-66.51107999999999,1.0,2.60132e-05,1.0
0.21826199999999998,1.0,1.9537349999999997e-07,1.0,-65.70935999999999,1.0,2.57843e-05,1.0
0.217926,1.0,1.9338999999999999e-07,1.0,-65.11608,1.0,2.56378e-05,1.0
0.21749899999999997,1.0,1.9149799999999999e-07,1.0,-64.83024,1.0,2.5585900000000002e-05,1.0
0.217072,1.0,1.8942249999999997e-07,1.0,-64.91808,1.0,2.5854499999999998e-05,1.0
0.216614,1.0,1.87393e-07,1.0,-65.22587999999999,1.0,2.51251e-05,1.0
0.21627800000000003,1.0,1.85898e-07,1.0,-65.89583999999999,1.0,2.5506599999999997e-05,1.0
0.215912,1.0,1.852415e-07,1.0,-66.52224000000001,1.0,2.53906e-05,1.0
0.21539299999999997,1.0,1.8479899999999999e-07,1.0,-67.00572,1.0,2.5680500000000003e-05,1.0
0.21505700000000003,1.0,1.850585e-07,1.0,-67.2912,1.0,2.49878e-05,1.0
0.21466100000000002,1.0,1.8507399999999998e-07,1.0,-67.1814,1.0,2.4411e-05,1.0
0.21426399999999998,1.0,1.8507399999999998e-07,1.0,-66.58812,1.0,2.4188200000000003e-05,1.0
0.213867,1.0,1.844635e-07,1.0,-65.62116,1.0,2.39319e-05,1.0
0.21350100000000002,1.0,1.83716e-07,1.0,-64.68768,1.0,2.39441e-05,1.0
0.21307399999999999,1.0,1.82022e-07,1.0,-63.89639999999999,1.0,2.30835e-05,1.0
0.212646,1.0,1.8020649999999998e-07,1.0,-63.34704000000001,1.0,2.37366e-05,1.0
0.21225,1.0,1.782835e-07,1.0,-63.33624000000001,1.0,2.4179099999999997e-05,1.0
0.21188400000000002,1.0,1.7687999999999998e-07,1.0,-63.98424,1.0,2.4621599999999998e-05,1.0
0.211517,1.0,1.75415e-07,1.0,-65.16,1.0,2.44415e-05,1.0
0.21109,1.0,1.746675e-07,1.0,-66.30264000000001,1.0,2.43408e-05,1.0
0.21066300000000002,1.0,1.746675e-07,1.0,-67.21452000000001,1.0,2.3703000000000003e-05,1.0
0.210236,1.0,1.75522e-07,1.0,-67.67568,1.0,2.41913e-05,1.0
0.209839,1.0,1.764375e-07,1.0,-67.67568,1.0,2.3254400000000002e-05,1.0
0.209473,1.0,1.77475e-07,1.0,-67.26924,1.0,2.3843400000000003e-05,1.0
0.20904499999999998,1.0,1.77902e-07,1.0,-66.39048,1.0,2.32574e-05,1.0
0.20864899999999997,1.0,1.77826e-07,1.0,-65.20392000000001,1.0,2.3465e-05,1.0
0.20828200000000002,1.0,1.77246e-07,1.0,-64.215,1.0,2.24304e-05,1.0
0.207855,1.0,1.766815e-07,1.0,-63.66564000000001,1.0,2.24426e-05,1.0
0.207458,1.0,1.755065e-07,1.0,-63.72072000000001,1.0,2.28394e-05,1.0
0.207062,1.0,1.7387399999999999e-07,1.0,-64.28088,1.0,2.2909499999999998e-05,1.0
0.20663499999999999,1.0,1.72745e-07,1.0,-65.31372,1.0,2.2720300000000003e-05,1.0
0.20626799999999998,1.0,1.718595e-07,1.0,-66.36852,1.0,2.22748e-05,1.0
0.205841,1.0,1.71173e-07,1.0,-67.43412,1.0,2.2531100000000002e-05,1.0
0.20544400000000002,1.0,1.704865e-07,1.0,-68.30207999999999,1.0,2.25769e-05,1.0
0.205017,1.0,1.703035e-07,1.0,-68.65344,1.0,2.2466999999999997e-05,1.0
0.20462,1.0,1.7028800000000002e-07,1.0,-68.15916,1.0,2.11365e-05,1.0
0.204285,1.0,1.70273e-07,1.0,-67.1814,1.0,2.2216799999999997e-05,1.0
0.203888,1.0,1.702575e-07,1.0,-65.88504,1.0,2.21344e-05,1.0
0.20343,1.0,1.698305e-07,1.0,-64.68768,1.0,2.22565e-05,1.0
0.20306400000000002,1.0,1.6871649999999997e-07,1.0,-63.643679999999996,1.0,2.146e-05,1.0
0.202698,1.0,1.667785e-07,1.0,-62.9406,1.0,2.0965599999999998e-05,1.0
0.20224,1.0,1.644135e-07,1.0,-62.87472,1.0,2.1255500000000003e-05,1.0
0.201874,1.0,1.6183449999999998e-07,1.0,-63.54504000000001,1.0,2.12738e-05,1.0
0.201416,1.0,1.596525e-07,1.0,-64.7424,1.0,2.0983899999999997e-05,1.0
0.20105,1.0,1.5856949999999998e-07,1.0,-66.26952,1.0,2.1188400000000002e-05,1.0
0.200623,1.0,1.5832499999999998e-07,1.0,-67.42295999999999,1.0,2.1157800000000003e-05,1.0
0.200226,1.0,1.5878299999999997e-07,1.0,-68.14836,1.0,2.05139e-05,1.0
0.19985999999999998,1.0,1.596985e-07,1.0,-68.15916,1.0,2.0471199999999998e-05,1.0
0.199402,1.0,1.605375e-07,1.0,-67.78547999999999,1.0,2.01874e-05,1.0
0.199005,1.0,1.6096499999999999e-07,1.0,-67.11552,1.0,1.96228e-05,1.0
0.198669,1.0,1.609345e-07,1.0,-66.28067999999999,1.0,1.9500699999999998e-05,1.0
0.198273,1.0,1.59897e-07,1.0,-65.7972,1.0,2.0211800000000002e-05,1.0
0.197845,1.0,1.579435e-07,1.0,-65.87388,1.0,1.9357300000000002e-05,1.0
0.197479,1.0,1.56021e-07,1.0,-66.07188,1.0,1.94702e-05,1.0
0.19708299999999998,1.0,1.545715e-07,1.0,-66.50028,1.0,1.9839500000000002e-05,1.0
0.196655,1.0,1.5365599999999998e-07,1.0,-67.03847999999999,1.0,1.92047e-05,1.0
0.19628900000000002,1.0,1.5364049999999998e-07,1.0,-67.37904,1.0,1.92383e-05,1.0
0.195923,1.0,1.54129e-07,1.0,-67.60979999999999,1.0,1.95404e-05,1.0
0.195465,1.0,1.54999e-07,1.0,-67.91760000000001,1.0,1.92841e-05,1.0
0.19506800000000002,1.0,1.5582299999999998e-07,1.0,-68.04936,1.0,1.92902e-05,1.0
0.194672,1.0,1.560515e-07,1.0,-67.74155999999999,1.0,1.94275e-05,1.0
0.194305,1.0,1.55426e-07,1.0,-67.08239999999999,1.0,1.85822e-05,1.0
0.193878,1.0,1.5388499999999998e-07,1.0,-66.53304,1.0,1.89606e-05,1.0
0.193481,1.0,1.519165e-07,1.0,-66.02796,1.0,1.96472e-05,1.0
0.19308499999999998,1.0,1.503755e-07,1.0,-65.75327999999999,1.0,1.85577e-05,1.0
0.192688,1.0,1.4878849999999998e-07,1.0,-65.77524000000001,1.0,1.8512e-05,1.0
0.19222999999999998,1.0,1.476745e-07,1.0,-66.02796,1.0,1.91559e-05,1.0
0.191864,1.0,1.4694200000000002e-07,1.0,-66.5442,1.0,1.8286099999999998e-05,1.0
0.191467,1.0,1.4652999999999998e-07,1.0,-67.20335999999999,1.0,1.8856800000000002e-05,1.0
0.191071,1.0,1.45996e-07,1.0,-67.79664000000001,1.0,1.81824e-05,1.0
0.19070399999999998,1.0,1.4581299999999998e-07,1.0,-68.01624000000001,1.0,1.8020599999999998e-05,1.0
0.190308,1.0,1.4564499999999998e-07,1.0,-67.95035999999999,1.0,1.74591e-05,1.0
0.18985,1.0,1.4491249999999998e-07,1.0,-67.68684,1.0,1.74072e-05,1.0
0.189545,1.0,1.443635e-07,1.0,-66.77496,1.0,1.8392899999999998e-05,1.0
0.189117,1.0,1.43677e-07,1.0,-65.78604,1.0,1.7804e-05,1.0
0.18869,1.0,1.4302049999999998e-07,1.0,-64.89612,1.0,1.74347e-05,1.0
0.188324,1.0,1.4202899999999998e-07,1.0,-64.29204000000001,1.0,1.74255e-05,1.0
0.187897,1.0,1.411285e-07,1.0,-64.28088,1.0,1.7395e-05,1.0
0.1875,1.0,1.4006049999999999e-07,1.0,-64.58868,1.0,1.74591e-05,1.0
0.187164,1.0,1.389465e-07,1.0,-64.78632,1.0,1.70868e-05,1.0
0.186737,1.0,1.3832099999999999e-07,1.0,-65.44548,1.0,1.69739e-05,1.0
0.186371,1.0,1.380615e-07,1.0,-66.09384,1.0,1.7193599999999997e-05,1.0
0.18591300000000002,1.0,1.378785e-07,1.0,-66.50028,1.0,1.68976e-05,1.0
0.18551600000000001,1.0,1.3781749999999998e-07,1.0,-66.80772,1.0,1.71265e-05,1.0
0.185211,1.0,1.38077e-07,1.0,-66.70908,1.0,1.75629e-05,1.0
0.184784,1.0,1.380615e-07,1.0,-66.4344,1.0,1.66656e-05,1.0
0.184357,1.0,1.3746649999999998e-07,1.0,-65.84112,1.0,1.68732e-05,1.0
0.183929,1.0,1.3636800000000002e-07,1.0,-65.50056,1.0,1.64917e-05,1.0
0.183624,1.0,1.3531500000000002e-07,1.0,-65.50056,1.0,1.67694e-05,1.0
0.183167,1.0,1.3404849999999997e-07,1.0,-65.53332,1.0,1.68945e-05,1.0
0.18277000000000002,1.0,1.325225e-07,1.0,-65.88504,1.0,1.64795e-05,1.0
0.182373,1.0,1.31897e-07,1.0,-65.84112,1.0,1.64642e-05,1.0
0.181976,1.0,1.309815e-07,1.0,-65.72015999999999,1.0,1.65924e-05,1.0
0.18158,1.0,1.30371e-07,1.0,-65.4786,1.0,1.65619e-05,1.0
0.181213,1.0,1.297605e-07,1.0,-65.22587999999999,1.0,1.6275e-05,1.0
0.180725,1.0,1.2948599999999997e-07,1.0,-65.1708,1.0,1.6452e-05,1.0
0.180359,1.0,1.289825e-07,1.0,-64.86335999999999,1.0,1.5835599999999998e-05,1.0
0.17993199999999998,1.0,1.289825e-07,1.0,-64.57752,1.0,1.61163e-05,1.0
0.179565,1.0,1.2893699999999999e-07,1.0,-64.12716,1.0,1.65161e-05,1.0
0.179169,1.0,1.2893699999999999e-07,1.0,-63.819720000000004,1.0,1.61224e-05,1.0
0.178741,1.0,1.28525e-07,1.0,-63.65484,1.0,1.5823399999999998e-05,1.0
0.178345,1.0,1.2786849999999998e-07,1.0,-63.50112,1.0,1.6275e-05,1.0
0.17791700000000002,1.0,1.270295e-07,1.0,-63.65484,1.0,1.56128e-05,1.0
0.17749,1.0,1.25931e-07,1.0,-63.87444000000001,1.0,1.63147e-05,1.0
0.177094,1.0,1.2506099999999998e-07,1.0,-63.76464000000001,1.0,1.62628e-05,1.0
0.17666600000000002,1.0,1.241915e-07,1.0,-64.12716,1.0,1.5219100000000001e-05,1.0
0.176331,1.0,1.237795e-07,1.0,-64.5336,1.0,1.57715e-05,1.0
0.175842,1.0,1.23337e-07,1.0,-64.87415999999999,1.0,1.5335099999999998e-05,1.0
0.175537,1.0,1.2312299999999998e-07,1.0,-64.99512,1.0,1.52252e-05,1.0
0.17511,1.0,1.22925e-07,1.0,-65.13804,1.0,1.51062e-05,1.0
0.174713,1.0,1.22467e-07,1.0,-65.1708,1.0,1.47003e-05,1.0
0.174286,1.0,1.21872e-07,1.0,-64.92924000000001,1.0,1.50848e-05,1.0
0.17388900000000002,1.0,1.210175e-07,1.0,-64.33595999999999,1.0,1.47247e-05,1.0
0.173492,1.0,1.199035e-07,1.0,-63.65484,1.0,1.4398199999999999e-05,1.0
0.173065,1.0,1.1885050000000001e-07,1.0,-62.9406,1.0,1.46515e-05,1.0
0.172699,1.0,1.1749249999999999e-07,1.0,-62.545320000000004,1.0,1.4648399999999999e-05,1.0
0.172302,1.0,1.160585e-07,1.0,-62.52335999999999,1.0,1.48193e-05,1.0
0.171875,1.0,1.1424249999999999e-07,1.0,-62.4024,1.0,1.4343299999999999e-05,1.0
0.17157,1.0,1.1293049999999999e-07,1.0,-62.61120000000001,1.0,1.44287e-05,1.0
0.171112,1.0,1.1183149999999999e-07,1.0,-63.19332000000001,1.0,1.3717699999999999e-05,1.0
0.170685,1.0,1.1096199999999998e-07,1.0,-64.215,1.0,1.4126600000000001e-05,1.0
0.170227,1.0,1.1055e-07,1.0,-65.24784,1.0,1.40991e-05,1.0
0.16986099999999998,1.0,1.1055e-07,1.0,-65.75327999999999,1.0,1.40686e-05,1.0
0.169495,1.0,1.107635e-07,1.0,-65.82996,1.0,1.36841e-05,1.0
0.169098,1.0,1.1164849999999998e-07,1.0,-65.41272000000001,1.0,1.36749e-05,1.0
0.168701,1.0,1.1186199999999999e-07,1.0,-65.21472,1.0,1.3739e-05,1.0
0.168243,1.0,1.1227399999999999e-07,1.0,-64.88532000000001,1.0,1.3879400000000001e-05,1.0
0.167877,1.0,1.1209100000000001e-07,1.0,-64.75356,1.0,1.41998e-05,1.0
0.16748,1.0,1.1183149999999999e-07,1.0,-64.86335999999999,1.0,1.38885e-05,1.0
0.167053,1.0,1.11267e-07,1.0,-65.061,1.0,1.4019800000000001e-05,1.0
0.166626,1.0,1.10901e-07,1.0,-65.56644,1.0,1.3540599999999999e-05,1.0
0.16626,1.0,1.1016849999999998e-07,1.0,-65.99484,1.0,1.31622e-05,1.0
0.16583299999999998,1.0,1.09955e-07,1.0,-66.5442,1.0,1.36078e-05,1.0
0.165436,1.0,1.097105e-07,1.0,-66.77496,1.0,1.33545e-05,1.0
0.16507,1.0,1.0963449999999999e-07,1.0,-66.85164,1.0,1.32111e-05,1.0
0.164673,1.0,1.0954299999999999e-07,1.0,-66.50028,1.0,1.2851e-05,1.0
0.164246,1.0,1.0946649999999998e-07,1.0,-65.64348,1.0,1.24023e-05,1.0
0.16391,1.0,1.088105e-07,1.0,-64.78632,1.0,1.2698399999999999e-05,1.0
0.163483,1.0,1.079865e-07,1.0,-63.96228,1.0,1.26221e-05,1.0
0.163055,1.0,1.06598e-07,1.0,-63.39095999999999,1.0,1.2304700000000001e-05,1.0
0.16272,1.0,1.0513299999999998e-07,1.0,-63.006479999999996,1.0,1.2921099999999999e-05,1.0
0.16229200000000002,1.0,1.03348e-07,1.0,-63.07235999999999,1.0,1.31561e-05,1.0
0.161865,1.0,1.01898e-07,1.0,-63.44604,1.0,1.26678e-05,1.0
0.161499,1.0,1.0089099999999999e-07,1.0,-64.0944,1.0,1.28479e-05,1.0
0.161133,1.0,1.00479e-07,1.0,-64.78632,1.0,1.26556e-05,1.0
0.160706,1.0,1.0043350000000001e-07,1.0,-65.2698,1.0,1.23291e-05,1.0
0.160248,1.0,1.00647e-07,1.0,-65.5992,1.0,1.2164300000000001e-05,1.0
0.159821,1.0,1.0089099999999999e-07,1.0,-65.89583999999999,1.0,1.1996500000000001e-05,1.0
0.15945399999999998,1.0,1.0087599999999998e-07,1.0,-65.66544,1.0,1.16058e-05,1.0
0.159088,1.0,1.0046399999999999e-07,1.0,-65.44548,1.0,1.15875e-05,1.0
0.158661,1.0,9.992999999999998e-08,1.0,-65.21472,1.0,1.1648599999999999e-05,1.0
0.15826400000000002,1.0,9.956349999999999e-08,1.0,-64.9512,1.0,1.17249e-05,1.0
0.15783699999999998,1.0,9.89075e-08,1.0,-64.79748,1.0,1.18988e-05,1.0
0.157501,1.0,9.78545e-08,1.0,-64.56672,1.0,1.1908e-05,1.0
0.157074,1.0,9.713749999999999e-08,1.0,-64.33595999999999,1.0,1.203e-05,1.0
0.156647,1.0,9.632849999999999e-08,1.0,-64.14912000000001,1.0,1.15631e-05,1.0
0.15625,1.0,9.60695e-08,1.0,-64.36872000000001,1.0,1.185e-05,1.0
0.155914,1.0,9.5871e-08,1.0,-64.44575999999999,1.0,1.13068e-05,1.0
0.15551800000000002,1.0,9.568799999999999e-08,1.0,-64.56672,1.0,1.1496e-05,1.0
0.15506,1.0,9.56725e-08,1.0,-64.77552,1.0,1.1108399999999999e-05,1.0
0.154724,1.0,9.568799999999999e-08,1.0,-64.79748,1.0,1.09741e-05,1.0
0.154327,1.0,9.568799999999999e-08,1.0,-64.6434,1.0,1.11664e-05,1.0
0.15393099999999998,1.0,9.539799999999999e-08,1.0,-64.56672,1.0,1.14746e-05,1.0
0.153534,1.0,9.500099999999999e-08,1.0,-64.16028,1.0,1.12457e-05,1.0
0.153137,1.0,9.41465e-08,1.0,-63.58896,1.0,1.14594e-05,1.0
0.152679,1.0,9.353649999999999e-08,1.0,-63.54504000000001,1.0,1.11725e-05,1.0
0.152283,1.0,9.245299999999999e-08,1.0,-63.61092000000001,1.0,1.10352e-05,1.0
0.151886,1.0,9.135449999999999e-08,1.0,-63.76464000000001,1.0,1.07758e-05,1.0
0.15152000000000002,1.0,9.00575e-08,1.0,-64.12716,1.0,1.08154e-05,1.0
0.151123,1.0,8.9615e-08,1.0,-64.54476,1.0,1.0675e-05,1.0
0.150757,1.0,8.8745e-08,1.0,-65.08295999999999,1.0,1.08887e-05,1.0
0.15033,1.0,8.83635e-08,1.0,-65.97288,1.0,1.1145e-05,1.0
0.149902,1.0,8.8135e-08,1.0,-66.67596,1.0,1.08154e-05,1.0
0.149506,1.0,8.77075e-08,1.0,-66.59928,1.0,1.091e-05,1.0
0.149109,1.0,8.7723e-08,1.0,-65.98404000000001,1.0,1.0495e-05,1.0
0.14868199999999998,1.0,8.6899e-08,1.0,-64.79748,1.0,1.03027e-05,1.0
0.148315,1.0,8.631900000000001e-08,1.0,-63.89639999999999,1.0,1.0675e-05,1.0
0.147919,1.0,8.554099999999998e-08,1.0,-63.03960000000001,1.0,1.02173e-05,1.0
0.147491,1.0,8.52965e-08,1.0,-62.89667999999999,1.0,1.0083e-05,1.0
0.147095,1.0,8.4625e-08,1.0,-63.23724000000001,1.0,1.05682e-05,1.0
0.146698,1.0,8.4671e-08,1.0,-64.0944,1.0,1.04919e-05,1.0
0.146332,1.0,8.457949999999999e-08,1.0,-65.2806,1.0,1.02966e-05,1.0
0.145905,1.0,8.46865e-08,1.0,-66.40128,1.0,1.01349e-05,1.0
0.145477,1.0,8.4839e-08,1.0,-67.04964000000001,1.0,1.0250899999999999e-05,1.0
0.145111,1.0,8.50525e-08,1.0,-67.12632,1.0,1.01837e-05,1.0
0.14468399999999998,1.0,8.506749999999999e-08,1.0,-67.24728,1.0,9.76257e-06,1.0
0.144287,1.0,8.486949999999999e-08,1.0,-67.0716,1.0,9.97925e-06,1.0
0.14389000000000002,1.0,8.44115e-08,1.0,-66.47832000000001,1.0,9.95483e-06,1.0
0.143494,1.0,8.3496e-08,1.0,-65.65428,1.0,9.90601e-06,1.0
0.143127,1.0,8.265700000000001e-08,1.0,-64.79748,1.0,9.921260000000002e-06,1.0
0.142731,1.0,8.15735e-08,1.0,-64.3248,1.0,9.5459e-06,1.0
0.142334,1.0,8.068849999999999e-08,1.0,-64.36872000000001,1.0,9.67712e-06,1.0
0.141876,1.0,7.962050000000001e-08,1.0,-64.67652000000001,1.0,9.60388e-06,1.0
0.141479,1.0,7.90255e-08,1.0,-64.962,1.0,9.65576e-06,1.0
0.14111300000000002,1.0,7.86135e-08,1.0,-65.12688,1.0,9.65271e-06,1.0
0.14068599999999998,1.0,7.83845e-08,1.0,-65.0502,1.0,9.490969999999999e-06,1.0
0.140259,1.0,7.8171e-08,1.0,-64.87415999999999,1.0,9.79919e-06,1.0
0.13989300000000002,1.0,7.815549999999999e-08,1.0,-64.314,1.0,9.13086e-06,1.0
0.139465,1.0,7.75145e-08,1.0,-63.65484,1.0,9.96094e-06,1.0
0.139069,1.0,7.702649999999999e-08,1.0,-62.67707999999999,1.0,9.43909e-06,1.0
0.138702,1.0,7.637e-08,1.0,-61.94088000000001,1.0,1.00861e-05,1.0
0.13830599999999998,1.0,7.559199999999999e-08,1.0,-61.50132000000001,1.0,8.99048e-06,1.0
0.137878,1.0,7.4951e-08,1.0,-61.04016,1.0,9.04846e-06,1.0
0.137451,1.0,7.40965e-08,1.0,-60.89724000000001,1.0,8.65784e-06,1.0
0.137024,1.0,7.348649999999999e-08,1.0,-61.160759999999996,1.0,8.98743e-06,1.0
0.136597,1.0,7.312e-08,1.0,-61.88616,1.0,8.9386e-06,1.0
0.136261,1.0,7.28605e-08,1.0,-62.52335999999999,1.0,9.16748e-06,1.0
0.13583399999999998,1.0,7.30895e-08,1.0,-63.1386,1.0,8.758539999999999e-06,1.0
0.135468,1.0,7.32575e-08,1.0,-63.76464000000001,1.0,9.48181e-06,1.0
0.13504000000000002,1.0,7.32725e-08,1.0,-64.3248,1.0,8.779910000000001e-06,1.0
0.134705,1.0,7.310499999999999e-08,1.0,-64.7424,1.0,9.21936e-06,1.0
0.134247,1.0,7.2815e-08,1.0,-64.79748,1.0,9.47266e-06,1.0
0.13385,1.0,7.246399999999999e-08,1.0,-65.00627999999999,1.0,8.883669999999999e-06,1.0
0.133423,1.0,7.151799999999999e-08,1.0,-65.65428,1.0,8.58154e-06,1.0
0.13305699999999998,1.0,7.08925e-08,1.0,-66.654,1.0,8.276369999999999e-06,1.0
0.132629,1.0,6.97935e-08,1.0,-67.95035999999999,1.0,8.0719e-06,1.0
0.132233,1.0,6.89695e-08,1.0,-69.34572,1.0,8.87756e-06,1.0
0.131805,1.0,6.854249999999999e-08,1.0,-69.9498,1.0,8.3313e-06,1.0
0.1315,1.0,6.80845e-08,1.0,-70.23564000000002,1.0,8.49304e-06,1.0
0.130951,1.0,6.80695e-08,1.0,-70.0488,1.0,8.38623e-06,1.0
0.130676,1.0,6.8039e-08,1.0,-69.68628,1.0,8.255e-06,1.0
0.130249,1.0,6.80845e-08,1.0,-69.25788,1.0,8.175660000000001e-06,1.0
0.129883,1.0,6.74745e-08,1.0,-68.7636,1.0,8.28857e-06,1.0
0.129425,1.0,6.7215e-08,1.0,-67.31316,1.0,8.09021e-06,1.0
0.12905899999999998,1.0,6.639099999999999e-08,1.0,-65.92895999999999,1.0,8.343510000000001e-06,1.0
0.128571,1.0,6.59945e-08,1.0,-64.57752,1.0,7.971189999999998e-06,1.0
0.128143,1.0,6.506349999999999e-08,1.0,-63.73152,1.0,7.846069999999999e-06,1.0
0.127808,1.0,6.44225e-08,1.0,-63.21527999999999,1.0,7.342530000000001e-06,1.0
0.127472,1.0,6.3797e-08,1.0,-63.32507999999999,1.0,7.66602e-06,1.0
0.12701400000000002,1.0,6.292699999999999e-08,1.0,-63.28116,1.0,7.360839999999999e-06,1.0
0.12667799999999999,1.0,6.24085e-08,1.0,-63.1494,1.0,7.4432399999999996e-06,1.0
0.126221,1.0,6.26985e-08,1.0,-62.764920000000004,1.0,7.35779e-06,1.0
0.125824,1.0,6.291199999999999e-08,1.0,-62.33652000000001,1.0,7.055660000000001e-06,1.0
0.125427,1.0,6.335449999999999e-08,1.0,-62.02872,1.0,7.45544e-06,1.0
0.125092,1.0,6.3339e-08,1.0,-62.017920000000004,1.0,6.8389899999999985e-06,1.0
0.124695,1.0,6.307999999999999e-08,1.0,-61.93008,1.0,6.89697e-06,1.0
0.12423699999999999,1.0,6.28355e-08,1.0,-61.875,1.0,6.73523e-06,1.0
0.123901,1.0,6.2668e-08,1.0,-61.76520000000001,1.0,7.19604e-06,1.0
0.12350499999999999,1.0,6.2393e-08,1.0,-61.89695999999999,1.0,7.06177e-06,1.0
0.123108,1.0,6.202699999999999e-08,1.0,-62.061840000000004,1.0,6.829830000000001e-06,1.0
0.12265,1.0,6.134049999999999e-08,1.0,-62.80884,1.0,6.70166e-06,1.0
0.122314,1.0,6.063849999999999e-08,1.0,-63.7866,1.0,6.753539999999999e-06,1.0
0.12197899999999999,1.0,5.9616e-08,1.0,-64.4238,1.0,6.994630000000001e-06,1.0
0.12149000000000001,1.0,5.9112499999999994e-08,1.0,-65.07216,1.0,7.199099999999999e-06,1.0
0.12118499999999999,1.0,5.851749999999999e-08,1.0,-65.55528,1.0,7.75452e-06,1.0
0.12066700000000001,1.0,5.85325e-08,1.0,-65.85192,1.0,7.0831299999999996e-06,1.0
0.12027,1.0,5.7876499999999996e-08,1.0,-65.92895999999999,1.0,6.90308e-06,1.0
0.119965,1.0,5.79225e-08,1.0,-65.6982,1.0,7.1502699999999996e-06,1.0
0.11956800000000001,1.0,5.75715e-08,1.0,-64.91808,1.0,6.10352e-06,1.0
0.11914100000000001,1.0,5.6976499999999994e-08,1.0,-64.08324,1.0,6.8573e-06,1.0
0.11871300000000001,1.0,5.679299999999999e-08,1.0,-62.764920000000004,1.0,7.17773e-06,1.0
0.118378,1.0,5.635049999999999e-08,1.0,-61.57835999999999,1.0,6.671139999999999e-06,1.0
0.11792000000000001,1.0,5.64115e-08,1.0,-60.79824000000001,1.0,7.107539999999999e-06,1.0
0.117493,1.0,5.6122000000000005e-08,1.0,-60.523559999999996,1.0,6.41479e-06,1.0
0.117157,1.0,5.609149999999999e-08,1.0,-60.96312,1.0,6.12793e-06,1.0
0.116791,1.0,5.6380999999999994e-08,1.0,-61.732079999999996,1.0,6.9274899999999995e-06,1.0
0.116302,1.0,5.6503499999999994e-08,1.0,-63.204480000000004,1.0,6.43311e-06,1.0
0.115997,1.0,5.671699999999999e-08,1.0,-64.54476,1.0,6.26221e-06,1.0
0.11557,1.0,5.679299999999999e-08,1.0,-65.65428,1.0,6.509400000000001e-06,1.0
0.11514300000000001,1.0,5.6304999999999994e-08,1.0,-66.40128,1.0,6.4483600000000005e-06,1.0
0.11471600000000001,1.0,5.5892999999999996e-08,1.0,-66.8736,1.0,6.939700000000001e-06,1.0
0.11438,1.0,5.5663999999999995e-08,1.0,-66.98375999999999,1.0,6.1676e-06,1.0
0.113953,1.0,5.47945e-08,1.0,-66.93984,1.0,6.961060000000001e-06,1.0
0.113495,1.0,5.4153499999999996e-08,1.0,-67.13748,1.0,6.48499e-06,1.0
0.113098,1.0,5.35125e-08,1.0,-67.11552,1.0,6.887819999999999e-06,1.0
0.11267100000000001,1.0,5.3314e-08,1.0,-66.753,1.0,5.91431e-06,1.0
0.11233499999999999,1.0,5.26735e-08,1.0,-66.74184,1.0,6.24695e-06,1.0
0.11193800000000001,1.0,5.2291999999999996e-08,1.0,-66.57732000000001,1.0,5.511469999999999e-06,1.0
0.111542,1.0,5.18645e-08,1.0,-66.84084,1.0,5.6488e-06,1.0
0.111176,1.0,5.11625e-08,1.0,-66.81888000000001,1.0,5.93567e-06,1.0
0.110748,1.0,5.0766000000000006e-08,1.0,-66.62124000000001,1.0,6.32629e-06,1.0
0.11029100000000001,1.0,5.0354e-08,1.0,-66.4344,1.0,6.14624e-06,1.0
0.109955,1.0,4.9987800000000006e-08,1.0,-66.04992000000001,1.0,6.09436e-06,1.0
0.10955799999999999,1.0,4.980469999999999e-08,1.0,-65.92895999999999,1.0,5.85327e-06,1.0
0.109161,1.0,4.956055e-08,1.0,-65.53332,1.0,5.920409999999999e-06,1.0
0.108734,1.0,4.8995949999999995e-08,1.0,-65.63232,1.0,6.07605e-06,1.0
0.10833699999999999,1.0,4.896545e-08,1.0,-65.63232,1.0,5.7922400000000005e-06,1.0
0.10790999999999999,1.0,4.90265e-08,1.0,-65.31372,1.0,5.96924e-06,1.0
0.107544,1.0,4.90265e-08,1.0,-64.5336,1.0,5.9570299999999994e-06,1.0
0.107117,1.0,4.8553449999999996e-08,1.0,-63.6768,1.0,6.06995e-06,1.0
0.10675,1.0,4.818725e-08,1.0,-63.16056,1.0,5.62439e-06,1.0
0.10635399999999999,1.0,4.771425e-08,1.0,-62.7318,1.0,5.47485e-06,1.0
0.105927,1.0,4.751585e-08,1.0,-62.31455999999999,1.0,5.53284e-06,1.0
0.105499,1.0,4.7271749999999994e-08,1.0,-61.72128,1.0,5.71289e-06,1.0
0.10513299999999999,1.0,4.7119149999999995e-08,1.0,-61.07292000000001,1.0,5.76172e-06,1.0
0.104675,1.0,4.707335e-08,1.0,-59.49108,1.0,5.87769e-06,1.0
0.10434,1.0,4.6875e-08,1.0,-58.23864,1.0,5.95398e-06,1.0
0.103973,1.0,4.6463e-08,1.0,-57.29364,1.0,5.86548e-06,1.0
0.10351600000000001,1.0,4.6661400000000005e-08,1.0,-56.75544,1.0,5.554199999999999e-06,1.0
0.103119,1.0,4.623415e-08,1.0,-56.64564,1.0,5.60303e-06,1.0
0.10266099999999999,1.0,4.61731e-08,1.0,-56.49156000000001,1.0,5.5658e-06,1.0
0.10229500000000001,1.0,4.58832e-08,1.0,-56.51351999999999,1.0,5.02014e-06,1.0
0.101898,1.0,4.544065e-08,1.0,-56.53547999999999,1.0,5.15747e-06,1.0
0.10153200000000001,1.0,4.5043949999999994e-08,1.0,-56.53547999999999,1.0,5.17487e-06,1.0
0.101105,1.0,4.48303e-08,1.0,-56.57976,1.0,4.71069e-06,1.0
0.100739,1.0,4.455565e-08,1.0,-56.75544,1.0,5.1409900000000006e-06,1.0
0.100311,1.0,4.411315e-08,1.0,-57.117960000000004,1.0,4.9408e-06,1.0
0.0999146,1.0,4.41284e-08,1.0,-58.1616,1.0,5.1535e-06,1.0
0.0995483,1.0,4.414369999999999e-08,1.0,-58.33728,1.0,5.00793e-06,1.0
0.0991211,1.0,4.3930050000000006e-08,1.0,-58.84272,1.0,4.75159e-06,1.0
0.09875489999999999,1.0,4.348755000000001e-08,1.0,-59.414040000000014,1.0,5.497130000000001e-06,1.0
0.0982971,1.0,4.327395e-08,1.0,-60.64452,1.0,4.60785e-06,1.0
0.0979309,1.0,4.219055e-08,1.0,-61.50132000000001,1.0,5.08301e-06,1.0
0.09756469999999999,1.0,4.12903e-08,1.0,-62.578079999999986,1.0,4.57184e-06,1.0
0.09719850000000001,1.0,4.023744999999999e-08,1.0,-63.1386,1.0,4.56726e-06,1.0
0.0967102,1.0,3.938295e-08,1.0,-63.87444000000001,1.0,4.187319999999999e-06,1.0
0.09640499999999999,1.0,3.9123549999999996e-08,1.0,-64.314,1.0,4.37134e-06,1.0
0.0959778,1.0,3.91388e-08,1.0,-65.23668,1.0,4.34509e-06,1.0
0.0955505,1.0,3.9566049999999994e-08,1.0,-66.67596,1.0,4.12262e-06,1.0
0.0951538,1.0,3.99933e-08,1.0,-68.17032,1.0,3.92242e-06,1.0
0.09478760000000001,1.0,4.0405250000000004e-08,1.0,-69.17004,1.0,4.37469e-06,1.0
0.09442139999999999,1.0,4.038999999999999e-08,1.0,-69.88392,1.0,5.33325e-06,1.0
0.0939941,1.0,4.04358e-08,1.0,-70.11467999999999,1.0,4.99603e-06,1.0
0.0935669,1.0,4.04358e-08,1.0,-70.11467999999999,1.0,4.42627e-06,1.0
0.0932617,1.0,4.019165e-08,1.0,-70.00488,1.0,4.02893e-06,1.0
0.092926,1.0,3.97339e-08,1.0,-69.90588,1.0,4.5803800000000005e-06,1.0
0.0924072,1.0,3.9779650000000004e-08,1.0,-69.79607999999999,1.0,4.562680000000001e-06,1.0
0.0920105,1.0,3.91388e-08,1.0,-70.14779999999999,1.0,4.57214e-06,1.0
0.0916443,1.0,3.852845e-08,1.0,-70.21368,1.0,4.700619999999999e-06,1.0
0.0911865,1.0,3.8070699999999994e-08,1.0,-70.587,1.0,4.57306e-06,1.0
0.09085080000000001,1.0,3.746034999999999e-08,1.0,-70.2684,1.0,4.47449e-06,1.0
0.09045410000000001,1.0,3.67584e-08,1.0,-70.038,1.0,4.68018e-06,1.0
0.09002689999999999,1.0,3.64685e-08,1.0,-69.54335999999999,1.0,4.59534e-06,1.0
0.08966060000000001,1.0,3.678895e-08,1.0,-68.92812,1.0,4.75708e-06,1.0
0.0892029,1.0,3.637695e-08,1.0,-67.82976,1.0,4.9173e-06,1.0
0.0888062,1.0,3.62091e-08,1.0,-65.45664000000001,1.0,4.5462e-06,1.0
0.0883789,1.0,3.56598e-08,1.0,-63.54504000000001,1.0,4.18091e-06,1.0
0.0880432,1.0,3.517149999999999e-08,1.0,-61.84188,1.0,4.726869999999999e-06,1.0
0.0875854,1.0,3.459165e-08,1.0,-60.282000000000004,1.0,4.8013300000000005e-06,1.0
0.0871887,1.0,3.393555e-08,1.0,-59.293079999999996,1.0,4.4723500000000005e-06,1.0
0.0867615,1.0,3.37677e-08,1.0,-58.282560000000004,1.0,4.4693e-06,1.0
0.08636469999999999,1.0,3.3248900000000003e-08,1.0,-57.67812,1.0,4.50684e-06,1.0
0.08596799999999999,1.0,3.3554099999999996e-08,1.0,-57.40344,1.0,4.17389e-06,1.0
0.0855408,1.0,3.37677e-08,1.0,-57.65616,1.0,4.45038e-06,1.0
0.08514400000000001,1.0,3.39966e-08,1.0,-57.821039999999996,1.0,4.83704e-06,1.0
0.0847168,1.0,3.4194949999999993e-08,1.0,-58.65588,1.0,4.6756e-06,1.0
0.0842896,1.0,3.39813e-08,1.0,-58.93056,1.0,3.4326199999999992e-06,1.0
0.0839539,1.0,3.39508e-08,1.0,-59.776559999999996,1.0,4.53156e-06,1.0
0.08355710000000001,1.0,3.35083e-08,1.0,-59.578920000000004,1.0,3.4787000000000003e-06,1.0
0.0831909,1.0,3.334045e-08,1.0,-60.02927999999999,1.0,4.11346e-06,1.0
0.0827026,1.0,3.2516500000000005e-08,1.0,-60.85332000000001,1.0,3.878169999999999e-06,1.0
0.08227539999999998,1.0,3.12195e-08,1.0,-61.775999999999996,1.0,3.5336300000000008e-06,1.0
0.08193969999999999,1.0,2.986145e-08,1.0,-62.7318,1.0,3.90717e-06,1.0
0.08157350000000001,1.0,2.944945e-08,1.0,-63.56699999999999,1.0,3.54401e-06,1.0
0.0811157,1.0,2.944945e-08,1.0,-63.84168,1.0,3.74542e-06,1.0
0.080719,1.0,2.944945e-08,1.0,-64.56672,1.0,3.69598e-06,1.0
0.0802917,1.0,2.9342650000000004e-08,1.0,-65.2698,1.0,3.3480800000000005e-06,1.0
0.0799561,1.0,2.9602049999999995e-08,1.0,-65.74212,1.0,3.48724e-06,1.0
0.0795288,1.0,2.98004e-08,1.0,-65.14884,1.0,3.7854000000000002e-06,1.0
0.0791321,1.0,2.978515e-08,1.0,-64.4238,1.0,2.8167700000000003e-06,1.0
0.0787354,1.0,2.9739399999999998e-08,1.0,-63.32507999999999,1.0,3.3984399999999998e-06,1.0
0.0783081,1.0,2.9739399999999998e-08,1.0,-61.81992,1.0,3.0810500000000003e-06,1.0
0.0779419,1.0,2.9754650000000002e-08,1.0,-60.633720000000004,1.0,3.19031e-06,1.0
0.0775146,1.0,2.97699e-08,1.0,-60.19416,1.0,3.4066800000000002e-06,1.0
0.07714839999999999,1.0,2.948e-08,1.0,-59.72184,1.0,3.1753500000000004e-06,1.0
0.07675169999999999,1.0,2.95105e-08,1.0,-60.44688,1.0,3.5305800000000004e-06,1.0
0.0762939,1.0,2.9754650000000002e-08,1.0,-61.35876,1.0,3.41309e-06,1.0
0.0760193,1.0,2.9693599999999996e-08,1.0,-62.0946,1.0,2.72949e-06,1.0
0.0755005,1.0,2.95105e-08,1.0,-62.63316,1.0,3.23181e-06,1.0
0.0751648,1.0,2.944945e-08,1.0,-63.07235999999999,1.0,3.4155300000000006e-06,1.0
0.0747681,1.0,2.94647e-08,1.0,-63.54504000000001,1.0,2.72491e-06,1.0
0.0743408,1.0,2.948e-08,1.0,-63.58896,1.0,3.09082e-06,1.0
0.0740051,1.0,2.9495249999999997e-08,1.0,-63.34704000000001,1.0,3.17291e-06,1.0
0.0734558,1.0,2.89917e-08,1.0,-62.017920000000004,1.0,3.21808e-06,1.0
0.07315060000000001,1.0,2.8793349999999998e-08,1.0,-61.35876,1.0,3.13232e-06,1.0
0.0727234,1.0,2.8106700000000002e-08,1.0,-60.47964,1.0,3.5949699999999995e-06,1.0
0.0723877,1.0,2.7740499999999996e-08,1.0,-60.08435999999999,1.0,3.05664e-06,1.0
0.07192989999999999,1.0,2.7282699999999997e-08,1.0,-61.41347999999999,1.0,2.6977499999999997e-06,1.0
0.0715332,1.0,2.7328500000000002e-08,1.0,-63.929520000000004,1.0,2.71118e-06,1.0
0.0710754,1.0,2.77252e-08,1.0,-66.13775999999999,1.0,3.16986e-06,1.0
0.0708008,1.0,2.79846e-08,1.0,-67.0716,1.0,2.47437e-06,1.0
0.07028200000000001,1.0,2.79541e-08,1.0,-67.04964000000001,1.0,2.7328500000000004e-06,1.0
0.0699768,1.0,2.77252e-08,1.0,-66.11580000000001,1.0,2.9965199999999997e-06,1.0
0.0695496,1.0,2.7755749999999997e-08,1.0,-64.1052,1.0,2.6028399999999997e-06,1.0
0.0691528,1.0,2.7282699999999997e-08,1.0,-62.65512,1.0,3.19031e-06,1.0
0.0687561,1.0,2.7328500000000002e-08,1.0,-61.710119999999996,1.0,2.7514599999999996e-06,1.0
0.06842039999999999,1.0,2.6855450000000002e-08,1.0,-60.985079999999996,1.0,2.88147e-06,1.0
0.06796260000000001,1.0,2.667235e-08,1.0,-61.28172000000001,1.0,2.16827e-06,1.0
0.0675964,1.0,2.6702899999999996e-08,1.0,-61.07292000000001,1.0,3.26019e-06,1.0
0.0671692,1.0,2.6046749999999995e-08,1.0,-61.446600000000004,1.0,3.22784e-06,1.0
0.06671139999999999,1.0,2.5421149999999998e-08,1.0,-62.17164000000001,1.0,2.7029400000000002e-06,1.0
0.0664063,1.0,2.48291e-08,1.0,-62.39124,1.0,3.13324e-06,1.0
0.06594850000000001,1.0,2.3706049999999997e-08,1.0,-64.1052,1.0,2.65839e-06,1.0
0.0655212,1.0,2.257385e-08,1.0,-65.0502,1.0,2.49207e-06,1.0
0.06515499999999999,1.0,2.1940599999999996e-08,1.0,-66.88476,1.0,2.55768e-06,1.0
0.0648193,1.0,2.1459950000000002e-08,1.0,-67.65371999999999,1.0,2.65411e-06,1.0
0.0643921,1.0,2.126615e-08,1.0,-68.7744,1.0,2.9361e-06,1.0
0.0639038,1.0,2.1229549999999998e-08,1.0,-68.7744,1.0,2.02484e-06,1.0
0.0634766,1.0,2.12677e-08,1.0,-67.82976,1.0,2.58545e-06,1.0
0.0631714,1.0,2.14676e-08,1.0,-67.43412,1.0,2.62756e-06,1.0
0.0626831,1.0,2.1455399999999998e-08,1.0,-67.0716,1.0,2.3574799999999997e-06,1.0
0.0623169,1.0,2.17682e-08,1.0,-67.26924,1.0,2.79816e-06,1.0
0.0619202,1.0,2.14813e-08,1.0,-67.65371999999999,1.0,2.78351e-06,1.0
0.0615845,1.0,2.1696450000000002e-08,1.0,-68.21424,1.0,2.4078400000000003e-06,1.0
0.061096199999999996,1.0,2.1469099999999997e-08,1.0,-68.00544,1.0,2.58667e-06,1.0
0.0606995,1.0,2.148745e-08,1.0,-68.00544,1.0,2.9010000000000003e-06,1.0
0.060302699999999994,1.0,2.1337900000000003e-08,1.0,-67.8186,1.0,2.565e-06,1.0
0.059905999999999994,1.0,2.1311950000000003e-08,1.0,-68.78556,1.0,2.6477099999999995e-06,1.0
0.059539800000000004,1.0,2.0837400000000002e-08,1.0,-68.59872,1.0,2.3172e-06,1.0
0.059143100000000004,1.0,2.082975e-08,1.0,-69.60924,1.0,2.5814799999999996e-06,1.0
0.05874630000000001,1.0,2.08267e-08,1.0,-69.36768,1.0,2.7316300000000002e-06,1.0
0.0582581,1.0,2.0643599999999998e-08,1.0,-68.79635999999999,1.0,2.4148599999999997e-06,1.0
0.0578918,1.0,2.01874e-08,1.0,-68.00544,1.0,2.7188099999999996e-06,1.0
0.0574646,1.0,1.99692e-08,1.0,-66.61008,1.0,1.96777e-06,1.0
0.0570679,1.0,1.9342049999999998e-08,1.0,-65.13804,1.0,2.0929e-06,1.0
0.05664059999999999,1.0,1.869965e-08,1.0,-64.43495999999999,1.0,2.1649200000000004e-06,1.0
0.0563049,1.0,1.84967e-08,1.0,-62.88588,1.0,1.9696e-06,1.0
0.055877699999999995,1.0,1.8165599999999997e-08,1.0,-61.5564,1.0,2.10602e-06,1.0
0.055541999999999994,1.0,1.79535e-08,1.0,-58.45824,1.0,1.98914e-06,1.0
0.05505369999999999,1.0,1.79535e-08,1.0,-55.30499999999999,1.0,1.66748e-06,1.0
0.054717999999999996,1.0,1.7356849999999996e-08,1.0,-52.130160000000004,1.0,1.9003299999999998e-06,1.0
0.0542908,1.0,1.737975e-08,1.0,-49.89996,1.0,1.4407299999999998e-06,1.0
0.0538635,1.0,1.6912849999999996e-08,1.0,-46.92276,1.0,1.34888e-06,1.0
0.053497300000000005,1.0,1.6905200000000002e-08,1.0,-43.582679999999996,1.0,1.6235399999999998e-06,1.0
0.0530396,1.0,1.6658000000000003e-08,1.0,-41.25384,1.0,1.04706e-06,1.0
0.0525818,1.0,1.67053e-08,1.0,-41.25384,1.0,6.585689999999999e-07,1.0
0.052215599999999994,1.0,1.6447450000000003e-08,1.0,-40.73724,1.0,1.21338e-06,1.0
0.0519104,1.0,1.649475e-08,1.0,-41.83596,1.0,9.53674e-07,1.0
0.0514221,1.0,1.6236899999999996e-08,1.0,-42.15456,1.0,6.497190000000001e-07,1.0
0.051086400000000004,1.0,1.58203e-08,1.0,-43.04447999999999,1.0,8.81653e-07,1.0
0.0507202,1.0,1.56006e-08,1.0,-46.15344,1.0,1.45447e-06,1.0
0.050354,1.0,1.58142e-08,1.0,-48.53772,1.0,1.16455e-06,1.0
0.0498962,1.0,1.64459e-08,1.0,-50.18544,1.0,7.1991e-07,1.0
0.049438499999999996,1.0,1.64734e-08,1.0,-51.70176,1.0,1.25488e-06,1.0
0.0490509,1.0,1.6659549999999997e-08,1.0,-53.17379999999999,1.0,5.63049e-07,1.0
0.0486786,1.0,1.6069049999999996e-08,1.0,-53.55828,1.0,7.40967e-07,1.0
0.048272699999999995,1.0,1.56006e-08,1.0,-55.140480000000004,1.0,7.63245e-07,1.0
0.047891199999999995,1.0,1.497345e-08,1.0,-55.56888,1.0,1.2420700000000002e-06,1.0
0.0475006,1.0,1.4506549999999998e-08,1.0,-56.832119999999996,1.0,8.483889999999999e-07,1.0
0.04711,1.0,1.448975e-08,1.0,-58.10652,1.0,4.7454799999999997e-07,1.0
0.0467102,1.0,1.4475999999999998e-08,1.0,-58.53528,1.0,7.73926e-07,1.0
0.046301300000000004,1.0,1.4794899999999997e-08,1.0,-61.732079999999996,1.0,5.355830000000001e-07,1.0
0.045886199999999995,1.0,1.4718649999999999e-08,1.0,-64.52279999999999,1.0,3.93066e-07,1.0
0.04551090000000001,1.0,1.4886450000000001e-08,1.0,-67.34628000000001,1.0,7.49512e-07,1.0
0.0451233,1.0,1.5318299999999998e-08,1.0,-71.01576,1.0,1.41449e-06,1.0
0.044717400000000004,1.0,1.574095e-08,1.0,-72.5976,1.0,1.3461299999999999e-06,1.0
0.0443085,1.0,1.6044599999999997e-08,1.0,-74.01491999999999,1.0,1.1923200000000001e-06,1.0
0.043905599999999996,1.0,1.647795e-08,1.0,-74.86092000000001,1.0,1.18317e-06,1.0
0.04353030000000001,1.0,1.6464249999999998e-08,1.0,-74.35548,1.0,9.62524e-07,1.0
0.0431244,1.0,1.668245e-08,1.0,-75.0258,1.0,-2.36206e-07,1.0
0.0427094,1.0,1.6648849999999998e-08,1.0,-75.01464000000001,1.0,1.18317e-06,1.0
0.0423218,1.0,1.66397e-08,1.0,-75.00384,1.0,1.1474600000000002e-06,1.0
0.041937300000000004,1.0,1.644285e-08,1.0,-75.50892,1.0,7.916259999999999e-07,1.0
0.0415344,1.0,1.622925e-08,1.0,-76.55256,1.0,6.01196e-07,1.0
0.0411346,1.0,1.57593e-08,1.0,-75.73967999999999,1.0,4.39758e-07,1.0
0.040731800000000006,1.0,1.540375e-08,1.0,-75.41027999999999,1.0,5.05676e-07,1.0
0.0403107,1.0,1.517335e-08,1.0,-75.80555999999999,1.0,7.05566e-07,1.0
0.0399384,1.0,1.469575e-08,1.0,-75.65184,1.0,3.68652e-07,1.0
0.039544699999999995,1.0,1.4479049999999998e-08,1.0,-75.48696,1.0,2.9998799999999997e-07,1.0
0.039163199999999995,1.0,1.4450049999999998e-08,1.0,-74.71799999999999,1.0,9.8175e-07,1.0
0.038714599999999995,1.0,1.3990799999999998e-08,1.0,-73.81728,1.0,6.44836e-07,1.0
0.0383179,1.0,1.3804650000000001e-08,1.0,-70.22448,1.0,6.24695e-07,1.0
0.0379608,1.0,1.360015e-08,1.0,-66.51107999999999,1.0,5.57251e-07,1.0
0.0375305,1.0,1.336825e-08,1.0,-61.36956,1.0,2.92053e-07,1.0
0.037136800000000005,1.0,1.2915049999999998e-08,1.0,-57.08484,1.0,6.12488e-07,1.0
0.0367004,1.0,1.226045e-08,1.0,-52.217999999999996,1.0,8.850100000000001e-07,1.0
0.0363281,1.0,1.1399850000000001e-08,1.0,-47.83464,1.0,2.48718e-07,1.0
0.035961900000000005,1.0,1.037905e-08,1.0,-42.73668,1.0,1.17188e-07,1.0
0.035534699999999995,1.0,8.89895e-09,1.0,-34.936524,1.0,4.29382e-07,1.0
0.035159300000000004,1.0,7.75605e-09,1.0,-24.921396,1.0,1.23596e-07,1.0
0.0347504,1.0,7.0694e-09,1.0,-17.737416000000003,1.0,-3.6621100000000003e-09,1.0
0.0343536,1.0,6.4392e-09,1.0,-10.964340000000002,1.0,3.11279e-07,1.0
0.0339508,1.0,5.816649999999999e-09,1.0,-6.711551999999999,1.0,6.71082e-07,1.0
0.0335358,1.0,5.60305e-09,1.0,-3.6617400000000004,1.0,-4.8828100000000004e-09,1.0
0.033175699999999995,1.0,4.940795e-09,1.0,-2.1434328000000002,1.0,5.71594e-07,1.0
0.032748400000000004,1.0,4.933165e-09,1.0,-0.43220159999999996,1.0,5.27039e-07,1.0
0.0323364,1.0,4.203795e-09,1.0,-0.4338504,1.0,9.61304e-08,1.0
0.0319397,1.0,2.948e-09,1.0,-0.43319159999999995,1.0,4.47998e-07,1.0
0.031543,1.0,5.249e-10,1.0,-0.43450920000000004,1.0,-5.8898900000000005e-08,1.0
0.031149299999999998,1.0,-1.800535e-09,1.0,-0.4326408,1.0,1.50452e-07,1.0
0.030746499999999996,1.0,-3.51715e-09,1.0,-0.43066439999999995,1.0,3.44849e-08,1.0
0.0303375,1.0,-4.58832e-09,1.0,-0.43044479999999996,1.0,-2.90527e-07,1.0
0.0299408,1.0,-5.2231e-09,1.0,-0.43527960000000004,1.0,-5.853269999999999e-07,1.0
0.0295807,1.0,-5.94025e-09,1.0,-0.43329960000000006,1.0,-5.691530000000001e-07,1.0
0.029162599999999997,1.0,-5.9036499999999996e-09,1.0,-0.43220159999999996,1.0,-6.07605e-07,1.0
0.0287659,1.0,-5.90975e-09,1.0,-0.43176239999999994,1.0,-2.60925e-07,1.0
0.0283844,1.0,-4.3197649999999995e-09,1.0,-0.42890760000000006,1.0,1.57776e-07,1.0
0.0279999,1.0,-2.1530149999999997e-09,1.0,-0.4300056,1.0,-5.6457499999999995e-08,1.0
0.027578700000000005,1.0,-2.7008049999999996e-10,1.0,-0.42506279999999996,1.0,1.94397e-07,1.0
0.027166700000000002,1.0,1.28784e-09,1.0,-0.4269276000000001,1.0,1.87073e-07,1.0
0.0267548,1.0,2.575685e-09,1.0,-0.425502,1.0,1.95313e-08,1.0
0.0263733,1.0,3.62854e-09,1.0,-0.42165359999999996,1.0,-2.30103e-07,1.0
0.025958299999999997,1.0,4.525755e-09,1.0,-0.4282488,1.0,-2.74353e-07,1.0
0.0255463,1.0,5.17425e-09,1.0,-0.43044479999999996,1.0,-2.83813e-07,1.0
0.0251495,1.0,5.729699999999999e-09,1.0,-0.4281372,1.0,2.83813e-08,1.0
0.0247284,1.0,5.8197e-09,1.0,-3.5826408,1.0,-1.11359e-06,1.0
0.0243408,1.0,5.896e-09,1.0,-12.933108,1.0,-8.01086e-07,1.0
0.023962400000000002,1.0,6.5613e-09,1.0,-24.842267999999997,1.0,-3.61633e-07,1.0
0.0235687,1.0,6.9214e-09,1.0,-37.26576,1.0,-8.61511e-07,1.0
0.023150599999999997,1.0,7.849099999999998e-09,1.0,-46.31832000000001,1.0,-5.19104e-07,1.0
0.0227417,1.0,8.92485e-09,1.0,-52.5366,1.0,-4.782100000000001e-07,1.0
0.022345,1.0,9.820549999999998e-09,1.0,-58.875840000000004,1.0,-3.51257e-07,1.0
0.021957400000000002,1.0,1.0459899999999999e-08,1.0,-62.753759999999986,1.0,-6.91833e-07,1.0
0.021588099999999995,1.0,1.088255e-08,1.0,-65.00627999999999,1.0,-7.723999999999999e-07,1.0
0.0211578,1.0,1.103365e-08,1.0,-66.91788,1.0,-6.57043e-07,1.0
0.020755000000000003,1.0,1.1050399999999998e-08,1.0,-66.88476,1.0,-7.66602e-07,1.0
0.0203491,1.0,1.083985e-08,1.0,-64.68768,1.0,-7.11365e-07,1.0
0.0199554,1.0,1.0241699999999999e-08,1.0,-60.77628,1.0,-6.417849999999999e-07,1.0
0.019574,1.0,1.004485e-08,1.0,-59.35895999999999,1.0,-8.64563e-07,1.0
0.019158900000000003,1.0,9.768700000000002e-09,1.0,-58.875840000000004,1.0,-1.31439e-06,1.0
0.0187775,1.0,9.79155e-09,1.0,-57.8322,1.0,-4.46472e-07,1.0
0.0183441,1.0,9.774799999999997e-09,1.0,-55.15128,1.0,-9.20715e-07,1.0
0.0179535,1.0,9.75495e-09,1.0,-52.48152,1.0,-1.21277e-06,1.0
0.017559799999999997,1.0,9.73815e-09,1.0,-49.844879999999996,1.0,-1.7462200000000002e-06,1.0
0.017178299999999997,1.0,9.34755e-09,1.0,-48.592439999999996,1.0,-1.25244e-06,1.0
0.0167572,1.0,7.7957e-09,1.0,-48.75732000000001,1.0,-1.6958599999999999e-06,1.0
0.016357399999999998,1.0,6.486499999999999e-09,1.0,-48.80124,1.0,-1.5329e-06,1.0
0.0159637,1.0,4.7653199999999994e-09,1.0,-48.87828,1.0,-2.20917e-06,1.0
0.0155731,1.0,3.4042349999999995e-09,1.0,-51.8004,1.0,-1.4022799999999998e-06,1.0
0.015176400000000001,1.0,2.064515e-09,1.0,-54.57996000000001,1.0,-1.31775e-06,1.0
0.014767500000000001,1.0,1.628115e-09,1.0,-61.12800000000001,1.0,-1.4312700000000002e-06,1.0
0.014361600000000002,1.0,1.26343e-09,1.0,-64.85220000000001,1.0,-2.17621e-06,1.0
0.0139679,1.0,7.69045e-10,1.0,-67.82976,1.0,-1.43921e-06,1.0
0.013595600000000001,1.0,8.010849999999999e-10,1.0,-67.8186,1.0,-1.7276e-06,1.0
0.013168299999999999,1.0,1.0269149999999999e-09,1.0,-66.37932,1.0,-1.96045e-06,1.0
0.012805200000000003,1.0,1.0482799999999998e-09,1.0,-64.17107999999999,1.0,-1.86035e-06,1.0
0.0124054,1.0,7.873549999999999e-10,1.0,-59.61168,1.0,-2.0462e-06,1.0
0.0119751,1.0,5.2185e-10,1.0,-54.77796000000001,1.0,-1.86554e-06,1.0
0.0116089,1.0,-1.2054450000000002e-10,1.0,-49.59216000000001,1.0,-1.95251e-06,1.0
0.011212200000000002,1.0,-4.89807e-10,1.0,-44.63748,1.0,-1.539e-06,1.0
0.010791,1.0,-9.2926e-10,1.0,-44.03303999999999,1.0,-2.36694e-06,1.0
0.0104095,1.0,-9.23155e-10,1.0,-44.0442,1.0,-2.44141e-06,1.0
0.0100159,1.0,-9.3994e-10,1.0,-47.318039999999996,1.0,-2.38129e-06,1.0
0.00962219,1.0,-4.68445e-10,1.0,-43.46208,1.0,-2.7767900000000004e-06,1.0
0.00922546,1.0,1.327515e-10,1.0,-36.38664,1.0,-2.19421e-06,1.0
0.00882263,1.0,9.94875e-10,1.0,-34.826652,1.0,-2.58118e-06,1.0
0.00841675,1.0,2.0767200000000002e-09,1.0,-37.30968,1.0,-2.53479e-06,1.0
0.00804749,1.0,2.94647e-09,1.0,-39.96827999999999,1.0,-1.9693e-06,1.0
0.007641599999999999,1.0,3.60718e-09,1.0,-43.341120000000004,1.0,-2.7841200000000003e-06,1.0
0.00722046,1.0,4.0359499999999995e-09,1.0,-43.692479999999996,1.0,-2.7838099999999998e-06,1.0
0.0068634,1.0,4.5379649999999994e-09,1.0,-45.69228,1.0,-2.4877900000000003e-06,1.0
0.00644226,1.0,4.510499999999999e-09,1.0,-44.05499999999999,1.0,-2.45636e-06,1.0
0.00606079,1.0,4.281615e-09,1.0,-40.682520000000004,1.0,-3.03589e-06,1.0
0.00567932,1.0,4.58374e-09,1.0,-38.42999999999999,1.0,-3.05603e-06,1.0
0.00525818,1.0,4.530335e-09,1.0,-40.07807999999999,1.0,-2.86438e-06,1.0
0.00487671,1.0,4.7698949999999995e-09,1.0,-43.38504,1.0,-2.69836e-06,1.0
0.00447388,1.0,5.374149999999999e-09,1.0,-47.70252,1.0,-2.22046e-06,1.0
0.00405884,1.0,5.58775e-09,1.0,-47.889359999999996,1.0,-2.9785200000000005e-06,1.0
0.00368347,1.0,6.0013e-09,1.0,-48.05424,1.0,-2.59705e-06,1.0
0.0032959000000000005,1.0,5.7541e-09,1.0,-47.26332,1.0,-2.9650900000000004e-06,1.0
0.00288696,1.0,5.393999999999999e-09,1.0,-45.56016,1.0,-2.46826e-06,1.0
0.00248413,1.0,4.96979e-09,1.0,-45.96696000000001,1.0,-3.08197e-06,1.0
0.00209656,1.0,4.0496849999999995e-09,1.0,-41.98968,1.0,-2.8320299999999997e-06,1.0
0.00170593,1.0,3.163145e-09,1.0,-39.22128,1.0,-2.1994e-06,1.0
0.00130005,1.0,2.09503e-09,1.0,-41.55012000000001,1.0,-2.5058000000000002e-06,1.0
0.000906372,1.0,1.43738e-09,1.0,-48.10896,1.0,-3.2785e-06,1.0
0.00050354,1.0,7.751449999999999e-10,1.0,-55.96452000000001,1.0,-2.85095e-06,1.0
0.000106812,1.0,5.82885e-10,1.0,-64.7424,1.0,-2.87048e-06,1.0
-0.00032959,1.0,-1.098635e-10,1.0,-67.00572,1.0,-3.0453500000000004e-06,1.0
-0.0007019039999999999,1.0,-3.12805e-10,1.0,-70.44444000000001,1.0,-3.20374e-06,1.0
-0.00109863,1.0,-3.38745e-10,1.0,-63.47916,1.0,-2.70142e-06,1.0
-0.00150452,1.0,-3.616335e-10,1.0,-60.743520000000004,1.0,-2.5985700000000004e-06,1.0
-0.00189209,1.0,-3.067015e-10,1.0,-56.40372,1.0,-2.8775e-06,1.0
-0.00230713,1.0,-3.204345e-10,1.0,-52.18488,1.0,-2.80548e-06,1.0
-0.00271606,1.0,-3.38745e-10,1.0,-46.417320000000004,1.0,-2.86865e-06,1.0
-0.00308228,1.0,-6.63755e-10,1.0,-41.539320000000004,1.0,-3.15094e-06,1.0
-0.00348511,1.0,-1.6372699999999999e-09,1.0,-36.089999999999996,1.0,-3.3270300000000005e-06,1.0
-0.00389404,1.0,-2.253725e-09,1.0,-32.947992,1.0,-2.9882799999999997e-06,1.0
-0.00428162,1.0,-2.8701799999999997e-09,1.0,-28.520495999999998,1.0,-2.0400999999999997e-06,1.0
-0.00470886,1.0,-3.312685e-09,1.0,-25.503660000000004,1.0,-2.61322e-06,1.0
-0.00512695,1.0,-3.3203149999999996e-09,1.0,-25.499267999999997,1.0,-3.26233e-06,1.0
-0.0055481,1.0,-3.1188949999999997e-09,1.0,-24.221556,1.0,-3.3306900000000003e-06,1.0
-0.00592041,1.0,-2.4765e-09,1.0,-26.067276000000003,1.0,-2.15454e-06,1.0
-0.00631714,1.0,-1.612855e-09,1.0,-29.498292,1.0,-3.3218400000000004e-06,1.0
-0.00672607,1.0,-1.1520399999999999e-09,1.0,-33.859872,1.0,-2.78473e-06,1.0
-0.00712585,1.0,-7.5836e-10,1.0,-30.948479999999996,1.0,-3.12408e-06,1.0
-0.007547,1.0,-8.8501e-11,1.0,-24.851088,1.0,-3.3075e-06,1.0
-0.00794678,1.0,5.630499999999999e-10,1.0,-11.317032,1.0,-3.1314099999999996e-06,1.0
-0.00836487,1.0,1.1642449999999998e-09,1.0,2.0478528000000003,1.0,-3.45764e-06,1.0
-0.00874939,1.0,1.441955e-09,1.0,14.105340000000002,1.0,-3.74603e-06,1.0
-0.00917358,1.0,7.5989e-10,1.0,21.138804,1.0,-4.28864e-06,1.0
-0.00955505,1.0,-3.0365e-10,1.0,22.1814,1.0,-3.66455e-06,1.0
-0.0099884,1.0,-1.6098e-09,1.0,15.843384,1.0,-3.7106300000000005e-06,1.0
-0.0103485,1.0,-2.452085e-09,1.0,-0.43044479999999996,1.0,-4.19922e-06,1.0
-0.0107635,1.0,-2.641295e-09,1.0,-27.235116000000005,1.0,-3.969419999999999e-06,1.0
-0.011148100000000001,1.0,-2.438355e-09,1.0,-46.83456,1.0,-3.1976299999999997e-06,1.0
-0.0115479,1.0,-2.197265e-09,1.0,-51.57000000000001,1.0,-3.95935e-06,1.0
-0.011962899999999999,1.0,-1.826475e-09,1.0,-47.93328,1.0,-3.88977e-06,1.0
-0.012387100000000002,1.0,-1.6922e-09,1.0,-41.06699999999999,1.0,-4.7412099999999995e-06,1.0
-0.012759399999999999,1.0,-1.615905e-09,1.0,-28.520495999999998,1.0,-4.562680000000001e-06,1.0
-0.013189700000000002,1.0,-1.838685e-09,1.0,-13.12758,1.0,-4.057009999999999e-06,1.0
-0.0135803,1.0,-2.1102899999999998e-09,1.0,-0.43648560000000003,1.0,-4.37653e-06,1.0
-0.013980100000000002,1.0,-2.6901249999999997e-09,1.0,-0.43275240000000004,1.0,-4.97284e-06,1.0
-0.0143768,1.0,-3.286745e-09,1.0,-13.120956000000001,1.0,-4.53156e-06,1.0
-0.014761400000000001,1.0,-3.729249999999999e-09,1.0,-32.310792,1.0,-4.597469999999999e-06,1.0
-0.015161099999999999,1.0,-3.746035e-09,1.0,-39.73752,1.0,-4.53857e-06,1.0
-0.0155792,1.0,-3.73993e-09,1.0,-46.83456,1.0,-5.15442e-06,1.0
-0.0159363,1.0,-3.7750249999999996e-09,1.0,-37.28772,1.0,-4.70276e-06,1.0
-0.0163635,1.0,-3.70178e-09,1.0,-39.75948,1.0,-4.84406e-06,1.0
-0.0167664,1.0,-4.144285e-09,1.0,-26.451792,1.0,-4.85291e-06,1.0
-0.0171692,1.0,-4.19159e-09,1.0,-26.452872000000003,1.0,-5.13885e-06,1.0
-0.017575099999999996,1.0,-4.165649999999999e-09,1.0,-26.453988,1.0,-5.0729400000000004e-06,1.0
-0.017981,1.0,-3.923035e-09,1.0,-16.699212,1.0,-4.96552e-06,1.0
-0.0183472,1.0,-3.811645e-09,1.0,-8.609976,1.0,-4.245e-06,1.0
-0.0187653,1.0,-4.07257e-09,1.0,-0.4240727999999999,1.0,-4.58679e-06,1.0
-0.0191895,1.0,-4.544065e-09,1.0,9.974484,1.0,-5.82245e-06,1.0
-0.0196014,1.0,-5.047600000000001e-09,1.0,13.806503999999999,1.0,-5.535890000000001e-06,1.0
-0.0200012,1.0,-5.4198999999999995e-09,1.0,43.15427999999999,1.0,-6.002809999999999e-06,1.0
-0.0203705,1.0,-5.523699999999999e-09,1.0,105.8202,1.0,-5.51086e-06,1.0
-0.020755000000000003,1.0,-5.180350000000001e-09,1.0,61.50132000000001,1.0,-5.517580000000001e-06,1.0
-0.0211548,1.0,-4.66461e-09,1.0,22.183595999999998,1.0,-5.541990000000001e-06,1.0
-0.0215607,1.0,-3.95355e-09,1.0,7.749756,1.0,-5.4382299999999994e-06,1.0
-0.0219421,1.0,-3.28827e-09,1.0,-6.793956,1.0,-5.4779099999999995e-06,1.0
-0.0223511,1.0,-2.6306150000000002e-09,1.0,4.275864,1.0,-5.4599e-06,1.0
-0.022735599999999998,1.0,-2.433775e-09,1.0,19.295279999999998,1.0,-5.66101e-06,1.0
-0.023150599999999997,1.0,-2.6901249999999997e-09,1.0,41.24267999999999,1.0,-5.304259999999999e-06,1.0
-0.0235168,1.0,-2.88849e-09,1.0,70.00488,1.0,-5.41077e-06,1.0
-0.0239227,1.0,-3.0715949999999997e-09,1.0,93.79044,1.0,-4.71191e-06,1.0
-0.0243439,1.0,-3.78418e-09,1.0,104.41404,1.0,-5.03235e-06,1.0
-0.0247375,1.0,-3.971865e-09,1.0,119.04768000000001,1.0,-4.98047e-06,1.0
-0.0251495,1.0,-4.63562e-09,1.0,135.945,1.0,-5.4321300000000005e-06,1.0
-0.0255585,1.0,-5.2902e-09,1.0,126.41976,1.0,-5.5603e-06,1.0
-0.0259613,1.0,-5.7113500000000005e-09,1.0,89.56044,1.0,-5.35278e-06,1.0
-0.0263702,1.0,-5.728149999999999e-09,1.0,27.619632000000003,1.0,-6.002809999999999e-06,1.0
-0.026748700000000004,1.0,-5.30395e-09,1.0,-0.43593839999999995,1.0,-6.0211199999999995e-06,1.0
-0.027166700000000002,1.0,-5.108649999999999e-09,1.0,-0.43450920000000004,1.0,-6.604e-06,1.0
-0.027557400000000003,1.0,-4.68292e-09,1.0,22.183595999999998,1.0,-6.46057e-06,1.0
-0.027929700000000002,1.0,-4.66461e-09,1.0,52.69032000000001,1.0,-6.0180700000000005e-06,1.0
-0.0283173,1.0,-4.217529999999999e-09,1.0,89.56044,1.0,-6.43311e-06,1.0
-0.0287476,1.0,-4.046629999999999e-09,1.0,107.5122,1.0,-6.14624e-06,1.0
-0.029141200000000003,1.0,-4.217529999999999e-09,1.0,122.34384000000003,1.0,-5.633540000000001e-06,1.0
-0.029544099999999997,1.0,-4.003905e-09,1.0,145.34928000000002,1.0,-6.28052e-06,1.0
-0.0299469,1.0,-3.89862e-09,1.0,163.28988,1.0,-5.7922400000000005e-06,1.0
-0.0303101,1.0,-3.93677e-09,1.0,181.92275999999998,1.0,-5.69153e-06,1.0
-0.0307007,1.0,-4.2099e-09,1.0,188.37144,1.0,-5.7220500000000006e-06,1.0
-0.031131,1.0,-4.69055e-09,1.0,189.96444000000002,1.0,-6.3324e-06,1.0
-0.0315247,1.0,-5.1346e-09,1.0,179.56044000000003,1.0,-6.161499999999999e-06,1.0
-0.031897,1.0,-5.4947e-09,1.0,156.92868,1.0,-5.66101e-06,1.0
-0.0323212,1.0,-5.509949999999999e-09,1.0,105.8202,1.0,-6.19507e-06,1.0
-0.0327087,1.0,-4.898069999999999e-09,1.0,70.64207999999999,1.0,-6.48193e-06,1.0
-0.033114599999999994,1.0,-3.5140999999999997e-09,1.0,89.56044,1.0,-6.573489999999999e-06,1.0
-0.0335205,1.0,-1.87073e-09,1.0,107.50139999999999,1.0,-6.30188e-06,1.0
-0.0338989,1.0,-2.975465e-10,1.0,127.80395999999999,1.0,-6.72913e-06,1.0
-0.0343079,1.0,5.813599999999999e-10,1.0,151.50132,1.0,-6.19812e-06,1.0
-0.0347107,1.0,1.220705e-09,1.0,182.10924000000003,1.0,-6.375119999999999e-06,1.0
-0.035107400000000004,1.0,1.213075e-09,1.0,213.18984,1.0,-6.4270000000000005e-06,1.0
-0.0355103,1.0,5.20325e-10,1.0,237.65616000000006,1.0,-6.100459999999999e-06,1.0
-0.035894800000000004,1.0,-5.05065e-10,1.0,257.88204,1.0,-6.555180000000001e-06,1.0
-0.036294599999999996,1.0,-1.78375e-09,1.0,269.53848000000005,1.0,-6.1798099999999995e-06,1.0
-0.0367065,1.0,-3.312685e-09,1.0,269.54963999999995,1.0,-5.96008e-06,1.0
-0.0370697,1.0,-4.1671750000000006e-09,1.0,232.67952,1.0,-5.82886e-06,1.0
-0.0375397,1.0,-4.211425e-09,1.0,179.54964,1.0,-6.1676e-06,1.0
-0.03793030000000001,1.0,-3.718565e-09,1.0,158.33484,1.0,-6.61926e-06,1.0
-0.0383179,1.0,-3.04718e-09,1.0,155.77524,1.0,-6.67725e-06,1.0
-0.0387451,1.0,-2.49634e-09,1.0,159.82920000000001,1.0,-6.6497800000000006e-06,1.0
-0.0391022,1.0,-1.823425e-09,1.0,171.09,1.0,-6.555180000000001e-06,1.0
-0.039544699999999995,1.0,-1.67694e-09,1.0,187.73424000000003,1.0,-7.2143600000000005e-06,1.0
-0.0399292,1.0,-1.631165e-09,1.0,208.45476,1.0,-7.250980000000001e-06,1.0
-0.0403351,1.0,-2.2781350000000002e-09,1.0,232.67952,1.0,-6.89087e-06,1.0
-0.040719599999999995,1.0,-2.84729e-09,1.0,254.02572,1.0,-7.156369999999999e-06,1.0
-0.0411438,1.0,-3.3905049999999998e-09,1.0,269.54963999999995,1.0,-6.411739999999999e-06,1.0
-0.0415344,1.0,-3.808595e-09,1.0,269.51652,1.0,-6.8389899999999985e-06,1.0
-0.041937300000000004,1.0,-4.388429999999999e-09,1.0,249.55452,1.0,-7.0373500000000005e-06,1.0
-0.0423584,1.0,-4.80194e-09,1.0,216.43056,1.0,-7.33032e-06,1.0
-0.0427399,1.0,-4.656979999999999e-09,1.0,168.13475999999997,1.0,-6.64063e-06,1.0
-0.043157999999999995,1.0,-4.241944999999999e-09,1.0,153.56699999999998,1.0,-7.272339999999999e-06,1.0
-0.0435883,1.0,-3.80554e-09,1.0,151.47935999999999,1.0,-7.009889999999999e-06,1.0
-0.0439636,1.0,-3.0715949999999997e-09,1.0,161.61984,1.0,-7.13196e-06,1.0
-0.0443939,1.0,-2.845765e-09,1.0,179.54964,1.0,-7.4585e-06,1.0
-0.0447662,1.0,-2.609255e-09,1.0,195.09516000000002,1.0,-7.33643e-06,1.0
-0.0451721,1.0,-2.671815e-09,1.0,206.34516000000002,1.0,-7.65076e-06,1.0
-0.045608499999999996,1.0,-3.141785e-09,1.0,216.41976,1.0,-6.98242e-06,1.0
-0.0459839,1.0,-3.486635e-09,1.0,220.6494,1.0,-7.94983e-06,1.0
-0.0463898,1.0,-3.78723e-09,1.0,216.43056,1.0,-7.47681e-06,1.0
-0.046765100000000004,1.0,-3.4713749999999997e-09,1.0,199.58868,1.0,-7.85828e-06,1.0
-0.04717709999999999,1.0,-3.022765e-09,1.0,179.54964,1.0,-8.12683e-06,1.0
-0.0475739,1.0,-3.074645e-09,1.0,168.15671999999998,1.0,-8.31299e-06,1.0
-0.0480042,1.0,-2.61841e-09,1.0,164.02571999999998,1.0,-8.572389999999999e-06,1.0
-0.0483826,1.0,-2.5009149999999997e-09,1.0,170.04636,1.0,-8.19092e-06,1.0
-0.0487793,1.0,-2.0355199999999996e-09,1.0,183.96612,1.0,-8.40454e-06,1.0
-0.0491425,1.0,-1.6372699999999999e-09,1.0,204.60924000000003,1.0,-8.31299e-06,1.0
-0.049554400000000005,1.0,-1.628115e-09,1.0,230.84459999999999,1.0,-8.160399999999999e-06,1.0
-0.0500183,1.0,-2.05841e-09,1.0,256.8492,1.0,-8.508300000000001e-06,1.0
-0.050354,1.0,-2.5039649999999996e-09,1.0,283.76604,1.0,-8.49304e-06,1.0
-0.0507813,1.0,-3.367615e-09,1.0,306.40860000000004,1.0,-8.706669999999999e-06,1.0
-0.051177999999999994,1.0,-4.4479349999999995e-09,1.0,331.47936,1.0,-8.85925e-06,1.0
-0.051605200000000004,1.0,-5.0995e-09,1.0,359.51652,1.0,-8.44116e-06,1.0
-0.05197140000000001,1.0,-5.6381e-09,1.0,359.51652,1.0,-7.99866e-06,1.0
-0.0523376,1.0,-5.9067e-09,1.0,179.62632,1.0,-8.71887e-06,1.0
-0.0527039,1.0,-4.609679999999999e-09,1.0,156.91788000000003,1.0,-8.56628e-06,1.0
-0.0531311,1.0,-3.546145e-09,1.0,172.80396000000002,1.0,-9.2804e-06,1.0
-0.0535278,1.0,-2.5466899999999996e-09,1.0,179.53848,1.0,-8.743289999999999e-06,1.0
-0.05395509999999999,1.0,-1.81732e-09,1.0,188.03088000000002,1.0,-8.746339999999999e-06,1.0
-0.05432130000000001,1.0,-1.416015e-09,1.0,202.90644,1.0,-8.71887e-06,1.0
-0.0547485,1.0,-1.649475e-09,1.0,211.45391999999998,1.0,-9.0332e-06,1.0
-0.055114699999999996,1.0,-1.641845e-09,1.0,217.72691999999998,1.0,-8.648680000000001e-06,1.0
-0.055541999999999994,1.0,-2.5482199999999997e-09,1.0,225.97776,1.0,-8.95691e-06,1.0
-0.0559082,1.0,-3.318785e-09,1.0,238.28256000000002,1.0,-8.4137e-06,1.0
-0.0563049,1.0,-4.18091e-09,1.0,244.48968,1.0,-8.44116e-06,1.0
-0.056701699999999994,1.0,-4.675295e-09,1.0,227.50488,1.0,-8.89587e-06,1.0
-0.0570984,1.0,-4.42047e-09,1.0,189.08568000000002,1.0,-9.03015e-06,1.0
-0.0574951,1.0,-3.6132799999999997e-09,1.0,179.53848,1.0,-9.17053e-06,1.0
-0.0578918,1.0,-2.4765e-09,1.0,189.48132,1.0,-8.92334e-06,1.0
-0.058319100000000006,1.0,-1.62506e-09,1.0,199.10520000000002,1.0,-9.490969999999999e-06,1.0
-0.058624300000000004,1.0,-5.49315e-10,1.0,206.03771999999998,1.0,-8.999630000000001e-06,1.0
-0.0590515,1.0,2.88391e-10,1.0,205.54308,1.0,-9.03625e-06,1.0
-0.059539800000000004,1.0,5.05065e-10,1.0,204.32376,1.0,-9.60388e-06,1.0
-0.05996699999999999,1.0,3.204345e-10,1.0,202.69764,1.0,-9.76257e-06,1.0
-0.0603638,1.0,-7.568349999999999e-10,1.0,196.27092,1.0,-9.26819e-06,1.0
-0.0607605,1.0,-1.605225e-09,1.0,191.349,1.0,-9.2926e-06,1.0
-0.061065699999999994,1.0,-2.1285999999999995e-09,1.0,183.95496,1.0,-9.320069999999999e-06,1.0
-0.061523400000000006,1.0,-1.904295e-09,1.0,175.30884,1.0,-1.02173e-05,1.0
-0.0619202,1.0,-1.7166149999999999e-09,1.0,175.45176,1.0,-9.60693e-06,1.0
-0.0623169,1.0,-1.2802099999999999e-09,1.0,175.85819999999998,1.0,-9.487919999999999e-06,1.0
-0.0627136,1.0,-9.750349999999998e-10,1.0,179.54964,1.0,-9.88464e-06,1.0
-0.0630798,1.0,-8.42285e-10,1.0,182.92248,1.0,-9.94873e-06,1.0
-0.063446,1.0,-8.46865e-10,1.0,192.96396,1.0,-9.967039999999999e-06,1.0
-0.0639038,1.0,-6.13405e-10,1.0,206.05968000000001,1.0,-9.95178e-06,1.0
-0.0642395,1.0,-5.4016e-10,1.0,216.43056,1.0,-1.00098e-05,1.0
-0.0647278,1.0,-1.0025e-09,1.0,231.08651999999998,1.0,-1.01959e-05,1.0
-0.06518550000000001,1.0,-1.3961799999999998e-09,1.0,244.78632,1.0,-9.75342e-06,1.0
-0.0654602,1.0,-1.90277e-09,1.0,251.60903999999996,1.0,-1.0473599999999999e-05,1.0
-0.0658569,1.0,-2.479555e-09,1.0,256.12416,1.0,-1.0394300000000001e-05,1.0
-0.0662842,1.0,-2.69928e-09,1.0,251.2134,1.0,-1.0290499999999999e-05,1.0
-0.06665039999999998,1.0,-2.69623e-09,1.0,246.90672,1.0,-1.08978e-05,1.0
-0.0670776,1.0,-2.659605e-09,1.0,232.67952,1.0,-1.0665899999999999e-05,1.0
-0.0674438,1.0,-2.038575e-09,1.0,215.06832,1.0,-1.07239e-05,1.0
-0.06777949999999999,1.0,-9.67405e-10,1.0,204.24672,1.0,-1.0250899999999999e-05,1.0
-0.0682678,1.0,3.5247800000000004e-10,1.0,205.55424,1.0,-1.01593e-05,1.0
-0.0686646,1.0,1.4999399999999999e-09,1.0,214.14564000000001,1.0,-1.02264e-05,1.0
-0.0690918,1.0,2.75879e-09,1.0,222.70391999999998,1.0,-1.073e-05,1.0
-0.06951900000000001,1.0,2.93274e-09,1.0,232.67952,1.0,-1.091e-05,1.0
-0.0698242,1.0,3.19519e-09,1.0,248.03820000000002,1.0,-1.0446199999999998e-05,1.0
-0.07034299999999999,1.0,2.764895e-09,1.0,263.529,1.0,-1.12946e-05,1.0
-0.0706787,1.0,1.6922e-09,1.0,272.90052000000003,1.0,-1.10687e-05,1.0
-0.0710449,1.0,5.783099999999999e-10,1.0,273.4938,1.0,-1.1303699999999998e-05,1.0
-0.0714722,1.0,-3.2806400000000004e-10,1.0,262.7928,1.0,-1.1218299999999999e-05,1.0
-0.0718384,1.0,-9.53675e-10,1.0,245.01708000000002,1.0,-1.1178599999999998e-05,1.0
-0.07223510000000001,1.0,-9.841899999999999e-10,1.0,227.83463999999998,1.0,-1.15814e-05,1.0
-0.07269289999999999,1.0,-9.643549999999998e-10,1.0,215.32103999999998,1.0,-1.1682100000000001e-05,1.0
-0.0730286,1.0,-7.0343e-10,1.0,206.80668,1.0,-1.10779e-05,1.0
-0.0734558,1.0,-1.296995e-10,1.0,206.91648,1.0,-1.1273199999999999e-05,1.0
-0.0738525,1.0,6.2866e-10,1.0,213.77195999999998,1.0,-1.0607899999999999e-05,1.0
-0.07431030000000001,1.0,1.0269149999999999e-09,1.0,219.73752,1.0,-1.1520399999999999e-05,1.0
-0.07467649999999999,1.0,1.0528549999999999e-09,1.0,222.2316,1.0,-1.13007e-05,1.0
-0.0751343,1.0,7.797249999999999e-10,1.0,225.62640000000002,1.0,-1.1377e-05,1.0
-0.0755005,1.0,5.56945e-10,1.0,228.88908,1.0,-1.1288499999999999e-05,1.0
-0.0758667,1.0,-2.74658e-11,1.0,229.96584000000001,1.0,-1.185e-05,1.0
-0.07623289999999999,1.0,-7.0343e-10,1.0,225.05508000000003,1.0,-1.22772e-05,1.0
-0.07669069999999999,1.0,-1.31836e-09,1.0,214.04663999999997,1.0,-1.1856099999999998e-05,1.0
-0.0770569,1.0,-1.597595e-09,1.0,203.75244,1.0,-1.12915e-05,1.0
-0.0775452,1.0,-1.167295e-09,1.0,197.89668,1.0,-1.23901e-05,1.0
-0.0778809,1.0,-5.0049e-10,1.0,195.80939999999998,1.0,-1.21552e-05,1.0
-0.0782776,1.0,1.296995e-10,1.0,194.19444,1.0,-1.2265e-05,1.0
-0.0786438,1.0,5.09645e-10,1.0,195.83136,1.0,-1.27472e-05,1.0
-0.07910160000000001,1.0,1.0040299999999999e-09,1.0,195.08436,1.0,-1.21582e-05,1.0
-0.0795288,1.0,1.1795049999999998e-09,1.0,202.19256000000001,1.0,-1.26007e-05,1.0
-0.07989500000000001,1.0,1.6601549999999998e-09,1.0,208.80611999999996,1.0,-1.29364e-05,1.0
-0.0802917,1.0,1.8402099999999998e-09,1.0,212.6844,1.0,-1.27197e-05,1.0
-0.08065800000000001,1.0,2.1087649999999996e-09,1.0,216.44171999999998,1.0,-1.31927e-05,1.0
-0.0810852,1.0,1.826475e-09,1.0,214.98048,1.0,-1.3092000000000001e-05,1.0
-0.0814514,1.0,1.14746e-09,1.0,212.4756,1.0,-1.27228e-05,1.0
-0.08193969999999999,1.0,3.4332300000000004e-10,1.0,208.33379999999997,1.0,-1.3217200000000001e-05,1.0
-0.0822449,1.0,-5.38635e-10,1.0,206.05968000000001,1.0,-1.27808e-05,1.0
-0.0826721,1.0,-1.153565e-09,1.0,202.1814,1.0,-1.31561e-05,1.0
-0.08303830000000001,1.0,-1.57013e-09,1.0,204.60924000000003,1.0,-1.30859e-05,1.0
-0.08343510000000001,1.0,-1.6448949999999998e-09,1.0,204.59844,1.0,-1.31561e-05,1.0
-0.0838928,1.0,-1.44043e-09,1.0,210.41028,1.0,-1.2753299999999999e-05,1.0
-0.0842285,1.0,-5.35585e-10,1.0,222.5502,1.0,-1.31256e-05,1.0
-0.0846863,1.0,4.837035e-10,1.0,231.44904000000002,1.0,-1.35681e-05,1.0
-0.0850525,1.0,1.23596e-09,1.0,240.6114,1.0,-1.36078e-05,1.0
-0.0854492,1.0,1.156615e-09,1.0,247.63176000000004,1.0,-1.4209e-05,1.0
-0.08584589999999999,1.0,7.4463e-10,1.0,254.33352,1.0,-1.33545e-05,1.0
-0.0861816,1.0,-3.463745e-10,1.0,256.35492,1.0,-1.32446e-05,1.0
-0.0865479,1.0,-9.97925e-10,1.0,248.93928,1.0,-1.41357e-05,1.0
-0.0869446,1.0,-1.6754149999999998e-09,1.0,238.09571999999997,1.0,-1.37512e-05,1.0
-0.08737180000000001,1.0,-1.916505e-09,1.0,223.15428000000003,1.0,-1.3769500000000001e-05,1.0
-0.087738,1.0,-1.6387949999999998e-09,1.0,211.45391999999998,1.0,-1.3946500000000001e-05,1.0
-0.0881958,1.0,-7.980349999999999e-10,1.0,203.49971999999997,1.0,-1.40472e-05,1.0
-0.08862300000000001,1.0,5.0049e-10,1.0,204.90588000000002,1.0,-1.36139e-05,1.0
-0.08898930000000001,1.0,2.04468e-09,1.0,212.07996000000003,1.0,-1.39618e-05,1.0
-0.089325,1.0,3.0975349999999997e-09,1.0,222.79175999999998,1.0,-1.39038e-05,1.0
-0.0897827,1.0,3.76587e-09,1.0,231.84431999999998,1.0,-1.4327999999999999e-05,1.0
-0.09014889999999999,1.0,3.57361e-09,1.0,242.16048,1.0,-1.34766e-05,1.0
-0.0905151,1.0,2.96173e-09,1.0,252.0594,1.0,-1.3912999999999999e-05,1.0
-0.0909729,1.0,2.2125249999999997e-09,1.0,256.15728,1.0,-1.36841e-05,1.0
-0.0913391,1.0,1.20392e-09,1.0,257.23403999999994,1.0,-1.38275e-05,1.0
-0.0917358,1.0,4.821774999999999e-10,1.0,255.9924,1.0,-1.42548e-05,1.0
-0.09216310000000001,1.0,-3.341675e-10,1.0,247.78548,1.0,-1.3464400000000001e-05,1.0
-0.09255980000000001,1.0,-5.61525e-10,1.0,237.03011999999998,1.0,-1.41541e-05,1.0
-0.0929871,1.0,-6.08825e-10,1.0,226.80180000000001,1.0,-1.4025899999999999e-05,1.0
-0.0934143,1.0,-8.08715e-11,1.0,223.16544,1.0,-1.42181e-05,1.0
-0.09375,1.0,5.15745e-10,1.0,224.16515999999996,1.0,-1.34125e-05,1.0
-0.0942078,1.0,1.664735e-09,1.0,224.06616,1.0,-1.43585e-05,1.0
-0.094574,1.0,2.0965599999999996e-09,1.0,227.73564000000002,1.0,-1.44348e-05,1.0
-0.0950317,1.0,2.075195e-09,1.0,233.71200000000005,1.0,-1.4975e-05,1.0
-0.0954285,1.0,1.37024e-09,1.0,241.47935999999999,1.0,-1.4209e-05,1.0
-0.0957642,1.0,5.0659e-10,1.0,248.43383999999998,1.0,-1.4389e-05,1.0
-0.09628300000000001,1.0,3.2043449999999995e-11,1.0,255.0366,1.0,-1.4987200000000001e-05,1.0
-0.0966187,1.0,-3.00598e-10,1.0,255.87143999999998,1.0,-1.53748e-05,1.0
-0.09704589999999999,1.0,-7.476799999999999e-10,1.0,260.0136,1.0,-1.5060399999999999e-05,1.0
-0.0974426,1.0,-1.0025e-09,1.0,264.52872,1.0,-1.49475e-05,1.0
-0.0978699,1.0,-9.93345e-10,1.0,257.4756,1.0,-1.4968900000000002e-05,1.0
-0.0982361,1.0,-3.5858150000000003e-10,1.0,253.89396000000002,1.0,-1.5060399999999999e-05,1.0
-0.0986938,1.0,2.7008049999999996e-10,1.0,249.29064,1.0,-1.51703e-05,1.0
-0.09902949999999999,1.0,1.1489849999999998e-09,1.0,247.64292,1.0,-1.48773e-05,1.0
-0.0994568,1.0,2.0660399999999996e-09,1.0,248.82948000000002,1.0,-1.53778e-05,1.0
-0.099823,1.0,2.6504499999999993e-09,1.0,251.60903999999996,1.0,-1.5564000000000002e-05,1.0
-0.10025,1.0,2.703855e-09,1.0,257.54148,1.0,-1.57196e-05,1.0
-0.100647,1.0,2.09503e-09,1.0,261.49644,1.0,-1.4666700000000001e-05,1.0
-0.101074,1.0,1.260375e-09,1.0,262.37556,1.0,-1.56677e-05,1.0
-0.101471,1.0,3.189085e-10,1.0,257.32188,1.0,-1.56555e-05,1.0
-0.101898,1.0,-2.5482199999999997e-10,1.0,242.56728000000004,1.0,-1.61255e-05,1.0
-0.102203,1.0,-4.211425e-10,1.0,223.78068000000002,1.0,-1.58295e-05,1.0
-0.10266099999999999,1.0,-2.563475e-10,1.0,210.59676,1.0,-1.6442899999999998e-05,1.0
-0.102997,1.0,5.49315e-10,1.0,202.1814,1.0,-1.61499e-05,1.0
-0.103394,1.0,1.26343e-09,1.0,202.19256000000001,1.0,-1.59332e-05,1.0
-0.103851,1.0,1.91803e-09,1.0,208.224,1.0,-1.58295e-05,1.0
-0.10424800000000001,1.0,1.92566e-09,1.0,220.1112,1.0,-1.66107e-05,1.0
-0.104645,1.0,1.79596e-09,1.0,230.59188,1.0,-1.59576e-05,1.0
-0.105011,1.0,1.400755e-09,1.0,235.99728,1.0,-1.62323e-05,1.0
-0.10540799999999999,1.0,7.476799999999999e-10,1.0,244.69848000000002,1.0,-1.63696e-05,1.0
-0.10586500000000001,1.0,1.3122549999999998e-10,1.0,248.55480000000003,1.0,-1.5918e-05,1.0
-0.10629300000000001,1.0,-3.219605e-10,1.0,244.27008,1.0,-1.61377e-05,1.0
-0.10665899999999999,1.0,-7.27845e-10,1.0,228.1752,1.0,-1.61865e-05,1.0
-0.107056,1.0,-5.706799999999999e-10,1.0,209.21256000000002,1.0,-1.70074e-05,1.0
-0.10745199999999999,1.0,2.685545e-10,1.0,199.91808,1.0,-1.67725e-05,1.0
-0.10790999999999999,1.0,8.773799999999999e-10,1.0,198.06156000000001,1.0,-1.69006e-05,1.0
-0.10818499999999999,1.0,1.6235349999999998e-09,1.0,203.58756,1.0,-1.68488e-05,1.0
-0.10861199999999999,1.0,2.677915e-09,1.0,211.3002,1.0,-1.65405e-05,1.0
-0.10897799999999999,1.0,3.341675e-09,1.0,221.35248,1.0,-1.68945e-05,1.0
-0.10940599999999999,1.0,3.53241e-09,1.0,232.70148,1.0,-1.70349e-05,1.0
-0.109802,1.0,3.356935e-09,1.0,244.78632,1.0,-1.68579e-05,1.0
-0.110229,1.0,2.8961199999999997e-09,1.0,259.40916000000004,1.0,-1.7553699999999998e-05,1.0
-0.110596,1.0,2.2552499999999996e-09,1.0,274.21883999999994,1.0,-1.72089e-05,1.0
-0.11099200000000001,1.0,1.53351e-09,1.0,281.4588,1.0,-1.7276e-05,1.0
-0.11142,1.0,1.15967e-09,1.0,278.59139999999996,1.0,-1.7178299999999998e-05,1.0
-0.111847,1.0,5.187999999999999e-10,1.0,265.59432,1.0,-1.75323e-05,1.0
-0.112152,1.0,3.25012e-10,1.0,249.31259999999997,1.0,-1.66321e-05,1.0
-0.11260999999999999,1.0,5.4016e-10,1.0,237.66732000000002,1.0,-1.7746e-05,1.0
-0.113068,1.0,1.2466449999999999e-09,1.0,232.69031999999999,1.0,-1.763e-05,1.0
-0.113434,1.0,1.626585e-09,1.0,228.42756,1.0,-1.75629e-05,1.0
-0.1138,1.0,2.0660399999999996e-09,1.0,223.57188000000002,1.0,-1.75323e-05,1.0
-0.114197,1.0,2.07367e-09,1.0,225.65915999999999,1.0,-1.75598e-05,1.0
-0.11456300000000001,1.0,2.174375e-09,1.0,228.64752,1.0,-1.77094e-05,1.0
-0.115021,1.0,2.09961e-09,1.0,234.756,1.0,-1.80969e-05,1.0
-0.115356,1.0,1.190185e-09,1.0,237.18383999999998,1.0,-1.7675799999999998e-05,1.0
-0.11581400000000001,1.0,2.86865e-10,1.0,236.53548,1.0,-1.7788699999999998e-05,1.0
-0.11617999999999999,1.0,-7.568349999999999e-10,1.0,231.20711999999997,1.0,-1.76819e-05,1.0
-0.116638,1.0,-9.185799999999999e-10,1.0,221.90184,1.0,-1.80878e-05,1.0
