 ,Scan,Index,Time (s),WE(1).Potential (V),WE(1).Current (A)
 ,1,183,23.5641,0.00473938,-4.80E-06
 ,1,184,23.6129,0.00230713,-5.23E-06
 ,1,181,23.4665,0.00960083,-4.01E-06
 ,1,182,23.5153,0.00716858,-4.41E-06
 ,1,187,23.7593,-0.00499268,-6.57E-06
 ,1,188,23.8081,-0.00742493,-7.03E-06
 ,1,185,23.6617,-0.00012207,-5.65E-06
 ,1,186,23.7105,-0.00255737,-6.10E-06
 ,1,180,23.4177,0.01203,-3.63E-06
 ,1,174,23.1249,0.0266144,-1.58E-06
 ,1,175,23.1737,0.0241791,-1.91E-06
 ,1,172,23.0273,0.0314789,-9.70E-07
 ,1,173,23.0761,0.0290466,-1.28E-06
 ,1,178,23.3201,0.0168884,-2.92E-06
 ,1,179,23.3689,0.0144592,-3.28E-06
 ,1,176,23.2225,0.0217499,-2.23E-06
 ,1,177,23.2713,0.0193207,-2.58E-06
 ,1,200,24.3937,-0.0365967,-1.41E-05
 ,1,201,24.4425,-0.0390289,-1.48E-05
 ,1,198,24.2961,-0.0317291,-1.27E-05
 ,1,199,24.3449,-0.0341644,-1.34E-05
 ,1,204,24.5889,-0.0463226,-1.69E-05
 ,1,205,24.6377,-0.0487518,-1.77E-05
 ,1,202,24.4913,-0.0414612,-1.55E-05
 ,1,203,24.5401,-0.0438934,-1.62E-05
 ,1,197,24.2473,-0.0292999,-1.20E-05
 ,1,191,23.9545,-0.0147186,-8.55E-06
 ,1,192,24.0033,-0.0171478,-9.09E-06
 ,1,189,23.8569,-0.00985718,-7.53E-06
 ,1,190,23.9057,-0.0122894,-8.03E-06
 ,1,195,24.1497,-0.0244385,-1.08E-05
 ,1,196,24.1985,-0.0268677,-1.14E-05
 ,1,193,24.0521,-0.019577,-9.65E-06
 ,1,194,24.1009,-0.0220062,-1.02E-05
 ,1,149,21.9049,0.0874939,6.23E-06
 ,1,150,21.9537,0.085083,5.85E-06
 ,1,147,21.8073,0.0923767,6.99E-06
 ,1,148,21.8561,0.0899353,6.60E-06
 ,1,153,22.1001,0.0777893,4.79E-06
 ,1,154,22.1489,0.0753479,4.46E-06
 ,1,151,22.0025,0.0826416,5.49E-06
 ,1,152,22.0513,0.0802002,5.15E-06
 ,1,146,21.7585,0.0947876,7.40E-06
 ,1,140,21.4657,0.109406,1.01E-05
 ,1,141,21.5145,0.106995,9.61E-06
 ,1,138,21.3681,0.114288,1.11E-05
 ,1,139,21.4169,0.111847,1.06E-05
 ,1,144,21.6609,0.0996704,8.22E-06
 ,1,145,21.7097,0.097229,7.79E-06
 ,1,142,21.5633,0.104553,9.12E-06
 ,1,143,21.6121,0.102112,8.66E-06
 ,1,166,22.7345,0.0460663,8.17E-07
 ,1,167,22.7833,0.0436401,5.34E-07
 ,1,164,22.6369,0.0510254,1.41E-06
 ,1,165,22.6857,0.0484955,1.12E-06
 ,1,170,22.9297,0.0363434,-3.57E-07
 ,1,171,22.9785,0.0339111,-6.63E-07
 ,1,168,22.8321,0.0412079,2.34E-07
 ,1,169,22.8809,0.0387726,-5.00E-08
 ,1,163,22.5881,0.0534668,1.69E-06
 ,1,157,22.2953,0.0680542,3.49E-06
 ,1,158,22.3441,0.0656128,3.19E-06
 ,1,155,22.1977,0.0729065,4.14E-06
 ,1,156,22.2465,0.0704651,3.82E-06
 ,1,161,22.4905,0.0583191,2.28E-06
 ,1,162,22.5393,0.0558777,1.98E-06
 ,1,159,22.3929,0.0631714,2.88E-06
 ,1,160,22.4417,0.0607605,2.58E-06
 ,1,251,26.8825,-0.0405884,-7.50E-06
 ,1,252,26.9313,-0.0381531,-6.92E-06
 ,1,249,26.7849,-0.0454529,-8.65E-06
 ,1,250,26.8337,-0.0430206,-8.07E-06
 ,1,255,27.0777,-0.0308624,-5.44E-06
 ,1,256,27.1265,-0.0284271,-4.98E-06
 ,1,253,26.9801,-0.0357239,-6.42E-06
 ,1,254,27.0289,-0.0332947,-5.92E-06
 ,1,248,26.7361,-0.0478851,-9.27E-06
 ,1,242,26.4433,-0.0625,-1.36E-05
 ,1,243,26.4921,-0.0600586,-1.28E-05
 ,1,240,26.3457,-0.0673523,-1.53E-05
 ,1,241,26.3945,-0.0649109,-1.44E-05
 ,1,246,26.6385,-0.0527649,-1.06E-05
 ,1,247,26.6873,-0.0503235,-9.91E-06
 ,1,244,26.5409,-0.0576172,-1.20E-05
 ,1,245,26.5897,-0.0551758,-1.13E-05
 ,1,268,27.7121,0.000753784,-6.58E-07
 ,1,269,27.7609,0.00318604,-3.50E-07
 ,1,266,27.6145,-0.00411072,-1.25E-06
 ,1,267,27.6633,-0.00167847,-9.40E-07
 ,1,272,27.9073,0.0104767,4.86E-07
 ,1,273,27.9561,0.0129059,7.29E-07
 ,1,270,27.8097,0.00561523,-7.23E-08
 ,1,271,27.8585,0.00804749,2.04E-07
 ,1,265,27.5657,-0.00653992,-1.57E-06
 ,1,259,27.2729,-0.0211395,-3.72E-06
 ,1,260,27.3217,-0.0187042,-3.32E-06
 ,1,257,27.1753,-0.0259979,-4.53E-06
 ,1,258,27.2241,-0.0235687,-4.12E-06
 ,1,263,27.4681,-0.0114105,-2.23E-06
 ,1,264,27.5169,-0.00897217,-1.90E-06
 ,1,261,27.3705,-0.016272,-2.95E-06
 ,1,262,27.4193,-0.0138397,-2.57E-06
 ,1,217,25.2233,-0.0779419,-2.73E-05
 ,1,218,25.2721,-0.0803833,-2.81E-05
 ,1,215,25.1257,-0.0730896,-2.57E-05
 ,1,216,25.1745,-0.075531,-2.65E-05
 ,1,221,25.4185,-0.087677,-3.06E-05
 ,1,222,25.4673,-0.0901184,-3.14E-05
 ,1,219,25.3209,-0.0828247,-2.89E-05
 ,1,220,25.3697,-0.0852356,-2.97E-05
 ,1,214,25.0769,-0.0706482,-2.49E-05
 ,1,208,24.7841,-0.0560608,-2.00E-05
 ,1,209,24.8329,-0.0584717,-2.08E-05
 ,1,206,24.6865,-0.0512085,-1.84E-05
 ,1,207,24.7353,-0.0536194,-1.92E-05
 ,1,212,24.9793,-0.0657654,-2.32E-05
 ,1,213,25.0281,-0.0682373,-2.40E-05
 ,1,210,24.8817,-0.0609131,-2.16E-05
 ,1,211,24.9305,-0.0633545,-2.24E-05
 ,1,234,26.0529,-0.0819702,-2.15E-05
 ,1,235,26.1017,-0.0795288,-2.03E-05
 ,1,232,25.9553,-0.0868225,-2.40E-05
 ,1,233,26.0041,-0.0844116,-2.27E-05
 ,1,238,26.2481,-0.0722046,-1.71E-05
 ,1,239,26.2969,-0.0697937,-1.62E-05
 ,1,236,26.1505,-0.0770874,-1.92E-05
 ,1,237,26.1993,-0.074646,-1.81E-05
 ,1,231,25.9065,-0.0892639,-2.55E-05
 ,1,225,25.6137,-0.0974121,-3.39E-05
 ,1,226,25.6625,-0.0998535,-3.47E-05
 ,1,223,25.5161,-0.0925598,-3.22E-05
 ,1,224,25.5649,-0.0949707,-3.31E-05
 ,1,229,25.8089,-0.0941467,-2.86E-05
 ,1,230,25.8577,-0.0917053,-2.70E-05
 ,1,227,25.7113,-0.098999,-3.25E-05
 ,1,228,25.7601,-0.0965576,-3.04E-05
 ,1,137,21.3193,0.11673,1.16E-05
 ,1,46,16.8785,0.124908,1.57E-05
 ,1,47,16.9273,0.12735,1.63E-05
 ,1,44,16.7809,0.120056,1.45E-05
 ,1,45,16.8297,0.122467,1.51E-05
 ,1,50,17.0737,0.134644,1.82E-05
 ,1,51,17.1225,0.137085,1.90E-05
 ,1,48,16.9761,0.129791,1.69E-05
 ,1,49,17.0249,0.132233,1.76E-05
 ,1,43,16.7321,0.117615,1.40E-05
 ,1,37,16.4393,0.102997,1.11E-05
 ,1,38,16.4881,0.105438,1.15E-05
 ,1,35,16.3417,0.0981445,1.03E-05
 ,1,36,16.3905,0.100586,1.07E-05
 ,1,41,16.6345,0.112732,1.29E-05
 ,1,42,16.6833,0.115173,1.35E-05
 ,1,39,16.5369,0.10788,1.20E-05
 ,1,40,16.5857,0.110321,1.25E-05
 ,1,63,17.7081,0.16629,2.96E-05
 ,1,64,17.7569,0.168732,3.07E-05
 ,1,61,17.6105,0.161438,2.75E-05
 ,1,62,17.6593,0.163879,2.86E-05
 ,1,67,17.9033,0.176025,3.43E-05
 ,1,68,17.9521,0.178467,3.55E-05
 ,1,65,17.8057,0.171173,3.19E-05
 ,1,66,17.8545,0.173584,3.31E-05
 ,1,60,17.5617,0.158997,2.66E-05
 ,1,54,17.2689,0.144379,2.12E-05
 ,1,55,17.3177,0.14682,2.20E-05
 ,1,52,17.1713,0.139526,1.97E-05
 ,1,53,17.2201,0.141937,2.04E-05
 ,1,58,17.4641,0.154144,2.46E-05
 ,1,59,17.5129,0.156555,2.56E-05
 ,1,56,17.3665,0.149261,2.29E-05
 ,1,57,17.4153,0.151703,2.38E-05
 ,1,12,15.2193,0.0420837,3.40E-06
 ,1,13,15.2681,0.044516,3.65E-06
 ,1,10,15.1217,0.0372223,2.91E-06
 ,1,11,15.1705,0.0396515,3.17E-06
 ,1,16,15.4145,0.0519104,4.38E-06
 ,1,17,15.4633,0.0543518,4.61E-06
 ,1,14,15.3169,0.0469513,3.90E-06
 ,1,15,15.3657,0.0493805,4.14E-06
 ,1,9,15.0729,0.03479,2.67E-06
 ,1,3,14.7801,0.0202118,7.29E-07
 ,1,4,14.8289,0.022644,9.89E-07
 ,1,1,14.6825,0.0153503,1.92E-07
 ,1,2,14.7313,0.0177856,4.67E-07
 ,1,7,14.9753,0.0299194,2.18E-06
 ,1,8,15.0241,0.0323547,2.42E-06
 ,1,5,14.8777,0.0250763,1.24E-06
 ,1,6,14.9265,0.0274902,1.94E-06
 ,1,29,16.0489,0.0835571,8.04E-06
 ,1,30,16.0977,0.085968,8.38E-06
 ,1,27,15.9513,0.0786743,7.40E-06
 ,1,28,16.0001,0.0811157,7.72E-06
 ,1,33,16.2441,0.0932922,9.47E-06
 ,1,34,16.2929,0.0957031,9.86E-06
 ,1,31,16.1465,0.0884094,8.73E-06
 ,1,32,16.1953,0.0908508,9.09E-06
 ,1,26,15.9025,0.0762329,7.08E-06
 ,1,20,15.6097,0.0616455,5.39E-06
 ,1,21,15.6585,0.0640564,5.66E-06
 ,1,18,15.5121,0.0567627,4.87E-06
 ,1,19,15.5609,0.0592041,5.13E-06
 ,1,24,15.8049,0.0713806,6.49E-06
 ,1,25,15.8537,0.073822,6.78E-06
 ,1,22,15.7073,0.0664978,5.93E-06
 ,1,23,15.7561,0.0689392,6.20E-06
 ,1,114,20.1969,0.172699,3.03E-05
 ,1,115,20.2457,0.170288,2.92E-05
 ,1,112,20.0993,0.177582,3.27E-05
 ,1,113,20.1481,0.17514,3.15E-05
 ,1,118,20.3921,0.162964,2.59E-05
 ,1,119,20.4409,0.160522,2.49E-05
 ,1,116,20.2945,0.167847,2.80E-05
 ,1,117,20.3433,0.165405,2.70E-05
 ,1,111,20.0505,0.179993,3.40E-05
 ,1,105,19.7577,0.194611,4.24E-05
 ,1,106,19.8065,0.192169,4.09E-05
 ,1,103,19.6601,0.199463,4.57E-05
 ,1,104,19.7089,0.197021,4.40E-05
 ,1,109,19.9529,0.184875,3.66E-05
 ,1,110,20.0017,0.182434,3.53E-05
 ,1,107,19.8553,0.189728,3.94E-05
 ,1,108,19.9041,0.187317,3.80E-05
 ,1,131,21.0265,0.131317,1.52E-05
 ,1,132,21.0753,0.128906,1.46E-05
 ,1,129,20.9289,0.1362,1.66E-05
 ,1,130,20.9777,0.133759,1.59E-05
 ,1,135,21.2217,0.121582,1.27E-05
 ,1,136,21.2705,0.119141,1.22E-05
 ,1,133,21.1241,0.126465,1.39E-05
 ,1,134,21.1729,0.124023,1.33E-05
 ,1,128,20.8801,0.138641,1.73E-05
 ,1,122,20.5873,0.153229,2.21E-05
 ,1,123,20.6361,0.150787,2.13E-05
 ,1,120,20.4897,0.158081,2.40E-05
 ,1,121,20.5385,0.15567,2.30E-05
 ,1,126,20.7825,0.143494,1.88E-05
 ,1,127,20.8313,0.141052,1.80E-05
 ,1,124,20.6849,0.148376,2.04E-05
 ,1,125,20.7337,0.145935,1.96E-05
 ,1,80,18.5377,0.207672,5.40E-05
 ,1,81,18.5865,0.210083,5.59E-05
 ,1,78,18.4401,0.202789,5.04E-05
 ,1,79,18.4889,0.205231,5.22E-05
 ,1,84,18.7329,0.217407,6.18E-05
 ,1,85,18.7817,0.219818,6.39E-05
 ,1,82,18.6353,0.212524,5.78E-05
 ,1,83,18.6841,0.214966,5.98E-05
 ,1,77,18.3913,0.200348,4.88E-05
 ,1,71,18.0985,0.18576,3.96E-05
 ,1,72,18.1473,0.188171,4.10E-05
 ,1,69,18.0009,0.180878,3.68E-05
 ,1,70,18.0497,0.183319,3.82E-05
 ,1,75,18.2937,0.195496,4.55E-05
 ,1,76,18.3425,0.197906,4.72E-05
 ,1,73,18.1961,0.190613,4.25E-05
 ,1,74,18.2449,0.193054,4.40E-05
 ,1,97,19.3673,0.214081,5.66E-05
 ,1,98,19.4161,0.211639,5.46E-05
 ,1,95,19.2697,0.218933,6.09E-05
 ,1,96,19.3185,0.216492,5.87E-05
 ,1,101,19.5625,0.204346,4.91E-05
 ,1,102,19.6113,0.201904,4.74E-05
 ,1,99,19.4649,0.209198,5.27E-05
 ,1,100,19.5137,0.206757,5.08E-05
 ,1,94,19.2209,0.221375,6.31E-05
 ,1,88,18.9281,0.227112,7.05E-05
 ,1,89,18.9769,0.229553,7.28E-05
 ,1,86,18.8305,0.22226,6.60E-05
 ,1,87,18.8793,0.224701,6.82E-05
 ,1,92,19.1233,0.226227,6.78E-05
 ,1,93,19.1721,0.223816,6.54E-05
 ,1,90,19.0257,0.23111,7.29E-05
 ,1,91,19.0745,0.228668,7.03E-05
 ,2,456,36.8865,0.00475159,-5.27E-06
 ,2,457,36.9353,0.00232544,-5.69E-06
 ,2,454,36.7889,0.00961609,-4.43E-06
 ,2,455,36.8377,0.00718384,-4.84E-06
 ,2,460,37.0817,-0.00496826,-7.13E-06
 ,2,461,37.1305,-0.00739746,-7.62E-06
 ,2,458,36.9841,-0.000106812,-6.17E-06
 ,2,459,37.0329,-0.00253906,-6.63E-06
 ,2,453,36.7401,0.0120483,-4.03E-06
 ,2,447,36.4473,0.0266357,-1.84E-06
 ,2,448,36.4961,0.0242035,-2.20E-06
 ,2,445,36.3497,0.0314972,-1.19E-06
 ,2,446,36.3985,0.029068,-1.51E-06
 ,2,451,36.6425,0.0169189,-3.27E-06
 ,2,452,36.6913,0.0144836,-3.66E-06
 ,2,449,36.5449,0.0217743,-2.54E-06
 ,2,450,36.5937,0.0193451,-2.90E-06
 ,2,473,37.7161,-0.0365753,-1.51E-05
 ,2,474,37.7649,-0.0390015,-1.59E-05
 ,2,471,37.6185,-0.0317169,-1.37E-05
 ,2,472,37.6673,-0.0341492,-1.44E-05
 ,2,477,37.9113,-0.0462952,-1.82E-05
 ,2,478,37.9601,-0.0487274,-1.90E-05
 ,2,475,37.8137,-0.0414307,-1.66E-05
 ,2,476,37.8625,-0.0438629,-1.74E-05
 ,2,470,37.5697,-0.0292847,-1.30E-05
 ,2,464,37.2769,-0.0146942,-9.26E-06
 ,2,465,37.3257,-0.0171234,-9.84E-06
 ,2,462,37.1793,-0.00982666,-8.15E-06
 ,2,463,37.2281,-0.0122589,-8.69E-06
 ,2,468,37.4721,-0.0244232,-1.17E-05
 ,2,469,37.5209,-0.0268555,-1.23E-05
 ,2,466,37.3745,-0.0195557,-1.04E-05
 ,2,467,37.4233,-0.021991,-1.10E-05
 ,2,422,35.2273,0.0875244,6.16E-06
 ,2,423,35.2761,0.0851135,5.80E-06
 ,2,420,35.1297,0.0924072,6.95E-06
 ,2,421,35.1785,0.0899658,6.56E-06
 ,2,426,35.4225,0.0778198,4.72E-06
 ,2,427,35.4713,0.0753784,4.39E-06
 ,2,424,35.3249,0.0826721,5.44E-06
 ,2,425,35.3737,0.0802307,5.08E-06
 ,2,419,35.0809,0.0948181,7.38E-06
 ,2,413,34.7881,0.109436,1.01E-05
 ,2,414,34.8369,0.106995,9.59E-06
 ,2,411,34.6905,0.114319,1.11E-05
 ,2,412,34.7393,0.111877,1.06E-05
 ,2,417,34.9833,0.0997009,8.21E-06
 ,2,418,35.0321,0.0972595,7.77E-06
 ,2,415,34.8857,0.104584,9.12E-06
 ,2,416,34.9345,0.102142,8.65E-06
 ,2,439,36.0569,0.0460846,6.44E-07
 ,2,440,36.1057,0.0436554,3.45E-07
 ,2,437,35.9593,0.0510559,1.25E-06
 ,2,438,36.0081,0.0485168,9.53E-07
 ,2,443,36.2521,0.0363556,-5.62E-07
 ,2,444,36.3009,0.0339294,-8.78E-07
 ,2,441,36.1545,0.0412201,4.15E-08
 ,2,442,36.2033,0.0387909,-2.48E-07
 ,2,436,35.9105,0.0534668,1.55E-06
 ,2,430,35.6177,0.0680847,3.41E-06
 ,2,431,35.6665,0.0656433,3.10E-06
 ,2,428,35.5201,0.072937,4.06E-06
 ,2,429,35.5689,0.0704956,3.73E-06
 ,2,434,35.8129,0.0583496,2.16E-06
 ,2,435,35.8617,0.0559082,1.86E-06
 ,2,432,35.7153,0.0632019,2.77E-06
 ,2,433,35.7641,0.060791,2.47E-06
 ,2,524,40.2049,-0.0406036,-8.12E-06
 ,2,525,40.2537,-0.0381714,-7.56E-06
 ,2,522,40.1073,-0.0454651,-9.35E-06
 ,2,523,40.1561,-0.0430328,-8.72E-06
 ,2,528,40.4001,-0.0308746,-5.94E-06
 ,2,529,40.4489,-0.0284363,-5.45E-06
 ,2,526,40.3025,-0.0357391,-6.97E-06
 ,2,527,40.3513,-0.0333038,-6.43E-06
 ,2,521,40.0585,-0.0478912,-1.00E-05
 ,2,515,39.7657,-0.0625,-1.45E-05
 ,2,516,39.8145,-0.0600586,-1.37E-05
 ,2,513,39.6681,-0.0673828,-1.63E-05
 ,2,514,39.7169,-0.0649414,-1.54E-05
 ,2,519,39.9609,-0.0527649,-1.14E-05
 ,2,520,40.0097,-0.0503235,-1.07E-05
 ,2,517,39.8633,-0.0576172,-1.29E-05
 ,2,518,39.9121,-0.0552063,-1.21E-05
 ,2,541,41.0345,0.000741577,-8.71E-07
 ,2,542,41.0833,0.00317078,-5.71E-07
 ,2,539,40.9369,-0.00412598,-1.51E-06
 ,2,540,40.9857,-0.00169373,-1.19E-06
 ,2,545,41.2297,0.0104675,2.97E-07
 ,2,546,41.2785,0.0128998,5.72E-07
 ,2,543,41.1321,0.00560913,-2.68E-07
 ,2,544,41.1809,0.00803833,1.80E-08
 ,2,538,40.8881,-0.00655823,-1.85E-06
 ,2,532,40.5953,-0.0211395,-4.11E-06
 ,2,533,40.6441,-0.0187103,-3.70E-06
 ,2,530,40.4977,-0.0260071,-4.99E-06
 ,2,531,40.5465,-0.0235718,-4.53E-06
 ,2,536,40.7905,-0.0114166,-2.56E-06
 ,2,537,40.8393,-0.00899048,-2.19E-06
 ,2,534,40.6929,-0.0162781,-3.31E-06
 ,2,535,40.7417,-0.0138519,-2.91E-06
 ,2,490,38.5457,-0.0779419,-2.92E-05
 ,2,491,38.5945,-0.0803528,-3.00E-05
 ,2,488,38.4481,-0.0730591,-2.74E-05
 ,2,489,38.4969,-0.0755005,-2.83E-05
 ,2,494,38.7409,-0.0876465,-3.26E-05
 ,2,495,38.7897,-0.0900879,-3.35E-05
 ,2,492,38.6433,-0.0827942,-3.09E-05
 ,2,493,38.6921,-0.0852356,-3.18E-05
 ,2,487,38.3993,-0.0706177,-2.66E-05
 ,2,481,38.1065,-0.0560303,-2.14E-05
 ,2,482,38.1553,-0.0584717,-2.23E-05
 ,2,479,38.0089,-0.0511475,-1.98E-05
 ,2,480,38.0577,-0.0535889,-2.06E-05
 ,2,485,38.3017,-0.0657654,-2.49E-05
 ,2,486,38.3505,-0.0682068,-2.57E-05
 ,2,483,38.2041,-0.0609131,-2.31E-05
 ,2,484,38.2529,-0.063324,-2.40E-05
 ,2,507,39.3753,-0.0819702,-2.29E-05
 ,2,508,39.4241,-0.0795288,-2.17E-05
 ,2,505,39.2777,-0.0868225,-2.56E-05
 ,2,506,39.3265,-0.0844116,-2.42E-05
 ,2,511,39.5705,-0.0722351,-1.83E-05
 ,2,512,39.6193,-0.0697937,-1.73E-05
 ,2,509,39.4729,-0.0771179,-2.05E-05
 ,2,510,39.5217,-0.0746765,-1.94E-05
 ,2,504,39.2289,-0.0892639,-2.71E-05
 ,2,498,38.9361,-0.0974121,-3.60E-05
 ,2,499,38.9849,-0.0998535,-3.69E-05
 ,2,496,38.8385,-0.0925293,-3.43E-05
 ,2,497,38.8873,-0.0949707,-3.52E-05
 ,2,502,39.1313,-0.0941467,-3.05E-05
 ,2,503,39.1801,-0.0917053,-2.87E-05
 ,2,500,39.0337,-0.0990295,-3.45E-05
 ,2,501,39.0825,-0.0965881,-3.24E-05
 ,2,410,34.6417,0.11673,1.16E-05
 ,2,319,30.2009,0.124908,1.65E-05
 ,2,320,30.2497,0.12735,1.71E-05
 ,2,317,30.1033,0.120026,1.53E-05
 ,2,318,30.1521,0.122467,1.59E-05
 ,2,323,30.3961,0.134644,1.90E-05
 ,2,324,30.4449,0.137085,1.97E-05
 ,2,321,30.2985,0.129791,1.77E-05
 ,2,322,30.3473,0.132233,1.84E-05
 ,2,316,30.0545,0.117584,1.47E-05
 ,2,310,29.7617,0.102997,1.18E-05
 ,2,311,29.8105,0.105438,1.22E-05
 ,2,308,29.6641,0.0981445,1.09E-05
 ,2,309,29.7129,0.100586,1.13E-05
 ,2,314,29.9569,0.112732,1.37E-05
 ,2,315,30.0057,0.115173,1.42E-05
 ,2,312,29.8593,0.10788,1.27E-05
 ,2,313,29.9081,0.110291,1.32E-05
 ,2,336,31.0305,0.16629,3.03E-05
 ,2,337,31.0793,0.168732,3.14E-05
 ,2,334,30.9329,0.161438,2.83E-05
 ,2,335,30.9817,0.163849,2.93E-05
 ,2,340,31.2257,0.176025,3.49E-05
 ,2,341,31.2745,0.178467,3.62E-05
 ,2,338,31.1281,0.171173,3.26E-05
 ,2,339,31.1769,0.173584,3.37E-05
 ,2,333,30.8841,0.158997,2.73E-05
 ,2,327,30.5913,0.144379,2.20E-05
 ,2,328,30.6401,0.14682,2.28E-05
 ,2,325,30.4937,0.139526,2.05E-05
 ,2,326,30.5425,0.141937,2.12E-05
 ,2,331,30.7865,0.154114,2.54E-05
 ,2,332,30.8353,0.156555,2.63E-05
 ,2,329,30.6889,0.149231,2.36E-05
 ,2,330,30.7377,0.151672,2.45E-05
 ,2,285,28.5417,0.0420837,3.72E-06
 ,2,286,28.5905,0.0445129,3.97E-06
 ,2,283,28.4441,0.0372223,3.22E-06
 ,2,284,28.4929,0.0396515,3.48E-06
 ,2,289,28.7369,0.0519104,4.72E-06
 ,2,290,28.7857,0.0543518,4.98E-06
 ,2,287,28.6393,0.0469482,4.20E-06
 ,2,288,28.6881,0.0493774,4.46E-06
 ,2,282,28.3953,0.0347931,2.97E-06
 ,2,276,28.1025,0.0202057,1.50E-06
 ,2,277,28.1513,0.0226379,1.77E-06
 ,2,274,28.0049,0.0153412,9.91E-07
 ,2,275,28.0537,0.0177734,1.26E-06
 ,2,280,28.2977,0.0299286,2.50E-06
 ,2,281,28.3465,0.0323608,2.73E-06
 ,2,278,28.2001,0.0250671,1.99E-06
 ,2,279,28.2489,0.0274963,2.24E-06
 ,2,302,29.3713,0.0835266,8.61E-06
 ,2,303,29.4201,0.085968,8.96E-06
 ,2,300,29.2737,0.0786743,7.93E-06
 ,2,301,29.3225,0.0811157,8.26E-06
 ,2,306,29.5665,0.0932922,1.01E-05
 ,2,307,29.6153,0.0957031,1.05E-05
 ,2,304,29.4689,0.0884094,9.32E-06
 ,2,305,29.5177,0.0908508,9.71E-06
 ,2,299,29.2249,0.0762329,7.60E-06
 ,2,293,28.9321,0.0616455,5.79E-06
 ,2,294,28.9809,0.0640564,6.09E-06
 ,2,291,28.8345,0.0567627,5.26E-06
 ,2,292,28.8833,0.0592041,5.52E-06
 ,2,297,29.1273,0.0713806,6.98E-06
 ,2,298,29.1761,0.0737915,7.28E-06
 ,2,295,29.0297,0.0664978,6.38E-06
 ,2,296,29.0785,0.0689392,6.66E-06
 ,2,387,33.5193,0.172699,3.03E-05
 ,2,388,33.5681,0.170288,2.91E-05
 ,2,385,33.4217,0.177582,3.26E-05
 ,2,386,33.4705,0.17514,3.14E-05
 ,2,391,33.7145,0.162994,2.59E-05
 ,2,392,33.7633,0.160553,2.49E-05
 ,2,389,33.6169,0.167847,2.80E-05
 ,2,390,33.6657,0.165405,2.70E-05
 ,2,384,33.3729,0.180023,3.39E-05
 ,2,378,33.0801,0.194611,4.23E-05
 ,2,379,33.1289,0.1922,4.08E-05
 ,2,376,32.9825,0.199493,4.55E-05
 ,2,377,33.0313,0.197052,4.39E-05
 ,2,382,33.2753,0.184875,3.65E-05
 ,2,383,33.3241,0.182465,3.52E-05
 ,2,380,33.1777,0.189758,3.93E-05
 ,2,381,33.2265,0.187317,3.79E-05
 ,2,404,34.3489,0.131348,1.52E-05
 ,2,405,34.3977,0.128906,1.46E-05
 ,2,402,34.2513,0.1362,1.66E-05
 ,2,403,34.3001,0.133789,1.59E-05
 ,2,408,34.5441,0.121613,1.28E-05
 ,2,409,34.5929,0.119171,1.22E-05
 ,2,406,34.4465,0.126465,1.40E-05
 ,2,407,34.4953,0.124054,1.33E-05
 ,2,401,34.2025,0.138641,1.73E-05
 ,2,395,33.9097,0.153259,2.21E-05
 ,2,396,33.9585,0.150818,2.13E-05
 ,2,393,33.8121,0.158112,2.40E-05
 ,2,394,33.8609,0.155701,2.30E-05
 ,2,399,34.1049,0.143524,1.88E-05
 ,2,400,34.1537,0.141083,1.81E-05
 ,2,397,34.0073,0.148376,2.04E-05
 ,2,398,34.0561,0.145935,1.96E-05
 ,2,353,31.8601,0.207672,5.43E-05
 ,2,354,31.9089,0.210083,5.61E-05
 ,2,351,31.7625,0.202789,5.08E-05
 ,2,352,31.8113,0.205231,5.26E-05
 ,2,357,32.0553,0.217377,6.19E-05
 ,2,358,32.1041,0.219818,6.39E-05
 ,2,355,31.9577,0.212524,5.80E-05
 ,2,356,32.0065,0.214935,5.99E-05
 ,2,350,31.7137,0.200348,4.92E-05
 ,2,344,31.4209,0.18576,4.01E-05
 ,2,345,31.4697,0.188171,4.15E-05
 ,2,342,31.3233,0.180878,3.75E-05
 ,2,343,31.3721,0.183319,3.88E-05
 ,2,348,31.6161,0.195496,4.60E-05
 ,2,349,31.6649,0.197906,4.76E-05
 ,2,346,31.5185,0.190613,4.30E-05
 ,2,347,31.5673,0.193054,4.45E-05
 ,2,370,32.6897,0.214081,5.64E-05
 ,2,371,32.7385,0.211639,5.44E-05
 ,2,368,32.5921,0.218964,6.06E-05
 ,2,369,32.6409,0.216522,5.84E-05
 ,2,374,32.8849,0.204346,4.89E-05
 ,2,375,32.9337,0.201935,4.72E-05
 ,2,372,32.7873,0.209229,5.25E-05
 ,2,373,32.8361,0.206787,5.06E-05
 ,2,367,32.5433,0.221405,6.28E-05
 ,2,361,32.2505,0.227112,7.03E-05
 ,2,362,32.2993,0.229553,7.25E-05
 ,2,359,32.1529,0.22226,6.60E-05
 ,2,360,32.2017,0.224701,6.81E-05
 ,2,365,32.4457,0.226257,6.75E-05
 ,2,366,32.4945,0.223816,6.51E-05
 ,2,363,32.3481,0.23114,7.27E-05
 ,2,364,32.3969,0.228699,7.00E-05
 ,3,606,44.2065,0.158966,2.74E-05
 ,3,607,44.2553,0.161407,2.84E-05
 ,3,605,44.1577,0.156525,2.64E-05
 ,3,603,44.0601,0.151672,2.46E-05
 ,3,604,44.1089,0.154114,2.55E-05
 ,3,608,44.3041,0.163849,2.94E-05
 ,3,612,44.4993,0.173584,3.38E-05
 ,3,613,44.5481,0.175995,3.50E-05
 ,3,611,44.4505,0.171143,3.27E-05
 ,3,609,44.3529,0.16626,3.05E-05
 ,3,610,44.4017,0.168701,3.16E-05
 ,3,595,43.6697,0.132202,1.85E-05
 ,3,596,43.7185,0.134644,1.92E-05
 ,3,594,43.6209,0.129761,1.78E-05
 ,3,592,43.5233,0.124908,1.66E-05
 ,3,593,43.5721,0.12735,1.72E-05
 ,3,597,43.7673,0.137085,1.99E-05
 ,3,601,43.9625,0.14682,2.30E-05
 ,3,602,44.0113,0.149231,2.38E-05
 ,3,600,43.9137,0.144379,2.21E-05
 ,3,598,43.8161,0.139526,2.06E-05
 ,3,599,43.8649,0.141937,2.14E-05
 ,3,628,45.2801,0.212494,5.79E-05
 ,3,629,45.3289,0.214935,5.98E-05
 ,3,627,45.2313,0.210083,5.60E-05
 ,3,625,45.1337,0.2052,5.25E-05
 ,3,626,45.1825,0.207642,5.43E-05
 ,3,630,45.3777,0.217377,6.18E-05
 ,3,634,45.5729,0.227112,7.01E-05
 ,3,635,45.6217,0.229553,7.23E-05
 ,3,633,45.5241,0.22467,6.79E-05
 ,3,631,45.4265,0.219818,6.37E-05
 ,3,632,45.4753,0.22226,6.58E-05
 ,3,617,44.7433,0.18573,4.02E-05
 ,3,618,44.7921,0.188171,4.16E-05
 ,3,616,44.6945,0.183319,3.88E-05
 ,3,614,44.5969,0.178436,3.63E-05
 ,3,615,44.6457,0.180878,3.76E-05
 ,3,619,44.8409,0.190613,4.30E-05
 ,3,623,45.0361,0.200348,4.92E-05
 ,3,624,45.0849,0.202789,5.08E-05
 ,3,622,44.9873,0.197906,4.76E-05
 ,3,620,44.8897,0.193054,4.45E-05
 ,3,621,44.9385,0.195465,4.60E-05
 ,3,591,43.4745,0.122467,1.60E-05
 ,3,561,42.0105,0.0493713,4.43E-06
 ,3,562,42.0593,0.0519104,4.68E-06
 ,3,560,41.9617,0.0469391,4.17E-06
 ,3,558,41.8641,0.0420776,3.66E-06
 ,3,559,41.9129,0.0445099,3.92E-06
 ,3,563,42.1081,0.0543213,4.95E-06
 ,3,567,42.3033,0.0640564,6.08E-06
 ,3,568,42.3521,0.0664978,6.37E-06
 ,3,566,42.2545,0.0616455,5.78E-06
 ,3,564,42.1569,0.0567627,5.22E-06
 ,3,565,42.2057,0.0592041,5.50E-06
 ,3,550,41.4737,0.0226257,1.62E-06
 ,3,551,41.5225,0.0250519,1.89E-06
 ,3,549,41.4249,0.0201904,1.37E-06
 ,3,547,41.3273,0.015332,8.43E-07
 ,3,548,41.3761,0.0177582,1.11E-06
 ,3,552,41.5713,0.0274872,2.13E-06
 ,3,556,41.7665,0.0372131,3.15E-06
 ,3,557,41.8153,0.0396454,3.41E-06
 ,3,555,41.7177,0.0347778,2.91E-06
 ,3,553,41.6201,0.0299164,2.39E-06
 ,3,554,41.6689,0.0323456,2.65E-06
 ,3,583,43.0841,0.102997,1.19E-05
 ,3,584,43.1329,0.105438,1.23E-05
 ,3,582,43.0353,0.100555,1.14E-05
 ,3,580,42.9377,0.0957031,1.05E-05
 ,3,581,42.9865,0.098114,1.10E-05
 ,3,585,43.1817,0.10788,1.28E-05
 ,3,589,43.3769,0.117584,1.49E-05
 ,3,590,43.4257,0.120026,1.54E-05
 ,3,588,43.3281,0.115173,1.43E-05
 ,3,586,43.2305,0.110291,1.33E-05
 ,3,587,43.2793,0.112732,1.38E-05
 ,3,572,42.5473,0.0762329,7.62E-06
 ,3,573,42.5961,0.0786743,7.96E-06
 ,3,571,42.4985,0.0737915,7.31E-06
 ,3,569,42.4009,0.0689392,6.68E-06
 ,3,570,42.4497,0.0713501,6.98E-06
 ,3,574,42.6449,0.0810852,8.31E-06
 ,3,578,42.8401,0.0908203,9.75E-06
 ,3,579,42.8889,0.0932617,1.02E-05
 ,3,577,42.7913,0.0884094,9.38E-06
 ,3,575,42.6937,0.0835266,8.64E-06
 ,3,576,42.7425,0.085968,9.00E-06
