 ,Scan,Index,Time (s),WE(1).Potential (V),WE(1).Current (A)
 ,1,1,14.7027,-0.0167328,2.20E-07
 ,1,2,14.7515,-0.0143036,3.02E-07
 ,1,3,14.8003,-0.0118774,4.12E-07
 ,1,4,14.8491,-0.00945435,5.00E-07
 ,1,5,14.8979,-0.0070282,6.10E-07
 ,1,6,14.9467,-0.00460815,8.77E-07
 ,1,7,14.9955,-0.00218201,9.79E-07
 ,1,8,15.0443,0.000244141,1.07E-06
 ,1,9,15.0931,0.00267639,1.16E-06
 ,1,10,15.1419,0.00510559,1.26E-06
 ,1,11,15.1907,0.00753174,1.35E-06
 ,1,12,15.2395,0.00995789,1.45E-06
 ,1,13,15.2883,0.012381,1.53E-06
 ,1,14,15.3371,0.0148102,1.63E-06
 ,1,15,15.3859,0.0172394,1.74E-06
 ,1,16,15.4347,0.0196625,1.84E-06
 ,1,17,15.4835,0.0220886,1.94E-06
 ,1,18,15.5323,0.0245178,2.06E-06
 ,1,19,15.5811,0.026944,2.16E-06
 ,1,20,15.6299,0.0293701,2.28E-06
 ,1,21,15.6787,0.0317993,2.39E-06
 ,1,22,15.7275,0.0342255,2.53E-06
 ,1,23,15.7763,0.0366516,2.65E-06
 ,1,24,15.8251,0.0390839,2.75E-06
 ,1,25,15.8739,0.0415131,2.90E-06
 ,1,26,15.9227,0.0439362,3.02E-06
 ,1,27,15.9715,0.0463654,3.15E-06
 ,1,28,16.0203,0.0487915,3.28E-06
 ,1,29,16.0691,0.0512695,3.45E-06
 ,1,30,16.1179,0.0537109,3.59E-06
 ,1,31,16.1667,0.0561218,3.74E-06
 ,1,32,16.2155,0.0585632,3.92E-06
 ,1,33,16.2643,0.0609741,4.09E-06
 ,1,34,16.3131,0.0634155,4.26E-06
 ,1,35,16.3619,0.0658264,4.44E-06
 ,1,36,16.4107,0.0682678,4.63E-06
 ,1,37,16.4595,0.0707092,4.83E-06
 ,1,38,16.5083,0.0731201,5.02E-06
 ,1,39,16.5571,0.0755615,5.24E-06
 ,1,40,16.6059,0.0780029,5.45E-06
 ,1,41,16.6547,0.0804138,5.66E-06
 ,1,42,16.7035,0.0828552,5.90E-06
 ,1,43,16.7523,0.0852661,6.14E-06
 ,1,44,16.8011,0.0877075,6.39E-06
 ,1,45,16.8499,0.0901184,6.65E-06
 ,1,46,16.8987,0.0925598,6.92E-06
 ,1,47,16.9475,0.0949707,7.19E-06
 ,1,48,16.9963,0.0974121,7.50E-06
 ,1,49,17.0451,0.0998535,7.80E-06
 ,1,50,17.0939,0.102264,8.11E-06
 ,1,51,17.1427,0.104706,8.44E-06
 ,1,52,17.1915,0.107117,8.76E-06
 ,1,53,17.2403,0.109558,9.12E-06
 ,1,54,17.2891,0.112,9.49E-06
 ,1,55,17.3379,0.11441,9.84E-06
 ,1,56,17.3867,0.116852,1.02E-05
 ,1,57,17.4355,0.119263,1.06E-05
 ,1,58,17.4843,0.121704,1.11E-05
 ,1,59,17.5331,0.124115,1.15E-05
 ,1,60,17.5819,0.126556,1.20E-05
 ,1,61,17.6307,0.128998,1.24E-05
 ,1,62,17.6795,0.131409,1.29E-05
 ,1,63,17.7283,0.13385,1.34E-05
 ,1,64,17.7771,0.136261,1.39E-05
 ,1,65,17.8259,0.138702,1.45E-05
 ,1,66,17.8747,0.141113,1.50E-05
 ,1,67,17.9235,0.143555,1.56E-05
 ,1,68,17.9723,0.145996,1.62E-05
 ,1,69,18.0211,0.148407,1.68E-05
 ,1,70,18.0699,0.150848,1.74E-05
 ,1,71,18.1187,0.153259,1.81E-05
 ,1,72,18.1675,0.155701,1.88E-05
 ,1,73,18.2163,0.158112,1.95E-05
 ,1,74,18.2651,0.160553,2.02E-05
 ,1,75,18.3139,0.162994,2.10E-05
 ,1,76,18.3627,0.165405,2.18E-05
 ,1,77,18.4115,0.167847,2.26E-05
 ,1,78,18.4603,0.170258,2.34E-05
 ,1,79,18.5091,0.172699,2.43E-05
 ,1,80,18.5579,0.17511,2.52E-05
 ,1,81,18.6067,0.177551,2.61E-05
 ,1,82,18.6555,0.179962,2.71E-05
 ,1,83,18.7043,0.182404,2.81E-05
 ,1,84,18.7531,0.184845,2.91E-05
 ,1,85,18.8019,0.187286,3.01E-05
 ,1,86,18.8507,0.189697,3.12E-05
 ,1,87,18.8995,0.192139,3.24E-05
 ,1,88,18.9483,0.19455,3.35E-05
 ,1,89,18.9971,0.19696,3.47E-05
 ,1,90,19.0459,0.199402,3.60E-05
 ,1,91,19.0947,0.201843,3.73E-05
 ,1,92,19.1435,0.204254,3.86E-05
 ,1,93,19.1923,0.206696,4.00E-05
 ,1,94,19.2411,0.209137,4.13E-05
 ,1,95,19.2899,0.211548,4.28E-05
 ,1,96,19.3387,0.213989,4.43E-05
 ,1,97,19.3875,0.2164,4.58E-05
 ,1,98,19.4363,0.218842,4.74E-05
 ,1,99,19.4851,0.221252,4.91E-05
 ,1,100,19.5339,0.223694,5.07E-05
 ,1,101,19.5827,0.226135,5.25E-05
 ,1,102,19.6315,0.228546,5.43E-05
 ,1,103,19.6803,0.230865,5.49E-05
 ,1,104,19.7291,0.228455,5.29E-05
 ,1,105,19.7779,0.226044,5.09E-05
 ,1,106,19.8267,0.223602,4.90E-05
 ,1,107,19.8755,0.221161,4.72E-05
 ,1,108,19.9243,0.21875,4.55E-05
 ,1,109,19.9731,0.216309,4.39E-05
 ,1,110,20.0219,0.213898,4.23E-05
 ,1,111,20.0707,0.211456,4.08E-05
 ,1,112,20.1195,0.209045,3.93E-05
 ,1,113,20.1683,0.206604,3.79E-05
 ,1,114,20.2171,0.204163,3.65E-05
 ,1,115,20.2659,0.201752,3.52E-05
 ,1,116,20.3147,0.19931,3.39E-05
 ,1,117,20.3635,0.196869,3.27E-05
 ,1,118,20.4123,0.194458,3.15E-05
 ,1,119,20.4611,0.192017,3.04E-05
 ,1,120,20.5099,0.189606,2.93E-05
 ,1,121,20.5587,0.187195,2.82E-05
 ,1,122,20.6075,0.184753,2.72E-05
 ,1,123,20.6563,0.182312,2.62E-05
 ,1,124,20.7051,0.179901,2.52E-05
 ,1,125,20.7539,0.17746,2.43E-05
 ,1,126,20.8027,0.175049,2.34E-05
 ,1,127,20.8515,0.172607,2.25E-05
 ,1,128,20.9003,0.170197,2.17E-05
 ,1,129,20.9491,0.167755,2.09E-05
 ,1,130,20.9979,0.165314,2.01E-05
 ,1,131,21.0467,0.162903,1.93E-05
 ,1,132,21.0955,0.160461,1.86E-05
 ,1,133,21.1443,0.15802,1.79E-05
 ,1,134,21.1931,0.155609,1.72E-05
 ,1,135,21.2419,0.153168,1.65E-05
 ,1,136,21.2907,0.150757,1.59E-05
 ,1,137,21.3395,0.148315,1.53E-05
 ,1,138,21.3883,0.145905,1.47E-05
 ,1,139,21.4371,0.143463,1.41E-05
 ,1,140,21.4859,0.141022,1.35E-05
 ,1,141,21.5347,0.138611,1.30E-05
 ,1,142,21.5835,0.136169,1.24E-05
 ,1,143,21.6323,0.133728,1.19E-05
 ,1,144,21.6811,0.131317,1.14E-05
 ,1,145,21.7299,0.128876,1.09E-05
 ,1,146,21.7787,0.126465,1.05E-05
 ,1,147,21.8275,0.124023,1.01E-05
 ,1,148,21.8763,0.121582,9.63E-06
 ,1,149,21.9251,0.119171,9.21E-06
 ,1,150,21.9739,0.11673,8.80E-06
 ,1,151,22.0227,0.114319,8.42E-06
 ,1,152,22.0715,0.111877,8.05E-06
 ,1,153,22.1203,0.109436,7.68E-06
 ,1,154,22.1691,0.107025,7.32E-06
 ,1,155,22.2179,0.104584,6.98E-06
 ,1,156,22.2667,0.102142,6.66E-06
 ,1,157,22.3155,0.0997314,6.35E-06
 ,1,158,22.3643,0.09729,6.05E-06
 ,1,159,22.4131,0.0948792,5.75E-06
 ,1,160,22.4619,0.0924377,5.47E-06
 ,1,161,22.5107,0.0900269,5.19E-06
 ,1,162,22.5595,0.0875854,4.92E-06
 ,1,163,22.6083,0.0851746,4.67E-06
 ,1,164,22.6571,0.0827332,4.42E-06
 ,1,165,22.7059,0.0802917,4.18E-06
 ,1,166,22.7547,0.0778809,3.95E-06
 ,1,167,22.8035,0.0754395,3.73E-06
 ,1,168,22.8523,0.0730286,3.52E-06
 ,1,169,22.9011,0.0705872,3.31E-06
 ,1,170,22.9499,0.0681458,3.09E-06
 ,1,171,22.9987,0.0657349,2.90E-06
 ,1,172,23.0475,0.0632935,2.70E-06
 ,1,173,23.0963,0.0608826,2.53E-06
 ,1,174,23.1451,0.0584412,2.34E-06
 ,1,175,23.1939,0.0559998,2.17E-06
 ,1,176,23.2427,0.0535889,2.00E-06
 ,1,177,23.2915,0.051178,1.82E-06
 ,1,178,23.3403,0.0486847,1.67E-06
 ,1,179,23.3891,0.0462585,1.51E-06
 ,1,180,23.4379,0.0438263,1.35E-06
 ,1,181,23.4867,0.0414063,1.19E-06
 ,1,182,23.5355,0.0389771,1.04E-06
 ,1,183,23.5843,0.0365479,8.90E-07
 ,1,184,23.6331,0.0341187,7.43E-07
 ,1,185,23.6819,0.0316895,6.03E-07
 ,1,186,23.7307,0.0292633,4.55E-07
 ,1,187,23.7795,0.0268372,3.18E-07
 ,1,188,23.8283,0.0244141,1.77E-07
 ,1,189,23.8771,0.0219879,3.05E-08
 ,1,190,23.9259,0.0195618,-1.14E-07
 ,1,191,23.9747,0.0171387,-2.47E-07
 ,1,192,24.0235,0.0147156,-3.89E-07
 ,1,193,24.0723,0.0122833,-5.16E-07
 ,1,194,24.1211,0.00985718,-6.74E-07
 ,1,195,24.1699,0.00743408,-8.14E-07
 ,1,196,24.2187,0.00500793,-9.54E-07
 ,1,197,24.2675,0.00257874,-1.10E-06
 ,1,198,24.3163,0.000149536,-1.24E-06
 ,1,199,24.3651,-0.00227966,-1.38E-06
 ,1,200,24.4139,-0.00470886,-1.55E-06
 ,1,201,24.4627,-0.00713196,-1.70E-06
 ,1,202,24.5115,-0.00956116,-1.84E-06
 ,1,203,24.5603,-0.0119873,-2.01E-06
 ,1,204,24.6091,-0.0144135,-2.15E-06
 ,1,205,24.6579,-0.0168365,-2.33E-06
 ,1,206,24.7067,-0.0192627,-2.50E-06
 ,1,207,24.7555,-0.0216888,-2.66E-06
 ,1,208,24.8043,-0.024115,-2.83E-06
 ,1,209,24.8531,-0.0265381,-3.01E-06
 ,1,210,24.9019,-0.0289673,-3.19E-06
 ,1,211,24.9507,-0.0313934,-3.37E-06
 ,1,212,24.9995,-0.0338226,-3.55E-06
 ,1,213,25.0483,-0.0362488,-3.74E-06
 ,1,214,25.0971,-0.038678,-3.94E-06
 ,1,215,25.1459,-0.0411072,-4.14E-06
 ,1,216,25.1947,-0.0435333,-4.34E-06
 ,1,217,25.2435,-0.0459595,-4.55E-06
 ,1,218,25.2923,-0.0483856,-4.77E-06
 ,1,219,25.3411,-0.0508423,-4.97E-06
 ,1,220,25.3899,-0.0532837,-5.20E-06
 ,1,221,25.4387,-0.0556946,-5.43E-06
 ,1,222,25.4875,-0.0581055,-5.66E-06
 ,1,223,25.5363,-0.0605469,-5.89E-06
 ,1,224,25.5851,-0.0629883,-6.12E-06
 ,1,225,25.6339,-0.0653992,-6.37E-06
 ,1,226,25.6827,-0.0678406,-6.60E-06
 ,1,227,25.7315,-0.070282,-6.85E-06
 ,1,228,25.7803,-0.0726929,-7.11E-06
 ,1,229,25.8291,-0.0751343,-7.36E-06
 ,1,230,25.8779,-0.0775757,-7.62E-06
 ,1,231,25.9267,-0.0799866,-7.88E-06
 ,1,232,25.9755,-0.082428,-8.13E-06
 ,1,233,26.0243,-0.0848389,-8.40E-06
 ,1,234,26.0731,-0.0872498,-8.68E-06
 ,1,235,26.1219,-0.0896912,-8.94E-06
 ,1,236,26.1707,-0.0921326,-9.21E-06
 ,1,237,26.2195,-0.0945435,-9.49E-06
 ,1,238,26.2683,-0.0969849,-9.76E-06
 ,1,239,26.3171,-0.0994263,-1.00E-05
 ,1,240,26.3659,-0.101166,-9.53E-06
 ,1,241,26.4147,-0.0987244,-8.92E-06
 ,1,242,26.4635,-0.096283,-8.40E-06
 ,1,243,26.5123,-0.0938721,-7.89E-06
 ,1,244,26.5611,-0.0914307,-7.44E-06
 ,1,245,26.6099,-0.0889893,-7.01E-06
 ,1,246,26.6587,-0.0865784,-6.61E-06
 ,1,247,26.7075,-0.084137,-6.21E-06
 ,1,248,26.7563,-0.0817261,-5.84E-06
 ,1,249,26.8051,-0.0792847,-5.50E-06
 ,1,250,26.8539,-0.0768433,-5.18E-06
 ,1,251,26.9027,-0.0744324,-4.86E-06
 ,1,252,26.9515,-0.071991,-4.56E-06
 ,1,253,27.0003,-0.0695801,-4.27E-06
 ,1,254,27.0491,-0.0671387,-3.99E-06
 ,1,255,27.0979,-0.0647278,-3.74E-06
 ,1,256,27.1467,-0.0622864,-3.49E-06
 ,1,257,27.1955,-0.0598755,-3.26E-06
 ,1,258,27.2443,-0.0574341,-3.02E-06
 ,1,259,27.2931,-0.0549927,-2.81E-06
 ,1,260,27.3419,-0.0525818,-2.59E-06
 ,1,261,27.3907,-0.0501404,-2.40E-06
 ,1,262,27.4395,-0.0476807,-2.20E-06
 ,1,263,27.4883,-0.0452545,-2.00E-06
 ,1,264,27.5371,-0.0428253,-1.82E-06
 ,1,265,27.5859,-0.0403961,-1.66E-06
 ,1,266,27.6347,-0.037973,-1.47E-06
 ,1,267,27.6835,-0.0355469,-1.31E-06
 ,1,268,27.7323,-0.0331207,-1.15E-06
 ,1,269,27.7811,-0.0306946,-9.96E-07
 ,1,270,27.8299,-0.0282654,-8.51E-07
 ,1,271,27.8787,-0.0258362,-6.97E-07
 ,1,272,27.9275,-0.02341,-5.62E-07
 ,1,273,27.9763,-0.0209839,-4.43E-07
 ,1,274,28.0251,-0.0185547,-2.89E-07
 ,2,275,28.0739,-0.0161285,-1.77E-07
 ,2,276,28.1227,-0.0136993,-2.47E-08
 ,2,277,28.1715,-0.0112732,9.00E-08
 ,2,278,28.2203,-0.00884705,2.01E-07
 ,2,279,28.2691,-0.00641479,3.18E-07
 ,2,280,28.3179,-0.00398865,4.43E-07
 ,2,281,28.3667,-0.00156555,5.60E-07
 ,2,282,28.4155,0.000863647,6.93E-07
 ,2,283,28.4643,0.00328979,7.97E-07
 ,2,284,28.5131,0.00571289,9.10E-07
 ,2,285,28.5619,0.00814209,1.03E-06
 ,2,286,28.6107,0.0105682,1.13E-06
 ,2,287,28.6595,0.0129974,1.25E-06
 ,2,288,28.7083,0.0154266,1.37E-06
 ,2,289,28.7571,0.0178528,1.48E-06
 ,2,290,28.8059,0.020282,1.60E-06
 ,2,291,28.8547,0.0227081,1.71E-06
 ,2,292,28.9035,0.0251282,1.85E-06
 ,2,293,28.9523,0.0275574,1.96E-06
 ,2,294,29.0011,0.0299835,2.09E-06
 ,2,295,29.0499,0.0324097,2.21E-06
 ,2,296,29.0987,0.0348358,2.33E-06
 ,2,297,29.1475,0.0372589,2.46E-06
 ,2,298,29.1963,0.0396881,2.60E-06
 ,2,299,29.2451,0.0421143,2.73E-06
 ,2,300,29.2939,0.0445435,2.87E-06
 ,2,301,29.3427,0.0469727,3.01E-06
 ,2,302,29.3915,0.0493988,3.17E-06
 ,2,303,29.4403,0.0518799,3.31E-06
 ,2,304,29.4891,0.0543213,3.47E-06
 ,2,305,29.5379,0.0567322,3.62E-06
 ,2,306,29.5867,0.0591736,3.80E-06
 ,2,307,29.6355,0.061615,3.97E-06
 ,2,308,29.6843,0.0640259,4.15E-06
 ,2,309,29.7331,0.0664673,4.32E-06
 ,2,310,29.7819,0.0688782,4.51E-06
 ,2,311,29.8307,0.0712891,4.71E-06
 ,2,312,29.8795,0.0737305,4.91E-06
 ,2,313,29.9283,0.0761719,5.12E-06
 ,2,314,29.9771,0.0785828,5.34E-06
 ,2,315,30.0259,0.0810242,5.58E-06
 ,2,316,30.0747,0.0834656,5.80E-06
 ,2,317,30.1235,0.0858765,6.04E-06
 ,2,318,30.1723,0.0883179,6.29E-06
 ,2,319,30.2211,0.0907288,6.55E-06
 ,2,320,30.2699,0.0931702,6.83E-06
 ,2,321,30.3187,0.0955811,7.08E-06
 ,2,322,30.3675,0.0980225,7.37E-06
 ,2,323,30.4163,0.100464,7.69E-06
 ,2,324,30.4651,0.102875,7.99E-06
 ,2,325,30.5139,0.105316,8.32E-06
 ,2,326,30.5627,0.107727,8.65E-06
 ,2,327,30.6115,0.110168,9.01E-06
 ,2,328,30.6603,0.11261,9.37E-06
 ,2,329,30.7091,0.115021,9.75E-06
 ,2,330,30.7579,0.117462,1.01E-05
 ,2,331,30.8067,0.119873,1.05E-05
 ,2,332,30.8555,0.122314,1.09E-05
 ,2,333,30.9043,0.124756,1.14E-05
 ,2,334,30.9531,0.127167,1.18E-05
 ,2,335,31.0019,0.129608,1.23E-05
 ,2,336,31.0507,0.13205,1.28E-05
 ,2,337,31.0995,0.13446,1.33E-05
 ,2,338,31.1483,0.136871,1.38E-05
 ,2,339,31.1971,0.139313,1.43E-05
 ,2,340,31.2459,0.141724,1.49E-05
 ,2,341,31.2947,0.144165,1.55E-05
 ,2,342,31.3435,0.146606,1.61E-05
 ,2,343,31.3923,0.149017,1.67E-05
 ,2,344,31.4411,0.151459,1.73E-05
 ,2,345,31.4899,0.15387,1.80E-05
 ,2,346,31.5387,0.156311,1.86E-05
 ,2,347,31.5875,0.158752,1.94E-05
 ,2,348,31.6363,0.161163,2.01E-05
 ,2,349,31.6851,0.163605,2.08E-05
 ,2,350,31.7339,0.166016,2.16E-05
 ,2,351,31.7827,0.168457,2.24E-05
 ,2,352,31.8315,0.170898,2.32E-05
 ,2,353,31.8803,0.173309,2.41E-05
 ,2,354,31.9291,0.175751,2.50E-05
 ,2,355,31.9779,0.178162,2.59E-05
 ,2,356,32.0267,0.180603,2.69E-05
 ,2,357,32.0755,0.183014,2.79E-05
 ,2,358,32.1243,0.185455,2.89E-05
 ,2,359,32.1731,0.187866,2.99E-05
 ,2,360,32.2219,0.190308,3.10E-05
 ,2,361,32.2707,0.192749,3.21E-05
 ,2,362,32.3195,0.19516,3.33E-05
 ,2,363,32.3683,0.197601,3.45E-05
 ,2,364,32.4171,0.200012,3.57E-05
 ,2,365,32.4659,0.202454,3.70E-05
 ,2,366,32.5147,0.204865,3.83E-05
 ,2,367,32.5635,0.207306,3.96E-05
 ,2,368,32.6123,0.209747,4.10E-05
 ,2,369,32.6611,0.212158,4.25E-05
 ,2,370,32.7099,0.2146,4.40E-05
 ,2,371,32.7587,0.21701,4.55E-05
 ,2,372,32.8075,0.219452,4.71E-05
 ,2,373,32.8563,0.221863,4.87E-05
 ,2,374,32.9051,0.224304,5.04E-05
 ,2,375,32.9539,0.226746,5.21E-05
 ,2,376,33.0027,0.229156,5.39E-05
 ,2,377,33.0515,0.230255,5.35E-05
 ,2,378,33.1003,0.227844,5.15E-05
 ,2,379,33.1491,0.225403,4.96E-05
 ,2,380,33.1979,0.222992,4.78E-05
 ,2,381,33.2467,0.220551,4.61E-05
 ,2,382,33.2955,0.218109,4.44E-05
 ,2,383,33.3443,0.215698,4.28E-05
 ,2,384,33.3931,0.213257,4.13E-05
 ,2,385,33.4419,0.210846,3.98E-05
 ,2,386,33.4907,0.208405,3.84E-05
 ,2,387,33.5395,0.205963,3.70E-05
 ,2,388,33.5883,0.203552,3.57E-05
 ,2,389,33.6371,0.201111,3.44E-05
 ,2,390,33.6859,0.198669,3.32E-05
 ,2,391,33.7347,0.196259,3.20E-05
 ,2,392,33.7835,0.193817,3.08E-05
 ,2,393,33.8323,0.191406,2.97E-05
 ,2,394,33.8811,0.188965,2.86E-05
 ,2,395,33.9299,0.186554,2.76E-05
 ,2,396,33.9787,0.184113,2.66E-05
 ,2,397,34.0275,0.181671,2.56E-05
 ,2,398,34.0763,0.17926,2.46E-05
 ,2,399,34.1251,0.176819,2.37E-05
 ,2,400,34.1739,0.174408,2.29E-05
 ,2,401,34.2227,0.171967,2.20E-05
 ,2,402,34.2715,0.169556,2.12E-05
 ,2,403,34.3203,0.167114,2.04E-05
 ,2,404,34.3691,0.164673,1.96E-05
 ,2,405,34.4179,0.162262,1.89E-05
 ,2,406,34.4667,0.159821,1.82E-05
 ,2,407,34.5155,0.15741,1.75E-05
 ,2,408,34.5643,0.154968,1.68E-05
 ,2,409,34.6131,0.152557,1.61E-05
 ,2,410,34.6619,0.150116,1.55E-05
 ,2,411,34.7107,0.147675,1.49E-05
 ,2,412,34.7595,0.145264,1.43E-05
 ,2,413,34.8083,0.142822,1.37E-05
 ,2,414,34.8571,0.140411,1.32E-05
 ,2,415,34.9059,0.13797,1.26E-05
 ,2,416,34.9547,0.135529,1.21E-05
 ,2,417,35.0035,0.133118,1.16E-05
 ,2,418,35.0523,0.130707,1.11E-05
 ,2,419,35.1011,0.128265,1.07E-05
 ,2,420,35.1499,0.125824,1.02E-05
 ,2,421,35.1987,0.123383,9.79E-06
 ,2,422,35.2475,0.120972,9.38E-06
 ,2,423,35.2963,0.11853,8.97E-06
 ,2,424,35.3451,0.116119,8.58E-06
 ,2,425,35.3939,0.113678,8.19E-06
 ,2,426,35.4427,0.111237,7.82E-06
 ,2,427,35.4915,0.108826,7.47E-06
 ,2,428,35.5403,0.106384,7.12E-06
 ,2,429,35.5891,0.103943,6.80E-06
 ,2,430,35.6379,0.101532,6.46E-06
 ,2,431,35.6867,0.0991211,6.14E-06
 ,2,432,35.7355,0.0966797,5.85E-06
 ,2,433,35.7843,0.0942383,5.57E-06
 ,2,434,35.8331,0.0918274,5.29E-06
 ,2,435,35.8819,0.089386,5.01E-06
 ,2,436,35.9307,0.0869446,4.76E-06
 ,2,437,35.9795,0.0845337,4.50E-06
 ,2,438,36.0283,0.0820923,4.25E-06
 ,2,439,36.0771,0.0796814,4.02E-06
 ,2,440,36.1259,0.07724,3.80E-06
 ,2,441,36.1747,0.0748291,3.57E-06
 ,2,442,36.2235,0.0723877,3.36E-06
 ,2,443,36.2723,0.0699768,3.14E-06
 ,2,444,36.3211,0.0675354,2.94E-06
 ,2,445,36.3699,0.065094,2.74E-06
 ,2,446,36.4187,0.0626831,2.55E-06
 ,2,447,36.4675,0.0602417,2.37E-06
 ,2,448,36.5163,0.0578308,2.17E-06
 ,2,449,36.5651,0.0553894,2.01E-06
 ,2,450,36.6139,0.0529785,1.82E-06
 ,2,451,36.6627,0.0505371,1.66E-06
 ,2,452,36.7115,0.048053,1.50E-06
 ,2,453,36.7603,0.0456268,1.33E-06
 ,2,454,36.8091,0.0432007,1.17E-06
 ,2,455,36.8579,0.0407745,1.02E-06
 ,2,456,36.9067,0.0383484,8.52E-07
 ,2,457,36.9555,0.0359222,7.02E-07
 ,2,458,37.0043,0.0334961,5.47E-07
 ,2,459,37.0531,0.031073,3.93E-07
 ,2,460,37.1019,0.0286469,2.49E-07
 ,2,461,37.1507,0.0262177,9.03E-08
 ,2,462,37.1995,0.0237915,-5.34E-08
 ,2,463,37.2483,0.0213654,-2.23E-07
 ,2,464,37.2971,0.0189392,-3.57E-07
 ,2,465,37.3459,0.016507,-5.18E-07
 ,2,466,37.3947,0.0140839,-6.65E-07
 ,2,467,37.4435,0.0116547,-8.20E-07
 ,2,468,37.4923,0.00922852,-9.74E-07
 ,2,469,37.5411,0.00679932,-1.12E-06
 ,2,470,37.5899,0.00437927,-1.28E-06
 ,2,471,37.6387,0.00195007,-1.45E-06
 ,2,472,37.6875,-0.000473022,-1.60E-06
 ,2,473,37.7363,-0.00289917,-1.78E-06
 ,2,474,37.7851,-0.00532532,-1.94E-06
 ,2,475,37.8339,-0.00775757,-2.12E-06
 ,2,476,37.8827,-0.0101807,-2.30E-06
 ,2,477,37.9315,-0.0126068,-2.49E-06
 ,2,478,37.9803,-0.015036,-2.66E-06
 ,2,479,38.0291,-0.0174622,-2.85E-06
 ,2,480,38.0779,-0.0198883,-3.03E-06
 ,2,481,38.1267,-0.0223145,-3.23E-06
 ,2,482,38.1755,-0.0247375,-3.44E-06
 ,2,483,38.2243,-0.0271606,-3.64E-06
 ,2,484,38.2731,-0.0295898,-3.85E-06
 ,2,485,38.3219,-0.032019,-4.06E-06
 ,2,486,38.3707,-0.0344391,-4.26E-06
 ,2,487,38.4195,-0.0368622,-4.51E-06
 ,2,488,38.4683,-0.0392944,-4.74E-06
 ,2,489,38.5171,-0.0417206,-4.98E-06
 ,2,490,38.5659,-0.0441498,-5.24E-06
 ,2,491,38.6147,-0.0465729,-5.48E-06
 ,2,492,38.6635,-0.048999,-5.75E-06
 ,2,493,38.7123,-0.0514832,-6.01E-06
 ,2,494,38.7611,-0.053894,-6.26E-06
 ,2,495,38.8099,-0.0563049,-6.54E-06
 ,2,496,38.8587,-0.0587463,-6.81E-06
 ,2,497,38.9075,-0.0611877,-7.09E-06
 ,2,498,38.9563,-0.0635986,-7.36E-06
 ,2,499,39.0051,-0.06604,-7.67E-06
 ,2,500,39.0539,-0.0684814,-7.97E-06
 ,2,501,39.1027,-0.0708923,-8.28E-06
 ,2,502,39.1515,-0.0733032,-8.58E-06
 ,2,503,39.2003,-0.0757446,-8.90E-06
 ,2,504,39.2491,-0.078186,-9.21E-06
 ,2,505,39.2979,-0.0805969,-9.54E-06
 ,2,506,39.3467,-0.0830383,-9.86E-06
 ,2,507,39.3955,-0.0854797,-1.02E-05
 ,2,508,39.4443,-0.0878906,-1.05E-05
 ,2,509,39.4931,-0.090332,-1.09E-05
 ,2,510,39.5419,-0.0927429,-1.12E-05
 ,2,511,39.5907,-0.0951843,-1.16E-05
 ,2,512,39.6395,-0.0975952,-1.19E-05
 ,2,513,39.6883,-0.100037,-1.23E-05
 ,2,514,39.7371,-0.100525,-1.15E-05
 ,2,515,39.7859,-0.0980835,-1.08E-05
 ,2,516,39.8347,-0.0956421,-1.02E-05
 ,2,517,39.8835,-0.0932312,-9.60E-06
 ,2,518,39.9323,-0.0907898,-9.05E-06
 ,2,519,39.9811,-0.0883484,-8.56E-06
 ,2,520,40.0299,-0.0859375,-8.07E-06
 ,2,521,40.0787,-0.0834961,-7.62E-06
 ,2,522,40.1275,-0.0810852,-7.19E-06
 ,2,523,40.1763,-0.0786438,-6.78E-06
 ,2,524,40.2251,-0.0762329,-6.40E-06
 ,2,525,40.2739,-0.0737915,-6.03E-06
 ,2,526,40.3227,-0.0713501,-5.68E-06
 ,2,527,40.3715,-0.0689392,-5.33E-06
 ,2,528,40.4203,-0.0664978,-5.01E-06
 ,2,529,40.4691,-0.0640564,-4.71E-06
 ,2,530,40.5179,-0.0616455,-4.40E-06
 ,2,531,40.5667,-0.0592041,-4.13E-06
 ,2,532,40.6155,-0.0567932,-3.86E-06
 ,2,533,40.6643,-0.0543518,-3.61E-06
 ,2,534,40.7131,-0.0519104,-3.34E-06
 ,2,535,40.7619,-0.0494659,-3.10E-06
 ,2,536,40.8107,-0.0470398,-2.87E-06
 ,2,537,40.8595,-0.0446167,-2.65E-06
 ,2,538,40.9083,-0.0421875,-2.43E-06
 ,2,539,40.9571,-0.0397583,-2.24E-06
 ,2,540,41.0059,-0.0373322,-2.02E-06
 ,2,541,41.0547,-0.034903,-1.83E-06
 ,2,542,41.1035,-0.0324768,-1.65E-06
 ,2,543,41.1523,-0.0300446,-1.47E-06
 ,2,544,41.2011,-0.0276215,-1.29E-06
 ,2,545,41.2499,-0.0251923,-1.13E-06
 ,2,546,41.2987,-0.0227661,-9.61E-07
 ,2,547,41.3475,-0.0203369,-8.08E-07
 ,3,548,41.3963,-0.0179169,-6.47E-07
 ,3,549,41.4451,-0.0154877,-4.95E-07
 ,3,550,41.4939,-0.0130615,-3.59E-07
 ,3,551,41.5427,-0.0106354,-2.07E-07
 ,3,552,41.5915,-0.00820618,-7.81E-08
 ,3,553,41.6403,-0.00577698,7.26E-08
 ,3,554,41.6891,-0.00335083,2.08E-07
 ,3,555,41.7379,-0.000927734,3.34E-07
 ,3,556,41.7867,0.00150452,4.67E-07
 ,3,557,41.8355,0.00393066,6.02E-07
 ,3,558,41.8843,0.00635681,7.22E-07
 ,3,559,41.9331,0.00878296,8.60E-07
 ,3,560,41.9819,0.0112152,9.74E-07
 ,3,561,42.0307,0.0136414,1.10E-06
 ,3,562,42.0795,0.0160706,1.24E-06
 ,3,563,42.1283,0.0184937,1.35E-06
 ,3,564,42.1771,0.0209198,1.49E-06
 ,3,565,42.2259,0.0233459,1.61E-06
 ,3,566,42.2747,0.0257721,1.73E-06
 ,3,567,42.3235,0.0281982,1.86E-06
 ,3,568,42.3723,0.0306244,1.99E-06
 ,3,569,42.4211,0.0330505,2.12E-06
 ,3,570,42.4699,0.0354767,2.27E-06
 ,3,571,42.5187,0.0379089,2.39E-06
 ,3,572,42.5675,0.0403381,2.53E-06
 ,3,573,42.6163,0.0427643,2.67E-06
 ,3,574,42.6651,0.0451904,2.82E-06
 ,3,575,42.7139,0.0476196,2.96E-06
 ,3,576,42.7627,0.0500793,3.13E-06
 ,3,577,42.8115,0.0525208,3.27E-06
 ,3,578,42.8603,0.0549622,3.44E-06
 ,3,579,42.9091,0.057373,3.60E-06
 ,3,580,42.9579,0.0598145,3.77E-06
 ,3,581,43.0067,0.0622559,3.95E-06
 ,3,582,43.0555,0.0646667,4.13E-06
 ,3,583,43.1043,0.0671082,4.30E-06
 ,3,584,43.1531,0.069519,4.50E-06
 ,3,585,43.2019,0.0719604,4.69E-06
 ,3,586,43.2507,0.0743713,4.91E-06
 ,3,587,43.2995,0.0768127,5.13E-06
 ,3,588,43.3483,0.0792236,5.34E-06
 ,3,589,43.3971,0.081665,5.56E-06
 ,3,590,43.4459,0.0841064,5.81E-06
 ,3,591,43.4947,0.0865173,6.05E-06
 ,3,592,43.5435,0.0889587,6.30E-06
 ,3,593,43.5923,0.0913696,6.57E-06
 ,3,594,43.6411,0.093811,6.83E-06
 ,3,595,43.6899,0.0962219,7.12E-06
 ,3,596,43.7387,0.0986633,7.42E-06
 ,3,597,43.7875,0.101105,7.71E-06
 ,3,598,43.8363,0.103516,8.04E-06
 ,3,599,43.8851,0.105957,8.36E-06
 ,3,600,43.9339,0.108398,8.69E-06
 ,3,601,43.9827,0.110809,9.04E-06
 ,3,602,44.0315,0.113251,9.39E-06
 ,3,603,44.0803,0.115662,9.77E-06
 ,3,604,44.1291,0.118103,1.02E-05
 ,3,605,44.1779,0.120514,1.06E-05
 ,3,606,44.2267,0.122955,1.10E-05
 ,3,607,44.2755,0.125397,1.14E-05
 ,3,608,44.3243,0.127808,1.19E-05
 ,3,609,44.3731,0.130249,1.23E-05
 ,3,610,44.4219,0.13266,1.28E-05
 ,3,611,44.4707,0.135101,1.33E-05
 ,3,612,44.5195,0.137543,1.38E-05
 ,3,613,44.5683,0.139954,1.44E-05
 ,3,614,44.6171,0.142395,1.49E-05
 ,3,615,44.6659,0.144836,1.55E-05
 ,3,616,44.7147,0.147247,1.61E-05
 ,3,617,44.7635,0.149658,1.67E-05
 ,3,618,44.8123,0.1521,1.74E-05
 ,3,619,44.8611,0.154541,1.80E-05
 ,3,620,44.9099,0.156952,1.87E-05
 ,3,621,44.9587,0.159393,1.94E-05
 ,3,622,45.0075,0.161804,2.01E-05
 ,3,623,45.0563,0.164246,2.09E-05
 ,3,624,45.1051,0.166656,2.17E-05
 ,3,625,45.1539,0.169098,2.25E-05
 ,3,626,45.2027,0.171539,2.33E-05
 ,3,627,45.2515,0.17395,2.42E-05
 ,3,628,45.3003,0.176392,2.51E-05
 ,3,629,45.3491,0.178833,2.60E-05
 ,3,630,45.3979,0.181244,2.69E-05
 ,3,631,45.4467,0.183685,2.79E-05
 ,3,632,45.4955,0.186096,2.89E-05
 ,3,633,45.5443,0.188538,3.00E-05
 ,3,634,45.5931,0.190948,3.10E-05
 ,3,635,45.6419,0.19339,3.22E-05
 ,3,636,45.6907,0.195801,3.33E-05
 ,3,637,45.7395,0.198242,3.45E-05
 ,3,638,45.7883,0.200684,3.58E-05
 ,3,639,45.8371,0.203094,3.70E-05
 ,3,640,45.8859,0.205536,3.83E-05
 ,3,641,45.9347,0.207947,3.97E-05
 ,3,642,45.9835,0.210388,4.11E-05
 ,3,643,46.0323,0.212799,4.25E-05
 ,3,644,46.0811,0.21524,4.40E-05
 ,3,645,46.1299,0.217682,4.55E-05
 ,3,646,46.1787,0.220093,4.71E-05
 ,3,647,46.2275,0.222534,4.87E-05
 ,3,648,46.2763,0.224945,5.04E-05
 ,3,649,46.3251,0.227386,5.21E-05
 ,3,650,46.3739,0.229797,5.39E-05
